SKU,Maximum allowed,Barcode/EAN,Days left
E0128BK/2,1,5055939904917       ,8
E0128BK/3,1,5055939904924       ,8
E0128BK/6,1,5055939904955       ,8
E0128BK/7,1,5055939904962       ,8
E1118BK/5,1,5055205389981       ,66
E1118BK/6,1,5055205389998       ,66
E1118BK/7,1,5055205390000       ,66
E1128BK/L-XL,2,5055205398617       ,66
E1128BK/S-M,1,5055205399164       ,66
E1165BK/5,2,5055939928869       ,66
E1165BK/6,2,5055939928876       ,66
E1183BK/5,1,5055939944241       ,66
E1183BK/6,1,5055939944258       ,66
E1183BK/7,1,5055939944265       ,66
E3108BK/4,1,5055939909295       ,66
E3108BK/5,1,5055939909301       ,66
E3108BK/6,1,5055939909318       ,66
E3108BK/7,1,5055939909325       ,66
E0004/L-XL,3,5055205300153       ,99
E1204GC/3,1,5055939950662       ,99
E1204GC/4,1,5055939950679       ,99
E1204GC/5,1,5055939950686       ,99
E1204GC/6,1,5055939950693       ,99
E1204GC/7,1,5055939950709       ,99
E4030BK/5,1,5055939917498       ,99
E5069BK/3,1,5055939951577       ,99
E5069BK/4,1,5055939951584       ,99
E5069BK/5,1,5055939951591       ,99
E5069BK/6,1,5055939951607       ,99
E8065BK/4,1,5055939919157       ,99
E8065BK/5,2,5055939919164       ,99
E8065BK/6,1,5055939919171       ,99
E9106WH/3,1,5055939935355       ,99
E1188BK/5,1,5055939944838       ,106
E0128BK/3,1,5055939904924       ,122
E1165BK/2,1,5055939936352       ,122
E1165BK/5,2,5055939928869       ,122
E1165BK/7,2,5055939928883       ,122
E1167BK/4,1,5055939929316       ,122
E1167BK/6,1,5055939929330       ,122
E3108BK/5,1,5055939909301       ,122
E8065BK/6,1,5055939919171       ,122
E9106WH/3,1,5055939935355       ,122
E9106WH/4,1,5055939935362       ,122
E9106WH/5,1,5055939935379       ,122
E9106WH/6,1,5055939935386       ,122
E9106WH/7,1,5055939935393       ,122
E1165BK/5,1,5055939928869       ,154
E1165BK/6,2,5055939928876       ,154
E5069BK/6,1,5055939951607       ,154
E6122BK/3,1,5055939932880       ,154
