SKU,Maximum allowed,Barcode/EAN,Days left
E1124KG/5,1,5055205397023       ,30
E1160RD/5,1,5055939928630       ,30
E1511BK/S-M,1,5055939930145       ,30
E3069BK/5,1,5055939904757       ,30
E3142RD/6,1,5055939931487       ,30
E6078BK/4,2,5055205386676       ,30
E6090CE/1,1,5055939910154       ,30
E9095YV/6,1,5055939918143       ,30
E9099CO/5,1,5055939925332       ,30
E9107BK/6,1,5055939935430       ,30
E3073BK/6,1,5055205360997       ,36
