SKU,Maximum allowed,Barcode/EAN,Days left
E0062/5,1,5055205323787       ,66
E0062/6,2,5055205323794       ,66
E8064BC/4,1,5055939936789       ,66
E8064BC/5,1,5055939936796       ,66
E8064KH/5,1,5055939916071       ,66
E8064KH/4,2,5055939916064       ,80
E9098CM/4,1,5055939925165       ,144
E1158BK/S-M,1,5055939928449       ,155
E3138GY/4,5,5055939930893       ,155
E3138GY/5,1,5055939930909       ,155
E3138GY/6,1,5055939930916       ,155
E6151GK/3,1,5055939950297       ,155
E6151GK/5,1,5055939950310       ,155
E3154GF/4,1,5055939956831       ,156
E5073GF/4,1,5055939949154       ,156
E0062/3,1,5055205323763       ,171
E0062/5,2,5055205323787       ,171
E0062/6,2,5055205323794       ,171
E7120BK/6,1,5055939915524       ,171
E8066BK/5,1,5055939916354       ,171
E8066BK/6,1,5055939916361       ,171
E8066KH/4,1,5055939916392       ,171
E8066KH/5,1,5055939916408       ,171
