SKU,Maximum allowed,Barcode/EAN,Days left
E0132BK/4,3,5055939915012       ,2
E0132BK/5,3,5055939915029       ,2
E0132NA/4,3,5055939915074       ,2
E0132NA/5,3,5055939915081       ,2
E1040BK/0,3,5055939916842       ,2
E1041WH/0,3,5055939919881       ,2
E1136BK/0,1,5055205399256       ,2
E6095BK/3,1,5055939901121       ,2
E6095BK/4,1,5055939901138       ,2
E6095BK/5,1,5055939901145       ,2
E6096BK/3,1,5055939901176       ,2
E6096BK/4,1,5055939901183       ,2
E6096BK/5,1,5055939901190       ,2
E6105CE/3,1,5055939918402       ,2
E6105CE/4,1,5055939918419       ,2
E6124BK/3,1,5055939933009       ,2
E6124BK/4,1,5055939933016       ,2
E6125BK/3,1,5055939933047       ,2
E6125BK/4,1,5055939933054       ,2
E6125BK/5,1,5055939933061       ,2
E6126BK/3,1,5055939933160       ,2
E6126BK/4,1,5055939933177       ,2
E6126BK/5,1,5055939933184       ,2
E6153BK/3,1,5055939953281       ,2
E6153BK/4,1,5055939953298       ,2
E6153BK/5,1,5055939953304       ,2
E6154RD/3,1,5055939953021       ,2
E6154RD/4,1,5055939953038       ,2
E6154RD/5,1,5055939953045       ,2
E8064GY/3,1,5055939916217       ,2
E8065BK/3,1,5055939919140       ,2
E8065BK/4,2,5055939919157       ,2
E9117BK/5,1,5055939942186       ,46
E0073,4,5055205338118       ,51
E0110BK,1,5055205367224       ,51
E0110BP/0,1,5055939959726       ,51
E0110PK,1,5055205367231       ,51
E0110RR/0,1,5055939959719       ,51
E0110UM,1,5055205367248       ,51
E0110YM/0,1,5055939959702       ,51
E0128BK/4,2,5055939904931       ,51
E0128BK/5,2,5055939904948       ,51
E0128BK/6,1,5055939904955       ,51
E0151GC/0,1,5055939960715       ,51
E0151GF/0,1,5055939960708       ,51
E0151RR/0,1,5055939960685       ,51
E1157BK/L-XL,1,5055939928418       ,51
E1157BK/S-M,1,5055939928425       ,51
E1160KH/4,1,5055939928562       ,51
E1160KH/5,1,5055939928579       ,51
E1160RD/4,1,5055939928623       ,51
E1160RD/5,1,5055939928630       ,51
E1168BK/4,1,5055939929484       ,51
E1168BK/5,1,5055939929491       ,51
E1168NA/4,1,5055939929583       ,51
E1168NA/5,1,5055939929590       ,51
E1170BK/0,1,5055939929828       ,51
E1170GY/0,1,5055939929835       ,51
E1170YV/0,1,5055939929842       ,51
E1181BK/4,1,5055939942520       ,51
E1181BK/5,1,5055939942537       ,51
E1184BK/4,1,5055939944432       ,51
E1184BK/5,1,5055939944449       ,51
E1184GF/4,1,5055939959573       ,51
E1184GF/5,1,5055939959580       ,51
E1185BK/5,2,5055939944548       ,51
E1185BK/6,1,5055939944555       ,51
E1185GV/5,2,5055939944593       ,51
E1185GV/6,1,5055939944609       ,51
E1187BK/4,1,5055939944777       ,51
E1187BK/5,1,5055939944784       ,51
E1188BK/5,2,5055939944838       ,51
E1188BK/6,2,5055939944845       ,51
E1188GV/5,2,5055939944883       ,51
E1188GV/6,2,5055939944890       ,51
E1188RD/5,2,5055939958767       ,51
E1188RD/6,2,5055939958774       ,51
E1192BK/0,2,5055939945316       ,51
E1195BK/M-L,1,5055939956503       ,51
E1195BK/S-M,1,5055939948829       ,51
E1202BK/L-XL,1,5055939949918       ,51
E1202BK/S-M,1,5055939949901       ,51
E1202GF/S-M,1,5055939949925       ,51
E1204BK/4,1,5055939950570       ,51
E1204BK/5,1,5055939950587       ,51
E1204GC/4,1,5055939950679       ,51
E1204GC/5,1,5055939950686       ,51
E1234BK/L-XL,1,5055939966823       ,51
E1234BK/S-M,2,5055939966816       ,51
E1234GF/L-XL,1,5055939966847       ,51
E1234GF/S-M,2,5055939966830       ,51
E1234RD/L-XL,1,5055939966861       ,51
E1234RD/S-M,2,5055939966854       ,51
E1504GV/S-M,1,5055205389684       ,51
E1505GY/S-M,1,5055939930114       ,51
E1505KH/S-M,1,5055939951294       ,51
E1505MB/M-L,1,5055939904481       ,51
E1505MB/S-M,1,5055939904498       ,51
E1505OR/S-M,1,5055939904528       ,51
E1505RD/S-M,1,5055939951263       ,51
E1505WH/S-M,1,5055939904566       ,51
E3123BK/4,1,5055939915333       ,51
E3123BK/5,1,5055939915340       ,51
E3123GF/4,1,5055939948508       ,51
E6108BK/3,1,5055939919591       ,51
E6108BK/4,1,5055939919607       ,51
E6108TL/3,1,5055939915821       ,51
E6108TL/4,1,5055939915838       ,51
E7128BK/0,1,5055939934419       ,51
E7128GY/0,1,5055939934426       ,51
E7128KH/0,1,5055939951324       ,51
E7129BU/K11,2,5055939956978       ,51
E7129BU/K13,2,5055939956985       ,51
E7131BK/K11,2,5055939949970       ,51
E8064BC/5,1,5055939936796       ,51
E8064BK/4,1,5055939915982       ,51
E8064BK/5,1,5055939915999       ,51
E8064GY/4,1,5055939916224       ,51
E8064KH/5,1,5055939916071       ,51
E8064NA/4,1,5055939950907       ,51
E8090AN/4,1,5055939944333       ,51
E8090AN/5,1,5055939944340       ,51
E8090AN/6,1,5055939944357       ,51
E8092BK/4,1,5055939948355       ,51
E8092BK/5,1,5055939948362       ,51
E8092BK/6,1,5055939948379       ,51
E8092GF/4,1,5055939948409       ,51
E8092GF/5,1,5055939948416       ,51
E8092GF/6,1,5055939948423       ,51
E9117BK/4,1,5055939942179       ,51
E9124NA/4,1,5055939944104       ,51
E9124PW/5,1,5055939944067       ,51
E9124PW/6,1,5055939944074       ,51
E9130AN/5,1,5055939945781       ,51
E9130NA/4,1,5055939943695       ,51
E9147GF/4,1,5055939959429       ,51
E9147NA/5,1,5055939959481       ,51
E9147RR/4,1,5055939959528       ,51
E9150CV/4,1,5055939960364       ,51
E9150GK/3,1,5055939960401       ,51
EM0053GF/5,1,5055939951416       ,51
EM0053OM/4,1,5055939925905       ,51
EM0057BK/4,1,5055939925950       ,51
E1196BK/M-L,1,5055939956510       ,58
E1196BK/S-M,1,5055939948867       ,58
E7131BK/K9,2,5055939949963       ,58
E9117OM/4,1,5055939942278       ,64
E9117OM/5,1,5055939942285       ,64
E8064BK/6,1,5055939916002       ,92
E0128YV/6,1,5055939909646       ,136
E1152BK/5,1,5055939923918       ,136
E1160BK/4,1,5055939928500       ,136
E1160BK/5,1,5055939928517       ,136
E1160RD/6,1,5055939928647       ,136
E1168BK/6,1,5055939929507       ,136
E1185BK/3,1,5055939944524       ,136
E1505BA/M-L,1,5055939978147       ,157
E1505GY/M-L,1,5055939930107       ,157
E1505KH/M-L,1,5055939951300       ,157
E1511KH/M-L,1,5055939950396       ,157
E1511WH/M-L,1,5055939930190       ,157
E7128GY/0,1,5055939934426       ,157
E7128KH/0,1,5055939951324       ,157
E7128OT/0,1,5055939977461       ,157
E0132BK/6,5,5055939915036       ,199
E0062/3,2,5055205323763       ,204
E0062/4,3,5055205323770       ,204
E0062/5,2,5055205323787       ,204
E1166BK/3,1,5055939929064       ,204
E1166BK/4,1,5055939929071       ,204
E1166BK/5,1,5055939929088       ,204
E1166BK/6,1,5055939929095       ,204
E1166PS/3,1,5055939974842       ,204
E1166PS/4,1,5055939974859       ,204
E1166PS/5,1,5055939974866       ,204
E1166PS/6,1,5055939974873       ,204
E1205BK/L-XL,2,5055939951812       ,204
E1205BK/S-M,2,5055939951805       ,204
E1205PS/L-XL,2,5055939974590       ,204
E1205PS/S-M,2,5055939974583       ,204
E1253LG/M-L,1,5055939971728       ,204
E1253LG/S-M,1,5055939971711       ,204
E1253OT/L-XL,1,5055939971766       ,204
E1253OT/M-L,1,5055939971759       ,204
E1256LG/M-L,1,5055939971872       ,204
E1256OT/M-L,1,5055939971902       ,204
E1264GK/L-XL,1,5055939977645       ,204
E1264GK/S-M,1,5055939977638       ,204
E1264RR/L-XL,1,5055939978420       ,204
E1264RR/S-M,1,5055939978413       ,204
E3167BK/L-XL,2,5055939954127       ,204
E3167BK/S-M,2,5055939954110       ,204
E3167WH/L-XL,2,5055939954073       ,204
E3167WH/S-M,2,5055939954066       ,204
E3190CG/3,1,5055939974231       ,204
E3190CG/4,1,5055939974248       ,204
E3190CG/5,1,5055939974255       ,204
E3191GK/3,1,5055939974415       ,204
E3191GK/4,1,5055939974422       ,204
E3191GK/5,1,5055939974439       ,204
E3191PS/3,1,5055939974477       ,204
E3191PS/4,1,5055939974484       ,204
E3191PS/5,1,5055939974491       ,204
E4068GY/3,1,5055939975412       ,204
E4068GY/4,1,5055939975429       ,204
E4068GY/5,1,5055939975436       ,204
E4068GY/6,1,5055939975443       ,204
E4070BK/M4,1,5055939979205       ,204
E4070BK/M5,1,5055939979212       ,204
E4070BK/M6,1,5055939979229       ,204
E6169BP/3,1,5055939973265       ,204
E6169BP/4,1,5055939973272       ,204
E6176GY/3,1,5055939976280       ,204
E6176GY/4,1,5055939976297       ,204
E6177BK/3,1,5055939976334       ,204
E6177BK/4,1,5055939976341       ,204
E6177BK/5,1,5055939976358       ,204
E6177CV/3,1,5055939976433       ,204
E6177CV/4,1,5055939976440       ,204
E6177CV/5,1,5055939976457       ,204
E6185BP/2,1,5055939976969       ,204
E6185BP/3,1,5055939976976       ,204
E6185BP/4,1,5055939976983       ,204
E6185CV/3,1,5055939977027       ,204
E6185CV/4,1,5055939977034       ,204
E6185CV/5,1,5055939977041       ,204
E6186GY/3,1,5055939976495       ,204
E6186GY/4,1,5055939976501       ,204
E7127BK/3,1,5055939934358       ,204
E7127BK/4,1,5055939934365       ,204
E7127BK/5,1,5055939934372       ,204
E7127RD/3,1,5055939934389       ,204
E7127RD/4,1,5055939934396       ,204
E7127RD/5,1,5055939934402       ,204
E7128BK/0,1,5055939934419       ,204
E7128GY/0,1,5055939934426       ,204
E7128KH/0,2,5055939951324       ,204
E7128OT/0,2,5055939977461       ,204
E8104BA/3,1,5055939972015       ,204
E8104BA/4,1,5055939972022       ,204
E8104BA/5,1,5055939972039       ,204
E8104BK/3,1,5055939972060       ,204
E8104BK/4,1,5055939972077       ,204
E8104BK/5,1,5055939972084       ,204
E8104BK/6,1,5055939972091       ,204
E9106BK/3,1,5055939935256       ,204
E9106BK/4,1,5055939935263       ,204
E9106BK/5,1,5055939935270       ,204
E9106BK/6,1,5055939935287       ,204
E9106CG/3,1,5055939974965       ,204
E9106CG/4,1,5055939974972       ,204
E9106CG/5,1,5055939974989       ,204
E9138GC/4,1,5055939949055       ,204
E9138RR/3,1,5055939960241       ,204
E9138RR/4,1,5055939960258       ,204
E9138RR/5,1,5055939960265       ,204
E1258GF/4,1,5055939972664       ,211
E1258GF/5,1,5055939972671       ,211
E1258OT/4,1,5055939972718       ,211
E1258OT/5,1,5055939972725       ,211
E1258YM/4,1,5055939972763       ,211
E1258YM/5,1,5055939972770       ,211
