INVOICE,SIN557659
YOUR REF,SOR337818
DATE,05/09/2018
VALUE,234


SKU,Qty,Value,Name,Colour,Size
E1037BK/M-L     ,2,44.80,Windchill II Leg Warmer,Black,M-L
E1037BK/L-XL    ,2,44.80,Windchill II Leg Warmer,Black,L-XL
E0068BK/4       ,2,44.80,Luminite Glove,Black,M
E0068BK/5       ,2,44.80,Luminite Glove,Black,L
E0068BK/6       ,2,44.80,Luminite Glove,Black,XL
DEL10           ,1,10.00,Delivery - Euro                    ,,
