SKU,Maximum allowed,Barcode/EAN,Days left
E1166BK/3,1,5055939929064       ,16
E1166BK/5,1,5055939929088       ,16
E1166BK/6,1,5055939929095       ,16
E3108BK/5,1,5055939909301       ,16
E8064GY/6,1,5055939916248       ,16
E9106BK/5,1,5055939935270       ,16
E0040CL,1,5055205301877       ,21
E1166BK/4,1,5055939929071       ,21
E9106BK/4,1,5055939935263       ,21
E1166BK/7,1,5055939929101       ,24
E4031BK/4,1,5055939916972       ,24
E0035/5,1,5055205301457       ,36
E1166BK/5,1,5055939929088       ,36
E1166BK/6,1,5055939929095       ,36
E3125NA/8,1,5055939950877       ,36
E4031BK/3,1,5055939916965       ,36
E1166BK/7,1,5055939929101       ,51
E8064GY/4,1,5055939916224       ,51
E9106BK/6,1,5055939935287       ,51
E9134YV/4,1,5055939943367       ,51
E0128BK/3,1,5055939904924       ,71
E1166BK/6,1,5055939929095       ,71
E9126YV/4,1,5055939943923       ,71
E9143BK/3,1,5055939957456       ,71
E0128BK/5,1,5055939904948       ,93
E1120WH/6,1,5055205390291       ,93
E3181BK/7,1,5055939958224       ,93
E3181RR/3,1,5055939958286       ,93
E3181RR/4,1,5055939958293       ,93
E3181RR/7,1,5055939958323       ,93
E6040BK/3,1,5055939904986       ,93
E6040BK/4,1,5055939904993       ,93
E8090AN/5,1,5055939944340       ,93
E9106BK/5,1,5055939935270       ,93
E9120KH/4,1,5055939943312       ,93
E9120KH/5,1,5055939943329       ,93
E9120KH/6,1,5055939943336       ,93
E9120KH/7,1,5055939943343       ,93
E3158BK/4,1,5055939942421       ,99
E3158BK/5,1,5055939942438       ,99
E3158BK/6,1,5055939942445       ,99
E5056BK/3,1,5055939941820       ,99
E5056BK/4,1,5055939941837       ,99
E5056BK/5,1,5055939941844       ,99
E0128BK/5,1,5055939904948       ,125
E9120BK/6,1,5055939943237       ,125
E9126YV/7,1,5055939943954       ,128
E1263BK/S-M,1,5055939977577       ,141
E3181RR/4,1,5055939958293       ,141
E1223BK/L-XL,1,5055939958613       ,152
E3178BK/5,1,5055939957883       ,152
E3181BK/6,1,5055939958217       ,152
E3181RR/6,1,5055939958316       ,152
E8090AN/6,1,5055939944357       ,152
E9120KH/6,1,5055939943336       ,152
E0078CL,1,5055205338521       ,174
E0128BK/3,1,5055939904924       ,174
E1120WH/4,1,5055205390277       ,174
E6040BK/2,1,5055939904979       ,174
E6040BK/3,1,5055939904986       ,174
E1120BK/4,1,5055205390222       ,204
E1216BK/4,1,5055939958354       ,204
E1216BK/5,1,5055939958361       ,204
E1263BK/L-XL,1,5055939977584       ,204
E6040BK/3,1,5055939904986       ,204
