SKU,Maximum allowed,Barcode/EAN,Days left
E1160BK/5,1,5055939928517       ,3
E1170BK/0,1,5055939929828       ,3
E9121NA/7,1,5055939943541       ,3
E5042BK/3,1,5055939917115       ,23
E5042BK/4,1,5055939917122       ,23
E0004/L-XL,1,5055205300153       ,30
E1039BK/L-XL,1,5055939906720       ,30
E1043BK/L-XL,1,5055939923871       ,30
E1184NA/5,1,5055939944494       ,30
E1506OM/L-XL,1,5055939926070       ,30
E8070NA/5,1,5055939918693       ,30
EM0054KH/5,1,5055939935744       ,30
EM0057NA/5,1,5055939926018       ,30
E1506GF/M-L,1,5055939948966       ,31
E8064GC/7,1,5055939951003       ,51
E1181BK/4,1,5055939942520       ,57
E1506NA/S-M,1,5055939922836       ,57
E9117BA/4,1,5055939942223       ,57
E0043WC,10,5055205324500       ,83
E0132MB/4,5,5055939922027       ,83
E0150BK/0,10,5055939936925       ,83
E0150NA/0,10,5055939936932       ,83
E0151KH/0,10,5055939936963       ,83
E1109BK/M-L,1,5055205388007       ,83
E1155BK/L-XL,1,5055939928388       ,83
E1194BU/L-XL,15,5055939946146       ,83
E1194BU/S-M,10,5055939946153       ,83
E3123GF/4,1,5055939948508       ,83
E3133GY/4,1,5055939924281       ,83
E8092GF/4,1,5055939948409       ,83
E1195BK/L-XL,2,5055939948836       ,103
E1195BK/M-L,2,5055939956503       ,103
E1195BK/S-M,2,5055939948829       ,103
E1196BK/M-L,4,5055939956510       ,103
E1196BK/S-M,2,5055939948867       ,103
E1506BK/L-XL,1,5055939920061       ,103
E1506BK/M-L,1,5055939920054       ,103
E1506GF/L-XL,1,5055939948973       ,103
E1506GF/M-L,1,5055939948966       ,103
E1506NA/L-XL,1,5055939922850       ,103
E1506NA/M-L,1,5055939922843       ,103
E1506WH/L-XL,1,5055939920092       ,103
E1506WH/M-L,1,5055939920085       ,103
E1506BK/S-M,1,5055939920047       ,109
E1506WH/S-M,1,5055939920078       ,109
E8092BK/4,1,5055939948355       ,117
E1109BK/M-L,1,5055205388007       ,123
E1109BK/S-M,1,5055205387994       ,123
E1158BK/L-XL,1,5055939928432       ,123
E1158BK/S-M,1,5055939928449       ,123
E1182BK/L-XL,1,5055939942629       ,123
E1182BK/S-M,1,5055939942612       ,123
E1196BK/M-L,1,5055939956510       ,123
E1204BK/4,1,5055939950570       ,123
E1204BK/5,1,5055939950587       ,123
E3173BK/4,1,5055939949604       ,123
E8070BK/4,1,5055939916729       ,123
E1168NA/4,1,5055939929583       ,128
E1168NA/5,1,5055939929590       ,128
E1506NA/L-XL,1,5055939922850       ,128
E1506NA/M-L,1,5055939922843       ,128
E5073BA/5,1,5055939949116       ,128
E8067NA/4,1,5055939949307       ,128
E1204GC/5,1,5055939950686       ,129
E3173BK/4,1,5055939949604       ,129
E8073BK/3,1,5055939924663       ,129
E1506BK/M-L,1,5055939920054       ,150
E3069BV/5,1,5055939941349       ,151
E9122BV/5,1,5055939945439       ,151
E7129BU/K11,2,5055939956978       ,157
E7129BU/K13,2,5055939956985       ,157
E7129BU/K9,2,5055939956961       ,157
E1195BK/M-L,1,5055939956503       ,167
E1196BK/M-L,1,5055939956510       ,167
E0150BK/0,1,5055939936925       ,172
E1170GY/0,1,5055939929835       ,172
E1197GC/0,1,5055939949031       ,172
E9124NA/5,1,5055939944111       ,174
E9125MY/3,1,5055939944159       ,174
E1138RD/0,2,5055939901381       ,185
E1138WH/0,2,5055939901374       ,185
E1160BK/4,1,5055939928500       ,185
E1166BK/4,1,5055939929071       ,185
E1166NA/5,1,5055939952741       ,185
E1168NA/4,1,5055939929583       ,185
E1170BK/0,2,5055939929828       ,185
E1170CL/0,2,5055939951331       ,185
E1170GY/0,2,5055939929835       ,185
E1170YV/0,2,5055939929842       ,185
E1171BK/0,2,5055939929859       ,185
E1171WH/0,2,5055939929866       ,185
E1174BK/0,3,5055939929972       ,185
E1174GY/0,3,5055939929989       ,185
E1199RR/4,1,5055939949703       ,185
E1205BK/L-XL,1,5055939951812       ,185
E1205BV/L-XL,2,5055939951836       ,185
E1205GK/L-XL,1,5055939956565       ,185
E1205NA/L-XL,1,5055939951850       ,185
E1205RD/L-XL,1,5055939951874       ,185
E1205WH/L-XL,1,5055939956541       ,185
E1215GF/0,2,5055939957173       ,185
E1505KH/M-L,1,5055939951300       ,185
E1505MB/M-L,2,5055939904481       ,185
E1506BK/M-L,1,5055939920054       ,185
E1506WH/M-L,1,5055939920085       ,185
E1511WH/M-L,1,5055939930190       ,185
E1512BK/M-L,1,5055939930220       ,185
E1512BV/M-L,2,5055939945019       ,185
E1512WH/M-L,2,5055939930251       ,185
E1513BK/M-L,2,5055939930282       ,185
E1513RD/M-L,1,5055939955025       ,185
E1517BK/M-L,1,5055939953397       ,185
E1517WH/M-L,1,5055939953458       ,185
E3133GF/4,1,5055939957135       ,185
E3154GF/4,1,5055939956831       ,185
E3158BK/4,1,5055939942421       ,185
E5066BK/4,1,5055939949253       ,185
E6106BK/3,1,5055939919492       ,185
E6127BP/4,1,5055939952796       ,185
E6127WH/4,1,5055939933375       ,185
E6130GY/3,1,5055939933603       ,185
E8064BC/5,1,5055939936796       ,185
E9106BK/4,1,5055939935263       ,185
E9113BV/4,1,5055939941189       ,185
E9117BK/4,1,5055939942179       ,185
E9120KH/4,1,5055939943312       ,185
E9126BV/4,1,5055939943879       ,185
E9127YV/3,1,5055939943978       ,185
E9130NA/4,1,5055939943695       ,185
E9137RD/4,1,5055939946320       ,185
E9138GC/4,1,5055939949055       ,185
E9140BK/4,1,5055939953489       ,185
E9124NA/6,1,5055939944128       ,186
E5068AN/4,1,5055939951355       ,187
E1138BK/0,1,5055939901367       ,193
E8074BK/3,1,5055939924717       ,194
E1138BK/0,4,5055939901367       ,195
E1267BK/3,1,5055939983271       ,214
