INVOICE,SIN605555
YOUR REF,SOR369497
DATE,07/05/2019
VALUE,97.64


SKU,Qty,Value,Name,Colour,Size
E3102RD/5       ,1,17.94,Hyperon Jersey,Red,L
E4029RD/5       ,1,39.90,Hyperon II Bibshort,Red,L
E1167BK/4       ,1,14.90,Hyperon Mitt II,Black,M
E1167BK/5       ,1,14.90,Hyperon Mitt II,Black,L
DEL10           ,1,10.00,Delivery - Euro                    ,,
