SKU,Maximum allowed,Barcode/EAN,Days left
E0004/S-M,3,5055205300160       ,4
E1042BK/L-XL,3,5055939923857       ,4
E1042BK/S-M,5,5055939923864       ,4
E1043BK/L-XL,1,5055939923871       ,4
E5056BK/5,3,5055939941844       ,4
E1043BK/L-XL,3,5055939923871       ,17
E1160BK/3,1,5055939928494       ,96
E1160BK/4,1,5055939928500       ,96
E1160BK/5,1,5055939928517       ,96
E1160BK/6,1,5055939928524       ,96
E1160BK/7,1,5055939928531       ,96
E1160RD/3,1,5055939928616       ,96
E1160RD/4,1,5055939928623       ,96
E1160RD/5,1,5055939928630       ,96
E1160RD/6,1,5055939928647       ,96
E1160RD/7,1,5055939928654       ,96
E1165BK/3,2,5055939928845       ,96
E1165BK/4,2,5055939928852       ,96
E1165BK/5,2,5055939928869       ,96
E1165BK/6,2,5055939928876       ,96
E1165BK/7,2,5055939928883       ,96
E1165GV/4,1,5055939928906       ,96
E1165GV/5,1,5055939928913       ,96
E1165GV/6,1,5055939928920       ,96
E1165RD/3,2,5055939929002       ,96
E1165RD/4,2,5055939929019       ,96
E1165RD/5,2,5055939929026       ,96
E1165RD/6,2,5055939929033       ,96
E1165RD/7,2,5055939929040       ,96
E3061W/3,2,5055205342467       ,96
E3061W/4,2,5055205342474       ,96
E3061W/5,2,5055205342481       ,96
E3061W/6,1,5055205342498       ,96
E3142BK/6,2,5055939931388       ,96
E3142NA/5,1,5055939952680       ,96
E3142RR/4,1,5055939952628       ,96
E4054BK/4,1,5055939953175       ,96
E4054BK/5,1,5055939953182       ,96
E4054BK/6,1,5055939953199       ,96
E4054BK/7,1,5055939953205       ,96
E4054RD/4,1,5055939953229       ,96
E4054RD/5,1,5055939953236       ,96
E4054RD/6,1,5055939953243       ,96
E4054RD/7,1,5055939953250       ,96
E5069BK/4,1,5055939951584       ,96
E5069BK/5,1,5055939951591       ,96
E5069GK/5,1,5055939951652       ,96
E7117BK/6,1,5055939917047       ,96
E7117NA/5,1,5055939955063       ,96
E7117RD/4,1,5055939917894       ,96
E7117RD/6,1,5055939917917       ,96
E7117WH/4,1,5055939917078       ,96
E7117WH/5,1,5055939917085       ,96
E8069BK/4,1,5055939916569       ,96
E8069BK/5,1,5055939916576       ,96
E8069BK/6,1,5055939916583       ,96
E8069NA/3,1,5055939919430       ,96
E8069NA/4,1,5055939919447       ,96
E8069NA/5,1,5055939919454       ,96
E8069NA/6,1,5055939919461       ,96
E1165BK/5,2,5055939928869       ,156
E1165BK/6,2,5055939928876       ,156
E1165RD/5,2,5055939929026       ,156
E1165RD/6,2,5055939929033       ,156
E5069GK/3,1,5055939951638       ,156
E4054BK/3,2,5055939953168       ,209
E4054BK/4,2,5055939953175       ,209
E4054BK/5,3,5055939953182       ,209
E4054BK/6,2,5055939953199       ,209
E6153BK/4,2,5055939953298       ,209
E6153BK/5,2,5055939953304       ,209
