SKU,Maximum allowed,Barcode/EAN,Days left
E7117BK/4,1,5055939917023       ,7
E8064BK/6,1,5055939916002       ,7
E8088BK/6,1,5055939943183       ,7
E8064BK/5,1,5055939915999       ,22
E8097GY/4,2,5055939950426       ,73
E8097GY/5,2,5055939950433       ,73
E8097GY/6,3,5055939950440       ,73
E8064BK/6,1,5055939916002       ,78
E8064GY/3,1,5055939916217       ,78
E4054BK/4,1,5055939953175       ,95
E4054BK/5,1,5055939953182       ,95
E7117BK/3,1,5055939917016       ,95
E7117BK/4,1,5055939917023       ,95
E7117BK/5,1,5055939917030       ,95
E7117BK/6,1,5055939917047       ,95
E8097GY/4,4,5055939950426       ,95
E8064BK/5,2,5055939915999       ,106
E8064BK/6,1,5055939916002       ,106
EU8045BK/4,1,5055205339078       ,169
E4054BK/4,1,5055939953175       ,181
E5056BK/6,1,5055939941851       ,181
E7117BK/4,1,5055939917023       ,181
E7117BK/6,1,5055939917047       ,181
E8064BK/4,1,5055939915982       ,181
E8064BK/5,1,5055939915999       ,181
E9130AN/4,1,5055939945774       ,181
E9130AN/3,1,5055939945767       ,188
E9130AN/5,2,5055939945781       ,188
E9130AN/6,1,5055939945798       ,188
E9130AN/3,1,5055939945767       ,189
