SKU,Maximum allowed,Barcode/EAN,Days left
E1038BK/L-XL,2,5055939906706       ,65
E1038BK/S-M,1,5055939906690       ,65
E1227BK/L-XL,2,5055939966311       ,65
E8075BK/6,1,5055939924793       ,65
E1227BK/S-M,1,5055939959405       ,75
E8074BK/4,1,5055939924724       ,75
E8070BK/4,1,5055939916729       ,83
E8070BK/5,2,5055939916736       ,83
E8070BK/6,1,5055939916743       ,83
E8086AN/5,2,5055939942803       ,83
E8086AN/6,2,5055939942810       ,83
E3158BK/4,1,5055939942421       ,89
E3158BK/5,1,5055939942438       ,89
E3158BK/6,1,5055939942445       ,89
E8074BK/5,1,5055939924731       ,89
E8074BK/6,1,5055939924748       ,89
E8084BK/5,2,5055939942384       ,89
E5050BK/7,1,5055939927749       ,107
E9145BK/4,1,5055939959092       ,107
E9145BK/6,1,5055939959115       ,107
E3158BK/4,1,5055939942421       ,128
E3158BK/5,1,5055939942438       ,128
E3158BK/6,1,5055939942445       ,128
E3158BK/7,2,5055939942452       ,128
E9145BK/3,1,5055939959085       ,132
E9145BK/4,1,5055939959092       ,132
E9145BK/5,1,5055939959108       ,132
E9145BK/6,1,5055939959115       ,132
E9145BK/7,2,5055939959122       ,132
E9117BK/4,2,5055939942179       ,135
E5056BK/8,1,5055939946443       ,200
E9145BK/4,1,5055939959092       ,200
