SKU,Maximum allowed,Barcode/EAN,Days left
E0120PV/L-XL,1,5055205390963       ,4
E0120PV/M-L,1,5055205390970       ,4
E0120PV/S-M,1,5055205390987       ,4
E0120YV/L-XL,1,5055205391205       ,4
E0120YV/M-L,1,5055205391199       ,4
E0120YV/S-M,1,5055205391182       ,4
E6110BK/3,2,5055939914671       ,4
E6110BK/4,1,5055939914688       ,4
E6110BK/5,2,5055939914695       ,4
E6110BK/6,1,5055939922331       ,4
E6130CR/3,1,5055939933566       ,4
E6130CR/4,1,5055939933573       ,4
E6130CR/5,1,5055939933580       ,4
E6130GY/4,1,5055939933610       ,4
E6130GY/5,1,5055939933627       ,4
E8067OC/4,1,5055939916514       ,4
E8067OC/5,2,5055939916521       ,4
E8067OC/6,2,5055939916538       ,4
E8067OC/7,2,5055939916545       ,4
E8070NA/4,1,5055939918686       ,4
E8070NA/5,2,5055939918693       ,4
E8070NA/6,2,5055939918709       ,4
E8070NA/7,1,5055939918716       ,4
E8078OM/4,1,5055939934761       ,4
E8078OM/5,1,5055939934778       ,4
E8078OM/6,1,5055939934785       ,4
E6078BK/3,1,5055205386669       ,71
E6078BK/6,1,5055939922300       ,71
E6110BK/6,1,5055939922331       ,71
E0062/4,2,5055205323770       ,188
E0062/5,2,5055205323787       ,188
E0062/6,2,5055205323794       ,188
E0062/8,1,5055205343792       ,188
E6107BK/3,1,5055939915784       ,188
E6107BK/4,1,5055939915791       ,188
E6107BK/5,1,5055939915807       ,188
E6107BK/6,1,5055939915746       ,188
