E0132BK/5,1
E1165BK/6,1
E1165GV/4,1
E1165GV/5,1
E1165OC/5,1
E1165OC/6,1
E1165RD/4,1
E1165RD/5,1
E1168BK/3,1
E1168PT/4,1
E1168PT/5,1
E3102GV/6,1
E3102RD/6,1
E3125BK/7,1
E4013BK/3,1
E4013BK/4,1
E4013BK/5,2
E4013BK/6,3
E4014BK/4,1
E4014BK/5,2
E7110BK/K7,1
E7117WH/4,1
E8064BK/4,1
E8064BK/5,1
E8064BK/7,1
E9026BK/5,1
E9063YV/6,1
EM0054NA/5,1
