E0007,1
E1042BK/L-XL,1
E1131BK/L-XL,3
E1131BK/S-M,1
E7124BK/5,1
E7124TL/5,1
E8025/3,1
E9026LG/6,1
E9026LG/7,1
E9063YV/5,1
E9063YV/6,1
E3138GY/6,1
E1160BK/3,1
E1160BK/4,1
E1160BK/5,1
E1160BK/7,1
E1160KH/5,1
E1160KH/6,1
E1160KH/7,1
E1160RD/6,1
E1160RD/7,1
E1162BK/4,1
E1165BK/4,1
E1165BK/5,1
E1165GV/6,1
E1165OC/4,1
E1165RD/6,1
E1166BK/3,1
E1166BK/4,1
E1166BK/6,1
E1168BK/5,1
E1168PT/3,1
E3102WH/6,1
E3125BK/7,1
E6090WB/5,1
E8064BK/3,1
E8064BK/4,1
E8064BK/6,1
EM0054NA/5,1
