SKU,Maximum allowed,Barcode/EAN,Days left
E6106CO/3,1,5055939951140       ,3
E6154RD/3,1,5055939953021       ,3
E8064NA/4,1,5055939950907       ,3
E8067NA/4,1,5055939949307       ,3
E8093BK/4,1,5055939948782       ,3
E8094AN/4,1,5055939949406       ,3
E9138GC/4,1,5055939949055       ,3
E1197GC/0,1,5055939949031       ,7
E1506GF/M-L,1,5055939948966       ,7
E8064GC/4,1,5055939950976       ,7
E8092BK/4,1,5055939948355       ,7
E8095AN/3,1,5055939950013       ,7
E8097NA/4,1,5055939950471       ,7
E7138BK/K9,1,5055939956169       ,17
E8070GF/4,1,5055939948454       ,17
E9141BV/4,1,5055939951461       ,17
E9117GF/4,1,5055939948157       ,25
E9137AN/4,1,5055939946276       ,55
E9106BV/5,1,5055939941394       ,77
E1505RD/M-L,1,5055939951270       ,86
E1511KH/M-L,1,5055939950396       ,86
E7128KH/0,1,5055939951324       ,86
E1195BK/S-M,1,5055939948829       ,106
E1181BK/5,1,5055939942537       ,111
E1184BK/5,1,5055939944449       ,111
E1184NA/5,1,5055939944494       ,111
E1506BK/M-L,1,5055939920054       ,111
E9117OM/5,1,5055939942285       ,111
E9119PW/5,1,5055939942940       ,111
E0043GK/0,1,5055939961385       ,195
E0110RR/0,1,5055939959719       ,195
E0151GC/0,1,5055939960715       ,195
E0151GF/0,1,5055939960708       ,195
E0152BK/L-XL,1,5055939958125       ,195
E0153BK/L-XL,1,5055939965970       ,195
E0154BK/L-XL,1,5055939965987       ,195
E1226BK/0,1,5055939959399       ,195
E1511RR/M-L,1,5055939959627       ,195
E3178BK/4,1,5055939957876       ,195
E3181NA/4,1,5055939958248       ,195
E3182AN/4,1,5055939959030       ,195
E3183RR/4,1,5055939960500       ,195
E6163BK/3,1,5055939958828       ,195
E6164RR/3,1,5055939958927       ,195
E6165BP/3,1,5055939960555       ,195
E7139BK/K9,1,5055939959221       ,195
E9106RD/4,1,5055939958644       ,195
E9138RR/4,1,5055939960258       ,195
E9143BK/4,1,5055939957463       ,195
E9148BK/4,1,5055939960005       ,195
