INVOICE,SIN572313
YOUR REF,SOR347212
DATE,19/11/2018
VALUE,280.5


SKU,Qty,Value,Name,Colour,Size
EU8045BK/6      ,1,39.00,Urban Stretch Trouser,Black,XL
EM0053NA/4      ,1,80.50,MTR Shell Jacket,Navy,M
EM0053NA/5      ,1,80.50,MTR Shell Jacket,Navy,L
EM0053NA/6      ,1,80.50,MTR Shell Jacket,Navy,XL
