SKU,Maximum allowed,Barcode/EAN,Days left
E0128BK/3,1,5055939904924       ,45
E0128BK/4,2,5055939904931       ,45
E0128BK/5,2,5055939904948       ,45
E0128BK/6,1,5055939904955       ,45
E0154BK/L-XL,2,5055939965987       ,45
E0154BK/S-M,2,5055939958149       ,45
E1042BK/L-XL,2,5055939923857       ,45
E1042BK/S-M,2,5055939923864       ,45
E1187BK/4,1,5055939944777       ,45
E1187BK/5,1,5055939944784       ,45
E1187BK/6,1,5055939944791       ,45
E1216BK/2,1,5055939958330       ,45
E1216BK/3,1,5055939958347       ,45
E1216BK/4,1,5055939958354       ,45
E1216BK/5,1,5055939958361       ,45
E1216BK/6,1,5055939958378       ,45
E1224BK/3,1,5055939958804       ,45
E1224BK/4,1,5055939966274       ,45
E1224BK/5,1,5055939966281       ,45
E1224BK/6,1,5055939966298       ,45
E1226BK/0,2,5055939959399       ,45
E3158BK/3,1,5055939942414       ,45
E3158BK/4,1,5055939942421       ,45
E3158BK/6,1,5055939942445       ,45
E3158BK/7,1,5055939942452       ,45
E3161BK/3,1,5055939944951       ,45
E3161BK/4,1,5055939944968       ,45
E3161BK/5,1,5055939944975       ,45
E3178BK/3,1,5055939957869       ,45
E3178BK/4,1,5055939957876       ,45
E3178BK/5,1,5055939957883       ,45
E3178BK/6,1,5055939957890       ,45
E3182AN/3,1,5055939959023       ,45
E3182AN/4,1,5055939959030       ,45
E3182AN/5,1,5055939959047       ,45
E3182AN/6,1,5055939959054       ,45
E3183BK/3,1,5055939959290       ,45
E3183BK/4,1,5055939959306       ,45
E3183BK/5,1,5055939959313       ,45
E5049BK/4,1,5055939924533       ,45
E5049BK/5,1,5055939924540       ,45
E5049BK/6,1,5055939924557       ,45
E6163BK/3,1,5055939958828       ,45
E6163BK/4,1,5055939958835       ,45
E9102RD/4,1,5055939925479       ,45
E9102RD/5,1,5055939925486       ,45
E9102RD/6,1,5055939925493       ,45
E9143BK/3,1,5055939957456       ,45
E9143BK/4,1,5055939957463       ,45
E9143BK/5,1,5055939957470       ,45
E9143BK/6,1,5055939957487       ,45
E9148BK/3,1,5055939959993       ,45
E9148BK/4,1,5055939960005       ,45
E9148BK/5,1,5055939960012       ,45
E9148BK/6,1,5055939960029       ,45
E3158BK/5,1,5055939942438       ,61
E9114BK/3,1,5055939941721       ,61
E9114BK/4,1,5055939941738       ,61
E9114BK/5,1,5055939941745       ,61
E9114BV/4,1,5055939941783       ,61
E9143GK/4,1,5055939957517       ,61
E1224BK/4,2,5055939966274       ,76
E1224BK/7,1,5055939966304       ,76
E3161BK/4,1,5055939944968       ,76
E3161BK/5,1,5055939944975       ,76
E9095YV/5,1,5055939918136       ,76
E9148BK/4,1,5055939960005       ,76
E9148BK/7,1,5055939960036       ,76
E0154BK/S-M,1,5055939958149       ,94
E1182BK/L-XL,2,5055939942629       ,94
E1182BK/S-M,1,5055939942612       ,94
E1187BK/5,1,5055939944784       ,94
E1187BK/7,1,5055939944807       ,94
E1216BK/4,1,5055939958354       ,94
E1216BK/5,2,5055939958361       ,94
E1224BK/3,1,5055939958804       ,94
E1224BK/4,1,5055939966274       ,94
E1224BK/5,2,5055939966281       ,94
E1224BK/6,1,5055939966298       ,94
E1226BK/0,1,5055939959399       ,94
E1227BK/L-XL,2,5055939966311       ,94
E1227BK/S-M,2,5055939959405       ,94
E3029/3,1,5055205304229       ,94
E3029/4,1,5055205304236       ,94
E3029/5,1,5055205304243       ,94
E5049BK/5,2,5055939924540       ,94
E5049BK/7,1,5055939924564       ,94
E6032/5,1,5055205307282       ,94
E1117BK/4,1,5055205390123       ,95
E1117BK/5,2,5055205390130       ,95
E1117BK/6,2,5055205390147       ,95
E1117BK/7,2,5055205390154       ,95
E1120BK/4,1,5055205390222       ,95
E1120BK/5,2,5055205390239       ,95
E1120BK/6,2,5055205390246       ,95
E1120BK/7,1,5055205390253       ,95
E9142BK/4,1,5055939957364       ,95
E9142BK/5,1,5055939957371       ,95
E3133GF/3,1,5055939957128       ,104
E9113BV/4,1,5055939941189       ,104
E9113BV/5,1,5055939941196       ,104
E9137AN/3,1,5055939946269       ,104
E1224BK/6,1,5055939966298       ,118
E1505BA/M-L,1,5055939978147       ,184
E1505KH/M-L,1,5055939951300       ,184
E1505MB/M-L,2,5055939904481       ,184
E1505WH/M-L,1,5055939904559       ,184
E1511BK/M-L,1,5055939930138       ,184
E1513BK/M-L,1,5055939930282       ,184
E1513BV/M-L,1,5055939966588       ,184
E1513WH/M-L,1,5055939930343       ,184
E1165BK/4,1,5055939928852       ,198
E1165BK/5,1,5055939928869       ,198
E1165BK/6,1,5055939928876       ,198
E1165BK/7,1,5055939928883       ,198
E1166BK/4,1,5055939929071       ,198
E1166BK/5,1,5055939929088       ,198
E1166BK/6,1,5055939929095       ,198
E1166BK/7,1,5055939929101       ,198
E1166WH/4,1,5055939929255       ,198
E1166WH/5,1,5055939929262       ,198
E1166WH/6,1,5055939929279       ,198
E1166WH/7,1,5055939929286       ,198
E1234BK/L-XL,2,5055939966823       ,198
E1234BK/S-M,2,5055939966816       ,198
E1234RD/L-XL,2,5055939966861       ,198
E1234RD/S-M,2,5055939966854       ,198
E1259GK/4,1,5055939975665       ,198
E1259GK/5,1,5055939975672       ,198
E1259GK/6,1,5055939975689       ,198
E1259GK/7,1,5055939975696       ,198
E1259PS/4,1,5055939975726       ,198
E1259PS/5,1,5055939975733       ,198
E1259PS/6,1,5055939975740       ,198
E1259PS/7,1,5055939975757       ,198
E1264GK/L-XL,2,5055939977645       ,198
E1264GK/S-M,2,5055939977638       ,198
E1264RR/L-XL,2,5055939978420       ,198
E1264RR/S-M,2,5055939978413       ,198
E3125CC/3,1,5055939972503       ,198
E3125CC/4,1,5055939972510       ,198
E3125NA/5,1,5055939950846       ,198
E3125NA/6,1,5055939950853       ,198
E3167WH/L-XL,2,5055939954073       ,198
E3167WH/S-M,2,5055939954066       ,198
E3177BK/4,1,5055939957715       ,198
E3177BK/5,1,5055939957722       ,198
E3177GK/5,1,5055939957777       ,198
E3177GK/6,1,5055939957784       ,198
E3190CG/4,1,5055939974248       ,198
E3190CG/5,1,5055939974255       ,198
E3190PS/5,1,5055939974316       ,198
E3190PS/6,1,5055939974323       ,198
E3193BK/4,1,5055939975788       ,198
E3193BK/5,1,5055939975795       ,198
E3193YV/6,1,5055939975863       ,198
E3193YV/7,1,5055939975870       ,198
E4068GY/3,1,5055939975412       ,198
E4068GY/4,2,5055939975429       ,198
E4068GY/5,2,5055939975436       ,198
E4068GY/6,1,5055939975443       ,198
E4068GY/7,1,5055939975450       ,198
E4070BK/M3,1,5055939979199       ,198
E4070BK/M4,2,5055939979205       ,198
E4070BK/M5,2,5055939979212       ,198
E4070BK/M6,1,5055939979229       ,198
E5069GK/4,1,5055939951645       ,198
E5069GK/5,1,5055939951652       ,198
E6132BK/3,1,5055939933726       ,198
E6132BK/4,1,5055939933733       ,198
E6132BK/5,1,5055939933740       ,198
E6171BK/3,1,5055939973562       ,198
E6171BK/4,1,5055939973579       ,198
E6171BP/4,1,5055939973623       ,198
E6171BP/5,1,5055939973630       ,198
E6176GY/3,1,5055939976280       ,198
E6176GY/4,1,5055939976297       ,198
E6176GY/5,1,5055939976303       ,198
E6187CC/3,1,5055939977485       ,198
E6187CC/4,1,5055939977492       ,198
E6187GK/4,1,5055939977546       ,198
E6187GK/5,1,5055939977553       ,198
E7117BK/4,1,5055939917023       ,198
E7117BK/5,1,5055939917030       ,198
E7117BK/6,1,5055939917047       ,198
E8097NA/4,1,5055939950471       ,198
E8097NA/5,1,5055939950488       ,198
E8097NA/6,1,5055939950495       ,198
E8104BA/3,1,5055939972015       ,198
E8104BA/4,1,5055939972022       ,198
E8104BA/5,1,5055939972039       ,198
E9151BK/4,1,5055939975900       ,198
E9151BK/5,1,5055939975917       ,198
E9151YV/6,1,5055939975986       ,198
E9151YV/7,1,5055939975993       ,198
