SKU,Maximum allowed,Barcode/EAN,Days left
E1513BK/L-XL,2,5055939930275       ,0
E1513BK/M-L,1,5055939930282       ,0
E1513RD/M-L,2,5055939955025       ,0
E1517BK/L-XL,1,5055939953403       ,0
E1517RD/M-L,1,5055939953427       ,0
E3125BK/6,1,5055939915418       ,0
E3125RD/5,1,5055939919270       ,0
E1165BK/6,2,5055939928876       ,37
E1165BK/7,1,5055939928883       ,37
E1165RD/7,1,5055939929040       ,37
E3142NA/5,1,5055939952680       ,37
E7117BK/3,1,5055939917016       ,37
E7117NA/3,1,5055939955049       ,37
E7117RD/4,1,5055939917894       ,37
E7117RD/5,1,5055939917900       ,37
E0116PK,4,5055205381046       ,51
E0128BK/3,1,5055939904924       ,51
E0128BK/4,2,5055939904931       ,51
E0128BK/5,2,5055939904948       ,51
E0152BK/L-XL,2,5055939958125       ,51
E0152BK/S-M,1,5055939958118       ,51
E0154BK/L-XL,2,5055939965987       ,51
E0154BK/S-M,2,5055939958149       ,51
E1038BK/L-XL,2,5055939906706       ,51
E1038BK/S-M,2,5055939906690       ,51
E1039BK/L-XL,2,5055939906720       ,51
E1039BK/S-M,2,5055939906713       ,51
E1117BK/4,1,5055205390123       ,51
E1117BK/5,1,5055205390130       ,51
E1117BK/6,1,5055205390147       ,51
E1117BK/7,1,5055205390154       ,51
E1120BK/4,1,5055205390222       ,51
E1120BK/5,1,5055205390239       ,51
E1120BK/6,1,5055205390246       ,51
E1120BK/7,1,5055205390253       ,51
E1181BK/3,1,5055939942513       ,51
E1181BK/7,1,5055939942551       ,51
E1185BK/4,2,5055939944531       ,51
E1185BK/6,1,5055939944555       ,51
E1185BK/7,1,5055939944562       ,51
E1199NA/4,1,5055939949758       ,51
E1199NA/5,1,5055939949765       ,51
E1199NA/6,1,5055939949772       ,51
E1199NA/7,1,5055939949789       ,51
E1223BK/L-XL,2,5055939958613       ,51
E1223BK/S-M,2,5055939958606       ,51
E1225BK/L-XL,1,5055939959207       ,51
E1226GK/0,2,5055939960593       ,51
E1227GK/L-XL,1,5055939966328       ,51
E1227RR/L-XL,1,5055939966335       ,51
E1227RR/S-M,1,5055939960609       ,51
E1234GF/L-XL,1,5055939966847       ,51
E1234GF/S-M,1,5055939966830       ,51
E1234RD/L-XL,1,5055939966861       ,51
E1234RD/S-M,1,5055939966854       ,51
E1505GY/M-L,1,5055939930107       ,51
E1505GY/S-M,1,5055939930114       ,51
E1505MB/M-L,1,5055939904481       ,51
E1505WH/S-M,1,5055939904566       ,51
E1511WH/M-L,1,5055939930190       ,51
E1511WH/S-M,1,5055939930206       ,51
E1517RD/S-M,1,5055939953410       ,51
E1517WH/M-L,1,5055939953458       ,51
E3158BK/3,1,5055939942414       ,51
E3158BK/4,1,5055939942421       ,51
E3158BK/5,1,5055939942438       ,51
E3158BK/6,1,5055939942445       ,51
E3177GK/3,1,5055939957753       ,51
E3177GK/4,1,5055939957760       ,51
E3177GK/5,1,5055939957777       ,51
E3177GK/6,1,5055939957784       ,51
E3178BK/5,1,5055939957883       ,51
E3178BK/6,1,5055939957890       ,51
E3183GK/3,1,5055939960449       ,51
E3183GK/4,1,5055939960456       ,51
E3183GK/5,1,5055939960463       ,51
E5049BK/3,2,5055939924526       ,51
E5049BK/4,2,5055939924533       ,51
E5049BK/5,2,5055939924540       ,51
E5049BK/6,2,5055939924557       ,51
E5056BK/3,2,5055939941820       ,51
E5056BK/4,2,5055939941837       ,51
E5056BK/5,2,5055939941844       ,51
E5056BK/6,2,5055939941851       ,51
E5068AN/3,1,5055939951348       ,51
E5068AN/4,1,5055939951355       ,51
E5068AN/5,1,5055939951362       ,51
E5068AN/6,1,5055939951379       ,51
E6040BK/3,1,5055939904986       ,51
E6040BK/4,2,5055939904993       ,51
E6040BK/5,2,5055939905006       ,51
E6146BK/2,1,5055939942070       ,51
E6146BK/3,1,5055939942087       ,51
E6146BK/4,1,5055939942094       ,51
E8064GC/3,1,5055939950969       ,51
E8064GC/4,1,5055939950976       ,51
E8064GC/5,1,5055939950983       ,51
E8064GC/6,1,5055939950990       ,51
E9120YV/3,1,5055939943251       ,51
E9120YV/4,1,5055939943268       ,51
E9120YV/6,1,5055939943282       ,51
E9142BK/4,1,5055939957364       ,51
E9142BK/5,1,5055939957371       ,51
E9143BK/3,1,5055939957456       ,51
E9143BK/4,1,5055939957463       ,51
E9143BK/5,1,5055939957470       ,51
E9143BK/6,1,5055939957487       ,51
E9148BK/3,1,5055939959993       ,51
E9148BK/4,1,5055939960005       ,51
E9148BK/5,1,5055939960012       ,51
E9148BK/6,1,5055939960029       ,51
EM0055BK/3,1,5055939918778       ,51
EM0055BK/4,1,5055939918785       ,51
EM0055BK/5,1,5055939918792       ,51
EM0055BK/6,1,5055939918808       ,51
EM0055NA/4,1,5055939915128       ,51
EM0055NA/5,1,5055939915135       ,51
EM0055NA/6,1,5055939915142       ,51
E0128BK/6,2,5055939904955       ,56
E0128BK/7,1,5055939904962       ,56
E1181BK/4,2,5055939942520       ,56
E1181BK/5,2,5055939942537       ,56
E1181BK/6,1,5055939942544       ,56
E1185BK/5,2,5055939944548       ,56
E1505KH/M-L,1,5055939951300       ,56
E1505WH/L-XL,1,5055939904542       ,56
E1511KH/M-L,1,5055939950396       ,56
E3178BK/3,1,5055939957869       ,56
E3178BK/4,1,5055939957876       ,56
E3178BK/7,1,5055939957906       ,56
E3181NA/3,1,5055939958231       ,56
E3181NA/4,1,5055939958248       ,56
E3181NA/5,1,5055939958255       ,56
E3181NA/6,1,5055939958262       ,56
E6164GK/3,1,5055939958873       ,56
E6164GK/4,1,5055939958880       ,56
E1165RD/7,1,5055939929040       ,63
E1225BK/M-L,1,5055939959191       ,63
E1227GK/S-M,1,5055939960616       ,63
E1505OR/M-L,1,5055939904511       ,63
E1505RD/M-L,1,5055939951270       ,63
E6126BK/3,1,5055939933160       ,63
E6126CO/3,1,5055939933245       ,63
E1504GV/M-L,1,5055205389691       ,70
E9120YV/5,1,5055939943275       ,70
E9134YV/3,1,5055939943350       ,112
E9134YV/5,1,5055939943374       ,112
E1504GV/L-XL,1,5055205389707       ,113
E9143BK/3,1,5055939957456       ,113
E9143BK/5,1,5055939957470       ,113
E9143BK/6,1,5055939957487       ,113
E3167WH/S-M,1,5055939954066       ,115
E1181BK/6,1,5055939942544       ,135
E3183GK/3,1,5055939960449       ,135
E3183GK/4,1,5055939960456       ,135
E4029BK/2,1,5055939909912       ,135
E6040BK/3,1,5055939904986       ,135
E6040BK/4,2,5055939904993       ,135
E6147CE/4,2,5055939945484       ,135
E3177BK/4,1,5055939957715       ,144
E3177GK/7,2,5055939957791       ,144
E9148BK/6,1,5055939960029       ,144
E1145BK/3,1,5055939908182       ,182
E1145BK/5,1,5055939908205       ,182
E1181BK/6,1,5055939942544       ,182
E1181BK/7,1,5055939942551       ,182
E1226BK/0,2,5055939959399       ,182
E9124PW/4,1,5055939944050       ,182
E1121BK/0,1,5055205393278       ,186
E9127BV/6,1,5055939945217       ,196
E9143BK/4,1,5055939957463       ,196
E9143BK/5,1,5055939957470       ,196
E1161BK/3,1,5055939928678       ,219
E1161BK/4,1,5055939928685       ,219
E1161BK/5,1,5055939928692       ,219
E1161BK/7,1,5055939928715       ,219
E1161RD/3,1,5055939928739       ,219
E1161RD/4,1,5055939928746       ,219
E1161RD/5,1,5055939928753       ,219
E1161RD/6,1,5055939928760       ,219
E1161RD/7,1,5055939928777       ,219
E1166BK/3,1,5055939929064       ,219
E1166BK/4,1,5055939929071       ,219
E1166BK/5,1,5055939929088       ,219
E1166BK/6,1,5055939929095       ,219
E1166BK/7,1,5055939929101       ,219
E1166NA/3,1,5055939952727       ,219
E1166NA/4,1,5055939952734       ,219
E1166NA/5,1,5055939952741       ,219
E1166NA/6,1,5055939952758       ,219
E1166NA/7,1,5055939952765       ,219
E1168BK/3,1,5055939929477       ,219
E1168BK/4,1,5055939929484       ,219
E1168BK/5,1,5055939929491       ,219
E1168BK/6,1,5055939929507       ,219
E1168BK/7,1,5055939929514       ,219
E1168NA/4,1,5055939929583       ,219
E1168NA/5,1,5055939929590       ,219
E1168NA/6,1,5055939929606       ,219
E1168NA/7,1,5055939929613       ,219
E1258BA/4,1,5055939972565       ,219
E1258BA/5,1,5055939972572       ,219
E1258BA/6,1,5055939972589       ,219
E1258BA/7,1,5055939972596       ,219
E1258BK/3,1,5055939972602       ,219
E1258BK/4,1,5055939972619       ,219
E1258BK/5,1,5055939972626       ,219
E1258BK/6,1,5055939972633       ,219
E1258BK/7,1,5055939972640       ,219
E1259GK/3,1,5055939975658       ,219
E1259GK/4,1,5055939975665       ,219
E1259GK/5,1,5055939975672       ,219
E1259GK/6,1,5055939975689       ,219
E1259GK/7,1,5055939975696       ,219
E1259PS/3,1,5055939975719       ,219
E1259PS/4,1,5055939975726       ,219
E1259PS/5,1,5055939975733       ,219
E1259PS/6,1,5055939975740       ,219
E1259PS/7,1,5055939975757       ,219
E1505BA/L-XL,2,5055939978154       ,219
E1505BA/M-L,3,5055939978147       ,219
E1505MB/L-XL,2,5055939904474       ,219
E1505MB/M-L,2,5055939904481       ,219
E1505WH/L-XL,2,5055939904542       ,219
E1505WH/M-L,5,5055939904559       ,219
E1511BA/L-XL,2,5055939971643       ,219
E1511BA/M-L,2,5055939971636       ,219
E1511BK/L-XL,3,5055939930121       ,219
E1511BK/M-L,3,5055939930138       ,219
E1511WH/L-XL,3,5055939930183       ,219
E1511WH/M-L,3,5055939930190       ,219
E1513BK/L-XL,1,5055939930275       ,219
E1513BK/M-L,3,5055939930282       ,219
E1513BV/M-L,1,5055939966588       ,219
E1513RD/L-XL,1,5055939952833       ,219
E1513RD/M-L,3,5055939955025       ,219
E1517BK/L-XL,1,5055939953403       ,219
E1517BK/M-L,1,5055939953397       ,219
E1517RD/M-L,3,5055939953427       ,219
E1517WH/L-XL,1,5055939953465       ,219
E1517WH/M-L,1,5055939953458       ,219
E3190CG/3,1,5055939974231       ,219
E3190CG/4,1,5055939974248       ,219
E3190CG/5,1,5055939974255       ,219
E3191GK/3,1,5055939974415       ,219
E3191GK/4,1,5055939974422       ,219
E3191GK/5,1,5055939974439       ,219
E3191GK/6,1,5055939974446       ,219
E3191PS/4,1,5055939974484       ,219
E3191PS/5,1,5055939974491       ,219
E4068BV/3,1,5055939975474       ,219
E4068BV/4,1,5055939975481       ,219
E4068BV/5,1,5055939975498       ,219
E4068BV/6,1,5055939975504       ,219
E4068GY/3,1,5055939975412       ,219
E4068GY/4,1,5055939975429       ,219
E4068GY/5,1,5055939975436       ,219
E4068GY/6,1,5055939975443       ,219
E4069GY/3,1,5055939975535       ,219
E4069GY/4,1,5055939975542       ,219
E4069GY/5,1,5055939975559       ,219
E4069GY/6,1,5055939975566       ,219
E4069GY/7,1,5055939975573       ,219
E5069BK/4,1,5055939951584       ,219
E5069BK/5,1,5055939951591       ,219
E5069GK/4,1,5055939951645       ,219
E5069GK/5,1,5055939951652       ,219
E6124BK/2,1,5055939932996       ,219
E6124BK/3,1,5055939933009       ,219
E6124BK/4,1,5055939933016       ,219
E6124BK/5,1,5055939933023       ,219
E6132BK/2,1,5055939933719       ,219
E6132BK/3,1,5055939933726       ,219
E6132BK/4,1,5055939933733       ,219
E6132BK/5,1,5055939933740       ,219
E6171BK/3,1,5055939973562       ,219
E6171BK/4,1,5055939973579       ,219
E6171BK/5,1,5055939973586       ,219
E6174WH/3,1,5055939976167       ,219
E6174WH/4,1,5055939976174       ,219
E6174WH/5,1,5055939976181       ,219
E6175GY/2,1,5055939976211       ,219
E6175GY/3,1,5055939976228       ,219
E6175GY/4,1,5055939976235       ,219
E6175GY/5,1,5055939976242       ,219
E6177BK/3,1,5055939976334       ,219
E6177BK/4,1,5055939976341       ,219
E6177BK/5,1,5055939976358       ,219
E6177CV/3,1,5055939976433       ,219
E6177CV/4,1,5055939976440       ,219
E6177CV/5,1,5055939976457       ,219
E7117NA/3,1,5055939955049       ,219
E7118BK/3,1,5055939914879       ,219
E7135BK/3,1,5055939953113       ,219
E7135BK/5,1,5055939953137       ,219
E7135BK/6,1,5055939953144       ,219
E7135BK/7,1,5055939953151       ,219
E8097GY/4,1,5055939950426       ,219
E8097GY/5,1,5055939950433       ,219
E8097GY/6,1,5055939950440       ,219
E8097NA/3,1,5055939950464       ,219
E8097NA/4,1,5055939950471       ,219
E8097NA/5,1,5055939950488       ,219
E8097NA/6,1,5055939950495       ,219
E8104BA/4,1,5055939972022       ,219
E8104BA/5,1,5055939972039       ,219
E8104BK/4,1,5055939972077       ,219
E8104BK/5,1,5055939972084       ,219
