SKU,Maximum allowed,Barcode/EAN,Days left
E1518GF/L-XL,1,5055939948935       ,42
E1143BK/0,1,5055939905365       ,71
E1511KH/M-L,2,5055939950396       ,71
E8091BK/6,1,5055939948270       ,99
E8067OC/3,1,5055939916507       ,126
E5057BK/5,1,5055939942131       ,127
E5057BK/6,1,5055939942148       ,127
E3158OM/7,1,5055939942506       ,128
E8091BK/3,1,5055939948249       ,148
E3105OC/6,6,5055205399058       ,156
