INVOICE,SIN441090
YOUR REF,SOR260110
DATE,08/12/2016
VALUE,410


SKU,Qty,Value,Name,Colour,Size
E9078NA/5       ,1,112.20,MT500 Waterproof Jacket II,Navy,L
E9065OC/7       ,1,56.10,Windchill II Jacket,Ocean,XXL
E9065BK/5       ,1,56.10,Windchill II Jacket,Black,L
E9065BK/6       ,1,56.10,Windchill II Jacket,Black,XL
E4027BK/5       ,1,18.50,6-Panel Short II,Black,L
E4027BK/6       ,1,18.50,6-Panel Short II,Black,XL
E4027BK/7       ,1,18.50,6-Panel Short II,Black,XXL
E0095/4         ,1,18.50,FS260-Pro Nemo Glove,Black/None,M
E0095/5         ,2,37.00,FS260-Pro Nemo Glove,Black/None,L
E0095/6         ,1,18.50,FS260-Pro Nemo Glove,Black/None,XL
