INVOICE,SIN605454
YOUR REF,SOR369230
DATE,07/05/2019
VALUE,76.22


SKU,Qty,Value,Name,Colour,Size
E7121BK/K7      ,1,12.18,Kids MT500JR L/S T,Black,7-8yrs
E7122BK/K7      ,1,20.93,Kids MT500JR Short,Black,7-8yrs
E7121RD/K7      ,1,12.18,Kids MT500JR L/S T,Red,7-8yrs
E7122TL/K7      ,1,20.93,Kids MT500JR Short,Teal,7-8yrs
DEL10           ,1,10.00,Delivery - Euro                    ,,
