SKU,Maximum allowed,Barcode/EAN,Days left
E1161BK/5,2,5055939928692       ,30
E1161BK/6,1,5055939928708       ,30
E1168NA/4,2,5055939929583       ,30
E1168NA/5,1,5055939929590       ,30
E7127RD/3,2,5055939934389       ,30
E7127RD/4,2,5055939934396       ,30
E7127RD/5,2,5055939934402       ,30
E8064BC/5,1,5055939936796       ,59
E8064BC/6,1,5055939936802       ,59
E8064GY/7,1,5055939916255       ,59
E8064NA/6,1,5055939950921       ,59
E1161BK/2,2,5055939928661       ,86
E1161BK/3,2,5055939928678       ,86
E1161BK/4,3,5055939928685       ,86
E1161BK/5,3,5055939928692       ,86
E1161BK/6,1,5055939928708       ,86
E1199NA/4,2,5055939949758       ,86
E1199NA/5,2,5055939949765       ,86
E1204BK/3,1,5055939950563       ,86
E1204BK/6,1,5055939950594       ,86
E1204GC/3,1,5055939950662       ,86
E1204GC/4,2,5055939950679       ,86
E0128BK/3,1,5055939904924       ,137
E0128BK/5,2,5055939904948       ,137
E1043BK/L-XL,2,5055939923871       ,137
E1043BK/S-M,1,5055939923888       ,137
E1182BK/L-XL,1,5055939942629       ,137
E1184BK/3,2,5055939944425       ,137
E1184BK/4,2,5055939944432       ,137
E1184BK/5,2,5055939944449       ,137
E1184BK/6,1,5055939944456       ,137
E6040BK/4,2,5055939904993       ,137
E6040BK/5,2,5055939905006       ,137
E0128BK/5,2,5055939904948       ,162
E0128YV/5,1,5055939909639       ,162
E0128YV/6,1,5055939909646       ,162
E1184GF/4,2,5055939959573       ,162
E1184GF/5,2,5055939959580       ,162
E1184GF/6,1,5055939959597       ,162
E1184NA/6,1,5055939944500       ,162
E9117CC/5,1,5055939960944       ,162
E9117CC/6,1,5055939960951       ,162
E1184GF/5,4,5055939959580       ,212
E6040BK/2,1,5055939904979       ,212
E6040BK/3,1,5055939904986       ,212
E6040BK/4,1,5055939904993       ,212
E6066BK/2,1,5055205363721       ,212
E6066BK/3,1,5055205363738       ,212
E7112BK/K11,2,5055205390642       ,212
E7112BK/K7,2,5055205390659       ,212
