SKU,Maximum allowed,Barcode/EAN,Days left
E1165BK/5,1,5055939928869       ,95
E1165BK/6,1,5055939928876       ,95
E1165GV/6,1,5055939928920       ,95
E1165OC/5,1,5055939928968       ,95
E1165OC/6,1,5055939928975       ,95
E1165OC/7,1,5055939928982       ,95
E1165RD/4,1,5055939929019       ,95
E1165RD/5,1,5055939929026       ,95
E1165RD/6,1,5055939929033       ,95
E1165RD/7,1,5055939929040       ,95
E1186GV/6,1,5055939944708       ,95
E1216BK/5,1,5055939958361       ,95
E1216BK/6,1,5055939958378       ,95
E1224BK/4,1,5055939966274       ,95
E1224BK/5,1,5055939966281       ,95
E1224BK/6,1,5055939966298       ,95
E1224BK/7,1,5055939966304       ,95
E6126BK/5,1,5055939933184       ,95
E6126CE/3,1,5055939933207       ,95
E6126CE/4,1,5055939933214       ,95
E6126CE/5,1,5055939933221       ,95
E8064BK/4,1,5055939915982       ,95
E8064BK/7,1,5055939916019       ,95
E8064GY/4,1,5055939916224       ,95
E8064GY/7,1,5055939916255       ,95
E1186BK/7,1,5055939944661       ,116
E5050BK/5,1,5055939927725       ,116
E5050BK/6,1,5055939927732       ,116
E5067BK/6,1,5055939950747       ,116
E5067NA/5,1,5055939950785       ,116
E7117BK/6,1,5055939917047       ,116
E4054BK/4,1,5055939953175       ,178
E7120BK/5,1,5055939915517       ,178
