SKU,Maximum allowed,Barcode/EAN,Days left
E0127BK/5,1,5055939904832       ,15
E0128BK/4,4,5055939904931       ,15
E0128BK/5,4,5055939904948       ,15
E1118BK/5,1,5055205389981       ,15
E1185BK/4,1,5055939944531       ,15
E1185BK/5,1,5055939944548       ,15
E1185BK/6,1,5055939944555       ,15
E1186BK/3,2,5055939944623       ,15
E1186BK/4,3,5055939944630       ,15
E1186BK/5,3,5055939944647       ,15
E1186BK/6,3,5055939944654       ,15
E1186BK/7,1,5055939944661       ,15
E1186GV/4,2,5055939944685       ,15
E1186GV/5,2,5055939944692       ,15
E1188BK/4,1,5055939944821       ,15
E1188BK/5,1,5055939944838       ,15
E1188GV/4,1,5055939944876       ,15
E1188GV/5,1,5055939944883       ,15
E1188GV/6,1,5055939944890       ,15
E3134RD/5,2,5055939924342       ,15
E3134RD/6,1,5055939924359       ,15
E3158BK/7,1,5055939942452       ,15
E3158OM/4,1,5055939942476       ,15
E3181BK/4,1,5055939958194       ,15
E5049BK/3,1,5055939924526       ,15
E5049BK/4,2,5055939924533       ,15
E5049BK/5,2,5055939924540       ,15
E5049BK/6,1,5055939924557       ,15
E8073BK/3,1,5055939924663       ,15
E8073BK/4,2,5055939924670       ,15
E8073BK/5,1,5055939924687       ,15
E8073BK/6,1,5055939924694       ,15
E8075BK/5,2,5055939924786       ,15
E8075BK/6,1,5055939924793       ,15
E8076BK/5,1,5055939924830       ,15
E8088BK/6,1,5055939943183       ,15
E9102BK/3,1,5055939925516       ,15
E9102BK/5,1,5055939925530       ,15
E9102BK/6,1,5055939925547       ,15
E9102GV/5,1,5055939925585       ,15
E9102RD/5,1,5055939925486       ,15
E9120BK/5,1,5055939943220       ,15
E9120BK/6,1,5055939943237       ,15
E0152BK/L-XL,2,5055939958125       ,17
E0154BK/L-XL,2,5055939965987       ,17
E1217BK/5,1,5055939958477       ,17
E1218BK/M-L,1,5055939958514       ,17
E1223BK/L-XL,2,5055939958613       ,17
E1225BK/L-XL,2,5055939959207       ,17
E1225BK/M-L,1,5055939959191       ,17
E8076BK/4,1,5055939924823       ,23
E8076BK/3,1,5055939924816       ,24
E8076BK/5,1,5055939924830       ,24
E3181BK/6,1,5055939958217       ,44
E1505GV/L-XL,2,5055939904443       ,81
E1505GV/M-L,1,5055939904450       ,81
E1505MB/L-XL,1,5055939904474       ,81
E1505RD/L-XL,1,5055939951287       ,81
E1505RD/S-M,1,5055939951263       ,81
E8081BK/5,1,5055939934976       ,81
E0062/3,1,5055205323763       ,198
E0062/4,1,5055205323770       ,198
E0062/5,1,5055205323787       ,198
E0062/6,1,5055205323794       ,198
E1196BK/L-XL,1,5055939948874       ,198
E1196BK/M-L,1,5055939956510       ,198
E1253WH/L-XL,1,5055939971704       ,198
E1253WH/M-L,1,5055939971698       ,198
E1254BK/L-XL,1,5055939971797       ,198
E1254BK/M-L,1,5055939971780       ,198
E1256BK/L-XL,1,5055939971858       ,198
E1256BK/M-L,1,5055939971841       ,198
E4054BK/3,1,5055939953168       ,198
E4054BK/4,1,5055939953175       ,198
E4054BK/5,1,5055939953182       ,198
E4054BK/6,1,5055939953199       ,198
E4054BK/7,1,5055939953205       ,198
E4055BK/3,1,5055939953069       ,198
E4055BK/4,1,5055939953076       ,198
E4055BK/5,1,5055939953083       ,198
E4055BK/6,1,5055939953090       ,198
E4055BK/7,1,5055939953106       ,198
E6106CO/2,1,5055939951133       ,198
E6106CO/3,1,5055939951140       ,198
E6106GK/3,1,5055939973678       ,198
E6106GK/4,1,5055939973685       ,198
E6170GK/2,1,5055939973357       ,198
E6170GK/3,1,5055939973364       ,198
E6170GK/4,1,5055939973371       ,198
E7117BK/3,1,5055939917016       ,198
E7117BK/4,1,5055939917023       ,198
E7117BK/5,1,5055939917030       ,198
E7117BK/6,1,5055939917047       ,198
E7120BK/3,1,5055939915494       ,198
E7120BK/4,1,5055939915500       ,198
E7120BK/5,1,5055939915517       ,198
E7120BK/6,1,5055939915524       ,198
E7131BK/K11,1,5055939949970       ,198
E7131BK/K9,1,5055939949963       ,198
E7132BK/K11,1,5055939949994       ,198
E7132BK/K9,1,5055939949987       ,198
E7143BC/K11,1,5055939981505       ,198
E7143BC/K9,1,5055939981499       ,198
E8064BK/3,1,5055939915975       ,198
E8064BK/4,1,5055939915982       ,198
E8064BK/5,1,5055939915999       ,198
E8064BK/6,1,5055939916002       ,198
E8064BK/7,1,5055939916019       ,198
E8064GC/3,1,5055939950969       ,198
E8064GC/4,2,5055939950976       ,198
E8064GC/5,2,5055939950983       ,198
E8064GC/6,1,5055939950990       ,198
E1261CV/0,4,5055939978550       ,212
E3125BK/8,1,5055939915432       ,212
E3185LG/3,1,5055939978215       ,212
E3185LG/4,1,5055939978222       ,212
E3185LG/5,1,5055939978239       ,212
E3185LG/6,1,5055939978246       ,212
E5074BU/4,1,5055939975023       ,212
E5074BU/5,1,5055939975030       ,212
E5074BU/6,1,5055939975047       ,212
E6179CV/3,1,5055939978468       ,212
E6179CV/4,1,5055939978475       ,212
E6179CV/5,1,5055939978482       ,212
E7142BA/K11,1,5055939977294       ,212
E7142BA/K7,1,5055939977270       ,212
E7142BA/K9,2,5055939977287       ,212
