INVOICE,SCR078984
YOUR REF,
DATE,21/12/2018
VALUE,108.58


SKU,Qty,Value,Name,Colour,Size
E0073           ,1,-9.50,FS260-Pro Slick Toe Cover,Black/None,One size
E9137RD/4       ,1,-49.54,Hummvee Shacket ,Red,M
E9137RD/5       ,1,-49.54,Hummvee Shacket ,Red,L
