SKU,Maximum allowed,Barcode/EAN,Days left
E1155BK/L-XL,1,5055939928388       ,60
E1168BK/5,1,5055939929491       ,60
E1251CL,5,5055939955803       ,97
E3157BK/7,1,5055939941462       ,97
E5057BK/6,1,5055939942148       ,75
E6066BK/3,1,5055205363738       ,67
E6066BK/4,1,5055205363745       ,68
E6066BK/5,1,5055205363752       ,68
E6066BK/6,1,5055205363769       ,67
E8088BK/3,2,5055939943152       ,60
E8088BK/4,1,5055939943169       ,60
E8088BK/5,2,5055939943176       ,60
E8088BK/6,2,5055939943183       ,60
E8088BK/7,2,5055939943190       ,60
E8090AN/4,1,5055939944333       ,60
E8090AN/5,3,5055939944340       ,60
E8090AN/6,3,5055939944357       ,60
E8090AN/7,1,5055939944364       ,60
E9126BV/4,1,5055939943879       ,60
E9126BV/5,1,5055939943886       ,60
E9126BV/6,1,5055939943893       ,60
E9126BV/7,1,5055939943909       ,60
E9126BV/8,1,5055939945194       ,60
E9126YV/5,1,5055939943930       ,60
E9126YV/6,2,5055939943947       ,60
E9126YV/8,1,5055939945170       ,60
E9130AN/3,1,5055939945767       ,60
E9130AN/4,1,5055939945774       ,60
E9130AN/5,1,5055939945781       ,60
E9130AN/6,1,5055939945798       ,60
E9130AN/7,1,5055939945804       ,60
E9130NA/3,1,5055939943688       ,60
E9130NA/4,1,5055939943695       ,60
E9130NA/5,1,5055939943701       ,60
E9130NA/6,1,5055939943718       ,60
E9130NA/7,1,5055939943725       ,60
E9147GF/4,1,5055939959429       ,60
E9147GF/5,1,5055939959436       ,60
E9147GF/6,1,5055939959443       ,60
E9147GF/7,1,5055939959450       ,60
