INVOICE,SIN571816
YOUR REF,2018 CUSTOM SMS
DATE,15/11/2018
VALUE,2824.56


SKU,Qty,Value,Name,Colour,Size
SP6002/2        ,1,100.80,SP Pro SL Race Jersey: XS,,
SP6002/3        ,1,100.80,SP Pro SL Race Jersey: S,,
SP6002/4        ,1,100.80,SP Pro SL Race Jersey: M,,
SP6002/5        ,1,100.80,SP Pro SL Race Jersey: L,,
SP6002/6        ,1,100.80,SP Pro SL Race Jersey: XL,,
SP6002/7        ,1,100.80,SP Pro SL Race Jersey: XXL,,
SP6052/3        ,1,100.80,SP Wms Pro SL Race Jersey: S,,
SP6052/4        ,1,100.80,SP Wms Pro SL Race Jersey: M,,
SP6052/5        ,1,100.80,SP Wms Pro SL Race Jersey: L,,
SP6052/6        ,1,100.80,SP Wms Pro SL Race Jersey: XL,,
SP6005/3        ,1,114.00,SP Pro SL Winter Jersey: S         ,,
SP6005/4        ,1,114.00,SP Pro SL Winter Jersey: M         ,,
SP6005/5        ,1,114.00,SP Pro SL Winter Jersey: L,,
SP6005/6        ,1,114.00,SP Pro SL Winter Jersey: XL        ,,
SP6013M/5       ,1,133.20,Pro SL Race Bibshort MP: L         ,,
SP6063M/3       ,1,133.20,Wms Pro SL Race Bibshort MP: S     ,,
SP6007/5        ,1,128.40,SP Pro SL Roubaix Jacket: L        ,,
SP6015/5        ,1,79.20,SP Pro SL Race Gilet: L,,
SP6065/3        ,1,79.20,SP Wms Pro SL Race Gilet: S,,
SP6023/5        ,1,234.00,SP Pro SL Road Suit: L,,
SP7020/5        ,1,466.80,SP QDC Drag2Zero S/S Tri Suit: L,,
SP3040/5        ,1,172.80,QDC Tri Suit: L                    ,,
SP4065/3        ,1,85.20,SP FS260-Pro S/S Road Jersey: S,,
SP4065/4        ,1,85.20,SP FS260-Pro S/S Road Jersey: M,,
SP4065/5        ,1,85.20,SP FS260-Pro S/S Road Jersey: L,,
SP4065/6        ,1,85.20,SP FS260-Pro S/S Road Jersey: XL,,
SP4033/5        ,1,82.80,SP Roubaix Jacket: L,,
SP4005/5        ,1,61.20,SP S/S Road Jersey (full zip): L,,
SP2005/3        ,1,61.20,Wms S/S Road Jersey (full zip): S,,
SP4082/5        ,1,96.00,SP FS260-Pro Bibshort: L,,
SP2082/3        ,1,96.00,SP Wms FS260-Pro Bibshort: S,,
SP4059/5        ,1,62.40,SP Singletrack L/S DH Jersey: L,,
SP4053/2        ,1,68.40,SP Singletrack S/S MTB Jersey: XS,,
SP4053/3        ,1,68.40,SP Singletrack S/S MTB Jersey: S,,
SP4053/4        ,1,68.40,SP Singletrack S/S MTB Jersey: M,,
SP4053/5        ,1,68.40,SP Singletrack S/S MTB Jersey: L,,
SP4053/6        ,1,68.40,SP Singletrack S/S MTB Jersey: XL,,
SP4053/7        ,1,68.40,SP Singletrack S/S MTB Jersey: XXL,,
SP4054/2        ,1,73.20,SP Singletrack L/S MTB Jersey: XS,,
SP4054/3        ,1,73.20,SP Singletrack L/S MTB Jersey: S,,
SP4054/5        ,1,73.20,SP Singletrack L/S MTB Jersey: L,,
SP4054/6        ,1,73.20,SP Singletrack L/S MTB Jersey: XL,,
SP4054/7        ,1,73.20,SP Singletrack L/S MTB Jersey: XXL,,
SP4056/5        ,1,57.60,SP Singletrack S/S T: L,,
SP2056/3        ,1,57.60,SP Wms Singletrack S/S T: S,,
SP4057/5        ,1,62.40,SP Singletrack L/S T: L,,
SP2057/3        ,1,62.40,SP Wms Singletrack L/S T: S,,
