SKU,Maximum allowed,Barcode/EAN,Days left
E3109BK/5,2,5055939908977       ,10
E9119PW/4,1,5055939942933       ,10
E9119PW/5,1,5055939942940       ,10
E3123BK/3,15,5055939915326       ,29
E3123BK/4,25,5055939915333       ,29
E3123BK/5,20,5055939915340       ,29
E3123BK/6,16,5055939915357       ,29
E3123BK/7,8,5055939915364       ,29
E3168BK/3,10,5055939954165       ,29
E3168BK/4,20,5055939954172       ,29
E3168BK/5,30,5055939954189       ,29
E3168BK/6,20,5055939954196       ,29
E3168BK/7,10,5055939954202       ,29
E3169BK/2,4,5055939954219       ,29
E3169BK/3,8,5055939954226       ,29
E3169BK/4,10,5055939954233       ,29
E3169BK/5,8,5055939954240       ,29
E3169BK/6,4,5055939954257       ,29
E3173BK/3,10,5055939949598       ,29
E3173BK/4,22,5055939949604       ,29
E3173BK/5,27,5055939949611       ,29
E3173BK/6,16,5055939949628       ,29
E3173BK/7,6,5055939949635       ,29
E6078BK/3,5,5055205386669       ,29
E6078BK/4,7,5055205386676       ,29
E6078BK/5,5,5055205386683       ,29
E6078BK/6,2,5055939922300       ,29
E6106BK/2,8,5055939919485       ,29
E6106BK/3,15,5055939919492       ,29
E6106BK/4,17,5055939919508       ,29
E6106BK/5,13,5055939919515       ,29
E6106BK/6,6,5055939919522       ,29
E6151BK/2,8,5055939950327       ,29
E6151BK/3,17,5055939950334       ,29
E6151BK/4,20,5055939950341       ,29
E6151BK/5,15,5055939950358       ,29
E8064GY/3,13,5055939916217       ,29
E8064GY/4,30,5055939916224       ,29
E8064GY/5,40,5055939916231       ,29
E8064GY/6,25,5055939916248       ,29
E8064GY/7,11,5055939916255       ,29
E8070BK/3,12,5055939916712       ,29
E8070BK/4,25,5055939916729       ,29
E8070BK/5,30,5055939916736       ,29
E8070BK/6,18,5055939916743       ,29
E8070BK/7,8,5055939916750       ,29
E8074BK/4,16,5055939924724       ,29
E8074BK/5,18,5055939924731       ,29
E8074BK/6,10,5055939924748       ,29
E8074BK/7,6,5055939924755       ,29
E8074BK/3,1,5055939924717       ,39
E3123BK/3,1,5055939915326       ,40
E6106BK/2,6,5055939919485       ,40
E8070BK/6,1,5055939916743       ,40
E6078BK/2,1,5055205386652       ,53
E8074BK/4,4,5055939924724       ,53
E6078BK/2,1,5055205386652       ,62
E8074BK/3,13,5055939924717       ,112
E8064GY/3,3,5055939916217       ,184
E8064GY/6,6,5055939916248       ,184
E8064GY/4,6,5055939916224       ,185
E8064GY/5,7,5055939916231       ,185
E1118BK/3,4,5055205389967       ,205
E1118BK/5,12,5055205389981       ,205
E1118BK/6,12,5055205389998       ,205
E1118BK/7,4,5055205390000       ,205
E3134BK/3,6,5055939924373       ,205
E3134BK/4,14,5055939924380       ,205
E3134BK/5,8,5055939924397       ,205
E3134BK/6,4,5055939924403       ,205
E3134BK/7,6,5055939924410       ,205
E9119PW/3,3,5055939942926       ,205
E9119PW/4,12,5055939942933       ,205
E9119PW/5,6,5055939942940       ,205
E9119PW/6,6,5055939942957       ,205
E9119PW/7,2,5055939942964       ,205
E9123PW/2,2,5055939943060       ,205
E9123PW/3,6,5055939943077       ,205
E9123PW/4,2,5055939943084       ,205
E9123PW/5,1,5055939943091       ,205
EM0057BK/3,2,5055939925943       ,205
EM0057BK/4,7,5055939925950       ,205
EM0057BK/5,9,5055939925967       ,205
EM0057BK/6,5,5055939925974       ,205
EM0057BK/7,3,5055939925981       ,205
E1118BK/4,6,5055205389974       ,206
E8091BK/3,6,5055939948249       ,206
E8091BK/4,9,5055939948256       ,206
E8091BK/5,13,5055939948263       ,206
E8091BK/6,8,5055939948270       ,206
E8091BK/7,4,5055939948287       ,206
