SKU,Maximum allowed,Barcode/EAN,Days left
E0128BK/5,1,5055939904948       ,70
E0128BK/6,1,5055939904955       ,70
E1145BK/5,1,5055939908205       ,70
E1145BK/6,1,5055939908212       ,70
E1227BK/L-XL,2,5055939966311       ,70
E3178BK/5,1,5055939957883       ,70
E3183BK/5,1,5055939959313       ,70
E5049BK/5,1,5055939924540       ,70
E5049BK/6,1,5055939924557       ,70
E9143GK/6,1,5055939957531       ,70
