INVOICE,SIN632147
YOUR REF,SOR387499
DATE,24/09/2019
VALUE,1697.2


SKU,Qty,Value,Name,Colour,Size
E9075TU/4       ,1,151.20,Wms FS260-Pro Adrenaline Race Cape,Turquoise,M
E9075TU/5       ,1,151.20,Wms FS260-Pro Adrenaline Race Cape,Turquoise,L
E9075WH/2       ,1,151.20,Wms FS260-Pro Adrenaline Race Cape,White,XS
E9075WH/3       ,1,151.20,Wms FS260-Pro Adrenaline Race Cape,White,S
E9075WH/4       ,1,151.20,Wms FS260-Pro Adrenaline Race Cape,White,M
E9075WH/5       ,1,151.20,Wms FS260-Pro Adrenaline Race Cape,White,L
E9115CE/4       ,1,149.00,Women's Xtract Jacket II,Cerise,M
E9115CE/5       ,1,149.00,Women's Xtract Jacket II,Cerise,L
E9115CO/3       ,1,149.00,Women's Xtract Jacket II,Cobalt Blue,S
E9115CO/4       ,1,149.00,Women's Xtract Jacket II,Cobalt Blue,M
E9115CO/5       ,1,149.00,Women's Xtract Jacket II,Cobalt Blue,L
DEL90           ,1,45.00,Delivery - Poland                  ,,
