SKU,Maximum allowed,Barcode/EAN,Days left
E0061/2,5,5055205323725       ,38
E0061/3,12,5055205323732       ,38
E0061/4,12,5055205323749       ,38
E0061/5,2,5055205323756       ,38
E0068BK/5,4,5055205367712       ,38
E1023BK/3,4,5055205372396       ,38
E1023BK/4,14,5055205372402       ,38
E1023BK/5,14,5055205372419       ,38
E1023BK/6,7,5055205372426       ,38
E1023BK/7,2,5055205372433       ,38
E1167BK/4,7,5055939929316       ,38
E1167BK/5,9,5055939929323       ,38
E1167BK/6,9,5055939929330       ,38
E1167BK/7,6,5055939929347       ,38
E3108OC/4,4,5055939909394       ,38
E3108OC/5,4,5055939909400       ,38
E3108OC/6,2,5055939909417       ,38
E3108OC/7,2,5055939909424       ,38
E3109BK/3,1,5055939908953       ,38
E3109BK/4,6,5055939908960       ,38
E3109BK/5,8,5055939908977       ,38
E3109BK/6,5,5055939908984       ,38
E3109BK/7,3,5055939908991       ,38
E3109OC/3,2,5055939909103       ,38
E3109OC/4,6,5055939909110       ,38
E3109OC/5,10,5055939909127       ,38
E3109OC/6,5,5055939909134       ,38
E3109OC/7,3,5055939909141       ,38
E3134RD/4,5,5055939924335       ,38
E3134RD/5,6,5055939924342       ,38
E3134RD/6,3,5055939924359       ,38
E3134RD/7,2,5055939924366       ,38
E3140OC/3,2,5055939931135       ,38
E3140OC/4,6,5055939931142       ,38
E3140OC/5,6,5055939931159       ,38
E3140OC/6,4,5055939931166       ,38
E3140OC/7,2,5055939931173       ,38
E4028BK/3,2,5055939901060       ,38
E4028BK/4,4,5055939901077       ,38
E4028BK/5,4,5055939901084       ,38
E4028BK/6,2,5055939901091       ,38
E4028BK/7,2,5055939901107       ,38
E6061UM/2,2,5055205352312       ,38
E6061UM/3,5,5055205352329       ,38
E6061UM/4,6,5055205352336       ,38
E6061UM/5,3,5055205352343       ,38
E6096BK/2,1,5055939901169       ,38
E6096BK/3,3,5055939901176       ,38
E6096BK/4,4,5055939901183       ,38
E6096BK/5,2,5055939901190       ,38
E6104BK/3,5,5055939918365       ,38
E6104BK/4,6,5055939918372       ,38
E6104BK/5,5,5055939918389       ,38
E6104BK/6,3,5055939920924       ,38
E6104CE/3,5,5055939915708       ,38
E6104CE/4,6,5055939915715       ,38
E6104CE/5,7,5055939915722       ,38
E6104CE/6,3,5055939920931       ,38
E6107BK/2,4,5055939915777       ,38
E6107BK/3,7,5055939915784       ,38
E6107BK/4,9,5055939915791       ,38
E6107BK/5,2,5055939915807       ,38
E6110BK/2,1,5055939914664       ,38
E6110BK/3,2,5055939914671       ,38
E6110BK/4,2,5055939914688       ,38
E6110BK/5,4,5055939914695       ,38
E6110BK/6,2,5055939922331       ,38
E6125WH/2,2,5055939933115       ,38
E6125WH/3,8,5055939933122       ,38
E6125WH/4,7,5055939933139       ,38
E6125WH/5,7,5055939933146       ,38
E7117BK/3,2,5055939917016       ,38
E7117BK/4,4,5055939917023       ,38
E7117BK/5,4,5055939917030       ,38
E7117BK/6,2,5055939917047       ,38
E7117BK/7,2,5055939917054       ,38
E8065GY/3,2,5055939916286       ,38
E8065GY/4,6,5055939916293       ,38
E8065GY/5,6,5055939916309       ,38
E8065GY/6,3,5055939916316       ,38
E8065GY/7,2,5055939916323       ,38
E8066KH/3,5,5055939916385       ,38
E8066KH/4,12,5055939916392       ,38
E8066KH/5,12,5055939916408       ,38
E8066KH/6,7,5055939916415       ,38
E8066KH/7,5,5055939916422       ,38
E9104CR/2,2,5055939925714       ,38
E9104CR/3,5,5055939925721       ,38
E9104CR/4,7,5055939925738       ,38
E9104CR/5,5,5055939925745       ,38
E9106BK/4,4,5055939935263       ,38
E9106BK/5,4,5055939935270       ,38
E9106BK/6,2,5055939935287       ,38
E9106BK/7,2,5055939935294       ,38
E9108BK/3,4,5055939935515       ,38
E9108BK/4,4,5055939935522       ,38
E9108BK/5,4,5055939935539       ,38
E8076BK/3,2,5055939924816       ,80
E8076BK/4,6,5055939924823       ,80
E8076BK/5,6,5055939924830       ,80
E8076BK/6,4,5055939924847       ,80
E8076BK/7,2,5055939924854       ,80
E0042/3,5,5055205311937       ,198
E0042/4,13,5055205311944       ,198
E0042/5,13,5055205311951       ,198
E0042/6,10,5055205311968       ,198
E0042/7,5,5055205311975       ,198
E0052,50,5055205317632       ,198
E0068BK/5,13,5055205367712       ,198
E0068BK/6,10,5055205367729       ,198
E0068BK/7,5,5055205367736       ,198
E0098YV/L-XL,18,5055205363349       ,198
E0098YV/S-M,13,5055205359571       ,198
E1023BK/4,10,5055205372402       ,198
E1023BK/5,13,5055205372419       ,198
E1023BK/6,13,5055205372426       ,198
E1023BK/7,8,5055205372433       ,198
E1145BK/3,5,5055939908182       ,198
E1145BK/4,13,5055939908199       ,198
E1145BK/5,13,5055939908205       ,198
E1145BK/6,10,5055939908212       ,198
E1145BK/7,5,5055939910659       ,198
E6066BK/3,10,5055205363738       ,198
E6066BK/4,13,5055205363745       ,198
E6066BK/5,10,5055205363752       ,198
E8090AN/3,5,5055939944326       ,198
E8090AN/4,13,5055939944333       ,198
E8090AN/5,13,5055939944340       ,198
E8090AN/6,10,5055939944357       ,198
E8090AN/7,5,5055939944364       ,198
E9126BV/3,3,5055939943862       ,198
E9126BV/4,10,5055939943879       ,198
E9126BV/5,13,5055939943886       ,198
E9126BV/6,10,5055939943893       ,198
E9126BV/7,5,5055939943909       ,198
E0068BK/3,5,5055205367699       ,200
E0068BK/4,13,5055205367705       ,200
E8088BK/3,3,5055939943152       ,200
E8088BK/4,9,5055939943169       ,200
E8088BK/5,9,5055939943176       ,200
E8088BK/6,6,5055939943183       ,200
E8088BK/7,3,5055939943190       ,200
E9124PW/4,6,5055939944050       ,200
E9124PW/5,9,5055939944067       ,200
E9124PW/6,6,5055939944074       ,200
E9124PW/7,3,5055939944081       ,200
E9125MY/2,3,5055939944142       ,200
E9125MY/3,6,5055939944159       ,200
E9125MY/4,6,5055939944166       ,200
E9125MY/5,3,5055939944173       ,200
E9127BV/3,5,5055939944012       ,200
E9127BV/4,10,5055939944029       ,200
E9127BV/5,10,5055939944036       ,200
E9127BV/6,5,5055939945217       ,200
E6107BK/6,2,5055939915746       ,205
E9120YV/4,6,5055939943268       ,205
E9120YV/5,9,5055939943275       ,205
E9120YV/6,6,5055939943282       ,205
E9120YV/7,3,5055939943299       ,205
