INVOICE,SIN622278
YOUR REF,SOR381894
DATE,06/08/2019
VALUE,127.8


SKU,Qty,Value,Name,Colour,Size
E9119BA/3       ,1,61.00,SingleTrack Softshell II,Azure Blue,S
E3176NA/5       ,1,23.80,One Clan Hoodie,Navy,L
E1168NA/5       ,1,17.60,SingleTrack Glove,Navy,L
E1192NA/0       ,1,7.70,One Clan Webbing Belt,Navy,One size
E1192OR/0       ,1,7.70,One Clan Webbing Belt,Orange,One size
DEL10           ,1,10.00,Delivery - Euro                    ,,
