SKU,Maximum allowed,Barcode/EAN,Days left
E1506BK/M-L,1,5055939920054       ,3
E1506NA/M-L,1,5055939922843       ,3
E1506WH/M-L,1,5055939920085       ,3
E7117BK/4,2,5055939917023       ,3
E7117RD/5,1,5055939917900       ,3
E7117BK/5,1,5055939917030       ,5
E1168BK/4,2,5055939929484       ,11
E1506NA/S-M,1,5055939922836       ,11
E0128YV/3,1,5055939909615       ,46
E0128YV/4,2,5055939909622       ,46
E0128YV/5,2,5055939909639       ,46
E0151GC/0,2,5055939960715       ,46
E0151GF/0,2,5055939960708       ,46
E0151RR/0,2,5055939960685       ,46
E1119BK/3,1,5055205390536       ,46
E1119BK/4,2,5055205390543       ,46
E1119BK/5,2,5055205390550       ,46
E1181BK/4,2,5055939942520       ,46
E1181BK/5,2,5055939942537       ,46
E1181BK/6,1,5055939942544       ,46
E1183BK/3,1,5055939944227       ,46
E1183BK/4,1,5055939944234       ,46
E1183BK/5,2,5055939944241       ,46
E1183BK/6,2,5055939944258       ,46
E1187BK/3,1,5055939944760       ,46
E1187BK/4,3,5055939944777       ,46
E1187BK/5,3,5055939944784       ,46
E1187BK/6,1,5055939944791       ,46
E1216BK/4,1,5055939958354       ,46
E1216BK/5,1,5055939958361       ,46
E1216BK/6,1,5055939958378       ,46
E1218BK/L-XL,2,5055939958521       ,46
E1218BK/M-L,2,5055939958514       ,46
E1219BK/L-XL,2,5055939958545       ,46
E1219BK/S-M,2,5055939958538       ,46
E1223BK/L-XL,2,5055939958613       ,46
E1223BK/S-M,2,5055939958606       ,46
E5049BK/3,1,5055939924526       ,46
E5049BK/4,2,5055939924533       ,46
E5049BK/5,2,5055939924540       ,46
E5049BK/6,1,5055939924557       ,46
E8088BK/3,2,5055939943152       ,46
E8088BK/4,2,5055939943169       ,46
E8088BK/5,2,5055939943176       ,46
E9126YV/3,1,5055939943916       ,46
E9126YV/4,2,5055939943923       ,46
E9126YV/5,2,5055939943930       ,46
E9126YV/6,1,5055939943947       ,46
E9130NA/4,1,5055939943695       ,46
E9130NA/5,1,5055939943701       ,46
E9134YV/4,2,5055939943367       ,46
E9134YV/5,1,5055939943374       ,46
E9134YV/6,1,5055939943381       ,46
E9143GK/5,1,5055939957524       ,46
E9143GK/4,1,5055939957517       ,60
E1183BK/4,2,5055939944234       ,65
E1506BK/M-L,1,5055939920054       ,65
E1506WH/M-L,1,5055939920085       ,65
E8088BK/4,2,5055939943169       ,65
E8088BK/6,1,5055939943183       ,65
E9144BK/5,1,5055939957579       ,65
E1250CL,4,5055939955797       ,79
E1506BK/M-L,1,5055939920054       ,79
E1506NA/M-L,1,5055939922843       ,79
E1506WH/M-L,1,5055939920085       ,79
E3176NA/5,1,5055939957029       ,79
EM0053GF/5,1,5055939951416       ,79
E0128YV/5,2,5055939909639       ,108
E0128YV/6,1,5055939909646       ,108
E1181BK/5,1,5055939942537       ,108
E1183BK/4,2,5055939944234       ,108
E1183BK/7,1,5055939944265       ,108
E1187BK/6,1,5055939944791       ,108
E1506BK/M-L,1,5055939920054       ,108
E1506WH/M-L,1,5055939920085       ,108
E7117BK/4,2,5055939917023       ,109
EM0053GF/5,1,5055939951416       ,109
E1187BK/5,2,5055939944784       ,121
E1119BK/4,2,5055205390543       ,127
E1119BK/6,1,5055205390567       ,127
E9142BK/7,1,5055939957395       ,127
E1216BK/4,1,5055939958354       ,134
E1506BK/M-L,1,5055939920054       ,134
E8088BK/5,2,5055939943176       ,134
E8088BK/6,1,5055939943183       ,134
E9117BK/5,1,5055939942186       ,134
E1119BK/5,3,5055205390550       ,152
E1187BK/4,2,5055939944777       ,152
E1187BK/6,2,5055939944791       ,152
E5049BK/7,1,5055939924564       ,152
E1506NA/M-L,1,5055939922843       ,158
E8088BK/4,1,5055939943169       ,158
E1187BK/5,2,5055939944784       ,159
CBR0001NA/5,1,5055939959757       ,183
E1187BK/3,1,5055939944760       ,183
E1215GF/0,1,5055939957173       ,183
E1166BK/4,2,5055939929071       ,213
E1166BK/5,2,5055939929088       ,213
E1166BK/6,2,5055939929095       ,213
E1166RR/4,1,5055939974910       ,213
E1166RR/5,2,5055939974927       ,213
E1168BK/4,2,5055939929484       ,213
E1168BK/5,2,5055939929491       ,213
E1168BK/6,2,5055939929507       ,213
E1258BK/4,2,5055939972619       ,213
E1258BK/5,2,5055939972626       ,213
E1258BK/6,2,5055939972633       ,213
E1259BK/4,2,5055939975603       ,213
E1259BK/5,2,5055939975610       ,213
E1259BK/6,2,5055939975627       ,213
E1259GK/4,2,5055939975665       ,213
E1259GK/5,3,5055939975672       ,213
E1259GK/6,1,5055939975689       ,213
E1506BK/M-L,1,5055939920054       ,213
E1506NA/M-L,1,5055939922843       ,213
E1506WH/M-L,1,5055939920085       ,213
E3189BA/4,1,5055939972350       ,213
E3189BA/5,1,5055939972367       ,213
E3192BK/4,1,5055939974699       ,213
E3192BK/5,1,5055939974705       ,213
E3192WH/5,1,5055939974804       ,213
E3192WH/6,1,5055939974811       ,213
E6174WH/2,1,5055939976150       ,213
E6174WH/3,1,5055939976167       ,213
E6174WH/4,1,5055939976174       ,213
E8064BC/4,1,5055939936789       ,213
E8064BC/5,1,5055939936796       ,213
E8097GY/4,1,5055939950426       ,213
E8097GY/5,1,5055939950433       ,213
