SKU,Maximum allowed,Barcode/EAN,Days left
E8064BK/4,1,5055939915982       ,41
E1160KH/3,1,5055939928555       ,64
E1160KH/4,2,5055939928562       ,64
E1160KH/5,2,5055939928579       ,64
E1160KH/6,2,5055939928586       ,64
E1160KH/7,1,5055939928593       ,64
E1181BK/3,1,5055939942513       ,64
E1181BK/4,2,5055939942520       ,64
E1181BK/5,2,5055939942537       ,64
E1181BK/6,1,5055939942544       ,64
E1188BK/3,1,5055939944814       ,64
E1188BK/4,2,5055939944821       ,64
E1188BK/5,2,5055939944838       ,64
E1188BK/6,1,5055939944845       ,64
E1188RD/4,1,5055939958750       ,64
E1188RD/5,1,5055939958767       ,64
E1188RD/6,1,5055939958774       ,64
E1216BK/4,2,5055939958354       ,64
E1216BK/5,2,5055939958361       ,64
E1216BK/6,2,5055939958378       ,64
E1217BK/4,2,5055939958460       ,64
E1217BK/5,2,5055939958477       ,64
E1217BK/6,2,5055939958484       ,64
E1223BK/L-XL,2,5055939958613       ,64
E1223BK/S-M,2,5055939958606       ,64
E1505MB/L-XL,1,5055939904474       ,64
E1505MB/M-L,1,5055939904481       ,64
E1505MB/S-M,1,5055939904498       ,64
E1505RD/L-XL,1,5055939951287       ,64
E1505RD/M-L,1,5055939951270       ,64
E1505RD/S-M,1,5055939951263       ,64
E1511BK/M-L,1,5055939930138       ,64
E1511RR/L-XL,1,5055939959634       ,64
E1511RR/M-L,1,5055939959627       ,64
E1511RR/S-M,1,5055939959610       ,64
E6105WH/3,1,5055939918440       ,64
E6105WH/4,1,5055939918457       ,64
E6124BK/3,1,5055939933009       ,64
E6124BK/4,1,5055939933016       ,64
E6124BK/5,1,5055939933023       ,64
E8091BK/3,1,5055939948249       ,64
E8091BK/4,1,5055939948256       ,64
E8091BK/5,1,5055939948263       ,64
E8091BK/6,1,5055939948270       ,64
E8091BK/7,1,5055939948287       ,64
E9104CR/3,1,5055939925721       ,64
E9104CR/4,1,5055939925738       ,64
E9115CE/3,1,5055939941929       ,64
E9115CE/4,1,5055939941936       ,64
E9115CO/5,1,5055939941905       ,64
E9120BK/4,1,5055939943213       ,64
E9125MY/2,1,5055939944142       ,64
EM0057BK/4,1,5055939925950       ,64
E9120BK/7,1,5055939943244       ,65
E9120KH/3,1,5055939943305       ,65
E9120KH/4,1,5055939943312       ,65
E9120KH/5,1,5055939943329       ,65
E9120KH/6,1,5055939943336       ,65
E9120KH/7,1,5055939943343       ,65
E9120BK/5,1,5055939943220       ,71
E9120BK/6,1,5055939943237       ,71
E8064BK/3,1,5055939915975       ,98
E9120BK/3,1,5055939943206       ,98
E1188BK/3,2,5055939944814       ,132
E1188BK/4,2,5055939944821       ,132
E1188BK/5,2,5055939944838       ,132
E1188BK/6,1,5055939944845       ,132
E1188GV/4,1,5055939944876       ,132
E1188GV/5,1,5055939944883       ,132
E1511BK/L-XL,1,5055939930121       ,164
E1511BK/S-M,1,5055939930145       ,164
E1161BK/4,3,5055939928685       ,191
E1161BK/5,3,5055939928692       ,191
E1161BK/6,3,5055939928708       ,191
E1161BK/7,1,5055939928715       ,191
E1161RD/4,2,5055939928746       ,191
E1161RD/6,2,5055939928760       ,191
E1165BK/3,2,5055939928845       ,191
E1165BK/4,3,5055939928852       ,191
E1165BK/5,3,5055939928869       ,191
E1165BK/6,2,5055939928876       ,191
E1165BK/7,1,5055939928883       ,191
E1165GV/4,2,5055939928906       ,191
E1165GV/5,2,5055939928913       ,191
E1165GV/6,1,5055939928920       ,191
E1165OC/4,2,5055939928951       ,191
E1165OC/5,2,5055939928968       ,191
E1165OC/6,2,5055939928975       ,191
E1223BK/L-XL,5,5055939958613       ,191
E1223BK/S-M,5,5055939958606       ,191
E1258BK/3,2,5055939972602       ,191
E1258BK/4,2,5055939972619       ,191
E1258BK/5,2,5055939972626       ,191
E1258BK/6,2,5055939972633       ,191
E1258BK/7,2,5055939972640       ,191
E1505BA/L-XL,1,5055939978154       ,191
E1505BA/M-L,2,5055939978147       ,191
E1505BA/S-M,1,5055939978130       ,191
E1505MB/L-XL,2,5055939904474       ,191
E1505MB/M-L,2,5055939904481       ,191
E1505MB/S-M,1,5055939904498       ,191
E1505RD/L-XL,1,5055939951287       ,191
E1505RD/M-L,2,5055939951270       ,191
E1505RD/S-M,1,5055939951263       ,191
E3061W/3,1,5055205342467       ,191
E3061W/4,3,5055205342474       ,191
E3061W/5,3,5055205342481       ,191
E3167WH/L-XL,3,5055939954073       ,191
E3167WH/S-M,3,5055939954066       ,191
E3193BK/3,2,5055939975771       ,191
E3193BK/4,2,5055939975788       ,191
E3193BK/5,2,5055939975795       ,191
E3193YV/3,1,5055939975832       ,191
E3193YV/4,2,5055939975849       ,191
E3193YV/5,2,5055939975856       ,191
E4027BK/3,4,5055205398259       ,191
E4027BK/4,1,5055205398266       ,191
E4054BK/3,2,5055939953168       ,191
E4054BK/4,2,5055939953175       ,191
E4054BK/5,2,5055939953182       ,191
E4054BK/6,2,5055939953199       ,191
E4054BK/7,1,5055939953205       ,191
E7128BK/0,1,5055939934419       ,191
E7128GY/0,1,5055939934426       ,191
E7128KH/0,1,5055939951324       ,191
E7128OT/0,1,5055939977461       ,191
E8064BK/3,2,5055939915975       ,191
E8064BK/4,2,5055939915982       ,191
E8064BK/5,2,5055939915999       ,191
E8064BK/6,1,5055939916002       ,191
E8104BA/3,2,5055939972015       ,191
E8104BA/4,2,5055939972022       ,191
E8104BA/5,2,5055939972039       ,191
E8104BA/6,1,5055939972046       ,191
E3184GF/3,1,5055939970424       ,198
E3184GF/4,1,5055939970431       ,198
E3184GF/5,2,5055939970448       ,198
E3184GF/6,1,5055939970455       ,198
