INVOICE,SIN648626
YOUR REF,SOR398456
DATE,02/12/2019
VALUE,428.6


SKU,Qty,Value,Name,Colour,Size
E8064BK/5       ,1,31.80,Hummvee Short II with liner,Black,L
E8064GY/5       ,1,31.80,Hummvee Short II with liner,Grey,L
E1185BK/5       ,2,37.00,Windchill Overshoe,Black,L
E1185BK/6       ,2,37.00,Windchill Overshoe,Black,XL
E3168BK/4       ,1,16.10,Engineered Padded Boxer II,Black,M
E3168BK/6       ,1,16.10,Engineered Padded Boxer II,Black,XL
E8073BK/6       ,2,92.60,SingleTrack Trouser,Black,XL
E6066BK/3       ,1,31.80,Women's Gridlock II Trouser,Black,S
E6147CE/4       ,1,19.50,Women's Windchill Glove,Cerise,M
E6147CE/5       ,1,19.50,Women's Windchill Glove,Cerise,L
E6066BK/2       ,1,31.80,Women's Gridlock II Trouser,Black,XS
E8064BK/6       ,1,31.80,Hummvee Short II with liner,Black,XL
E8064GY/6       ,1,31.80,Hummvee Short II with liner,Grey,XL
