SKU,Maximum allowed,Barcode/EAN,Days left
E1108BK/L-XL,1,5055205387987       ,37
E1108BK/S-M,1,5055205387970       ,37
E1109BK/S-M,1,5055205387994       ,37
E1165BK/5,2,5055939928869       ,37
E1505GY/M-L,1,5055939930107       ,37
E1505KH/L-XL,1,5055939951317       ,37
E1505KH/M-L,1,5055939951300       ,37
E1505KH/S-M,1,5055939951294       ,37
E1505MB/M-L,2,5055939904481       ,37
E1505RD/L-XL,1,5055939951287       ,37
E1505RD/S-M,1,5055939951263       ,37
E3109YV/3,1,5055939909004       ,37
E9095BK/3,1,5055939918051       ,37
E9095BK/4,1,5055939918068       ,37
E9095YV/4,1,5055939918129       ,37
E9095YV/6,1,5055939918143       ,37
E9138GC/6,1,5055939949079       ,37
E1518BK/L-XL,1,5055939948904       ,47
E1518BK/M-L,1,5055939948898       ,47
E0132BK/5,1,5055939915029       ,71
E1165BK/2,2,5055939936352       ,71
E1165BK/4,2,5055939928852       ,71
E1165BK/5,3,5055939928869       ,71
E1165BK/6,2,5055939928876       ,71
E1165BK/7,2,5055939928883       ,71
E1195BK/M-L,2,5055939956503       ,71
E1204GC/5,2,5055939950686       ,71
E8065BK/4,1,5055939919157       ,71
E8069BK/4,1,5055939916569       ,71
E9095BK/4,1,5055939918068       ,71
E9095YV/3,1,5055939918112       ,71
E1184GF/3,2,5055939959566       ,100
E1184GF/4,2,5055939959573       ,100
E1184GF/5,2,5055939959580       ,100
E1184GF/6,2,5055939959597       ,100
E1184GF/7,2,5055939959603       ,100
E1505GV/M-L,2,5055939904450       ,100
E1505KH/L-XL,2,5055939951317       ,100
E1505KH/M-L,2,5055939951300       ,100
E1505KH/S-M,1,5055939951294       ,100
E1505OR/L-XL,1,5055939904504       ,100
E1505WH/L-XL,1,5055939904542       ,100
E1505WH/M-L,1,5055939904559       ,100
E1505WH/S-M,1,5055939904566       ,100
E7128BK/0,2,5055939934419       ,100
E7128GY/0,2,5055939934426       ,100
E8064GY/3,1,5055939916217       ,100
E8069BK/5,1,5055939916576       ,100
E9138GC/5,1,5055939949062       ,100
E1108BK/L-XL,1,5055205387987       ,133
E1108BK/S-M,2,5055205387970       ,133
E1204GC/3,1,5055939950662       ,133
E1204GC/4,1,5055939950679       ,133
E1204GC/5,1,5055939950686       ,133
E1223BK/L-XL,2,5055939958613       ,133
E1223BK/S-M,2,5055939958606       ,133
E8064BK/4,1,5055939915982       ,133
E8064GC/5,1,5055939950983       ,133
E8064GY/4,1,5055939916224       ,133
E9095BK/2,1,5055939918044       ,133
E9095YV/5,1,5055939918136       ,133
E9138GC/4,2,5055939949055       ,133
E9138GC/5,1,5055939949062       ,133
E1145BK/5,1,5055939908205       ,155
E1145BK/6,1,5055939908212       ,155
E1145BK/7,1,5055939910659       ,155
E1202BK/L-XL,1,5055939949918       ,155
E1202BK/S-M,1,5055939949901       ,155
E1505GV/L-XL,1,5055939904443       ,155
E1505KH/M-L,2,5055939951300       ,155
E1505MB/L-XL,2,5055939904474       ,155
E1505MB/M-L,2,5055939904481       ,155
E1505OR/L-XL,1,5055939904504       ,155
E1505RD/L-XL,1,5055939951287       ,155
E3158BK/3,1,5055939942414       ,155
E3158BK/4,1,5055939942421       ,155
E3158BK/5,1,5055939942438       ,155
E5056BK/3,1,5055939941820       ,155
E5056BK/4,1,5055939941837       ,155
E5056BK/5,1,5055939941844       ,155
E5056BK/6,1,5055939941851       ,155
E7112BK/K11,2,5055205390642       ,155
E7112BK/K9,2,5055205390635       ,155
E8064GY/4,1,5055939916224       ,155
E9098BK/3,1,5055939942872       ,155
E0073,4,5055205338118       ,181
E1117BK/3,1,5055205390116       ,181
E1117BK/4,2,5055205390123       ,181
E1117BK/5,1,5055205390130       ,181
E1184BK/4,2,5055939944432       ,181
E1184BK/5,2,5055939944449       ,181
E1195BK/L-XL,1,5055939948836       ,181
E1195BK/S-M,2,5055939948829       ,181
E3109YV/4,1,5055939909011       ,181
E3109YV/6,1,5055939909035       ,181
E3109YV/7,1,5055939909042       ,181
E8073BK/3,1,5055939924663       ,181
E9095YV/6,1,5055939918143       ,181
