SKU,Maximum allowed,Barcode/EAN,Days left
E0043GK/0,2,5055939961385       ,11
E0110BK,2,5055205367224       ,11
E0110BP/0,2,5055939959726       ,11
E0110PK,1,5055205367231       ,11
E0110RR/0,2,5055939959719       ,11
E0110UM,1,5055205367248       ,11
E0110YM/0,1,5055939959702       ,11
E0128BK/3,1,5055939904924       ,11
E0128BK/4,2,5055939904931       ,11
E0128BK/5,2,5055939904948       ,11
E0128BK/6,2,5055939904955       ,11
E0128BK/7,1,5055939904962       ,11
E1043BK/L-XL,2,5055939923871       ,11
E1043BK/S-M,1,5055939923888       ,11
E1118BK/6,2,5055205389998       ,11
E1118BK/7,2,5055205390000       ,11
E1120BK/4,1,5055205390222       ,11
E1120BK/5,2,5055205390239       ,11
E1183BK/5,1,5055939944241       ,11
E1183BK/6,1,5055939944258       ,11
E1183BK/7,1,5055939944265       ,11
E1184BK/4,1,5055939944432       ,11
E1184BK/5,1,5055939944449       ,11
E1184BK/6,1,5055939944456       ,11
E1186BK/3,1,5055939944623       ,11
E1186BK/4,2,5055939944630       ,11
E1186BK/5,2,5055939944647       ,11
E1186BK/6,2,5055939944654       ,11
E1186BK/7,1,5055939944661       ,11
E1186GV/4,1,5055939944685       ,11
E1186GV/5,1,5055939944692       ,11
E1187BK/4,1,5055939944777       ,11
E1187BK/5,1,5055939944784       ,11
E1187BK/6,1,5055939944791       ,11
E1188GV/4,1,5055939944876       ,11
E1188GV/5,1,5055939944883       ,11
E1188GV/6,1,5055939944890       ,11
E1224BK/3,1,5055939958804       ,11
E1224BK/4,1,5055939966274       ,11
E1224BK/5,1,5055939966281       ,11
E1227GK/L-XL,2,5055939966328       ,11
E1227GK/S-M,1,5055939960616       ,11
E1227RR/L-XL,2,5055939966335       ,11
E1227RR/S-M,1,5055939960609       ,11
E1250CL,3,5055939955797       ,11
E1251CL,3,5055939955803       ,11
E3133AN/3,1,5055939957067       ,11
E3133AN/4,1,5055939957074       ,11
E3133AN/5,1,5055939957081       ,11
E3133AN/6,1,5055939957098       ,11
E3133GF/3,1,5055939957128       ,11
E3133GF/4,1,5055939957135       ,11
E3133GF/5,1,5055939957142       ,11
E3133GF/6,1,5055939957159       ,11
E3134BK/3,1,5055939924373       ,11
E3134BK/4,1,5055939924380       ,11
E3134BK/5,1,5055939924397       ,11
E3134BK/6,1,5055939924403       ,11
E3134BK/7,1,5055939924410       ,11
E3134RD/4,1,5055939924335       ,11
E3134RD/5,1,5055939924342       ,11
E3134RD/6,1,5055939924359       ,11
E3158BK/3,1,5055939942414       ,11
E3158BK/4,1,5055939942421       ,11
E3158BK/5,1,5055939942438       ,11
E3158BK/6,1,5055939942445       ,11
E3158BK/7,1,5055939942452       ,11
E5049BK/3,1,5055939924526       ,11
E5049BK/4,1,5055939924533       ,11
E5049BK/5,1,5055939924540       ,11
E5049BK/6,1,5055939924557       ,11
E5056BK/4,1,5055939941837       ,11
E5056BK/5,1,5055939941844       ,11
E5056BK/6,1,5055939941851       ,11
E5056BK/7,1,5055939941868       ,11
E8073BK/4,1,5055939924670       ,11
E8073BK/5,1,5055939924687       ,11
E8073BK/6,1,5055939924694       ,11
E8075BK/3,1,5055939924762       ,11
E8075BK/4,1,5055939924779       ,11
E8075BK/5,1,5055939924786       ,11
E8075BK/6,1,5055939924793       ,11
E8075BK/7,1,5055939924809       ,11
E8088BK/4,1,5055939943169       ,11
E8088BK/5,1,5055939943176       ,11
E8088BK/6,1,5055939943183       ,11
E8088BK/7,1,5055939943190       ,11
E8100BK/4,1,5055939959146       ,11
E8100BK/5,1,5055939959153       ,11
E9102BK/3,1,5055939925516       ,11
E9102BK/4,1,5055939925523       ,11
E9102BK/5,1,5055939925530       ,11
E9102BK/6,1,5055939925547       ,11
E9102BK/7,1,5055939925554       ,11
E9102GV/4,1,5055939925578       ,11
E9102GV/5,1,5055939925585       ,11
E9102GV/6,1,5055939925592       ,11
E9117BK/4,1,5055939942179       ,11
E9117BK/5,1,5055939942186       ,11
E9120BK/4,1,5055939943213       ,11
E9120BK/5,1,5055939943220       ,11
E9120BK/6,1,5055939943237       ,11
E9120YV/4,1,5055939943268       ,11
E9120YV/5,1,5055939943275       ,11
E9120YV/6,1,5055939943282       ,11
E1166BK/4,1,5055939929071       ,12
E1166BK/6,2,5055939929095       ,12
E1166WH/5,1,5055939929262       ,12
E1167BK/5,1,5055939929323       ,12
E1167BK/6,1,5055939929330       ,12
E1205BK/L-XL,2,5055939951812       ,12
E1505GY/M-L,1,5055939930107       ,12
E1505GY/S-M,1,5055939930114       ,12
E1505RD/M-L,1,5055939951270       ,12
E1505RD/S-M,1,5055939951263       ,12
E1505WH/S-M,1,5055939904566       ,12
E1513BK/L-XL,1,5055939930275       ,12
E1513WH/M-L,1,5055939930343       ,12
E6126CE/3,1,5055939933207       ,12
E6126CE/4,1,5055939933214       ,12
E8070BK/4,1,5055939916729       ,12
E8070BK/5,1,5055939916736       ,12
EM0054BK/4,1,5055939918730       ,12
EM0054BK/6,1,5055939918754       ,12
E0152BK/L-XL,2,5055939958125       ,13
E0152BK/S-M,1,5055939958118       ,13
E0154BK/L-XL,2,5055939965987       ,13
E0154BK/S-M,1,5055939958149       ,13
E1053BK/L-XL,1,5055939958071       ,13
E1053BK/M-L,1,5055939958064       ,13
E1054BK/L-XL,1,5055939958101       ,13
E1054BK/M-L,1,5055939958095       ,13
E1218BK/L-XL,1,5055939958521       ,13
E1218BK/M-L,1,5055939958514       ,13
E1219BK/L-XL,2,5055939958545       ,13
E1219BK/S-M,1,5055939958538       ,13
E1222BK/0,2,5055939958590       ,13
E1224BK/6,1,5055939966298       ,13
E1224BK/7,1,5055939966304       ,13
E1226BK/0,2,5055939959399       ,13
E1226GK/0,2,5055939960593       ,13
E3178BK/4,1,5055939957876       ,13
E3178BK/5,1,5055939957883       ,13
E9120BK/7,1,5055939943244       ,13
E9148BK/3,1,5055939959993       ,13
E9148BK/4,1,5055939960005       ,13
E9148BK/5,1,5055939960012       ,13
E1043BK/S-M,1,5055939923888       ,40
E1186GV/6,1,5055939944708       ,53
E1518GF/M-L,1,5055939948928       ,53
E3181NA/3,1,5055939958231       ,53
E3181NA/4,1,5055939958248       ,53
E3181NA/5,1,5055939958255       ,53
E3181NA/6,1,5055939958262       ,53
E8076BK/3,1,5055939924816       ,53
E8076BK/4,1,5055939924823       ,53
E8076BK/5,1,5055939924830       ,53
E8076BK/6,1,5055939924847       ,53
E8076BK/7,1,5055939924854       ,53
E8088BK/3,1,5055939943152       ,53
E9145BK/4,1,5055939959092       ,53
E9145BK/5,1,5055939959108       ,53
E9147GF/4,1,5055939959429       ,53
E9147GF/5,1,5055939959436       ,53
E0062/4,1,5055205323770       ,87
E0062/5,1,5055205323787       ,87
E0062/6,1,5055205323794       ,87
E0127BK/4,1,5055939904825       ,87
E0128BK/6,1,5055939904955       ,87
E0152BK/L-XL,1,5055939958125       ,87
E0154BK/L-XL,1,5055939965987       ,87
E0154BK/S-M,1,5055939958149       ,87
E1054BK/L-XL,1,5055939958101       ,87
E1120BK/6,1,5055205390246       ,87
E1187BK/7,1,5055939944807       ,87
E1188BK/4,1,5055939944821       ,87
E1188BK/5,1,5055939944838       ,87
E1188BK/6,1,5055939944845       ,87
E1188GV/6,1,5055939944890       ,87
E1202GF/S-M,1,5055939949925       ,87
E1225BK/M-L,1,5055939959191       ,87
E3158BK/5,1,5055939942438       ,87
E3158BK/6,1,5055939942445       ,87
E3183BK/5,1,5055939959313       ,87
E8075BK/5,1,5055939924786       ,87
E8076BK/5,1,5055939924830       ,87
E9148BK/4,1,5055939960005       ,87
E9148BK/6,1,5055939960029       ,87
E1225BK/L-XL,1,5055939959207       ,111
E3158BK/3,3,5055939942414       ,111
E3158BK/5,2,5055939942438       ,111
E8075BK/3,5,5055939924762       ,111
E8075BK/5,2,5055939924786       ,111
E9121NA/3,4,5055939943503       ,111
E9121NA/4,4,5055939943510       ,111
E9121NA/6,1,5055939943534       ,111
E1118BK/5,1,5055205389981       ,116
E1186BK/5,1,5055939944647       ,116
E1227GK/L-XL,1,5055939966328       ,116
E3134BK/5,1,5055939924397       ,116
E3158BK/4,1,5055939942421       ,116
E3158BK/6,2,5055939942445       ,116
E0062/3,1,5055205323763       ,151
E0062/6,1,5055205323794       ,151
E1038BK/L-XL,2,5055939906706       ,151
E1038BK/S-M,2,5055939906690       ,151
E1039BK/L-XL,2,5055939906720       ,151
E1039BK/S-M,2,5055939906713       ,151
E1052BK/L-XL,1,5055939958040       ,151
E1052BK/M-L,1,5055939958033       ,151
E1052BK/S-M,1,5055939958026       ,151
E1117BK/4,1,5055205390123       ,151
E1117BK/5,1,5055205390130       ,151
E1117BK/6,1,5055205390147       ,151
E1118BK/4,1,5055205389974       ,151
E1118BK/5,1,5055205389981       ,151
E1118BK/6,1,5055205389998       ,151
E1120BK/4,1,5055205390222       ,151
E1120BK/5,1,5055205390239       ,151
E1120BK/6,1,5055205390246       ,151
E1166NA/4,1,5055939952734       ,151
E1181BK/3,1,5055939942513       ,151
E1181BK/4,1,5055939942520       ,151
E1181BK/5,1,5055939942537       ,151
E1181BK/6,1,5055939942544       ,151
E1184NA/3,1,5055939944470       ,151
E1184NA/4,1,5055939944487       ,151
E1184NA/5,1,5055939944494       ,151
E1184NA/6,1,5055939944500       ,151
E1184NA/7,1,5055939944517       ,151
E1185GV/4,1,5055939944586       ,151
E1185GV/5,1,5055939944593       ,151
E1185GV/6,1,5055939944609       ,151
E1185GV/7,1,5055939944616       ,151
E1194BU/L-XL,1,5055939946146       ,151
E1194BU/S-M,1,5055939946153       ,151
E1219BK/L-XL,1,5055939958545       ,151
E1219BK/S-M,1,5055939958538       ,151
E3134BK/3,1,5055939924373       ,151
E3134BK/4,1,5055939924380       ,151
E3134BK/5,1,5055939924397       ,151
E3134BK/6,1,5055939924403       ,151
E3134BK/7,1,5055939924410       ,151
E3181NA/3,1,5055939958231       ,151
E3181NA/4,1,5055939958248       ,151
E3181NA/5,1,5055939958255       ,151
E3181NA/6,1,5055939958262       ,151
E5056BK/3,1,5055939941820       ,151
E5056BK/4,1,5055939941837       ,151
E5056BK/5,1,5055939941844       ,151
E5056BK/6,1,5055939941851       ,151
E6040BK/3,1,5055939904986       ,151
E6040BK/4,1,5055939904993       ,151
E6040BK/5,1,5055939905006       ,151
E9121NA/5,1,5055939943527       ,151
E9121RD/4,1,5055939943466       ,151
E9121RD/5,1,5055939943473       ,151
E9121RD/6,1,5055939943480       ,151
E9147NA/3,1,5055939959467       ,151
E9147NA/4,1,5055939959474       ,151
E9147NA/5,1,5055939959481       ,151
E9147NA/6,1,5055939959498       ,151
E0062/4,1,5055205323770       ,193
E0062/5,1,5055205323787       ,193
E0062/6,1,5055205323794       ,193
E1048BK/L-XL,1,5055939928197       ,193
E1048BK/S-M,1,5055939928203       ,193
E1050BK/L-XL,1,5055939928210       ,193
E1050BK/S-M,1,5055939928227       ,193
E1165OC/5,2,5055939928968       ,193
E1165RD/6,1,5055939929033       ,193
E1166BK/6,1,5055939929095       ,193
E1166BK/7,1,5055939929101       ,193
E1166GV/3,1,5055939929125       ,193
E1166GV/5,1,5055939929149       ,193
E1166GV/6,1,5055939929156       ,193
E1166PS/4,1,5055939974859       ,193
E1166PS/5,1,5055939974866       ,193
E1166PS/6,1,5055939974873       ,193
E1168BK/7,1,5055939929514       ,193
E1168OT/4,1,5055939971582       ,193
E1168OT/5,1,5055939971599       ,193
E1168OT/6,1,5055939971605       ,193
E1196BK/L-XL,1,5055939948874       ,193
E1196BK/M-L,1,5055939956510       ,193
E1196BK/S-M,1,5055939948867       ,193
E1199NA/5,1,5055939949765       ,193
E1199NA/6,1,5055939949772       ,193
E1205BK/L-XL,3,5055939951812       ,193
E1205BK/S-M,1,5055939951805       ,193
E1205GK/L-XL,2,5055939956565       ,193
E1205GK/S-M,1,5055939956558       ,193
E1205NA/L-XL,2,5055939951850       ,193
E1205NA/S-M,1,5055939951843       ,193
E1205PS/L-XL,1,5055939974590       ,193
E1205PS/S-M,1,5055939974583       ,193
E1205WH/L-XL,1,5055939956541       ,193
E1205WH/S-M,1,5055939956534       ,193
E1218BK/L-XL,1,5055939958521       ,193
E1218BK/M-L,1,5055939958514       ,193
E1218BK/S-M,1,5055939958507       ,193
E1219BK/L-XL,2,5055939958545       ,193
E1219BK/S-M,1,5055939958538       ,193
E1220BK/L-XL,2,5055939958569       ,193
E1220BK/S-M,1,5055939958552       ,193
E1234BK/L-XL,1,5055939966823       ,193
E1234BK/S-M,1,5055939966816       ,193
E1234GF/L-XL,1,5055939966847       ,193
E1234GF/S-M,1,5055939966830       ,193
E1234RD/L-XL,1,5055939966861       ,193
E1234RD/S-M,1,5055939966854       ,193
E1253LG/L-XL,1,5055939971735       ,193
E1253LG/M-L,1,5055939971728       ,193
E1253LG/S-M,1,5055939971711       ,193
E1253WH/L-XL,1,5055939971704       ,193
E1253WH/M-L,1,5055939971698       ,193
E1253WH/S-M,1,5055939971681       ,193
E1254BK/L-XL,1,5055939971797       ,193
E1254BK/M-L,1,5055939971780       ,193
E1254BK/S-M,1,5055939971773       ,193
E1256BK/L-XL,1,5055939971858       ,193
E1256BK/M-L,1,5055939971841       ,193
E1256BK/S-M,1,5055939971834       ,193
E1256OT/M-L,1,5055939971902       ,193
E1256OT/S-M,1,5055939971896       ,193
E1257BK/L-XL,1,5055939971940       ,193
E1257BK/M-L,1,5055939971933       ,193
E1257BK/S-M,1,5055939971926       ,193
E1258BK/3,1,5055939972602       ,193
E1258BK/4,1,5055939972619       ,193
E1258BK/5,1,5055939972626       ,193
E1258BK/6,1,5055939972633       ,193
E1258BK/7,1,5055939972640       ,193
E1259GK/4,1,5055939975665       ,193
E1259GK/5,1,5055939975672       ,193
E1259GK/6,1,5055939975689       ,193
E1259PS/3,1,5055939975719       ,193
E1259PS/4,1,5055939975726       ,193
E1259PS/5,1,5055939975733       ,193
E1263BK/L-XL,3,5055939977584       ,193
E1263BK/S-M,2,5055939977577       ,193
E1263WH/L-XL,2,5055939978444       ,193
E1263WH/S-M,2,5055939978437       ,193
E1264GK/L-XL,2,5055939977645       ,193
E1264GK/S-M,2,5055939977638       ,193
E1264RR/L-XL,1,5055939978420       ,193
E1264RR/S-M,1,5055939978413       ,193
E1265BP/0,2,5055939977669       ,193
E1266BP/0,2,5055939977676       ,193
E1505BA/L-XL,2,5055939978154       ,193
E1505BA/M-L,2,5055939978147       ,193
E1505BA/S-M,2,5055939978130       ,193
E1505GY/L-XL,1,5055939930091       ,193
E1505GY/M-L,1,5055939930107       ,193
E1505GY/S-M,2,5055939930114       ,193
E1505KH/L-XL,1,5055939951317       ,193
E1505KH/M-L,1,5055939951300       ,193
E1505KH/S-M,1,5055939951294       ,193
E1505MB/L-XL,3,5055939904474       ,193
E1505MB/M-L,3,5055939904481       ,193
E1505MB/S-M,2,5055939904498       ,193
E1505OR/S-M,2,5055939904528       ,193
E1505RD/M-L,2,5055939951270       ,193
E1505RD/S-M,2,5055939951263       ,193
E1505WH/M-L,2,5055939904559       ,193
E1505WH/S-M,3,5055939904566       ,193
E1506BK/L-XL,1,5055939920061       ,193
E1506BK/M-L,1,5055939920054       ,193
E1506NA/L-XL,1,5055939922850       ,193
E1506WH/M-L,1,5055939920085       ,193
E1511BA/L-XL,1,5055939971643       ,193
E1511BA/M-L,1,5055939971636       ,193
E1511BK/L-XL,1,5055939930121       ,193
E1511BK/M-L,1,5055939930138       ,193
E1511BK/S-M,1,5055939930145       ,193
E1511RR/L-XL,1,5055939959634       ,193
E1511RR/M-L,1,5055939959627       ,193
E1513BK/L-XL,1,5055939930275       ,193
E1513BK/M-L,1,5055939930282       ,193
E1513BV/L-XL,1,5055939966595       ,193
E1513BV/M-L,1,5055939966588       ,193
E1513RD/L-XL,1,5055939952833       ,193
E1513RD/M-L,1,5055939955025       ,193
E1513WH/L-XL,1,5055939930336       ,193
E1513WH/M-L,1,5055939930343       ,193
E3061W/3,1,5055205342467       ,193
E3061W/4,1,5055205342474       ,193
E3061W/5,1,5055205342481       ,193
E3061W/6,1,5055205342498       ,193
E3063W/3,1,5055205343624       ,193
E3063W/4,1,5055205343631       ,193
E3063W/5,1,5055205343648       ,193
E3063W/6,1,5055205343655       ,193
E3167BK/L-XL,1,5055939954127       ,193
E3167BK/S-M,1,5055939954110       ,193
E3167WH/L-XL,1,5055939954073       ,193
E3167WH/S-M,1,5055939954066       ,193
E3169BK/3,2,5055939954226       ,193
E3176NA/4,1,5055939957012       ,193
E3184GF/3,1,5055939970424       ,193
E3184GF/4,1,5055939970431       ,193
E3184GF/5,1,5055939970448       ,193
E3184GF/6,1,5055939970455       ,193
E3184OT/5,1,5055939970493       ,193
E3190CG/3,1,5055939974231       ,193
E3190CG/4,1,5055939974248       ,193
E3190CG/5,1,5055939974255       ,193
E3191GK/4,1,5055939974422       ,193
E3191GK/5,1,5055939974439       ,193
E3191GK/6,1,5055939974446       ,193
E3192BK/3,1,5055939974682       ,193
E3192BK/4,1,5055939974699       ,193
E3192BK/5,1,5055939974705       ,193
E3192BK/6,1,5055939974712       ,193
E3192GK/3,1,5055939974637       ,193
E3192GK/4,1,5055939974644       ,193
E3192GK/5,1,5055939974651       ,193
E3192GK/6,1,5055939974668       ,193
E3192RR/3,1,5055939974736       ,193
E3192RR/4,1,5055939974743       ,193
E3192RR/5,1,5055939974750       ,193
E3192RR/6,1,5055939974767       ,193
E4055BK/4,2,5055939953076       ,193
E4055BK/5,2,5055939953083       ,193
E4055BK/6,1,5055939953090       ,193
E4055BK/7,1,5055939953106       ,193
E4070BK/M4,1,5055939979205       ,193
E4070BK/M5,1,5055939979212       ,193
E4070BK/M6,1,5055939979229       ,193
E5069BK/3,1,5055939951577       ,193
E5069BK/4,1,5055939951584       ,193
E5069BK/5,1,5055939951591       ,193
E6124BK/3,1,5055939933009       ,193
E6124BK/4,1,5055939933016       ,193
E6126BK/3,1,5055939933160       ,193
E6126BK/4,1,5055939933177       ,193
E6126BK/5,1,5055939933184       ,193
E6126CE/3,1,5055939933207       ,193
E6126CE/4,1,5055939933214       ,193
E6126CO/3,1,5055939933245       ,193
E6126CO/4,1,5055939933252       ,193
E6126WH/2,1,5055939933276       ,193
E6126WH/3,1,5055939933283       ,193
E6126WH/4,1,5055939933290       ,193
E6147CE/3,1,5055939945477       ,193
E6147CE/4,1,5055939945484       ,193
E6153BK/2,1,5055939953274       ,193
E6153BK/3,2,5055939953281       ,193
E6153BK/4,2,5055939953298       ,193
E6153BK/5,1,5055939953304       ,193
E6169BP/2,1,5055939973258       ,193
E6169BP/3,1,5055939973265       ,193
E6169BP/4,1,5055939973272       ,193
E6169BP/5,1,5055939973289       ,193
E6171BK/3,1,5055939973562       ,193
E6171BK/4,1,5055939973579       ,193
E6171BK/5,1,5055939973586       ,193
E6171BP/3,1,5055939973616       ,193
E6171BP/4,1,5055939973623       ,193
E6173CV/3,1,5055939976068       ,193
E6173CV/4,1,5055939976075       ,193
E6174WH/3,1,5055939976167       ,193
E6174WH/4,1,5055939976174       ,193
E6177BP/3,1,5055939976389       ,193
E6177BP/4,1,5055939976396       ,193
E6177CV/3,1,5055939976433       ,193
E6177CV/4,1,5055939976440       ,193
E6184BP/2,1,5055939976860       ,193
E6184BP/3,1,5055939976877       ,193
E6184BP/4,1,5055939976884       ,193
E6184CV/3,1,5055939976921       ,193
E6184CV/4,1,5055939976938       ,193
E7117BK/3,1,5055939917016       ,193
E7117BK/4,1,5055939917023       ,193
E7117BK/5,1,5055939917030       ,193
E7117BK/6,1,5055939917047       ,193
E7117BK/7,1,5055939917054       ,193
E7117NA/4,1,5055939955056       ,193
E7117NA/5,1,5055939955063       ,193
E7117NA/6,1,5055939955070       ,193
E7117RD/4,1,5055939917894       ,193
E7117RD/5,1,5055939917900       ,193
E7117RD/6,1,5055939917917       ,193
E7117WH/4,1,5055939917078       ,193
E7117WH/5,1,5055939917085       ,193
E7117WH/6,1,5055939917092       ,193
E7127RD/3,2,5055939934389       ,193
E7127RD/4,2,5055939934396       ,193
E7127RD/5,2,5055939934402       ,193
E7128BK/0,2,5055939934419       ,193
E7128GY/0,3,5055939934426       ,193
E7128KH/0,1,5055939951324       ,193
E7128OT/0,1,5055939977461       ,193
E7131BK/K11,2,5055939949970       ,193
E7131BK/K9,1,5055939949963       ,193
E7132BK/K11,2,5055939949994       ,193
E7132BK/K9,1,5055939949987       ,193
E7136BA/0,1,5055939977393       ,193
E8064BK/4,1,5055939915982       ,193
E8064BK/6,1,5055939916002       ,193
E8064CC/4,1,5055939972237       ,193
E8064CC/5,1,5055939972244       ,193
E8064CC/6,1,5055939972251       ,193
E8064GC/4,1,5055939950976       ,193
E8064GC/5,1,5055939950983       ,193
E8064GC/6,1,5055939950990       ,193
E8064NA/4,1,5055939950907       ,193
E8064NA/5,1,5055939950914       ,193
E8064NA/6,1,5055939950921       ,193
E8066GC/3,1,5055939972299       ,193
E8066GC/4,1,5055939972305       ,193
E8066GC/5,1,5055939972312       ,193
E8066GC/6,1,5055939972329       ,193
E8066GC/7,1,5055939972336       ,193
E8092GF/4,1,5055939948409       ,193
E8092GF/5,2,5055939948416       ,193
E8092GF/6,1,5055939948423       ,193
E8104BA/3,1,5055939972015       ,193
E8104BA/4,1,5055939972022       ,193
E8104BA/5,1,5055939972039       ,193
E8104BA/6,1,5055939972046       ,193
E8104BK/4,1,5055939972077       ,193
E8104BK/5,1,5055939972084       ,193
E8104BK/6,1,5055939972091       ,193
E9106GV/4,1,5055939935317       ,193
E9106GV/5,1,5055939935324       ,193
E9106WH/3,1,5055939935355       ,193
E9140BV/3,1,5055939953526       ,193
E9140BV/4,1,5055939953533       ,193
E9140BV/5,1,5055939953540       ,193
E9141BV/4,1,5055939951461       ,193
E9141BV/5,1,5055939951478       ,193
E1160BK/4,1,5055939928500       ,196
E1160BK/5,2,5055939928517       ,196
E1160BK/7,1,5055939928531       ,196
E1160RD/4,1,5055939928623       ,196
E1160RD/5,1,5055939928630       ,196
E1160RD/6,1,5055939928647       ,196
E1168BK/3,1,5055939929477       ,196
E1168BK/4,1,5055939929484       ,196
E1168BK/5,1,5055939929491       ,196
E1168BK/6,1,5055939929507       ,196
E1168NA/4,1,5055939929583       ,196
E1168NA/5,1,5055939929590       ,196
E1168NA/6,1,5055939929606       ,196
E7127BK/3,2,5055939934358       ,196
E7127BK/4,2,5055939934365       ,196
E7127BK/5,2,5055939934372       ,196
