INVOICE,SCR078365
YOUR REF,
DATE,29/11/2018
VALUE,776.4


SKU,Qty,Value,Name,Colour,Size
E1030BK/S-M     ,2,-39.80,Pro SL Arm Warmer,Black,S-M
E1032BK/S-M     ,2,-44.80,Pro SL Knee Warmer,Black,S-M
E5033BK/4       ,1,-179.90,Wms QDC Drag2Zero S/L Lite Tri Suit,Black,M
E5033BK/5       ,1,-179.90,Wms QDC Drag2Zero S/L Lite Tri Suit,Black,L
E5037BK/5       ,1,-62.40,Wms QDC Tri Vest,Black,L
E5039BK/4       ,1,-69.90,Wms QDC Drag2Zero Tri Short,Black,M
E5039BK/5       ,1,-69.90,Wms QDC Drag2Zero Tri Short,Black,L
E5054BK/2       ,1,-79.90,QDC Tri Suit ,Black,XS
E8073BK/5       ,1,-49.90,SingleTrack Trouser,Black,L
