SKU,Maximum allowed,Barcode/EAN,Days left
E1511BK/M-L,1,5055939930138       ,3
E1511PT/M-L,1,5055939930169       ,3
E5068AN/6,1,5055939951379       ,3
E7128GY/0,2,5055939934426       ,3
E7128KH/0,2,5055939951324       ,3
E1157BK/L-XL,1,5055939928418       ,26
E5068AN/5,2,5055939951362       ,26
E5068AN/6,1,5055939951379       ,26
E5073BA/4,1,5055939949109       ,26
E0110BK,3,5055205367224       ,46
E0110BP/0,3,5055939959726       ,46
E0132MB/4,2,5055939922027       ,46
E0132MB/5,1,5055939922034       ,46
E0132MB/6,1,5055939922041       ,46
E0152BK/L-XL,2,5055939958125       ,46
E0152BK/S-M,2,5055939958118       ,46
E0153BK/L-XL,2,5055939965970       ,46
E0153BK/S-M,2,5055939958132       ,46
E0154BK/L-XL,2,5055939965987       ,46
E0154BK/S-M,2,5055939958149       ,46
E1038BK/L-XL,3,5055939906706       ,46
E1038BK/S-M,2,5055939906690       ,46
E1043BK/L-XL,1,5055939923871       ,46
E1043BK/S-M,1,5055939923888       ,46
E1181BK/3,1,5055939942513       ,46
E1181BK/4,2,5055939942520       ,46
E1181BK/5,2,5055939942537       ,46
E1181BK/6,1,5055939942544       ,46
E1184BK/3,1,5055939944425       ,46
E1184BK/4,1,5055939944432       ,46
E1184BK/5,1,5055939944449       ,46
E1184BK/6,1,5055939944456       ,46
E1184GF/3,1,5055939959566       ,46
E1184GF/4,1,5055939959573       ,46
E1184GF/5,1,5055939959580       ,46
E1184GF/6,1,5055939959597       ,46
E1227BK/L-XL,3,5055939966311       ,46
E1227BK/S-M,2,5055939959405       ,46
E1227GK/L-XL,3,5055939966328       ,46
E1227GK/S-M,2,5055939960616       ,46
E3161BK/3,1,5055939944951       ,46
E3161BK/4,1,5055939944968       ,46
E3161BK/5,1,5055939944975       ,46
E3161BK/6,1,5055939944982       ,46
E5058BK/4,1,5055939942698       ,46
E5058BK/5,1,5055939942704       ,46
E5058BK/6,1,5055939942711       ,46
E7125BK/6,1,5055939924649       ,46
E8070BK/4,2,5055939916729       ,46
E8070BK/5,2,5055939916736       ,46
E8070BK/6,1,5055939916743       ,46
E8087BK/4,2,5055939943114       ,46
E8087BK/5,2,5055939943121       ,46
E8087BK/6,1,5055939943138       ,46
E9117BK/4,1,5055939942179       ,46
E9117BK/5,1,5055939942186       ,46
E9117BK/6,1,5055939942193       ,46
E9119GF/4,1,5055939948997       ,46
E9119GF/5,1,5055939949000       ,46
E9119GF/6,1,5055939949017       ,46
E9119PW/4,1,5055939942933       ,46
E9119PW/5,1,5055939942940       ,46
E9119PW/6,1,5055939942957       ,46
E9145BK/4,1,5055939959092       ,46
E9145BK/5,1,5055939959108       ,46
E9145BK/6,1,5055939959115       ,46
EM0053GF/4,1,5055939951409       ,46
EM0053GF/5,1,5055939951416       ,46
EM0053GF/6,1,5055939951423       ,46
E1513WH/M-L,1,5055939930343       ,51
E7125BK/4,2,5055939924625       ,51
E9117YM/4,1,5055939960999       ,51
E9117YM/5,1,5055939961002       ,51
E9117YM/6,1,5055939961019       ,51
E9147NA/4,2,5055939959474       ,51
E9147NA/5,2,5055939959481       ,51
E9147NA/6,1,5055939959498       ,51
EM0054BK/6,1,5055939918754       ,51
E3133GY/4,1,5055939924281       ,66
E3133GY/5,1,5055939924298       ,66
E3133GY/6,1,5055939924304       ,66
E7125BK/5,2,5055939924632       ,66
E8084BK/5,1,5055939942384       ,66
E8084BK/4,1,5055939942377       ,81
E8084BK/6,1,5055939942391       ,81
E3181RR/3,1,5055939958286       ,93
E3181RR/4,1,5055939958293       ,93
E3181RR/5,1,5055939958309       ,93
E3181RR/6,1,5055939958316       ,93
E3182AN/3,1,5055939959023       ,93
E3182AN/4,1,5055939959030       ,93
E3182AN/5,1,5055939959047       ,93
E3182AN/6,1,5055939959054       ,93
E9142GK/3,1,5055939957401       ,93
E9142GK/4,1,5055939957418       ,93
E9142GK/5,1,5055939957425       ,93
E9142GK/6,1,5055939957432       ,93
E9143BK/3,1,5055939957456       ,93
E9143BK/4,1,5055939957463       ,93
E9143BK/5,1,5055939957470       ,93
E9143BK/6,1,5055939957487       ,93
E1184BK/4,1,5055939944432       ,100
E1184BK/5,1,5055939944449       ,100
E1184GF/4,1,5055939959573       ,100
E1184GF/6,1,5055939959597       ,100
E1184GF/7,1,5055939959603       ,100
E1506BK/S-M,1,5055939920047       ,100
E3182AN/5,1,5055939959047       ,100
E7117WH/5,2,5055939917085       ,101
E1157BK/L-XL,1,5055939928418       ,107
E1196BK/M-L,1,5055939956510       ,107
E1196BK/S-M,1,5055939948867       ,107
E3182AN/6,1,5055939959054       ,107
E5058BK/7,1,5055939942728       ,107
E9117BK/6,1,5055939942193       ,107
E1043BK/L-XL,2,5055939923871       ,120
E1117BK/4,2,5055205390123       ,120
E1117BK/5,2,5055205390130       ,120
E1117BK/6,2,5055205390147       ,120
E1117BK/7,1,5055205390154       ,120
E1120BK/4,2,5055205390222       ,120
E1120BK/5,3,5055205390239       ,120
E1120BK/6,2,5055205390246       ,120
E1120BK/7,1,5055205390253       ,120
E1160BK/3,1,5055939928494       ,120
E1184BK/5,1,5055939944449       ,120
E1184BK/6,1,5055939944456       ,120
E9119GF/4,1,5055939948997       ,120
E9143BK/5,1,5055939957470       ,120
E1160BK/6,1,5055939928524       ,127
E1505GY/M-L,2,5055939930107       ,127
E1505KH/M-L,2,5055939951300       ,127
E1505MB/L-XL,2,5055939904474       ,127
E1505MB/M-L,3,5055939904481       ,127
E1505MB/S-M,2,5055939904498       ,127
E1505RD/M-L,2,5055939951270       ,127
E1505WH/L-XL,1,5055939904542       ,127
E1505WH/M-L,1,5055939904559       ,127
E1042BK/L-XL,2,5055939923857       ,163
E1042BK/S-M,1,5055939923864       ,163
E1120BK/5,2,5055205390239       ,163
E1120BK/6,2,5055205390246       ,163
E1160BK/5,1,5055939928517       ,163
E1181BK/6,1,5055939942544       ,163
E1181BK/7,1,5055939942551       ,163
E1184BK/4,1,5055939944432       ,163
E1184GF/6,1,5055939959597       ,163
E1187BK/6,2,5055939944791       ,163
E1187BK/7,1,5055939944807       ,163
E1224BK/3,1,5055939958804       ,163
E1224BK/4,2,5055939966274       ,163
E1224BK/5,2,5055939966281       ,163
E1224BK/6,2,5055939966298       ,163
E1224BK/7,1,5055939966304       ,163
E3181RR/5,1,5055939958309       ,163
E3181RR/6,1,5055939958316       ,163
E9143BK/5,1,5055939957470       ,163
E9143BK/6,1,5055939957487       ,163
E1187BK/4,2,5055939944777       ,173
E1187BK/5,2,5055939944784       ,173
E1256BK/S-M,1,5055939971834       ,197
E1257BK/S-M,1,5055939971926       ,197
E3161BK/4,2,5055939944968       ,197
E3161BK/6,1,5055939944982       ,197
