INVOICE,SIN561250
YOUR REF,SOR340066
DATE,24/09/2018
VALUE,149.72


SKU,Qty,Value,Name,Colour,Size
E3108BK/6       ,1,48.90,FS260-Pro Jetstream L/S Jersey,Black,XL
EU3062BK/2      ,1,55.92,Wms FlipJak Reversible Jacket,Black,XS
E0047           ,1,17.45,Marlin Glasses,Black/None,One size
DEL10           ,1,10.00,Delivery - Euro                    ,,
E0047W          ,1,17.45,Marlin Glasses - White             ,,
