INVOICE,SIN646443
YOUR REF,SVC FABRICE SPRING
DATE,21/11/2019
VALUE,5.25


SKU,Qty,Value,Name,Colour,Size
E1052BK/M-L     ,1,1.25,Pro SL Arm Warmers II,Black,M-L
E4031BK/4       ,1,4.00,Pro SL Bibshort II (medium-pad),Black,M
