SKU,Maximum allowed,Barcode/EAN,Days left
E8064KH/4,1,5055939916064       ,11
E8064KH/6,1,5055939916088       ,11
E0110BK,1,5055205367224       ,18
E0110BP/0,1,5055939959726       ,18
E5056BK/4,1,5055939941837       ,18
E5049BK/5,1,5055939924540       ,19
E6108TL/4,1,5055939915838       ,19
E8100BK/4,1,5055939959146       ,19
E8100BK/5,1,5055939959153       ,19
E8100BK/6,1,5055939959160       ,19
E9126YV/6,1,5055939943947       ,19
E9117GF/5,1,5055939948164       ,52
E8098BK/4,2,5055939953359       ,54
E0110BK,2,5055205367224       ,63
E4054RD/5,1,5055939953236       ,74
E8073BK/3,2,5055939924663       ,108
E8084BK/4,1,5055939942377       ,112
E8083BK/3,1,5055939942315       ,164
E8073BK/4,1,5055939924670       ,167
E0043GK/0,1,5055939961385       ,171
E3161BK/4,1,5055939944968       ,185
E0043GK/0,1,5055939961385       ,200
E0151GF/0,1,5055939960708       ,200
E0151RR/0,1,5055939960685       ,200
E1052BK/L-XL,1,5055939958040       ,200
E1052BK/M-L,1,5055939958033       ,200
E1052BK/S-M,1,5055939958026       ,200
E1053BK/L-XL,1,5055939958071       ,200
E1053BK/M-L,1,5055939958064       ,200
E1053BK/S-M,1,5055939958057       ,200
E3125NA/3,1,5055939950822       ,200
E3125NA/4,1,5055939950839       ,200
E3125NA/5,1,5055939950846       ,200
E3134RD/3,1,5055939924328       ,200
E3134RD/4,1,5055939924335       ,200
E3134RD/5,1,5055939924342       ,200
E3134RD/6,1,5055939924359       ,200
E3177GK/4,1,5055939957760       ,200
E3177GK/5,1,5055939957777       ,200
E3177GK/6,1,5055939957784       ,200
E3192WH/W4,1,5055939978888       ,200
E3192WH/W5,1,5055939978895       ,200
E3192WH/W6,1,5055939978901       ,200
E4068BV/4,1,5055939975481       ,200
E4068BV/5,1,5055939975498       ,200
E4068BV/6,1,5055939975504       ,200
E4068BV/7,1,5055939975511       ,200
E4069GY/4,1,5055939975542       ,200
E4069GY/5,1,5055939975559       ,200
E4069GY/6,1,5055939975566       ,200
E4069GY/7,1,5055939975573       ,200
E6107BK/6,1,5055939915746       ,200
E6169BP/3,1,5055939973265       ,200
E6169BP/4,1,5055939973272       ,200
E6171BK/3,1,5055939973562       ,200
E6171BK/4,1,5055939973579       ,200
E6171BK/5,1,5055939973586       ,200
E6171BK/6,1,5055939973593       ,200
E6175GY/3,1,5055939976228       ,200
E6175GY/4,1,5055939976235       ,200
E6175GY/5,1,5055939976242       ,200
E6175GY/6,1,5055939976259       ,200
E6184BP/3,1,5055939976877       ,200
E6184BP/4,1,5055939976884       ,200
E6184BP/5,1,5055939976891       ,200
E7135BK/5,1,5055939953137       ,200
E7135BK/7,1,5055939953151       ,200
E8064GY/7,2,5055939916255       ,200
E8064KH/5,1,5055939916071       ,200
E8064KH/6,1,5055939916088       ,200
E8064KH/7,1,5055939916095       ,200
E8073BK/4,1,5055939924670       ,200
E8073BK/7,1,5055939924700       ,200
E8075BK/4,1,5055939924779       ,200
E8075BK/7,1,5055939924809       ,200
E8088BK/6,1,5055939943183       ,200
E8088BK/7,1,5055939943190       ,200
E8097GY/5,1,5055939950433       ,200
E8097GY/6,1,5055939950440       ,200
E8104BK/4,1,5055939972077       ,200
E8104BK/5,1,5055939972084       ,200
E8104BK/6,1,5055939972091       ,200
E8104BK/7,1,5055939972107       ,200
E9104CO/3,1,5055939925769       ,200
E9104CO/4,1,5055939925776       ,200
E9104CO/5,1,5055939925783       ,200
E9114BV/4,1,5055939941783       ,200
E9114BV/5,1,5055939941790       ,200
E9114BV/6,1,5055939941806       ,200
E9115CO/3,1,5055939941882       ,200
E9115CO/4,1,5055939941899       ,200
E9115CO/5,1,5055939941905       ,200
E9117BK/6,1,5055939942193       ,200
E9140BV/4,1,5055939953533       ,200
E9140BV/5,1,5055939953540       ,200
E9140BV/6,1,5055939953557       ,200
E9151BK/4,1,5055939975900       ,200
E9151BK/5,1,5055939975917       ,200
E9151BK/6,1,5055939975924       ,200
