INVOICE,SIN558459
YOUR REF,SOR338168
DATE,10/09/2018
VALUE,375.6


SKU,Qty,Value,Name,Colour,Size
E4041BK/5       ,2,97.60,FS260-Pro Thermo Bibshort,Black,L
EM0053NA/4      ,1,80.50,MTR Shell Jacket,Navy,M
EM0053NA/5      ,1,80.50,MTR Shell Jacket,Navy,L
E1513BK/M-L     ,1,58.50,FS260-Pro Helmet,Black,M-L
E1513WH/M-L     ,1,58.50,FS260-Pro Helmet,White,M-L
