SKU,Name,Color,Size,Qty,Value,
E3135BK/3,Pro SL Classics Jersey II,Black,S,1,76.41,
E3069BK/3,Pro SL PrimaLoft® Gilet,Black,S,1,62.92,
E4020BK/5,Pro SL Bibshort (medium-pad),Black,L,1,62.92,
E3119BK/3,Pro SL L/S Jersey,Black,S,1,44.91,
E7117BK/3,FS260-Pro Bibshort,Black,S,1,44.91,
E1502MO/M-L,SingleTrack Helmet,Orange,M-L,1,44.91,
E3143AN/3,Hummvee Essential FZ Hoodie,Anthracite,S,1,35.92,
E3081BK/5,FS260-Pro Jetstream Jersey,Black,L,1,40.41,
E8081BK/3,SingleTrack Short,Black,S,1,33.66,
E9027W/5,FS260-Pro Adrenaline Race Gilet,White,L,1,31.41,
E0060/3,Padded Liner,Black/None,S,2,26.82,
E0083BK/6,Deluge Zipless Overshoe,Black,XL,1,17.91,
E3138GY/3,SingleTrack Lite Tee ,Grey ,S,1,17.91,
E1030BK/M-L,Pro SL Arm Warmer,Black,M-L,1,17.91,
E1038BK/S-M,THERMOLITE® II Sock (Twin pack),Black,S-M,1,15.65,
E3137BK/4,SingleTrack Print T II,Black,M,1,15.30,
E3070WH/L-XL,Fishnet S/L Baselayer,White,L-XL,1,15.66,
E0004/S-M,Thermo Leg Warmer,Black/None,S-M,1,13.41,
E3151GY/4,One Clan Raglan L/S,Grey ,M,1,11.53,
E0003/S-M,Thermo Arm Warmer,Black/None,S-M,1,11.16,
E0035/3,BaaBaa Merino Sock (Twin Pack),Black/None,S,1,11.16,
E3154BU/4,One Clan Light T,Blue,M,1,9.53,
E6142GY/3,Women's One Clan Raglan,Grey ,S,1,9.53,
