INVOICE,SIN532341
YOUR REF,SOR319467
DATE,13/04/2018
VALUE,118.98


SKU,Qty,Value,Name,Colour,Size
E6110CO/2       ,1,39.90,Wms SingleTrack Lite Short II,Cobalt Blue,XS
E9057RD/2       ,1,24.30,Wms Roubaix Jacket,Red,XS
E3077GN/3       ,1,15.92,SingleTrack Lite Wicking T,Kelly Green,S
E3105OC/3       ,1,9.68,Stripe Tee,Ocean,S
E6039/2         ,1,19.18,Wms Hummvee Jersey,Black/None,XS
DEL10           ,1,10.00,Delivery - Euro                    ,,
