SKU,Maximum allowed,Barcode/EAN,Days left
E1160BK/5,1,5055939928517       ,25
E1160BK/6,1,5055939928524       ,25
E1160KH/2,1,5055939928548       ,25
E1160RD/2,1,5055939928609       ,25
E1160RD/3,1,5055939928616       ,25
E1160RD/4,1,5055939928623       ,25
E4031BK/5,1,5055939916989       ,25
E4055BK/4,1,5055939953076       ,25
E7105BK/3,1,5055205372662       ,25
E7105BK/4,1,5055205372679       ,25
E7105BK/7,1,5055205372709       ,25
E8064GY/3,1,5055939916217       ,25
E8064GY/7,2,5055939916255       ,25
E4031BK/4,1,5055939916972       ,27
E0040CL,2,5055205301877       ,45
E0063/3,1,5055205323824       ,45
E1128BK/L-XL,2,5055205398617       ,45
E1128BK/S-M,3,5055205399164       ,45
E1128WH/L-XL,2,5055205398624       ,45
E1160BK/5,1,5055939928517       ,45
E1160BK/6,1,5055939928524       ,45
E1160BK/7,1,5055939928531       ,45
E1160RD/4,1,5055939928623       ,45
E1160RD/6,1,5055939928647       ,45
E3067BK/5,1,5055205352190       ,45
E3125RD/6,1,5055939919287       ,45
E4055BK/6,1,5055939953090       ,45
E9134YV/6,2,5055939943381       ,45
E4055BK/4,2,5055939953076       ,53
E4055BK/5,2,5055939953083       ,53
E9134YV/7,1,5055939943398       ,53
E1160BK/3,1,5055939928494       ,100
E1160KH/5,1,5055939928579       ,100
E1160KH/6,2,5055939928586       ,100
E1160RD/2,1,5055939928609       ,100
E1160RD/5,1,5055939928630       ,100
E1160RD/6,1,5055939928647       ,100
E3125NA/6,1,5055939950853       ,100
E4055BK/4,2,5055939953076       ,100
E4055BK/5,2,5055939953083       ,100
E8064GY/6,1,5055939916248       ,100
E9128GY/3,1,5055939943558       ,100
E9128GY/4,1,5055939943565       ,100
E9128GY/5,1,5055939943572       ,100
E9128GY/6,1,5055939943589       ,100
E8064GY/4,2,5055939916224       ,101
E8064GY/5,2,5055939916231       ,101
E1128BK/L-XL,2,5055205398617       ,111
E1128BK/S-M,3,5055205399164       ,111
E1128WH/L-XL,1,5055205398624       ,111
E1128WH/S-M,2,5055205399614       ,111
E1183BK/4,1,5055939944234       ,111
E1183BK/5,1,5055939944241       ,111
E1183BK/6,1,5055939944258       ,111
E3061W/3,1,5055205342467       ,111
E6106BK/4,1,5055939919508       ,111
E8064GY/4,2,5055939916224       ,111
E8070BK/4,1,5055939916729       ,111
E0062/5,1,5055205323787       ,142
E1038BK/L-XL,3,5055939906706       ,142
E1160KH/3,1,5055939928555       ,142
E4055BK/5,3,5055939953083       ,142
E8075BK/4,1,5055939924779       ,142
E9128GY/3,1,5055939943558       ,142
E9134YV/4,2,5055939943367       ,142
E9134YV/5,2,5055939943374       ,142
E0062/4,2,5055205323770       ,149
E3179BK/3,1,5055939957920       ,149
E3179BK/4,1,5055939957937       ,149
E3179BK/5,1,5055939957944       ,149
E3179BK/6,1,5055939957951       ,149
E3178BK/4,1,5055939957876       ,157
E3183BK/4,1,5055939959306       ,160
E8070GF/4,1,5055939948454       ,160
E8075BK/4,1,5055939924779       ,160
E8088BK/4,1,5055939943169       ,160
E8088BK/5,1,5055939943176       ,160
E9134YV/3,2,5055939943350       ,160
E0040CL,3,5055205301877       ,170
E0062/4,1,5055205323770       ,170
E0062/5,1,5055205323787       ,170
E1250CL,2,5055939955797       ,170
E1251CL,3,5055939955803       ,170
E1252CL,4,5055939955810       ,170
E3183GK/3,1,5055939960449       ,170
E3183GK/5,1,5055939960463       ,170
E4034BK/4,1,5055939917665       ,170
E4055BK/6,1,5055939953090       ,170
E6066BK/4,1,5055205363745       ,170
E6066BK/5,1,5055205363752       ,170
E6106BK/2,1,5055939919485       ,170
E8070GF/5,1,5055939948461       ,170
E1160BK/4,1,5055939928500       ,185
E1160BK/5,1,5055939928517       ,185
E1160BK/6,1,5055939928524       ,185
E1160BK/7,1,5055939928531       ,185
E0128YV/2,1,5055939909608       ,193
E0128YV/3,1,5055939909615       ,193
E0154BK/S-M,2,5055939958149       ,193
E1161BK/4,1,5055939928685       ,193
E3179BK/4,1,5055939957937       ,193
E8070GF/4,1,5055939948454       ,193
E8088BK/5,1,5055939943176       ,193
E0128YV/5,1,5055939909639       ,205
E0128YV/6,1,5055939909646       ,205
E0154BK/L-XL,2,5055939965987       ,205
E0154BK/S-M,1,5055939958149       ,205
E1053BK/L-XL,1,5055939958071       ,205
E1053BK/M-L,1,5055939958064       ,205
E1160KH/2,1,5055939928548       ,205
E1160KH/7,1,5055939928593       ,205
E1160RD/2,1,5055939928609       ,205
E1160RD/5,2,5055939928630       ,205
E8064GY/7,1,5055939916255       ,205
E0062/4,1,5055205323770       ,212
E0062/5,1,5055205323787       ,212
E0153BK/L-XL,4,5055939965970       ,212
E0153BK/S-M,3,5055939958132       ,212
E1054BK/M-L,1,5055939958095       ,212
E8064GY/3,1,5055939916217       ,212
E8075BK/5,1,5055939924786       ,212
