SKU,Maximum allowed,Barcode/EAN,Days left
E1118BK/7,1,5055205390000       ,29
E1118BK/4,1,5055205389974       ,90
E1118BK/5,2,5055205389981       ,90
E1118BK/6,1,5055205389998       ,90
E8023/5,3,5055205309101       ,90
E0072BK/4,2,5055205335407       ,153
E0072BK/5,1,5055205335414       ,153
E1043BK/L-XL,2,5055939923871       ,153
E1505MB/M-L,2,5055939904481       ,153
E1505WH/M-L,1,5055939904559       ,153
E3134GV/4,1,5055939924434       ,153
E8070BK/3,1,5055939916712       ,175
E9063YV/5,1,5055205363493       ,175
E9087YV/5,2,5055205398846       ,175
