SKU,Maximum allowed,Barcode/EAN,Days left
E0110BK,2,5055205367224       ,16
E0128BK/3,1,5055939904924       ,16
E0128BK/4,2,5055939904931       ,16
E0128BK/5,2,5055939904948       ,16
E0128BK/6,2,5055939904955       ,16
E0128BK/7,1,5055939904962       ,16
E0152BK/L-XL,1,5055939958125       ,16
E1038BK/L-XL,2,5055939906706       ,16
E1038BK/S-M,2,5055939906690       ,16
E1117BK/4,1,5055205390123       ,16
E1117BK/5,1,5055205390130       ,16
E1118BK/4,1,5055205389974       ,16
E1118BK/5,2,5055205389981       ,16
E1118BK/6,2,5055205389998       ,16
E1118BK/7,1,5055205390000       ,16
E1182BK/L-XL,1,5055939942629       ,16
E1182BK/S-M,1,5055939942612       ,16
E1186BK/3,1,5055939944623       ,16
E1186BK/4,1,5055939944630       ,16
E1186BK/5,1,5055939944647       ,16
E1186BK/6,1,5055939944654       ,16
E1186BK/7,1,5055939944661       ,16
E1187BK/4,1,5055939944777       ,16
E1187BK/5,1,5055939944784       ,16
E1187BK/6,1,5055939944791       ,16
E1223BK/L-XL,1,5055939958613       ,16
E1223BK/S-M,1,5055939958606       ,16
E1226BK/0,1,5055939959399       ,16
E3072BK/3,1,5055205362144       ,16
E3072BK/4,1,5055205362151       ,16
E3072BK/5,1,5055205362168       ,16
E3072BK/6,1,5055205362175       ,16
E3072BK/7,1,5055205362182       ,16
E3134BK/4,1,5055939924380       ,16
E3134BK/5,1,5055939924397       ,16
E3134BK/6,1,5055939924403       ,16
E3134BK/7,1,5055939924410       ,16
E3134GV/3,1,5055939924427       ,16
E3134GV/4,1,5055939924434       ,16
E3134GV/5,1,5055939924441       ,16
E3134GV/6,1,5055939924458       ,16
E5049BK/3,1,5055939924526       ,16
E5049BK/4,1,5055939924533       ,16
E5049BK/5,1,5055939924540       ,16
E5049BK/6,1,5055939924557       ,16
E5056BK/4,1,5055939941837       ,16
E5056BK/5,1,5055939941844       ,16
E5056BK/6,1,5055939941851       ,16
E5056BK/7,1,5055939941868       ,16
E9102BK/4,1,5055939925523       ,16
E9102BK/5,1,5055939925530       ,16
E9102BK/6,1,5055939925547       ,16
E9117BK/4,1,5055939942179       ,16
E9120BK/4,1,5055939943213       ,16
E9120BK/5,1,5055939943220       ,16
E9120BK/6,1,5055939943237       ,16
E9122BV/4,1,5055939945422       ,16
E9122BV/5,1,5055939945439       ,16
E0154BK/L-XL,1,5055939965987       ,30
E1117BK/6,1,5055205390147       ,30
E1219BK/L-XL,1,5055939958545       ,30
E1219BK/S-M,1,5055939958538       ,30
E1220BK/L-XL,1,5055939958569       ,30
E1220BK/S-M,1,5055939958552       ,30
E9106GV/4,1,5055939935317       ,191
E1165BK/3,1,5055939928845       ,210
E1165BK/4,1,5055939928852       ,210
E1165BK/5,1,5055939928869       ,210
E1165BK/6,1,5055939928876       ,210
E5073GF/3,1,5055939949147       ,210
E5073GF/4,1,5055939949154       ,210
E5073GF/6,1,5055939949178       ,210
E6132BK/4,2,5055939933733       ,210
E6132BK/5,1,5055939933740       ,210
E7120BK/4,2,5055939915500       ,210
E7120BK/5,2,5055939915517       ,210
E7120BK/6,1,5055939915524       ,210
E8104BK/4,1,5055939972077       ,210
E8104BK/5,1,5055939972084       ,210
