SKU,Maximum allowed,Barcode/EAN,Days left
E6066BK/6,1,5055205363769       ,39
E1128BK/L-XL,2,5055205398617       ,41
E1128BK/S-M,2,5055205399164       ,41
E1128WH/L-XL,2,5055205398624       ,41
E1128WH/S-M,2,5055205399614       ,41
E1166BK/2,1,5055939929057       ,41
E1166BK/3,2,5055939929064       ,41
E1166BK/4,2,5055939929071       ,41
E1166BK/5,2,5055939929088       ,41
E1166BK/6,2,5055939929095       ,41
E1166BK/7,1,5055939929101       ,41
E3108BK/5,1,5055939909301       ,41
E3108BK/6,1,5055939909318       ,41
E3142BK/3,1,5055939931357       ,41
E3142BK/4,2,5055939931364       ,41
E3142BK/5,2,5055939931371       ,41
E3142BK/6,1,5055939931388       ,41
E4055BK/3,2,5055939953069       ,41
E4055BK/4,3,5055939953076       ,41
E4055BK/5,3,5055939953083       ,41
E4055BK/6,1,5055939953090       ,41
E6124BK/2,2,5055939932996       ,41
E6124BK/3,3,5055939933009       ,41
E6124BK/4,3,5055939933016       ,41
E6153BK/2,2,5055939953274       ,41
E6153BK/3,3,5055939953281       ,41
E6153BK/4,3,5055939953298       ,41
E6153BK/5,2,5055939953304       ,41
E7117BK/3,1,5055939917016       ,41
E7117BK/4,3,5055939917023       ,41
E7117BK/5,3,5055939917030       ,41
E7117BK/6,2,5055939917047       ,41
E0132MB/2,1,5055939922003       ,48
E0132MB/3,1,5055939922010       ,48
E0132MB/4,2,5055939922027       ,48
E0132MB/5,2,5055939922034       ,48
E1108BK/S-M,2,5055205387970       ,48
E1109BK/S-M,2,5055205387994       ,48
E8064BC/4,2,5055939936789       ,48
E8064BC/5,2,5055939936796       ,48
E8064BC/6,2,5055939936802       ,48
E8064BC/7,1,5055939936819       ,48
E8064BK/5,1,5055939915999       ,48
E8064BK/7,1,5055939916019       ,48
E8070BK/3,2,5055939916712       ,48
E8070BK/4,3,5055939916729       ,48
E8074BK/4,1,5055939924724       ,48
E8064BK/3,1,5055939915975       ,70
EP0055/3,1,5055205343471       ,70
E1166BK/4,1,5055939929071       ,80
E1166BK/5,2,5055939929088       ,80
E1166BK/6,2,5055939929095       ,80
E3108BK/6,1,5055939909318       ,80
E4055BK/4,1,5055939953076       ,80
E4055BK/6,2,5055939953090       ,80
E6153BK/5,1,5055939953304       ,80
E9120YV/4,1,5055939943268       ,80
E9120YV/5,1,5055939943275       ,80
E9120YV/6,1,5055939943282       ,80
E1108BK/L-XL,4,5055205387987       ,83
E1108BK/S-M,3,5055205387970       ,83
E1128BK/L-XL,1,5055205398617       ,83
E1128BK/S-M,1,5055205399164       ,83
E1204BK/3,1,5055939950563       ,83
E1204BK/4,2,5055939950570       ,83
E1204BK/5,1,5055939950587       ,83
E1204BK/6,1,5055939950594       ,83
E1204GC/3,1,5055939950662       ,83
E1204GC/4,2,5055939950679       ,83
E1204GC/5,2,5055939950686       ,83
E1204GC/6,1,5055939950693       ,83
E8064BC/5,1,5055939936796       ,83
E0110BK,2,5055205367224       ,130
E0128BK/2,1,5055939904917       ,130
E0128BK/3,1,5055939904924       ,130
E0128BK/4,2,5055939904931       ,130
E0128BK/5,2,5055939904948       ,130
E0128BK/6,2,5055939904955       ,130
E0128BK/7,1,5055939904962       ,130
E1119BK/4,2,5055205390543       ,130
E1119BK/5,2,5055205390550       ,130
E1119BK/6,2,5055205390567       ,130
E1119BK/7,2,5055205390574       ,130
E1186BK/2,1,5055939945248       ,130
E1186BK/3,1,5055939944623       ,130
E1186BK/4,2,5055939944630       ,130
E1186BK/5,2,5055939944647       ,130
E1187BK/5,1,5055939944784       ,130
E1187BK/6,1,5055939944791       ,130
E1187BK/7,1,5055939944807       ,130
E1227BK/L-XL,4,5055939966311       ,130
E1227BK/S-M,2,5055939959405       ,130
E1301BK/3,2,5055205363523       ,130
E1301BK/4,2,5055205363530       ,130
E1301BK/5,2,5055205363547       ,130
E1301BK/6,2,5055205363554       ,130
E1301BK/7,2,5055205363561       ,130
E5049BK/3,1,5055939924526       ,130
E5049BK/4,1,5055939924533       ,130
E5049BK/5,1,5055939924540       ,130
E5049BK/6,1,5055939924557       ,130
E5049BK/7,1,5055939924564       ,130
E8088BK/4,1,5055939943169       ,130
E8088BK/5,1,5055939943176       ,130
E8088BK/6,1,5055939943183       ,130
E8088BK/7,1,5055939943190       ,130
E9120BK/3,1,5055939943206       ,130
E9120BK/4,1,5055939943213       ,130
E9120BK/6,1,5055939943237       ,130
E9120YV/3,1,5055939943251       ,130
E9120YV/4,1,5055939943268       ,130
E9120YV/5,1,5055939943275       ,130
E9120YV/6,1,5055939943282       ,130
E0154BK/L-XL,4,5055939965987       ,201
E0154BK/S-M,2,5055939958149       ,201
E1186BK/6,1,5055939944654       ,201
E1187BK/4,1,5055939944777       ,201
E1223BK/L-XL,4,5055939958613       ,201
E1223BK/S-M,2,5055939958606       ,201
E8064BC/3,1,5055939936772       ,201
E9120BK/7,1,5055939943244       ,201
