SKU,Maximum allowed,Barcode/EAN,Days left
E0150BK/0,1,5055939936925       ,75
E0150NA/0,1,5055939936932       ,75
E0151KH/0,1,5055939936963       ,75
E0151PT/0,1,5055939936949       ,75
E1030BK/M-L,1,5055205397986       ,75
E1167BK/3,1,5055939929309       ,75
E1167BK/4,1,5055939929316       ,75
E1167BK/5,1,5055939929323       ,75
E1167BK/6,1,5055939929330       ,75
E1167BK/7,1,5055939929347       ,75
E1167WH/3,2,5055939929422       ,75
E1167WH/4,2,5055939929439       ,75
E1167WH/5,1,5055939929446       ,75
E1172BK/L-XL,1,5055939929897       ,75
E1172PT/L-XL,2,5055939929910       ,75
E1172PT/S-M,1,5055939929927       ,75
E1503RD/S-M,1,5055205389622       ,75
E1503WH/L-XL,1,5055205389615       ,75
E1503WH/M-L,1,5055205389608       ,75
E1505GV/M-L,1,5055939904450       ,75
E1505GY/M-L,2,5055939930107       ,75
E1505MB/M-L,1,5055939904481       ,75
E1505WH/M-L,1,5055939904559       ,75
E3070WH/L-XL,3,5055205361178       ,75
E3070WH/S-M,2,5055205361154       ,75
E3138GY/4,1,5055939930893       ,75
E3138GY/5,1,5055939930909       ,75
E3138GY/6,1,5055939930916       ,75
E3138PT/5,1,5055939930954       ,75
E3139BK/6,1,5055939931012       ,75
E3139RD/5,1,5055939931050       ,75
E3141BK/5,1,5055939931265       ,75
E3141BK/6,1,5055939931272       ,75
E4043BK/5,1,5055939931845       ,75
E4043BK/6,1,5055939931852       ,75
E4044BK/6,1,5055939931913       ,75
E7117BK/6,1,5055939917047       ,75
E7128BK/0,1,5055939934419       ,75
E7128GY/0,1,5055939934426       ,75
EU8048AN/5,1,5055205398747       ,75
EU8050AN/5,1,5055939915463       ,75
E3133GY/5,1,5055939924298       ,133
E3138GY/4,1,5055939930893       ,133
E3138PT/4,1,5055939930947       ,133
E8062BK/3,1,5055205398587       ,133
E9103BK/5,1,5055939925639       ,133
EU8050BU/4,1,5055939919843       ,133
