E1166BK/5,1
E6126BK/4,1
E1186GV/3,1
E0128BK/5,1
E8064BK/4,1
E1186GV/5,1
E6146BK/4,1
E8064BK/5,1
E9120YV/5,1
E8076BK/7,1
E0110UM,1
E1187BK/6,1
E3168BK/4,1
E3168BK/7,1
EM0053GF/4,1
E8088BK/3,1
E3178BK/5,1
E1226GK/0,2
E1216BV/5,1
E1234BK/S-M,1
E0110RR/0,1
E0110YM/0,1
