E9104CO/2,1
E9104CO/5,1
E9104CO/3,1
E0052,2
E0053,2
E6120BK/5,1
E0006/5,1
E9104CO/4,1
E9137RD/3,1
E0128BK/5,1
E1160BK/5,1
E0128YV/4,1
E1042BK/L-XL,2
E9126BV/7,1
E0060/5,1
E0068BK/6,1
E0076BK/4,1
E0007,1
E1120BK/6,1
