SKU,Maximum allowed,Barcode/EAN,Days left
E7117BK/4,1,5055939917023       ,1
E0003/L-XL,1,5055205300122       ,14
E0003/M-L,1,5055205300139       ,14
E0004/L-XL,1,5055205300153       ,14
E0004/S-M,1,5055205300160       ,14
E0005/L-XL,1,5055205341781       ,14
E0005/S-M,1,5055205341774       ,14
E0110BK,3,5055205367224       ,14
E0110BP/0,1,5055939959726       ,14
E0110PK,1,5055205367231       ,14
E0110RR/0,1,5055939959719       ,14
E0110UM,1,5055205367248       ,14
E1038BK/L-XL,1,5055939906706       ,14
E1038BK/S-M,1,5055939906690       ,14
E1118BK/3,1,5055205389967       ,14
E1118BK/4,1,5055205389974       ,14
E1118BK/5,1,5055205389981       ,14
E1118BK/6,1,5055205389998       ,14
E1118BK/7,1,5055205390000       ,14
E1185BK/4,1,5055939944531       ,14
E1185BK/5,1,5055939944548       ,14
E1185BK/6,1,5055939944555       ,14
E1227BK/L-XL,1,5055939966311       ,14
E1227BK/S-M,1,5055939959405       ,14
E1227GK/L-XL,1,5055939966328       ,14
E1227GK/S-M,1,5055939960616       ,14
E1227RR/L-XL,1,5055939966335       ,14
E1227RR/S-M,1,5055939960609       ,14
E3109RD/6,1,5055939909080       ,14
E3109YV/4,1,5055939909011       ,14
E3134BK/6,1,5055939924403       ,14
E3134GV/5,1,5055939924441       ,14
E3134RD/4,1,5055939924335       ,14
E5049BK/5,1,5055939924540       ,14
E5049BK/6,1,5055939924557       ,14
E5050BK/4,1,5055939927718       ,14
E5050BK/5,1,5055939927725       ,14
E5050BK/6,1,5055939927732       ,14
E5056BK/4,1,5055939941837       ,14
E5056BK/5,1,5055939941844       ,14
E5056BK/6,1,5055939941851       ,14
E6086BK/4,1,5055205389578       ,14
E8088BK/4,1,5055939943169       ,14
E8088BK/5,1,5055939943176       ,14
E8088BK/6,1,5055939943183       ,14
E9095BK/4,1,5055939918068       ,14
E9095BK/5,1,5055939918075       ,14
E9095BK/6,1,5055939918082       ,14
E9102BK/5,1,5055939925530       ,14
E9102BK/6,1,5055939925547       ,14
E9102RD/4,1,5055939925479       ,14
E9116CE/3,1,5055939942001       ,14
E9116CO/4,1,5055939942056       ,14
E9119PW/5,1,5055939942940       ,14
E9120BK/5,1,5055939943220       ,14
E9120BK/6,1,5055939943237       ,14
E9120KH/4,1,5055939943312       ,14
E9134YV/4,1,5055939943367       ,14
E1052BK/S-M,1,5055939958026       ,16
E1223BK/L-XL,1,5055939958613       ,16
E1225BK/L-XL,1,5055939959207       ,16
E1225BK/M-L,1,5055939959191       ,16
E1226BK/0,1,5055939959399       ,16
E3109BK/5,1,5055939908977       ,16
E3183BK/4,1,5055939959306       ,16
E3183BK/5,1,5055939959313       ,16
E3183BK/6,1,5055939959320       ,16
E8075BK/5,1,5055939924786       ,16
E9134BK/5,1,5055939943428       ,16
E9134BK/6,1,5055939943435       ,16
E8076BK/4,1,5055939924823       ,49
E8076BK/5,1,5055939924830       ,49
E8076BK/6,1,5055939924847       ,49
E9147GF/4,1,5055939959429       ,49
E9147RR/5,1,5055939959535       ,49
E0128BK/4,2,5055939904931       ,66
E0128BK/5,3,5055939904948       ,66
E0128BK/6,2,5055939904955       ,66
E0128YV/5,1,5055939909639       ,66
E1184BK/5,1,5055939944449       ,66
E1184BK/6,1,5055939944456       ,66
E1184GF/5,1,5055939959580       ,66
E1184GF/6,1,5055939959597       ,66
E1184NA/5,1,5055939944494       ,66
E1186GV/4,1,5055939944685       ,66
E1186GV/5,1,5055939944692       ,66
E1186GV/6,1,5055939944708       ,66
E1224BK/4,1,5055939966274       ,66
E1224BK/5,1,5055939966281       ,66
E1224BK/6,1,5055939966298       ,66
E1227BK/L-XL,1,5055939966311       ,66
E1227GK/L-XL,1,5055939966328       ,66
E1227GK/S-M,1,5055939960616       ,66
E3134RD/7,1,5055939924366       ,66
E3176NA/4,1,5055939957012       ,66
E6040BK/4,1,5055939904993       ,66
E8076BK/5,1,5055939924830       ,66
E5049BK/5,1,5055939924540       ,86
E5049BK/6,1,5055939924557       ,86
E1225BK/S-M,1,5055939959184       ,108
E1225BK/XL-XXL,2,5055939966564       ,108
E3134BK/5,1,5055939924397       ,108
E6102BK/4,1,5055939906676       ,108
E9098CT/3,1,5055939925202       ,108
EM0054NA/5,1,5055939916682       ,149
EM0054NA/6,1,5055939916699       ,149
E1161BK/4,1,5055939928685       ,196
E1161BK/5,1,5055939928692       ,196
E1161BK/6,1,5055939928708       ,196
E1165BK/4,1,5055939928852       ,196
E1165BK/5,1,5055939928869       ,196
E1165BK/6,1,5055939928876       ,196
E1165BK/7,1,5055939928883       ,196
E1205BV/L-XL,1,5055939951836       ,196
E1205BV/S-M,1,5055939951829       ,196
E1258BK/5,1,5055939972626       ,196
E1258BK/6,1,5055939972633       ,196
E1259BK/4,1,5055939975603       ,196
E1259BK/5,1,5055939975610       ,196
E1259BK/6,1,5055939975627       ,196
E1263BK/L-XL,2,5055939977584       ,196
E1263BK/S-M,2,5055939977577       ,196
E1263WH/L-XL,2,5055939978444       ,196
E1263WH/S-M,2,5055939978437       ,196
E1264GK/L-XL,1,5055939977645       ,196
E1264GK/S-M,1,5055939977638       ,196
E1264RR/L-XL,1,5055939978420       ,196
E1264RR/S-M,1,5055939978413       ,196
E1265BP/0,1,5055939977669       ,196
E1266BP/0,1,5055939977676       ,196
E1505BA/M-L,1,5055939978147       ,196
E1505GY/L-XL,1,5055939930091       ,196
E1505KH/M-L,1,5055939951300       ,196
E1505MB/L-XL,1,5055939904474       ,196
E1505MB/M-L,1,5055939904481       ,196
E1505RD/L-XL,1,5055939951287       ,196
E3192BK/5,1,5055939974705       ,196
E3192GK/4,1,5055939974644       ,196
E3192RR/6,1,5055939974767       ,196
E4054BK/4,1,5055939953175       ,196
E4054BK/5,1,5055939953182       ,196
E4054BK/6,1,5055939953199       ,196
E4055BK/4,1,5055939953076       ,196
E4055BK/5,1,5055939953083       ,196
E4055BK/6,1,5055939953090       ,196
E4070BK/M4,1,5055939979205       ,196
E4070BK/M5,1,5055939979212       ,196
E4070BK/M6,1,5055939979229       ,196
E5069BK/4,1,5055939951584       ,196
E5069BK/6,1,5055939951607       ,196
E5069GK/5,1,5055939951652       ,196
E6153BK/3,1,5055939953281       ,196
E6153BK/4,1,5055939953298       ,196
E6177BK/3,1,5055939976334       ,196
E6177BK/4,1,5055939976341       ,196
E6177BP/4,1,5055939976396       ,196
E6177CV/3,1,5055939976433       ,196
E7117BK/4,1,5055939917023       ,196
E7117BK/5,1,5055939917030       ,196
E7117BK/6,1,5055939917047       ,196
E8064BC/4,1,5055939936789       ,196
E8064BK/4,1,5055939915982       ,196
E8064BK/5,1,5055939915999       ,196
E8064BK/6,1,5055939916002       ,196
E8064BK/7,1,5055939916019       ,196
E8064CC/5,1,5055939972244       ,196
E8064GC/5,1,5055939950983       ,196
E8064NA/6,1,5055939950921       ,196
E8104BA/4,1,5055939972022       ,196
E8104BA/5,1,5055939972039       ,196
E8104BA/6,1,5055939972046       ,196
E8104BK/4,1,5055939972077       ,196
E8104BK/5,1,5055939972084       ,196
E8104BK/6,1,5055939972091       ,196
E9151BK/4,1,5055939975900       ,196
E9151BK/5,1,5055939975917       ,196
