INVOICE,SIN628313
YOUR REF,AW19
DATE,25/09/2019
VALUE,3087.59


SKU,Qty,Value,Name,Colour,Size
E3109BK/3       ,1,22.94,Pakajak II,Black,S
E3109BK/4       ,1,22.94,Pakajak II,Black,M
E3109BK/5       ,1,22.94,Pakajak II,Black,L
E3109BK/6       ,1,22.94,Pakajak II,Black,XL
E3109BK/7       ,1,22.94,Pakajak II,Black,XXL
E9116CO/3       ,1,52.73,Women's Windchill Jacket ,Cobalt Blue,S
E9116CO/4       ,1,52.73,Women's Windchill Jacket ,Cobalt Blue,M
E9116CO/5       ,1,52.73,Women's Windchill Jacket ,Cobalt Blue,L
E9116CO/6       ,1,52.73,Women's Windchill Jacket ,Cobalt Blue,XL
E9148BK/3       ,1,64.20,Pro SL HC Windproof Jacket,Black,S
E9148BK/4       ,2,128.40,Pro SL HC Windproof Jacket,Black,M
E9148BK/5       ,2,128.40,Pro SL HC Windproof Jacket,Black,L
E9148BK/6       ,2,128.40,Pro SL HC Windproof Jacket,Black,XL
E9148BK/7       ,1,64.20,Pro SL HC Windproof Jacket,Black,XXL
E9095YV/5       ,1,18.33,Pakagilet II,Hi-Viz Yellow,L
E9095YV/6       ,1,18.33,Pakagilet II,Hi-Viz Yellow,XL
E9095YV/7       ,1,18.33,Pakagilet II,Hi-Viz Yellow,XXL
E3158BK/4       ,2,91.74,MT500 Thermo L/S Jersey,Black,M
E3158BK/5       ,2,91.74,MT500 Thermo L/S Jersey,Black,L
E3158BK/6       ,2,91.74,MT500 Thermo L/S Jersey,Black,XL
E3158BK/7       ,1,45.87,MT500 Thermo L/S Jersey,Black,XXL
E8076BK/5       ,1,29.89,Hummvee Trouser II,Black,L
E5049BK/3       ,1,52.73,FS260-Pro Thermo Bibtight,Black,S
E5049BK/4       ,2,105.47,FS260-Pro Thermo Bibtight,Black,M
E5049BK/5       ,2,105.47,FS260-Pro Thermo Bibtight,Black,L
E5049BK/6       ,2,105.47,FS260-Pro Thermo Bibtight,Black,XL
E5049BK/7       ,1,52.73,FS260-Pro Thermo Bibtight,Black,XXL
E6146BK/2       ,1,48.22,Women's FS260-Pro Thermo Tight ,Black,XS
E6146BK/3       ,1,48.22,Women's FS260-Pro Thermo Tight ,Black,S
E6146BK/4       ,1,48.22,Women's FS260-Pro Thermo Tight ,Black,M
E6146BK/5       ,1,48.22,Women's FS260-Pro Thermo Tight ,Black,L
E1505GY/M-L     ,1,18.89,Hummvee Helmet,Grey,M-L
E1505GY/L-XL    ,1,18.89,Hummvee Helmet,Grey,L-XL
E1505MB/M-L     ,1,18.89,Hummvee Helmet,Matt Black,M-L
E1505RD/M-L     ,1,18.89,Hummvee Helmet,Red,M-L
E1505WH/S-M     ,1,18.89,Hummvee Helmet,White,S-M
E1513BK/M-L     ,1,54.99,FS260-Pro Helmet,Black,M-L
E1513BK/L-XL    ,1,54.99,FS260-Pro Helmet,Black,L-XL
E1513BV/M-L     ,1,54.99,FS260-Pro Helmet,Hi-Viz Blue,M-L
E1513RD/M-L     ,1,54.99,FS260-Pro Helmet,Red,M-L
E1513WH/S-M     ,1,54.99,FS260-Pro Helmet,White,S-M
E1513WH/M-L     ,1,54.99,FS260-Pro Helmet,White,M-L
E1513WH/L-XL    ,1,54.99,FS260-Pro Helmet,White,L-XL
E0151GC/0       ,1,6.39,SingleTrack Multitube,Grey Camo,One size
E0151GF/0       ,1,6.39,SingleTrack Multitube,Forest Green,One size
E0151KH/0       ,1,4.76,SingleTrack Multitube,Khaki,One size
E0151RR/0       ,1,6.39,SingleTrack Multitube,Rust Red,One size
E0128BK/3       ,1,18.81,Strike II Glove  ,Black,S
E0128BK/4       ,2,37.62,Strike II Glove  ,Black,M
E0128BK/5       ,2,37.62,Strike II Glove  ,Black,L
E1184BK/3       ,1,16.65,SingleTrack Windproof Glove,Black,S
E1184BK/4       ,2,33.30,SingleTrack Windproof Glove,Black,M
E1184BK/5       ,2,33.30,SingleTrack Windproof Glove,Black,L
E1184BK/6       ,2,33.30,SingleTrack Windproof Glove,Black,XL
E1186BK/4       ,2,35.10,Windchill Glove,Black,M
E6147BK/3       ,1,17.55,Women's Windchill Glove,Black,S
E6147BK/4       ,1,17.55,Women's Windchill Glove,Black,M
E6147BK/5       ,1,17.55,Women's Windchill Glove,Black,L
E0116PK         ,3,26.23,Women's BaaBaa Merino Winter Sock (Single),Pink,One size
E1038BK/S-M     ,3,45.40,THERMOLITEŽ II Sock (Twin pack),Black,S-M
E1038BK/L-XL    ,3,45.40,THERMOLITEŽ II Sock (Twin pack),Black,L-XL
E1185BK/4       ,1,17.39,Windchill Overshoe,Black,M
E1185BK/6       ,1,17.39,Windchill Overshoe,Black,XL
E1185BK/7       ,1,17.39,Windchill Overshoe,Black,XXL
E1108BK/S-M     ,2,55.08,SingleTrack Knee Protector,Black,S-M
E1108BK/L-XL    ,2,55.08,SingleTrack Knee Protector,Black,L-XL
E1157BK/S-M     ,2,50.38,SingleTrack Lite Knee Protector,Black,S-M
E1157BK/L-XL    ,2,50.38,SingleTrack Lite Knee Protector,Black,L-XL
E1158BK/L-XL    ,2,45.87,SingleTrack Lite Elbow Protector,Black,L-XL
