E3070WH/L-XL,2,14.06
E3104BK/5,1,19.76
E0062/4,1,11.69
E3140BK/4,1,20.80
E3140RD/6,2,20.80
E3140RD/7,2,20.80
E3142BK/4,2,29.20
E3142BK/6,2,29.20
E3143AN/6,1,31.70
E6124BK/4,2,43.80
E3125RD/6,2,18.43
E7117BK/7,2,39.43
E7117BK/4,2,39.43
E7117RD/4,2,39.43
E7117RD/6,2,39.43
E4014BK/5,2,25.56
E4014RD/5,2,25.56
E6091BK/4,2,20.81
E1166RD/5,2,14.45
E1023BK/5,2,14.06
E1165BK/3,2,9.70
E1165BK/4,2,9.70
E7122BK/K11,2,25.65
E3099KH/3,1,26.98
E3099BK/3,1,26.98
