E7122BK/K11,3
E7121BK/K11,3
E1024BK/4,3
E6040BK/5,2
E9126YV/4,1
E9126YV/5,2
E0088BK/S-M,1
E3115BK/3,1
E1152BV/5,2
E5055BK/7,2
E9130NA/4,1
E5056BK/4,2
E8064BC/6,1
E3108GV/3,1
E4027BK/4,2
E3115BK/4,1
E8073BK/6,1
E9103BK/3,1
E9103BK/6,1
E9105BK/4,1
