E7124BK/5,1
E7124BK/3,1
E3142RD/4,2
E3142RD/7,2
E0035/3,1
E1146BK/S-M,1
E2013BK/4,1
E3109YV/4,1
E6091BK/6,1
E7117BK/6,2
E4013BK/5,2
E6108TL/4,1
E4014RD/5,2
E6091BK/4,2
E9095YV/3,1
E9073YV/4,1
E8066BK/7,1
E0003/S-M,1
E0003/L-XL,2
E1128WH/S-M,2
E0040SM,1
E3032/4,1
E3104BK/7,1
E1125RD/6,2
E8066BK/6,1
E1023BK/4,2
E1024BK/2,1
E1024BK/3,1
E8067BK/4,1
E0062/5,2
E4014RD/4,3
E0003/M-L,2
