E1504GV/L-XL,1
E1504BK/M-L,1
E8070BK/4,1
E4013BK/4,1
E4013BK/5,1
E4013BK/6,1
E9071BK/5,1
E9071BK/6,1
E9071BK/7,1
E0042/6,2
E0042/7,1
E1005BK/S-M,2
E1005BK/L-XL,2
EM0049BK/L-XL,2
E1038BK/S-M,2
E1038BK/L-XL,2
E0042/5,1
E0076BK/4,1
E0076BK/5,1
E0076BK/6,1
E0076BK/7,1
E1160BK/4,1
E1160BK/5,2
E1160BK/6,2
E1160BK/7,1
E8070BK/4,1
