E1128BK/L-XL,2
E1128BK/S-M,2
E1165BK/5,2
E1165BK/6,2
E1161BK/7,2
E1161BK/6,1
E4055BK/5,2
E3138GY/3,1
E3138GY/4,1
E3138PT/3,1
E3138PT/5,1
E3125NA/4,1
E3125NA/5,1
E3125NA/6,1
E3125NA/7,1
E3125RD/4,1
E3125RD/5,1
E3125RD/6,1
E3125RD/7,1
E1505GY/L-XL,2
E1505KH/L-XL,1
E1505KH/M-L,1
