INVOICE,SIN584191
YOUR REF,5067
DATE,16/01/2019
VALUE,242.92


SKU,Qty,Value,Name,Colour,Size
E1145BK/6       ,1,24.40,Deluge II Glove      ,Black,XL
E9095RD/5       ,1,17.80,Pakagilet II,Red,L
E0060/4         ,1,12.30,Padded Liner,Black/None,M
E0060/5         ,1,12.30,Padded Liner,Black/None,L
E0052           ,2,18.20,BaaBaa Merino Skullcap,Black/None,One size
E7112BK/K11     ,2,20.00,Kids Nemo Glove,Black,11-12yrs
E7124TL/4       ,1,10.00,Kids Hummvee Glove II,Teal,M
E7124TL/5       ,1,10.00,Kids Hummvee Glove II,Teal,L
E8064GY/4       ,1,29.20,Hummvee Short II with liner,Grey,M
E1043BK/L-XL    ,1,17.00,Hummvee Waterproof Mid Length Sock ,Black,L-XL
E1118BK/6       ,1,16.00,MT500 Overshoe II ,Black,XL
E4013BK/6       ,1,21.90,Xtract Gel Short,Black,XL
