SKU,Maximum allowed,Barcode/EAN,Days left
E0062/3,2,5055205323763       ,0
E0062/4,3,5055205323770       ,0
E0062/5,4,5055205323787       ,0
E0062/6,3,5055205323794       ,0
E0062/7,2,5055205323800       ,0
E8064BC/4,1,5055939936789       ,0
E8064BK/4,3,5055939915982       ,0
E8064BK/5,3,5055939915999       ,0
E8064BK/6,2,5055939916002       ,0
E1506BK/L-XL,1,5055939920061       ,17
E1506BK/M-L,1,5055939920054       ,17
E1506NA/M-L,1,5055939922843       ,17
E0099YV,10,5055205363356       ,46
E8090AN/6,2,5055939944357       ,46
E9117BK/7,1,5055939942209       ,46
E0062/5,4,5055205323787       ,107
E0062/6,3,5055205323794       ,107
E8074BK/5,1,5055939924731       ,115
E9126YV/4,5,5055939943923       ,133
E9126YV/5,5,5055939943930       ,133
E8073BK/3,1,5055939924663       ,136
E9117BA/5,1,5055939942230       ,142
E1506GF/M-L,1,5055939948966       ,155
E0078CL,10,5055205338521       ,158
E9126BV/6,1,5055939943893       ,158
E9117BK/5,2,5055939942186       ,168
E9117BK/6,1,5055939942193       ,168
E9117BK/7,1,5055939942209       ,168
E9126BV/6,1,5055939943893       ,171
E1181BK/5,1,5055939942537       ,201
E8083BK/5,1,5055939942339       ,201
