SKU,Maximum allowed,Barcode/EAN,Days left
E0107BK/3,1,5055205358116       ,14
E0107BK/4,2,5055205358123       ,14
E0107BK/5,2,5055205358130       ,14
E0107BK/6,2,5055205358147       ,14
E0107BK/7,1,5055205358154       ,14
E0150BK/0,1,5055939936925       ,14
E0150NA/0,1,5055939936932       ,14
E0151KH/0,1,5055939936963       ,14
E0151MY/0,1,5055939936956       ,14
E0151PT/0,1,5055939936949       ,14
E1160BK/3,1,5055939928494       ,14
E1160BK/4,2,5055939928500       ,14
E1160BK/5,2,5055939928517       ,14
E1160BK/6,2,5055939928524       ,14
E1160BK/7,1,5055939928531       ,14
E1165BK/2,1,5055939936352       ,14
E1165BK/3,1,5055939928845       ,14
E1165BK/4,2,5055939928852       ,14
E1165BK/5,2,5055939928869       ,14
E1165BK/6,2,5055939928876       ,14
E1165BK/7,1,5055939928883       ,14
E1167RD/3,1,5055939929361       ,14
E1167RD/4,2,5055939929378       ,14
E1167RD/5,2,5055939929385       ,14
E1167RD/6,2,5055939929392       ,14
E1167RD/7,1,5055939929408       ,14
E1167WH/2,1,5055939929415       ,14
E1167WH/3,1,5055939929422       ,14
E1167WH/4,2,5055939929439       ,14
E1167WH/5,2,5055939929446       ,14
E1167WH/6,2,5055939929453       ,14
E1167WH/7,1,5055939929460       ,14
E6120BK/2,1,5055939932750       ,14
E6120BK/3,1,5055939932767       ,14
E6120BK/4,1,5055939932774       ,14
E6120BK/5,1,5055939932781       ,14
E6125WH/2,1,5055939933115       ,14
E6125WH/3,2,5055939933122       ,14
E6125WH/4,2,5055939933139       ,14
E6125WH/5,1,5055939933146       ,14
E6126BK/2,1,5055939933153       ,14
E6126BK/3,1,5055939933160       ,14
E6126BK/4,2,5055939933177       ,14
E6126BK/5,2,5055939933184       ,14
E6126BK/6,1,5055939936383       ,14
E0088BK/L-XL,2,5055205343211       ,199
E0088BK/S-M,2,5055205343204       ,199
E0128BK/4,1,5055939904931       ,199
E0128BK/5,2,5055939904948       ,199
E0128BK/6,2,5055939904955       ,199
E0128BK/7,1,5055939904962       ,199
E0151KH/0,1,5055939936963       ,199
E0151MY/0,1,5055939936956       ,199
E0151PT/0,1,5055939936949       ,199
E1028AN/0,1,5055205389240       ,199
E1028BK/0,1,5055205385952       ,199
E1145GV/4,1,5055939910680       ,199
E1145GV/5,1,5055939910697       ,199
E1145GV/6,1,5055939910703       ,199
E1184BK/4,1,5055939944432       ,199
E1184BK/5,1,5055939944449       ,199
E1186BK/3,1,5055939944623       ,199
E1186BK/4,1,5055939944630       ,199
E1186BK/5,2,5055939944647       ,199
E1186BK/6,1,5055939944654       ,199
E1186BK/7,1,5055939944661       ,199
E6040BK/2,1,5055939904979       ,199
E6040BK/3,1,5055939904986       ,199
E6040BK/4,1,5055939904993       ,199
E6040BK/5,1,5055939905006       ,199
E6040YV/3,1,5055939909745       ,199
E6040YV/4,1,5055939909752       ,199
E1181BK/4,1,5055939942520       ,203
E1181BK/5,1,5055939942537       ,203
E1181BK/6,1,5055939942544       ,203
E1181BK/7,1,5055939942551       ,203
E1184BK/6,1,5055939944456       ,203
E1184BK/7,1,5055939944463       ,203
E6147BK/3,1,5055939944739       ,203
E6147BK/4,1,5055939944746       ,203
E6147BK/5,1,5055939944753       ,203
E1186GV/4,1,5055939944685       ,207
E1186GV/5,1,5055939944692       ,207
E1186GV/6,2,5055939944708       ,207
E1186GV/7,1,5055939944715       ,207
E6147CE/2,1,5055939945460       ,207
E6147CE/3,1,5055939945477       ,207
E6147CE/4,1,5055939945484       ,207
