INVOICE,SIN571218
YOUR REF,sow121118
DATE,12/11/2018
VALUE,79.92


SKU,Qty,Value,Name,Colour,Size
E1184NA/5       ,2,29.60,SingleTrack Windproof Glove,Navy,L
E0128BK/5       ,2,32.00,Strike II Glove  ,Black,L
DEL             ,1,5.00,Delivery -Mainland UK (up to 30kgs),,
