E1505GV/L-XL,1
E1505WH/M-L,1
E1128BK/L-XL,1
E1128BK/S-M,1
E1128WH/S-M,1
E4014BK/3,1
E4014BK/4,1
E4014BK/7,1
E9063YV/4,1
E0003/L-XL,1
E1131BK/S-M,1
E4028BK/4,1
E4028BK/5,1
E4028BK/7,1
E6061LL/6,1
E0040ST,1
E3125RD/7,1
E4029BK/4,1
E4029BK/5,1
E4029BK/7,1
E6095BK/6,1
E6104CE/6,1
E0096BK/5,1
E3134RD/7,1
E4029RD/4,1
E1174PT/0,1
E1170YV/0,1
E1138BK/0,1
E0132MB/4,1
E0132MB/5,1
E8064GY/5,1
E8064GY/6,1
E8064BK/5,1
E8064BK/7,1
E6126BK/5,1
E6090CE/5,1
E4032BK/4,1
E3102RD/4,1
E3102RD/5,1
E3102RD/7,1
E1165RD/4,1
E1165GV/3,1
E1165GV/5,1
E1165BK/5,1
E1165BK/6,1
E1513GV/M-L,1
E3106RD/4,1
E1157BK/S-M,1
E1158BK/S-M,1
E3132BV/5,1
E3132BV/6,1
ET7101MV/6,1
ET7100MV/5,1
ET7100MV/6,1
ET7102MV/6,1
