E0128BK/2,1
E0128BK/7,1
E4028BK/4,1
E4028BK/5,1
E4028BK/6,1
E4028BK/7,1
E4028BK/2,1
E9102BK/6,1
E9102BK/7,1
E9102RD/4,1
E8064BK/4,1
E8064BK/5,1
E5056BK/6,1
E5056BK/7,1
E5056BK/8,1
E9121RD/7,1
E1185BK/7,1
E4054BK/3,1
E4055BK/3,1
E4055BK/5,1
E4055BK/6,1
E1224BK/2,1
E9120YV/7,1
E9120YV/8,1
E9120KH/3,1
E9120KH/5,1
E9120KH/6,1
E9120KH/7,1
