ProductCode;QtyInStock
E0035;100
E0035;0
E0040;0
E0040;100
E0040;100
E0041;100
E0043;100
E0045;100
E0048;100
E0060;22
E0060;100
E0060;100
E0060;100
E0060;19
E0061;50
E0061;100
E0061;100
E0061;36
E0061;0
E0062;0
E0062;28
E0062;100
E0062;100
E0062;50
E0062;0
E0062;0
E0063;6
E0063;5
E0063;50
E0063;50
E0063;26
E0063;10
E0066;100
E0066;100
E0066;50
E0073;100
E0078;100
E0083;20
E0083;0
E0083;0
E0083;0
E0083;0
E0086;23
E0089;20
E0089;0
E0089;0
E0089;0
E0091;100
E0098;0
E0098;0
E0105;0
E0105;0
E0110;0
E0110;100
E0110;100
E0110;0
E0110;48
E0110;100
E0114;0
E0114;100
E0114;0
E0114;0
E0116;100
E0127;1
E0127;0
E0127;0
E0127;0
E0127;7
E0127;0
E0128;32
E0128;100
E0128;41
E0128;0
E0128;100
E0128;100
E0128;50
E0128;0
E0128;0
E0128;0
E0128;0
E0128;0
E0130;3
E0130;7
E0130;35
E0130;29
E0130;28
E0130;14
E0132;0
E0132;50
E0132;38
E0132;0
E0132;50
E0132;0
E0132;50
E0132;0
E0132;0
E0132;0
E0132;0
E0132;0
E0132;0
E0132;0
E0132;0
E0132;0
E0132;0
E0132;0
E0151;0
E0151;100
E0151;100
E0152;0
E0152;0
E0153;100
E0153;100
E0154;100
E0154;100
E0156;0
E0156;0
E0156;0
E0156;0
E0156;0
E0156;0
E0157;0
E0157;0
E0157;0
E0157;0
E0157;0
E0157;0
E0157;0
E0157;0
E0157;0
E0157;0
E0157;0
E0157;0
E0157;0
E0157;0
E0157;0
E0157;0
E0157;0
E0157;0
E1038;100
E1038;100
E1039;100
E1039;100
E1040;0
E1041;100
E1042;0
E1042;0
E1043;0
E1043;0
E1048;30
E1048;36
E1050;50
E1050;27
E1052;40
E1052;50
E1052;50
E1053;50
E1053;31
E1053;5
E1054;18
E1054;6
E1054;50
E1055;0
E1055;0
E1102;100
;
E1108;0
E1108;0
E1109;0
E1109;0
E1109;0
E1112;0
E1112;0
E1117;15
E1117;100
E1117;13
E1117;50
E1117;0
E1118;0
E1118;50
E1118;1
E1118;0
E1118;0
E1119;50
E1119;100
E1119;100
E1119;50
E1119;50
E1120;100
E1120;0
E1120;100
E1120;0
E1120;10
E1120;0
E1120;16
E1120;0
E1120;0
E1120;0
E1121;50
E1128;0
E1128;0
E1128;0
E1128;0
E1129;100
E1129;100
E1130;100
E1130;13
E1131;30
E1131;0
E1135;0
E1136;25
E1137;50
E1137;50
E1138;100
E1138;100
E1138;50
E1144;0
E1145;16
E1145;46
E1145;50
E1145;0
E1145;0
E1145;0
E1145;2
E1145;0
E1145;0
E1145;0
E1145;1
E1145;9
E1148;0
E1148;0
E1149;0
E1150;0
E1151;100
E1152;100
E1152;100
E1152;100
E1152;100
E1152;100
E1155;2
E1155;3
E1157;0
E1157;0
E1158;0
E1158;0
E1160;50
E1160;50
E1160;100
E1160;100
E1160;100
E1160;50
E1160;14
E1160;100
E1160;100
E1160;100
E1160;100
E1160;50
E1160;45
E1160;42
E1160;100
E1160;0
E1160;0
E1160;100
E1161;50
E1161;19
E1161;0
E1161;0
E1161;50
E1161;4
E1161;47
E1161;19
E1161;21
E1161;36
E1161;0
E1161;30
E1162;26
E1162;26
E1162;100
E1162;50
E1162;50
E1162;32
E1165;21
E1165;100
E1165;100
E1165;100
E1165;100
E1165;100
E1165;0
E1165;100
E1165;100
E1165;100
E1165;100
E1165;100
E1165;39
E1165;100
E1165;100
E1165;100
E1165;100
E1165;100
E1165;50
E1165;100
E1165;100
E1165;100
E1165;100
E1165;100
E1166;3
E1166;100
E1166;100
E1166;0
E1166;100
E1166;100
E1166;11
E1166;31
E1166;0
E1166;100
E1166;50
E1166;50
E1166;23
E1166;50
E1166;100
E1166;100
E1166;100
E1166;50
E1166;3
E1166;0
E1166;50
E1166;100
E1166;100
E1166;50
E1166;24
E1166;50
E1166;0
E1166;0
E1166;25
E1166;50
E1166;43
E1166;3
E1166;0
E1166;42
E1166;24
E1166;36
E1166;44
E1166;37
E1166;45
E1166;0
E1166;100
E1166;50
E1167;0
E1167;0
E1167;0
E1167;0
E1167;0
E1167;0
E1167;0
E1167;0
E1167;0
E1167;0
E1167;0
E1167;0
E1167;1
E1167;0
E1167;0
E1167;0
E1167;0
E1167;0
E1168;50
E1168;100
E1168;100
E1168;100
E1168;0
E1168;50
E1168;100
E1168;100
E1168;100
E1168;100
E1168;50
E1168;100
E1168;100
E1168;100
E1168;50
E1170;100
E1170;50
E1170;50
E1170;100
E1171;50
E1171;100
E1174;100
E1174;100
E1174;100
E1181;0
E1181;0
E1181;0
E1181;50
E1181;20
E1182;0
E1182;0
E1183;0
E1183;0
E1183;50
E1183;0
E1183;0
E1183;0
E1183;0
E1183;0
E1183;0
E1183;0
E1184;0
E1184;100
E1184;0
E1184;0
E1184;0
E1184;50
E1184;36
E1184;13
E1184;0
E1184;9
E1184;50
E1184;100
E1184;100
E1184;100
E1184;100
E1185;1
E1185;45
E1185;28
E1185;50
E1185;33
E1185;23
E1185;50
E1185;100
E1185;100
E1185;50
E1185;0
E1185;0
E1185;0
E1185;0
E1185;0
E1186;17
E1186;100
E1186;100
E1186;100
E1186;100
E1186;100
E1186;50
E1186;100
E1186;100
E1186;100
E1186;100
E1186;100
E1186;0
E1186;0
E1186;0
E1186;0
E1186;0
E1186;0
E1187;0
E1187;45
E1187;0
E1187;0
E1187;32
E1187;27
E1188;100
E1188;100
E1188;100
E1188;100
E1188;0
E1188;50
E1188;100
E1188;100
E1188;100
E1188;9
E1188;4
E1188;39
E1188;0
E1188;0
E1188;10
E1189;100
E1190;0
E1191;100
E1192;0
E1192;100
E1192;100
E1193;100
E1194;13
E1194;10
E1195;50
E1195;47
E1195;100
E1196;0
E1196;0
E1196;0
E1197;16
E1199;100
E1199;100
E1199;100
E1199;100
E1199;100
E1199;100
E1199;100
E1199;100
E1199;100
E1199;100
E1202;0
E1202;0
E1202;100
E1202;100
E1204;0
E1204;0
E1204;0
E1204;0
E1204;0
E1204;0
E1204;0
E1204;0
E1204;5
E1204;20
E1205;100
E1205;100
E1205;0
E1205;50
E1205;100
E1205;100
E1205;100
E1205;100
E1205;100
E1205;100
E1205;100
E1205;100
E1205;100
E1205;100
E1215;19
E1216;100
E1216;100
E1216;100
E1216;100
E1216;100
E1216;100
E1216;18
E1216;0
E1216;0
E1216;18
E1216;16
E1216;7
E1217;18
E1217;50
E1217;100
E1217;50
E1217;28
E1217;22
E1217;50
E1217;100
E1217;100
E1217;49
E1218;100
E1218;100
E1218;100
E1219;100
E1219;100
E1220;100
E1220;100
E1221;100
E1221;50
E1222;100
E1223;100
E1223;100
E1224;49
E1224;100
E1224;100
E1224;100
E1224;100
E1224;50
E1225;50
E1225;100
E1225;100
E1225;22
E1226;100
E1226;100
E1227;100
E1227;100
E1227;100
E1227;100
E1227;100
E1227;100
E1234;100
E1234;100
E1234;0
E1234;18
E1234;0
E1234;28
E1235;0
E1236;0
E1238;0
E1238;0
E1239;0
E1239;0
E1250;100
E1251;100
E1252;100
E1253;100
E1253;100
E1253;100
E1253;100
E1253;100
E1253;100
E1253;100
E1253;100
E1253;100
E1254;100
E1254;100
E1254;0
E1255;100
E1255;50
E1255;100
E1256;100
E1256;100
E1256;100
E1256;100
E1256;100
E1256;100
E1256;100
E1256;100
E1256;100
E1257;0
E1257;0
E1257;0
E1258;2
E1258;33
E1258;23
E1258;24
E1258;18
E1258;100
E1258;100
E1258;100
E1258;100
E1258;100
E1258;0
E1258;0
E1258;0
E1258;50
E1258;24
E1258;23
E1258;45
E1258;0
E1258;50
E1258;29
E1258;50
E1258;50
E1258;50
E1258;50
E1258;42
E1259;0
E1259;0
E1259;46
E1259;50
E1259;50
E1259;41
E1259;28
E1259;50
E1259;0
E1259;0
E1259;0
E1259;17
E1259;12
E1259;12
E1259;19
E1259;11
E1259;20
E1259;50
E1260;0
E1261;0
E1263;100
E1263;100
E1263;100
E1263;100
E1264;0
E1264;0
E1264;100
E1264;50
E1265;0
E1266;0
E1267;7
E1267;10
E1267;21
E1267;13
E1267;8
E1267;9
E1268;0
E1268;0
E1268;0
E1268;0
E1268;0
E1269;0
E1269;0
E1269;0
E1269;0
E1269;0
E1269;0
E1269;0
E1269;0
E1269;0
E1269;0
E1269;0
E1269;0
E1270;0
E1270;0
E1270;0
E1270;0
E1270;0
E1270;0
E1270;0
E1270;0
E1270;0
E1270;0
E1271;0
E1271;0
E1271;0
E1271;0
E1271;0
E1272;0
E1272;0
E1272;0
E1272;0
E1272;0
E1272;0
E1273;0
E1273;0
E1273;0
E1273;0
E1273;0
E1273;0
E1273;0
E1273;0
E1274;0
E1274;0
E1274;0
E1274;0
E1274;0
E1274;0
E1274;0
E1274;0
E1301;0
E1301;12
E1301;40
E1301;45
E1301;0
E1301;0
E1504;100
E1504;100
E1504;50
E1505;100
E1505;100
E1505;100
E1505;100
E1505;100
E1505;100
E1505;100
E1505;100
E1505;100
E1505;100
E1505;100
E1505;100
E1505;0
E1505;0
E1505;3
E1505;100
E1505;100
E1505;100
E1505;100
E1505;100
E1505;100
E1506;100
E1506;100
E1506;100
E1506;0
E1506;0
E1506;0
E1506;50
E1506;100
E1506;49
E1506;0
E1506;0
E1506;0
E1506;50
E1506;100
E1506;100
E1511;100
E1511;100
E1511;100
E1511;100
E1511;100
E1511;100
E1511;0
E1511;28
E1511;50
E1511;41
E1511;50
E1511;50
E1511;41
E1511;100
E1511;100
E1512;22
E1512;50
E1512;45
E1512;10
E1512;4
E1512;35
E1512;25
E1512;50
E1512;50
E1512;50
E1512;50
E1512;44
E1513;100
E1513;100
E1513;30
E1513;50
E1513;100
E1513;44
E1513;50
E1513;42
E1513;50
E1513;100
E1513;100
E1513;50
E1513;100
E1513;100
E1513;100
E1515;0
E1517;100
E1517;100
E1517;100
E1517;36
E1517;100
E1517;22
E1517;50
E1517;100
E1517;50
E1518;0
E1518;0
E1518;0
E1518;0
E1518;0
E1518;0
E1518;0
E1518;0
E1518;0
E1537;0
E1537;0
E1537;0
E1537;0
E1537;0
E1537;0
E1538;0
E1538;0
E1538;0
E1538;0
E1538;0
E1538;0
E1538;0
E1538;0
E1538;0
E1540;0
E1540;0
E1540;0
E1540;0
E1540;0
E1540;0
E1540;0
E1540;0
E1599;0
E2010;9
E2010;7
E2010;0
E2010;100
E2010;0
E3061;32
E3061;0
E3061;0
E3061;0
E3061;0
E3061;5
E3063;32
E3063;14
E3063;0
E3063;0
E3063;12
E3063;19
E3067;2
E3067;1
E3067;0
E3067;0
E3067;0
E3072;0
E3072;0
E3072;0
E3072;13
E3072;2
E3109;1
E3109;21
E3109;34
E3109;25
E3109;36
E3109;17
E3109;0
E3109;0
E3109;0
E3109;0
E3109;0
E3109;0
E3109;7
E3109;0
E3109;0
E3109;0
E3109;0
E3109;0
E3109;0
E3109;50
E3109;0
E3109;0
E3109;0
E3109;0
E3123;0
E3123;0
E3123;0
E3123;0
E3123;0
E3123;0
E3123;0
E3123;0
E3123;0
E3123;0
E3125;27
E3125;50
E3125;37
E3125;37
E3125;50
E3125;32
E3125;0
E3125;12
E3125;50
E3125;50
E3125;100
E3125;45
E3125;50
E3125;18
E3125;50
E3125;38
E3125;8
E3125;16
E3125;8
E3125;5
E3125;4
E3125;19
E3125;35
E3125;0
E3125;31
E3125;14
E3125;0
E3125;5
E3125;50
E3125;32
E3125;100
E3125;50
E3125;36
E3125;27
E3133;29
E3133;50
E3133;50
E3133;100
E3133;41
E3133;14
E3133;0
E3133;0
E3133;0
E3133;0
E3133;0
E3133;0
E3133;18
E3133;50
E3133;100
E3133;100
E3133;43
E3133;18
E3133;0
E3133;15
E3133;17
E3133;24
E3133;15
E3133;30
E3134;100
E3134;100
E3134;100
E3134;100
E3134;50
E3134;0
E3134;0
E3134;0
E3134;0
E3134;0
E3134;0
E3134;0
E3134;0
E3134;0
E3134;0
E3134;45
E3134;32
E3134;100
E3134;50
E3134;8
E3135;20
E3135;0
E3135;2
E3135;0
E3135;0
E3135;0
E3135;1
E3135;1
E3135;0
E3135;1
E3135;0
E3140;27
E3140;50
E3140;50
E3140;50
E3140;0
E3140;30
E3140;50
E3140;50
E3140;49
E3140;0
E3140;0
E3140;0
E3140;0
E3140;50
E3140;5
E3141;0
E3141;0
E3141;100
E3141;50
E3141;50
E3141;41
E3141;0
E3141;0
E3141;26
E3141;30
E3141;27
E3141;0
E3142;0
E3142;0
E3142;0
E3142;17
E3142;0
E3142;3
E3142;10
E3142;30
E3142;1
E3142;50
E3142;0
E3142;0
E3142;0
E3142;0
E3142;0
E3143;40
E3143;47
E3143;50
E3143;50
E3143;37
E3143;19
E3151;0
E3151;0
E3151;0
E3151;0
E3151;0
E3151;0
E3151;0
E3151;0
E3151;0
E3151;0
E3151;0
E3151;0
E3151;0
E3151;0
E3151;0
E3151;0
E3151;0
E3152;14
E3152;0
E3152;0
E3152;0
E3152;0
E3153;0
E3153;0
E3153;0
E3153;0
E3153;0
E3153;0
E3153;19
E3153;8
E3153;0
E3153;0
E3153;14
E3153;0
E3153;0
E3153;0
E3153;0
E3153;3
E3153;0
E3154;0
E3154;0
E3154;0
E3154;0
E3154;0
E3154;0
E3154;16
E3154;50
E3154;50
E3154;4
E3154;0
E3154;0
E3154;7
E3154;24
E3154;100
E3154;0
E3154;0
E3154;0
E3154;0
E3154;0
E3154;0
E3154;0
E3154;0
E3155;50
E3155;0
E3155;1
E3155;0
E3155;0
E3156;20
E3156;42
E3156;14
E3156;18
E3156;6
E3157;9
E3157;44
E3157;50
E3157;50
E3157;18
E3158;22
E3158;0
E3158;0
E3158;0
E3158;14
E3159;0
E3159;0
E3159;0
E3159;0
E3159;0
E3159;0
E3159;19
E3159;0
E3159;0
E3159;0
E3159;9
E3159;16
E3159;0
E3159;0
E3159;0
E3159;0
E3159;0
E3159;0
E3159;23
E3159;0
E3159;0
E3159;0
E3159;3
E3159;2
E3161;41
E3161;50
E3161;100
E3161;46
E3161;22
E3167;0
E3167;0
E3167;0
E3167;0
E3168;100
E3168;100
E3168;100
E3168;100
E3168;50
E3169;1
E3169;0
E3169;0
E3169;0
E3169;0
E3170;30
E3170;0
E3170;0
E3170;12
E3170;43
E3171;0
E3171;27
E3171;7
E3171;8
E3171;0
E3173;0
E3173;0
E3173;0
E3173;0
E3173;0
E3173;0
E3173;0
E3173;0
E3173;0
E3173;0
E3174;44
E3174;50
E3174;100
E3174;100
E3174;50
E3174;47
E3174;48
E3174;100
E3174;100
E3174;100
E3174;100
E3174;50
E3176;0
E3176;0
E3176;0
E3176;0
E3176;0
E3176;0
E3176;0
E3176;2
E3176;0
E3176;0
E3176;0
E3176;7
E3176;0
E3176;0
E3176;0
E3176;0
E3176;0
E3176;0
E3177;2
E3177;0
E3177;50
E3177;100
E3177;50
E3177;50
E3177;0
E3177;0
E3177;0
E3177;0
E3177;0
E3177;0
E3177;39
E3177;40
E3177;18
E3177;43
E3177;50
E3177;50
E3178;22
E3178;5
E3178;50
E3178;45
E3178;23
E3178;20
E3179;19
E3179;39
E3179;38
E3179;0
E3179;14
E3179;15
E3180;0
E3180;0
E3180;0
E3180;0
E3180;0
E3180;0
E3181;50
E3181;100
E3181;100
E3181;100
E3181;33
E3181;38
E3181;50
E3181;100
E3181;48
E3181;33
E3181;50
E3181;100
E3181;50
E3181;50
E3181;41
E3182;0
E3182;17
E3182;24
E3182;50
E3182;6
E3183;100
E3183;100
E3183;100
E3183;100
E3183;100
E3183;13
E3183;38
E3183;36
E3183;0
E3183;4
E3183;50
E3183;100
E3183;100
E3183;100
E3183;50
E3184;0
E3184;0
E3184;0
E3184;0
E3184;0
E3184;44
E3184;100
E3184;50
E3184;50
E3184;0
E3184;0
E3184;0
E3184;25
E3184;0
E3184;0
E3185;0
E3185;0
E3185;0
E3185;0
E3185;0
E3185;0
E3185;0
E3185;0
E3185;0
E3185;0
E3186;0
E3186;0
E3186;0
E3186;0
E3186;0
E3186;0
E3186;0
E3186;0
E3186;0
E3186;0
E3188;0
E3188;0
E3188;0
E3188;0
E3188;0
E3188;0
E3188;0
E3188;0
E3188;0
E3188;0
E3188;0
E3188;0
E3188;0
E3188;0
E3188;0
E3188;0
E3188;0
E3188;0
E3188;0
E3188;0
E3189;50
E3189;100
E3189;100
E3189;100
E3189;50
E3189;0
E3189;100
E3189;100
E3189;100
E3189;50
E3189;100
E3189;100
E3189;100
E3189;100
E3189;100
E3190;11
E3190;0
E3190;0
E3190;0
E3190;0
E3190;4
E3190;14
E3190;26
E3190;0
E3190;0
E3190;27
E3190;23
E3191;9
E3191;0
E3191;50
E3191;50
E3191;50
E3191;36
E3191;14
E3191;30
E3191;0
E3191;38
E3191;100
E3191;50
E3192;31
E3192;50
E3192;50
E3192;50
E3192;50
E3192;0
E3192;50
E3192;100
E3192;100
E3192;50
E3192;2
E3192;0
E3192;0
E3192;0
E3192;0
E3192;12
E3192;0
E3192;34
E3192;18
E3192;18
E3192;29
E3192;43
E3192;50
E3192;49
E3192;47
E3192;11
E3192;43
E3192;100
E3192;100
E3192;100
E3192;11
E3192;25
E3192;47
E3192;44
E3192;22
E3192;5
E3192;19
E3192;48
E3192;46
E3192;32
E3193;20
E3193;46
E3193;0
E3193;50
E3193;6
E3193;38
E3193;10
E3193;50
E3193;12
E3193;50
E3193;38
E3193;50
E3194;0
E3194;0
E3194;0
E3194;0
E3194;0
E3194;0
E3194;0
E3194;0
E3194;0
E3194;0
E3194;0
E3194;0
E3194;0
E3194;0
E3194;0
E3194;0
E3194;0
E3194;0
E4027;30
E4027;100
E4027;100
E4027;100
E4027;27
E4027;18
E4028;32
E4028;0
E4028;0
E4028;0
E4028;25
E4028;0
E4029;12
E4029;0
E4029;0
E4029;0
E4029;0
E4029;1
E4029;0
E4029;0
E4029;0
E4029;0
E4029;0
E4030;50
E4030;0
E4030;0
E4030;0
E4030;1
E4030;6
E4031;2
E4031;3
E4031;0
E4031;0
E4031;22
E4031;31
E4032;15
E4032;0
E4032;0
E4032;0
E4032;0
E4032;0
E4033;0
E4033;0
E4033;0
E4033;0
E4033;0
E4033;0
E4034;3
E4034;0
E4034;0
E4034;0
E4034;0
E4034;0
E4035;0
E4035;0
E4035;0
E4035;0
E4035;0
E4035;0
E4041;0
E4041;50
E4041;50
E4041;50
E4041;18
E4042;1
E4042;0
E4042;0
E4042;0
E4042;0
E4042;0
E4043;1
E4043;18
E4043;10
E4043;7
E4043;22
E4043;6
E4044;0
E4044;0
E4044;3
E4044;3
E4044;3
E4044;0
E4054;0
E4054;0
E4054;0
E4054;0
E4054;0
E4054;0
E4054;0
E4054;0
E4054;0
E4054;0
E4054;0
E4054;0
E4055;0
E4055;0
E4055;0
E4055;0
E4055;0
E4056;0
E4056;0
E4056;0
E4056;0
E4056;0
E4068;19
E4068;7
E4068;23
E4068;100
E4068;50
E4068;18
E4068;13
E4068;9
E4068;100
E4068;100
E4068;100
E4068;24
E4069;38
E4069;100
E4069;100
E4069;100
E4069;100
E4069;100
E4070;0
E4070;0
E4070;0
E4070;0
E4070;0
E4070;0
E4070;0
E4070;0
E4070;0
E4070;0
E4070;0
E4070;0
E4070;0
E4070;0
E4070;0
E4070;0
E4070;0
E4070;0
E4071;0
E4071;0
E4071;0
E4071;0
E4071;0
E4071;0
E4071;0
E4071;0
E4071;0
E4071;0
E4071;0
E4071;0
E4071;0
E4071;0
E4071;0
E4071;0
E4071;0
E4071;0
;
;
;
;
;
;
;
;
;
;
;
;
;
;
;
;
;
;
;
;
;
;
;
;
E5048;0
E5048;0
E5049;100
E5049;0
E5049;0
E5049;1
E5049;50
E5050;1
E5050;0
E5050;0
E5050;12
E5050;7
E5051;0
E5051;0
E5051;0
E5051;0
E5051;0
E5051;0
E5052;0
E5052;0
E5052;0
E5052;0
E5052;0
E5052;0
E5053;0
E5053;1
E5053;0
E5053;0
E5053;0
E5053;0
E5054;0
E5054;0
E5054;0
E5054;0
E5054;0
E5054;0
E5055;50
E5055;33
E5055;0
E5055;0
E5055;44
E5056;100
E5056;100
E5056;100
E5056;100
E5056;100
E5056;27
E5057;1
E5057;39
E5057;12
E5057;26
E5057;2
E5058;4
E5058;50
E5058;50
E5058;33
E5058;37
E5059;7
E5059;0
E5059;12
E5059;17
E5059;20
E5060;2
E5060;0
E5060;8
E5060;1
E5061;0
E5061;0
E5061;0
E5061;0
E5066;4
E5066;22
E5066;44
E5066;50
E5066;14
E5067;50
E5067;100
E5067;100
E5067;100
E5067;14
E5067;23
E5067;100
E5067;100
E5067;100
E5067;6
E5068;50
E5068;50
E5068;50
E5068;50
E5068;47
E5069;24
E5069;0
E5069;0
E5069;0
E5069;0
E5069;34
E5069;25
E5069;49
E5069;5
E5069;14
E5069;0
E5069;0
E5069;12
E5069;50
E5069;50
E5069;44
E5069;33
E5069;38
E5073;9
E5073;0
E5073;46
E5073;31
E5073;23
E5073;25
E5073;47
E5073;36
E5073;25
E5073;0
E5073;50
E5073;23
E5073;50
E5073;50
E5073;22
E5073;30
E5073;50
E5073;35
E5073;44
E5073;20
E5074;0
E5074;0
E5074;0
E5074;0
E5074;0
E5075;0
E5075;0
E5075;0
E5075;0
E5075;0
E5077;0
E5077;0
E5077;0
E5077;0
E5077;0
E5078;0
E5078;0
E5078;0
E5078;0
E5078;0
E5078;0
E5078;0
E5078;0
E5078;0
E5078;0
E5078;0
E5078;0
E5079;0
E5079;0
E5079;0
E5079;0
E5079;0
E5079;0
E5080;0
E5080;0
E5080;0
E5080;0
E5080;0
E5080;0
E5081;0
E5081;0
E5081;0
E5081;0
E5081;0
E5081;0
E5082;0
E5082;0
E5082;0
E5082;0
E5082;0
E5082;0
E6040;28
E6040;25
E6040;0
E6040;50
E6040;50
E6040;100
E6040;100
E6040;100
E6066;0
E6066;28
E6066;26
E6066;9
E6066;0
E6067;18
E6067;12
E6067;0
E6067;0
E6067;50
E6067;5
E6067;0
E6067;45
E6078;0
E6078;0
E6078;0
E6078;4
E6078;16
E6095;23
E6095;100
E6095;100
E6095;100
E6095;100
E6095;50
E6096;19
E6096;14
E6096;50
E6096;50
E6096;100
E6097;0
E6097;35
E6097;0
E6097;14
E6097;30
E6104;2
E6104;10
E6104;0
E6104;0
E6104;0
E6104;50
E6104;100
E6104;100
E6104;37
E6104;50
E6105;15
E6105;50
E6105;18
E6105;50
E6105;0
E6105;0
E6105;0
E6105;12
E6105;15
E6105;25
E6106;13
E6106;33
E6106;37
E6106;50
E6106;50
E6106;50
E6106;0
E6106;100
E6106;100
E6106;100
E6106;100
E6106;50
E6106;0
E6106;27
E6106;0
E6106;9
E6106;23
E6106;0
E6107;17
E6107;50
E6107;50
E6107;50
E6107;3
E6108;0
E6108;0
E6108;0
E6108;0
E6108;0
E6108;14
E6108;37
E6108;49
E6108;32
E6108;4
E6110;4
E6110;40
E6110;50
E6110;50
E6110;50
E6110;0
E6110;11
E6110;25
E6110;11
E6110;26
E6119;100
E6119;100
E6119;100
E6119;100
E6119;100
E6119;100
E6119;100
E6119;100
E6120;100
E6120;100
E6120;100
E6120;100
E6120;0
E6120;0
E6120;0
E6120;0
E6122;28
E6122;50
E6122;50
E6122;50
E6122;39
E6122;100
E6122;1
E6122;32
E6122;50
E6122;50
E6122;100
E6122;100
E6124;11
E6124;24
E6124;50
E6124;100
E6124;50
E6124;10
E6124;0
E6124;0
E6124;0
E6124;0
E6124;0
E6124;0
E6125;100
E6125;100
E6125;100
E6125;50
E6125;100
E6125;100
E6125;100
E6125;50
E6125;100
E6125;100
E6125;100
E6125;29
E6126;100
E6126;100
E6126;100
E6126;100
E6126;100
E6126;100
E6126;100
E6126;100
E6126;100
E6126;33
E6126;21
E6126;50
E6126;100
E6126;50
E6126;1
E6126;50
E6126;100
E6126;100
E6126;100
E6126;7
E6127;0
E6127;0
E6127;25
E6127;50
E6127;50
E6127;45
E6127;50
E6127;50
E6127;32
E6127;0
E6127;50
E6127;40
E6127;100
E6127;100
E6127;100
E6130;27
E6130;50
E6130;42
E6130;11
E6130;0
E6130;30
E6130;42
E6130;50
E6130;21
E6130;50
E6130;50
E6130;50
E6130;33
E6132;8
E6132;2
E6132;50
E6132;50
E6132;33
E6132;24
E6139;24
E6139;21
E6139;12
E6139;27
E6139;0
E6140;36
E6140;37
E6140;20
E6140;24
E6140;0
E6141;5
E6141;24
E6141;37
E6141;39
E6141;0
E6142;0
E6142;0
E6142;0
E6142;0
E6146;29
E6146;7
E6146;24
E6146;19
E6147;50
E6147;0
E6147;100
E6147;100
E6147;0
E6147;0
E6147;0
E6147;0
E6147;100
E6147;100
E6147;100
E6147;100
E6148;0
E6148;0
E6148;0
E6148;0
E6148;0
E6148;0
E6148;0
E6148;0
E6148;0
E6148;0
E6151;40
E6151;50
E6151;50
E6151;50
E6151;0
E6151;0
E6151;0
E6151;0
E6152;100
E6152;100
E6152;100
E6152;100
E6152;33
E6152;100
E6152;100
E6152;100
E6152;100
E6152;14
E6153;10
E6153;0
E6153;0
E6153;0
E6153;0
E6153;0
E6153;0
E6154;50
E6154;100
E6154;100
E6154;100
E6154;100
E6154;50
E6154;100
E6154;100
E6154;100
E6154;50
E6155;8
E6155;34
E6155;19
E6155;30
E6162;0
E6162;0
E6162;0
E6162;0
E6162;50
E6162;100
E6162;50
E6162;50
E6162;0
E6162;0
E6162;0
E6162;0
E6162;50
E6162;100
E6162;50
E6162;50
E6163;35
E6163;50
E6163;50
E6163;50
E6163;0
E6164;32
E6164;25
E6164;46
E6164;31
E6164;0
E6164;50
E6164;33
E6164;50
E6164;50
E6164;0
E6165;47
E6165;100
E6165;100
E6165;50
E6165;50
E6165;25
E6165;5
E6165;16
E6165;5
E6165;35
E6166;0
E6166;0
E6166;0
E6166;0
E6166;0
E6166;0
E6166;0
E6166;0
E6166;0
E6166;0
E6167;0
E6167;0
E6167;0
E6167;0
E6167;0
E6167;0
E6167;0
E6167;0
E6167;0
E6167;0
E6168;0
E6168;0
E6168;0
E6168;0
E6168;0
E6168;0
E6168;0
E6168;0
E6168;0
E6168;0
E6169;50
E6169;100
E6169;100
E6169;50
E6169;14
E6169;50
E6169;100
E6169;100
E6169;100
E6169;50
E6170;0
E6170;0
E6170;0
E6170;0
E6170;0
E6170;0
E6170;0
E6170;0
E6170;0
E6170;0
E6170;0
E6170;0
E6170;0
E6170;0
E6170;0
E6171;0
E6171;0
E6171;0
E6171;0
E6171;0
E6171;1
E6171;0
E6171;3
E6171;0
E6171;17
E6172;50
E6172;100
E6172;100
E6172;100
E6172;100
E6172;36
E6172;49
E6172;14
E6172;50
E6172;49
E6172;31
E6172;100
E6172;100
E6172;50
E6172;10
E6173;34
E6173;100
E6173;50
E6173;49
E6173;8
E6173;29
E6173;50
E6173;50
E6173;33
E6173;5
E6174;25
E6174;50
E6174;100
E6174;50
E6174;12
E6174;0
E6174;0
E6174;50
E6174;0
E6174;5
E6175;17
E6175;19
E6175;50
E6175;100
E6175;40
E6175;14
E6176;7
E6176;49
E6176;50
E6176;100
E6176;37
E6176;48
E6177;1
E6177;0
E6177;25
E6177;22
E6177;0
E6177;0
E6177;50
E6177;50
E6177;44
E6177;0
E6177;0
E6177;12
E6177;8
E6177;24
E6177;0
E6178;0
E6178;0
E6178;0
E6178;0
E6178;0
E6179;0
E6179;0
E6179;0
E6179;0
E6179;0
E6184;37
E6184;50
E6184;49
E6184;43
E6184;5
E6184;25
E6184;50
E6184;50
E6184;50
E6184;36
E6185;50
E6185;50
E6185;50
E6185;19
E6185;0
E6185;22
E6185;50
E6185;50
E6185;39
E6185;38
E6186;22
E6186;50
E6186;50
E6186;50
E6186;50
E6186;4
E6187;50
E6187;50
E6187;100
E6187;50
E6187;48
E6187;0
E6187;0
E6187;0
E6187;0
E6187;0
E6188;0
E6188;0
E6188;0
E6188;0
E6188;0
E6188;0
E6189;0
E6189;0
E6189;0
E6189;0
E6189;0
E6189;0
E6189;0
E6189;0
E6190;0
E6190;0
E6190;0
E6190;0
E6190;0
E6190;0
E7110;0
E7110;50
E7110;41
E7112;0
E7112;100
E7112;50
E7113;0
E7113;5
E7113;5
E7117;0
E7117;0
E7117;0
E7117;0
E7117;0
E7117;10
E7117;0
E7117;0
E7117;0
E7117;0
E7117;0
E7117;0
E7117;0
E7117;0
E7117;0
E7117;0
E7117;0
E7117;0
E7117;0
E7117;0
E7117;0
E7117;0
E7117;0
E7117;0
E7117;0
E7118;0
E7118;0
E7118;0
E7118;0
E7118;0
E7120;23
E7120;23
E7120;50
E7120;28
E7120;42
E7123;100
E7123;100
E7123;100
E7125;0
E7125;0
E7125;0
E7125;0
E7125;0
E7127;100
E7127;100
E7127;100
E7127;0
E7127;2
E7127;0
E7128;100
E7128;100
E7128;100
E7128;100
E7129;0
E7129;50
E7129;0
E7129;0
E7129;0
E7129;0
E7129;0
E7129;0
E7130;100
E7130;37
E7130;100
E7130;100
E7130;6
E7131;0
E7131;0
E7132;33
E7132;0
E7135;0
E7135;0
E7135;0
E7135;0
E7135;0
E7136;100
E7136;100
E7137;36
E7137;25
E7137;0
E7139;0
E7139;0
E7139;0
E7140;50
E7140;0
E7140;0
E7140;0
E7140;11
E7140;50
E7140;0
E7140;0
E7140;0
E7141;0
E7141;0
E7141;0
E7141;0
E7141;0
E7141;0
E7142;0
E7142;0
E7142;0
E7142;0
E7142;0
E7142;0
E7143;0
E7143;0
E7143;0
E7143;0
E7143;46
E7143;34
E7143;0
E7143;0
E7143;0
E7145;50
E7145;50
E7145;50
E7145;100
E7145;50
E7145;100
E7146;0
E7146;0
E7146;0
E8047;0
E8047;0
E8047;0
E8047;0
E8047;0
E8062;0
E8062;0
E8062;0
E8062;0
E8062;0
E8064;0
E8064;0
E8064;0
E8064;0
E8064;27
E8064;37
E8064;0
E8064;100
E8064;100
E8064;16
E8064;0
E8064;50
E8064;50
E8064;0
E8064;0
E8064;0
E8064;0
E8064;0
E8064;0
E8064;0
E8064;7
E8064;0
E8064;0
E8064;8
E8064;0
E8064;0
E8064;0
E8064;0
E8064;48
E8064;0
E8064;50
E8064;13
E8064;22
E8064;0
E8064;0
E8064;0
E8064;0
E8064;35
E8064;0
E8064;0
E8064;14
E8064;31
E8064;19
E8064;10
E8064;8
E8065;48
E8065;0
E8065;0
E8065;0
E8065;50
E8065;0
E8065;0
E8065;0
E8065;0
E8065;0
E8066;42
E8066;100
E8066;100
E8066;100
E8066;0
E8066;50
E8066;2
E8066;40
E8066;29
E8066;45
E8066;2
E8066;26
E8066;16
E8066;26
E8066;0
E8067;0
E8067;0
E8067;0
E8067;100
E8067;100
E8067;0
E8067;0
E8067;0
E8067;0
E8067;1
E8069;0
E8069;0
E8069;21
E8069;33
E8069;42
E8069;9
E8069;23
E8069;50
E8069;39
E8069;12
E8070;0
E8070;0
E8070;0
E8070;50
E8070;34
E8070;0
E8070;0
E8070;0
E8070;0
E8070;0
E8073;0
E8073;0
E8073;0
E8073;0
E8073;0
E8074;0
E8074;0
E8074;0
E8074;0
E8074;0
E8075;0
E8075;13
E8075;29
E8075;43
E8075;3
E8076;0
E8076;0
E8076;12
E8076;0
E8076;0
E8077;0
E8077;0
E8077;0
E8077;0
E8081;0
E8081;0
E8081;0
E8081;0
E8081;0
E8081;1
E8081;0
E8081;5
E8081;18
E8081;35
E8083;0
E8083;0
E8083;0
E8083;0
E8083;0
E8084;0
E8084;0
E8084;0
E8084;0
E8084;20
E8084;25
E8084;50
E8084;50
E8084;50
E8084;15
E8085;0
E8085;0
E8085;0
E8085;10
E8085;0
E8085;6
E8086;50
E8086;100
E8086;100
E8086;50
E8086;50
E8087;0
E8087;50
E8087;50
E8087;50
E8087;42
E8088;0
E8088;0
E8088;0
E8088;0
E8088;34
E8089;0
E8089;0
E8089;0
E8089;0
E8089;0
E8090;27
E8090;0
E8090;0
E8090;4
E8090;25
E8091;0
E8091;0
E8091;0
E8091;0
E8091;0
E8091;0
E8091;0
E8091;0
E8091;0
E8091;0
E8091;0
E8091;0
E8091;0
E8091;0
E8091;0
E8092;0
E8092;0
E8092;0
E8092;39
E8092;14
E8092;0
E8092;0
E8092;0
E8092;27
E8092;3
E8093;0
E8093;0
E8093;0
E8093;0
E8093;0
E8094;0
E8094;0
E8094;0
E8094;0
E8094;0
E8095;50
E8095;100
E8095;100
E8095;100
E8096;10
E8096;6
E8096;22
E8096;0
E8096;8
E8097;0
E8097;50
E8097;29
E8097;50
E8097;0
E8097;39
E8097;100
E8097;100
E8097;100
E8097;34
E8098;21
E8098;0
E8098;0
E8098;8
E8098;2
E8100;0
E8100;0
E8100;0
E8100;0
E8100;0
E8101;0
E8101;0
E8101;0
E8101;0
E8101;0
E8101;0
E8101;0
E8101;0
E8101;0
E8101;0
E8101;0
E8101;0
E8101;0
E8101;0
E8101;0
E8102;0
E8102;0
E8102;0
E8102;0
E8102;0
E8102;0
E8102;0
E8102;0
E8102;0
E8102;0
E8102;0
E8102;0
E8102;0
E8102;0
E8102;0
E8103;0
E8103;0
E8103;0
E8103;0
E8103;0
E8103;0
E8103;0
E8103;0
E8103;0
E8103;0
E8103;0
E8103;0
E8103;0
E8103;0
E8103;0
E8103;0
E8103;0
E8103;0
E8103;0
E8103;0
E8103;0
E8103;0
E8103;0
E8103;0
E8103;0
E8103;0
E8103;0
E8103;0
E8103;0
E8103;0
E8103;0
E8103;0
E8103;0
E8103;0
E8103;0
E8103;0
E8103;0
E8103;0
E8103;0
E8103;0
E8104;12
E8104;35
E8104;50
E8104;34
E8104;11
E8104;0
E8104;22
E8104;50
E8104;0
E8104;0
E8106;0
E8106;0
E8106;0
E8106;0
E8106;0
E8107;0
E8107;0
E8107;0
E8107;0
E8107;0
E8107;0
E8107;0
E8107;0
E8107;0
E8107;0
E8108;0
E8108;0
E8108;0
E8108;0
E8108;0
E8108;0
E8108;0
E8108;0
E8108;0
E8108;0
E8108;0
E8108;0
E8109;0
E8109;0
E8109;0
E8109;0
E8109;0
E8109;0
E8110;0
E8110;0
E8110;0
E8110;0
E8110;0
E8110;0
E8110;0
E8110;0
E8110;0
E8110;0
E8110;0
E8110;0
E8111;0
E8111;0
E8111;0
E8111;0
E8111;0
E9095;3
E9095;50
E9095;50
E9095;50
E9095;50
E9095;1
E9095;25
E9095;0
E9095;0
E9095;0
E9095;0
E9095;0
E9095;0
E9095;10
E9095;0
E9095;0
E9095;3
E9095;0
E9099;17
E9099;42
E9099;20
E9099;2
E9099;0
E9099;18
E9099;50
E9099;50
E9099;50
E9099;0
E9099;44
E9099;39
E9099;3
E9099;0
E9099;0
E9102;32
E9102;12
E9102;50
E9102;40
E9102;8
E9102;44
E9102;100
E9102;16
E9102;40
E9102;1
E9102;6
E9102;18
E9102;0
E9102;5
E9102;2
E9103;20
E9103;0
E9103;0
E9103;0
E9103;0
E9103;22
E9103;25
E9103;34
E9103;13
E9103;0
E9104;100
E9104;50
E9104;50
E9104;40
E9104;50
E9104;17
E9104;26
E9104;50
E9104;0
E9104;0
E9104;0
E9104;0
E9104;0
E9106;13
E9106;100
E9106;50
E9106;100
E9106;50
E9106;50
E9106;0
E9106;0
E9106;4
E9106;33
E9106;33
E9106;5
E9106;0
E9106;0
E9106;50
E9106;45
E9106;50
E9106;29
E9106;11
E9106;50
E9106;49
E9106;100
E9106;50
E9106;0
E9106;14
E9106;50
E9106;100
E9106;100
E9106;15
E9106;10
E9106;26
E9106;50
E9106;100
E9106;100
E9106;50
E9106;50
E9106;0
E9106;0
E9106;0
E9106;0
E9106;0
E9106;0
E9107;18
E9107;50
E9107;39
E9107;34
E9107;50
E9107;50
E9107;13
E9107;50
E9107;100
E9107;50
E9107;100
E9107;45
E9108;36
E9108;15
E9108;4
E9108;19
E9108;10
E9108;20
E9108;0
E9108;0
E9108;0
E9108;0
E9108;0
E9108;0
E9108;2
E9108;36
E9108;50
E9108;100
E9108;50
E9108;0
E9108;8
E9108;0
E9108;0
E9108;0
E9108;0
E9108;0
E9109;0
E9109;100
E9109;32
E9109;50
E9109;100
E9109;8
E9109;0
E9109;0
E9109;44
E9109;4
E9109;0
E9109;14
E9111;3
E9111;40
E9111;100
E9111;100
E9111;100
E9111;50
E9113;38
E9113;100
E9113;100
E9113;100
E9113;33
E9113;0
E9113;0
E9113;0
E9113;0
E9113;0
E9113;0
E9113;8
E9113;27
E9113;50
E9113;50
E9113;50
E9113;50
E9114;0
E9114;50
E9114;17
E9114;13
E9114;50
E9114;50
E9114;50
E9114;12
E9114;0
E9114;3
E9114;100
E9114;100
E9114;100
E9114;100
E9114;50
E9115;50
E9115;100
E9115;100
E9115;50
E9115;29
E9115;0
E9115;50
E9115;50
E9115;100
E9115;100
E9115;50
E9115;0
E9115;0
E9115;0
E9115;0
E9115;0
E9115;0
E9115;0
E9116;50
E9116;47
E9116;50
E9116;50
E9116;5
E9116;46
E9116;50
E9116;100
E9116;50
E9116;42
E9117;22
E9117;0
E9117;9
E9117;0
E9117;0
E9117;0
E9117;10
E9117;0
E9117;0
E9117;0
E9117;0
E9117;0
E9117;0
E9117;0
E9117;0
E9117;0
E9117;0
E9117;0
E9117;7
E9117;1
E9117;0
E9117;0
E9117;0
E9117;0
E9117;7
E9117;0
E9117;0
E9117;0
E9117;0
E9117;0
E9118;36
E9118;50
E9118;50
E9118;100
E9118;45
E9119;11
E9119;28
E9119;44
E9119;50
E9119;24
E9119;0
E9119;100
E9119;0
E9119;0
E9119;0
E9119;50
E9119;100
E9119;50
E9119;100
E9119;44
E9120;12
E9120;0
E9120;0
E9120;0
E9120;0
E9120;0
E9120;0
E9120;27
E9120;0
E9120;0
E9120;0
E9120;0
E9120;18
E9120;0
E9120;0
E9120;0
E9120;0
E9120;7
E9120;0
E9121;38
E9121;50
E9121;50
E9121;50
E9121;50
E9121;0
E9121;0
E9121;0
E9121;0
E9121;43
E9121;0
E9121;0
E9121;0
E9121;0
E9121;0
E9122;22
E9122;21
E9122;23
E9122;13
E9122;0
E9122;50
E9122;100
E9122;100
E9122;50
E9122;11
E9123;43
E9123;33
E9123;0
E9123;50
E9123;43
E9124;7
E9124;23
E9124;10
E9124;16
E9124;0
E9124;0
E9124;41
E9124;23
E9124;50
E9124;0
E9125;18
E9125;33
E9125;50
E9125;50
E9125;50
E9126;24
E9126;42
E9126;11
E9126;12
E9126;0
E9126;22
E9126;0
E9126;0
E9126;0
E9126;0
E9126;0
E9126;0
E9126;0
E9126;0
E9127;43
E9127;50
E9127;100
E9127;50
E9127;26
E9127;20
E9127;15
E9127;0
E9127;46
E9127;6
E9128;4
E9128;50
E9128;20
E9128;0
E9128;0
E9129;8
E9129;11
E9129;21
E9129;27
E9129;11
E9129;11
E9129;18
E9129;0
E9130;0
E9130;100
E9130;100
E9130;50
E9130;16
E9130;33
E9130;50
E9130;50
E9130;47
E9130;0
E9134;0
E9134;0
E9134;0
E9134;0
E9134;0
E9134;0
E9134;18
E9134;0
E9134;22
E9134;0
E9137;4
E9137;50
E9137;50
E9137;47
E9137;50
E9137;0
E9137;1
E9137;0
E9137;50
E9137;50
E9138;13
E9138;100
E9138;100
E9138;50
E9138;41
E9138;50
E9138;100
E9138;100
E9138;100
E9138;45
E9139;50
E9139;26
E9139;47
E9139;50
E9139;28
E9140;100
E9140;100
E9140;100
E9140;100
E9140;50
E9140;15
E9140;50
E9140;100
E9140;47
E9140;20
E9141;23
E9141;100
E9141;43
E9141;100
E9141;50
E9141;50
E9141;7
E9141;50
E9141;50
E9141;100
E9141;50
E9141;28
E9142;14
E9142;26
E9142;50
E9142;50
E9142;50
E9142;7
E9142;4
E9142;0
E9142;0
E9142;36
E9142;5
E9142;11
E9142;0
E9142;0
E9142;0
E9142;0
E9142;0
E9142;0
E9143;42
E9143;50
E9143;100
E9143;100
E9143;100
E9143;50
E9143;5
E9143;0
E9143;0
E9143;18
E9143;25
E9143;6
E9143;0
E9143;0
E9143;0
E9143;0
E9143;0
E9143;0
E9144;7
E9144;100
E9144;100
E9144;100
E9144;100
E9144;15
E9144;12
E9144;39
E9144;100
E9144;50
E9144;50
E9144;2
E9144;0
E9144;0
E9144;0
E9144;0
E9144;0
E9144;0
E9145;0
E9145;9
E9145;50
E9145;21
E9145;0
E9145;0
E9145;0
E9145;0
E9145;0
E9145;0
E9145;0
E9145;0
E9145;0
E9145;15
E9145;48
E9145;4
E9145;22
E9145;0
E9146;29
E9146;50
E9146;100
E9146;100
E9146;49
E9147;0
E9147;0
E9147;0
E9147;0
E9147;0
E9147;35
E9147;0
E9147;0
E9147;5
E9147;0
E9147;0
E9147;0
E9147;0
E9147;0
E9147;0
E9147;0
E9147;0
E9147;0
E9147;0
E9147;0
E9147;0
E9147;0
E9147;5
E9147;35
E9147;5
E9147;0
E9147;0
E9147;0
E9147;0
E9147;0
E9147;0
E9147;20
E9147;16
E9148;18
E9148;48
E9148;100
E9148;100
E9148;100
E9148;32
E9148;0
E9148;0
E9148;0
E9148;0
E9148;0
E9148;0
E9149;0
E9149;0
E9149;0
E9149;0
E9149;0
E9149;1
E9149;35
E9149;36
E9149;26
E9149;9
E9149;1
E9149;50
E9149;50
E9149;42
E9149;21
E9150;17
E9150;0
E9150;0
E9150;1
E9150;0
E9150;0
E9150;0
E9150;0
E9150;0
E9150;0
E9150;0
E9150;0
E9150;0
E9150;0
E9150;0
E9150;0
E9150;0
E9151;4
E9151;50
E9151;100
E9151;100
E9151;100
E9151;50
E9151;13
E9151;50
E9151;50
E9151;45
E9151;50
E9151;45
;
;
;
;
;
;
;
;
;
;
;
;
;
;
;
;
;
;
;
;
;
;
;
;
;
;
;
;
;
;
;
;
;
;
;
;
;
;
;
;
E9154;0
E9154;0
E9154;0
E9154;0
E9154;0
E9154;0
E9154;0
E9154;0
E9154;0
E9154;0
E9155;0
E9155;0
E9155;0
E9155;0
E9155;0
E9155;0
E9155;0
E9155;0
E9155;0
E9155;0
E9156;0
E9156;0
E9156;0
E9156;0
E9156;0
E9156;0
E9156;0
E9156;0
E9156;0
E9156;0
E9156;0
E9156;0
E9156;0
E9156;0
E9157;0
E9157;0
E9157;0
E9157;0
E9157;0
E9157;0
E9157;0
E9157;0
E9157;0
E9157;0
E9158;0
E9158;0
E9158;0
E9158;0
E9158;0
E9158;0
E9158;0
E9158;0
E9158;0
E9158;0
E9159;0
E9159;0
E9159;0
E9159;0
E9159;0
E9159;0
E9161;0
E9161;0
E9161;0
E9161;0
E9161;0
E9161;0
E9161;0
E9161;0
E9161;0
E9161;0
E9161;0
E9161;0
E9161;0
E9161;0
E9161;0
E9161;0
E9161;0
E9161;0
E9162;0
E9162;0
E9162;0
E9162;0
E9162;0
E9163;0
E9163;0
E9163;0
E9163;0
E9163;0
E9163;0
E9163;0
E9163;0
E9163;0
E9163;0
E9163;0
E9163;0
E9164;0
E9164;0
E9164;0
E9164;0
E9164;0
E9164;0
E9164;0
E9164;0
E9164;0
E9164;0
E9164;0
E9164;0
E9164;0
E9164;0
E9165;0
E9165;0
E9165;0
E9165;0
E9165;0
E9165;0
E9165;0
E9165;0
E9165;0
E9165;0
E9165;0
E9165;0
E9166;0
E9166;0
E9166;0
E9166;0
E9166;0
E9166;0
E9166;0
E9166;0
E9166;0
E9166;0
E9166;0
E9166;0
E9167;0
E9167;0
E9167;0
E9167;0
E9167;0
E9167;0
E9167;0
E9167;0
E9167;0
E9167;0
E9167;0
E9167;0
E9168;0
E9168;0
E9168;0
E9168;0
E9168;0
E9168;0
E9168;0
E9168;0
E9168;0
E9168;0
E9168;0
E9168;0
E9169;0
E9169;0
E9169;0
E9169;0
E9169;0
E9169;0
E9169;0
E9169;0
E9169;0
E9169;0
EM0053;0
EM0053;0
EM0053;0
EM0053;0
EM0053;0
EM0053;0
EM0053;0
EM0053;0
EM0053;0
EM0053;0
EM0053;0
EM0053;0
EM0053;0
EM0053;0
EM0053;0
EM0054;0
EM0054;0
EM0054;0
EM0054;0
EM0054;0
EM0054;4
EM0054;0
EM0054;1
EM0054;0
EM0054;8
EM0055;0
EM0055;0
EM0055;0
EM0055;0
EM0055;0
EM0055;0
EM0055;0
EM0055;0
EM0055;0
EM0055;8
EM0057;0
EM0057;100
EM0057;0
EM0057;0
EM0057;0
EM0057;50
EM0057;50
EM0057;50
EM0057;44
EM0057;0
EP0055;0
EP0055;0
EP0055;50
EP0055;50
EP0055;19
ET7110;0
ET7110;0
ET7110;0
ET7110;0
ET7110;0
ET7110;0
ET7111;0
ET7111;0
ET7111;0
ET7111;0
ET7111;0
ET7111;0
ET7112;0
ET7112;0
ET7112;0
ET7112;0
ET7112;0
ET7112;0
ET7113;0
ET7114;0
ET7115;0
ET7115;0
ET7115;0
ET7115;0
ET7115;0
ET7115;0
ET7116;0
ET7116;0
ET7117;0
ET7117;0
ET7120;0
ET7120;0
ET7120;0
ET7120;0
ET7120;0
ET7120;0
ET7121;0
ET7121;0
ET7121;0
ET7121;0
ET7121;0
ET7121;0
ET8201;0
ET8201;0
ET8201;0
ET8201;0
ET8201;0
ET8202;5
ET8202;0
ET8202;0
ET8202;0
ET8202;0
ET8203;0
ET8203;50
ET8204;0
ET8204;0
ET8204;1
ET8204;0
ET8204;0
ET8205;31
ET8206;2
ET8206;21
ET8206;21
ET8206;13
ET8206;5
ET8207;9
ET8207;15
ET8207;13
ET8207;12
ET8208;50
ET8303;2
ET8303;1
ET8303;0
ET8303;20
ET8303;16
ET8304;4
ET8304;1
ET8304;3
ET8304;2
ET8304;9
EU8045;0
EU8045;0
EU8045;0
EU8045;0
EU8045;0
JLENS02;100
