PO#0109797,14.12.2019
E0128BK/5,1.00
E1039BK/L-XL,1.00
E1118BK/5,3.00
E1118BK/6,3.00
E1118BK/7,1.00
E1168BK/6,1.00
E1181BK/7,1.00
E1187BK/6,1.00
E1226GK/0,1.00
E1227BK/L-XL,3.00
E1227BK/S-M,2.00
E8074BK/4,1.00