INVOICE,SIN606792
YOUR REF,SOR370367
DATE,13/05/2019
VALUE,540.44


SKU,Qty,Value,Name,Colour,Size
E8093BK/6       ,1,39.00,MT500 Protector Undershorts II,Black,XL
E3172NA/4       ,1,17.00,SingleTrack Print T - LTD,Navy,M
E9100PU/2       ,1,38.04,Women's SingleTrack Jacket II,Purple,XS
E1511BK/M-L     ,1,39.00,SingleTrack Helmet II,Black,M-L
E8064GY/5       ,1,31.80,Hummvee Short II with liner,Grey,L
E8064BK/5       ,1,31.80,Hummvee Short II with liner,Black,L
E8064BK/6       ,1,31.80,Hummvee Short II with liner,Black,XL
E8064GY/4       ,1,31.80,Hummvee Short II with liner,Grey,M
E8064GY/6       ,1,31.80,Hummvee Short II with liner,Grey,XL
E1109BK/M-L     ,1,26.80,SingleTrack Elbow Protector,Black,M-L
E1109BK/L-XL    ,1,26.80,SingleTrack Elbow Protector,Black,L-XL
E1160BK/4       ,1,14.60,Hummvee Plus Glove II,Black,M
E1160BK/5       ,1,14.60,Hummvee Plus Glove II,Black,L
E1160BK/6       ,1,14.60,Hummvee Plus Glove II,Black,XL
E1160KH/4       ,1,14.60,Hummvee Plus Glove II,Khaki,M
E1160KH/5       ,1,14.60,Hummvee Plus Glove II,Khaki,L
E1160KH/6       ,1,14.60,Hummvee Plus Glove II,Khaki,XL
E7120BK/3       ,2,53.60,SingleTrack Liner Short,Black,S
E7120BK/4       ,2,53.60,SingleTrack Liner Short,Black,M
