SKU,Maximum allowed,Barcode/EAN,Days left
E1152BK/6,1,5055939923925       ,4
E3171BK/5,1,5055939954349       ,10
E6110BK/5,2,5055939914695       ,10
E6110BK/6,2,5055939922331       ,10
E9150GK/3,1,5055939960401       ,48
E9150GK/4,1,5055939960418       ,48
E9150GK/5,1,5055939960425       ,48
E0154BK/L-XL,1,5055939965987       ,54
E0154BK/S-M,1,5055939958149       ,54
E1181BK/3,2,5055939942513       ,54
E1181BK/4,2,5055939942520       ,54
E1181BK/5,2,5055939942537       ,54
E1181BK/6,2,5055939942544       ,54
E1183BK/4,1,5055939944234       ,54
E1183BK/5,1,5055939944241       ,54
E1183BK/6,1,5055939944258       ,54
E1183BK/7,1,5055939944265       ,54
E1223BK/L-XL,1,5055939958613       ,54
E1223BK/S-M,1,5055939958606       ,54
E3158BK/4,1,5055939942421       ,54
E3158BK/6,1,5055939942445       ,54
E3161BK/3,1,5055939944951       ,54
E3177GK/3,1,5055939957753       ,54
E3177GK/4,1,5055939957760       ,54
E3177GK/5,1,5055939957777       ,54
E3177GK/6,1,5055939957784       ,54
E5049BK/5,1,5055939924540       ,54
E5049BK/6,1,5055939924557       ,54
E8070BK/4,1,5055939916729       ,54
E9142GK/3,1,5055939957401       ,54
E9142GK/4,1,5055939957418       ,54
E9142GK/5,1,5055939957425       ,54
E9142GK/6,1,5055939957432       ,54
E3158BK/5,1,5055939942438       ,63
E9144BK/3,1,5055939957555       ,63
E3177BK/3,1,5055939957708       ,67
E3158BK/4,1,5055939942421       ,96
E8085AN/6,2,5055939956213       ,96
E9117OM/4,1,5055939942278       ,115
E6146BK/4,1,5055939942094       ,158
E8085AN/4,1,5055939956190       ,158
E8085AN/3,1,5055939956183       ,165
E3171BK/6,1,5055939954356       ,180
E9119PW/4,1,5055939942933       ,180
E0063/2,1,5055205323817       ,209
E6032/3,1,5055205307268       ,209
E6032/4,1,5055205307275       ,209
