SKU,Maximum allowed,Barcode/EAN,Days left
E1513BK/L-XL,1,5055939930275       ,94
E1517BK/M-L,1,5055939953397       ,94
E1518BK/M-L,1,5055939948898       ,94
E1518GF/M-L,2,5055939948928       ,94
E1250CL,1,5055939955797       ,127
E1506BK/M-L,1,5055939920054       ,127
E3151GY/2,1,5055939939308       ,127
E8064BK/4,1,5055939915982       ,127
E8064BK/5,1,5055939915999       ,127
E9147NA/4,1,5055939959474       ,127
