SKU,Maximum allowed,Barcode/EAN,Days left
E0042/4,2,5055205311944       ,162
E0042/5,3,5055205311951       ,162
E0042/6,2,5055205311968       ,162
E0128BK/5,2,5055939904948       ,162
E6035BU/2,1,5055205314259       ,162
E1038BK/L-XL,2,5055939906706       ,209
E1038BK/S-M,2,5055939906690       ,209
E1039BK/L-XL,1,5055939906720       ,209
E1039BK/S-M,1,5055939906713       ,209
E3069BK/6,1,5055939904764       ,209
