INVOICE,SIN584743
YOUR REF,SOR355355
DATE,21/01/2019
VALUE,419


SKU,Qty,Value,Name,Colour,Size
E8085AN/4       ,1,74.90,MTR Waterproof Trouser,Anthracite,M
E8056BK/4       ,2,60.40,Hummvee Waterproof Pant,Black,M
E1113BK/0       ,10,79.20,Seat Pack ,Black,One size
E9113BV/5       ,1,99.90,Pro SL Shell Jacket II,Hi-Viz Blue,L
E3161BK/5       ,3,82.20,Engineered Baselayer,Black,L
E3072BK/5       ,1,22.40,Transrib L/S Baselayer,Black,L
