INVOICE,SIN589555
YOUR REF,SOR358966
DATE,14/02/2019
VALUE,104.8


SKU,Qty,Value,Name,Colour,Size
E3157BK/5       ,1,44.90,FS260-Pro Adrenaline Waterproof 3/4,Black,L
E8070BK/3       ,1,49.90,MT500 Spray Baggy Short II,Black,S
DEL10           ,1,10.00,Delivery - Euro                    ,,
