SKU,Maximum allowed,Barcode/EAN,Days left
E0043GK/0,1,5055939961385       ,35
E0110RR/0,1,5055939959719       ,35
E0151GC/0,1,5055939960715       ,35
E0151GF/0,1,5055939960708       ,35
E0152BK/L-XL,1,5055939958125       ,35
E0153BK/L-XL,1,5055939965970       ,35
E0154BK/L-XL,1,5055939965987       ,35
E1222BK/0,1,5055939958590       ,35
E1223BK/L-XL,1,5055939958613       ,35
E1226BK/0,1,5055939959399       ,35
E1511RR/M-L,1,5055939959627       ,35
E3178BK/4,1,5055939957876       ,35
E3181NA/4,1,5055939958248       ,35
E3182AN/4,1,5055939959030       ,35
E3183RR/4,1,5055939960500       ,35
E6163BK/3,1,5055939958828       ,35
E6164RR/3,1,5055939958927       ,35
E6165BP/3,1,5055939960555       ,35
E7139BK/K9,1,5055939959221       ,35
E9106RD/4,1,5055939958644       ,35
E9138RR/4,1,5055939960258       ,35
E9143BK/4,1,5055939957463       ,35
E9148BK/4,1,5055939960005       ,35
E3180GY/4,1,5055939957982       ,51
E7136WH/0,1,5055939948942       ,51
E7140GY/K9,1,5055939960661       ,51
E8100BK/4,1,5055939959146       ,51
E9142GK/4,1,5055939957418       ,51
E9144BV/4,1,5055939957616       ,51
E9145BK/4,1,5055939959092       ,51
E9146MY/3,1,5055939959252       ,51
E9147GF/4,1,5055939959429       ,51
E9147RR/4,1,5055939959528       ,51
E9149BP/3,1,5055939960050       ,51
E9150GK/3,1,5055939960401       ,51
E0132MB/5,1,5055939922034       ,55
E1168BK/5,1,5055939929491       ,55
E1168NA/5,1,5055939929590       ,55
E1184BK/6,1,5055939944456       ,55
E1184NA/5,1,5055939944494       ,55
E9099BK/4,1,5055939942858       ,55
E6162BP/3,1,5055939966380       ,62
E9137RD/4,1,5055939946320       ,62
EU8045BK/4,1,5055205339078       ,62
E8084CC/4,1,5055939961040       ,76
E9113GK/4,1,5055939957319       ,76
E9117CC/4,1,5055939960937       ,76
E9117YM/4,1,5055939960999       ,76
E1215GF/0,2,5055939957173       ,86
E1518GF/M-L,1,5055939948928       ,86
E3133AN/4,1,5055939957074       ,86
E3133GF/4,1,5055939957135       ,86
E3153GK/4,1,5055939956596       ,86
E3154BV/4,1,5055939956770       ,86
E3154GF/4,1,5055939956831       ,86
E3159GY/4,1,5055939956657       ,86
E3159RR/4,1,5055939956718       ,86
E3176NA/4,1,5055939957012       ,86
E6162BP/3,1,5055939966380       ,86
E6162MY/3,1,5055939956923       ,86
E1196BK/L-XL,1,5055939948874       ,100
E1202BK/L-XL,1,5055939949918       ,100
E1202GF/L-XL,1,5055939949932       ,100
E4054RD/4,1,5055939953229       ,100
E5058BK/5,1,5055939942704       ,100
E8098BK/4,1,5055939953359       ,100
E1166PS/4,1,5055939974859       ,194
E1166RR/4,1,5055939974910       ,194
E1205PS/L-XL,1,5055939974590       ,194
E1235BU/0,1,5055939975313       ,194
E1238BU/L-XL,1,5055939975351       ,194
E1253OT/M-L,1,5055939971759       ,194
E1254BK/M-L,1,5055939971780       ,194
E1255BK/M-L,1,5055939971810       ,194
E1256LG/M-L,1,5055939971872       ,194
E1257BK/M-L,1,5055939971933       ,194
E1258BA/4,1,5055939972565       ,194
E1258BK/4,1,5055939972619       ,194
E1258GF/4,1,5055939972664       ,194
E1258OT/4,1,5055939972718       ,194
E1258YM/4,1,5055939972763       ,194
E1259BK/4,1,5055939975603       ,194
E1259GK/4,1,5055939975665       ,194
E1261CV/0,1,5055939978550       ,194
E1263BK/L-XL,1,5055939977584       ,194
E1263WH/L-XL,1,5055939978444       ,194
E1264GK/L-XL,1,5055939977645       ,194
E1264RR/L-XL,1,5055939978420       ,194
E1265BP/0,1,5055939977669       ,194
E1266BP/0,1,5055939977676       ,194
E1505BA/M-L,1,5055939978147       ,194
E1511BA/M-L,1,5055939971636       ,194
E1518OT/M-L,1,5055939970950       ,194
E1537BK/M-L,1,5055939977072       ,194
E3184OT/4,1,5055939970486       ,194
E3185LG/4,1,5055939978222       ,194
E3186NA/4,1,5055939978277       ,194
E3188BK/4,1,5055939971087       ,194
E3188OT/4,1,5055939978178       ,194
E3189CC/4,1,5055939972459       ,194
E3190CG/4,1,5055939974248       ,194
E3191GK/4,1,5055939974422       ,194
E3192BK/4,1,5055939974699       ,194
E3193YV/4,1,5055939975849       ,194
E4068GY/4,1,5055939975429       ,194
E4069GY/4,1,5055939975542       ,194
E4070BK/M4,1,5055939979205       ,194
E5069PS/4,1,5055939974545       ,194
E5073YM/4,1,5055939977744       ,194
E5074BU/4,1,5055939975023       ,194
E6124PR/3,1,5055939978680       ,194
E6130CC/3,1,5055939973517       ,194
E6166WH/3,1,5055939978574       ,194
E6168GK/3,1,5055939978376       ,194
E6169CC/3,1,5055939973210       ,194
E6172BK/3,1,5055939973722       ,194
E6172BP/3,1,5055939973777       ,194
E6172CC/3,1,5055939973821       ,194
E6173CV/3,1,5055939976068       ,194
E6174WH/3,1,5055939976167       ,194
E6176GY/3,1,5055939976280       ,194
E6177BP/3,1,5055939976389       ,194
E6177CV/3,1,5055939976433       ,194
E6179CV/3,1,5055939978468       ,194
E6184BP/3,1,5055939976877       ,194
E6185CV/3,1,5055939977027       ,194
E6186GY/3,1,5055939976495       ,194
E6187GK/3,1,5055939977539       ,194
E7117RR/4,1,5055939978628       ,194
E7128OT/0,1,5055939977461       ,194
E7136BA/0,1,5055939977393       ,194
E7141OT/K9,1,5055939977256       ,194
E7142BA/K9,1,5055939977287       ,194
E7144BA/K9,1,5055939977416       ,194
E7144OT/K9,1,5055939977447       ,194
E7145BA/K9,1,5055939978116       ,194
E9106CG/4,1,5055939974972       ,194
E9151BK/4,1,5055939975900       ,194
E6167CC/3,1,5055939972961       ,205
E6170CR/3,1,5055939979618       ,205
E6170GK/3,1,5055939973364       ,205
E6171BP/3,1,5055939973616       ,205
E7143OT/K9,1,5055939977379       ,205
E8064CC/4,1,5055939972237       ,205
E8066GC/4,1,5055939972305       ,205
E8101BK/4,1,5055939970738       ,205
E8101CC/4,1,5055939970783       ,205
E8102BK/4,1,5055939971230       ,205
E8102GF/4,1,5055939971285       ,205
E8103OT/4,1,5055939971483       ,205
E8104BA/4,1,5055939972022       ,205
E8104BK/4,1,5055939972077       ,205
E9147BK/4,1,5055939977799       ,205
E3192GK/4,1,5055939974644       ,207
E8103BK/S4,1,5055939978987       ,207
