E0062/4;5
E0062/5;5
E0062/7;3
E0062/8;3
E0110UM;2
E1024BK/5;3
E1030BK/S-M;1
E1031BK/S-M;1
E3013/6;1
E3101RD/4;1
E3104YV/3;1
E4013BK/3;2
E4014BK/5;3
E6060BK/3;1
E6062TL/6;1
E6074CE/3;1
E6074CR/5;1
E6093BK/5;1
E6096BK/5;1
E7109BK/K7;1
E7110BK/K7;2
EP0056PK/3;1
ET6058MV/0;3
E4014RD/5;1
E4032BK/4;1
E6124BK/5;1
E7124TL/5;1
E7127BK/4;1
E7127BK/5;1
E8064BK/4;1
E8064BK/6;1
E8064GY/4;1
E8064GY/5;1
E8064GY/6;1
E8064GY/7;1
E8064GY/8;2
E8065BK/3;1
E8069BK/6;1
E8069BK/7;1
E9103GV/4;1
E1024BK/6;2
E1038BK/L-XL;1
E3109BK/6;1