INVOICE,SIN664509
YOUR REF,KALI01 ZAMÓWIENIE WI
DATE,04/03/2020
VALUE,1093.08


SKU,Qty,Value,Name,Colour,Size
E8064BK/4       ,1,125.96,Hummvee Short II with liner,Black,M
E8064CC/4       ,1,125.96,Hummvee Short II with liner,Cocoa,M
E8064CC/5       ,1,125.96,Hummvee Short II with liner,Cocoa,L
E8064GC/4       ,1,125.96,Hummvee Short II with liner,Grey Camo,M
E8064GC/5       ,1,125.96,Hummvee Short II with liner,Grey Camo,L
E8064NA/4       ,1,125.96,Hummvee Short II with liner,Navy,M
E8064NA/5       ,1,125.96,Hummvee Short II with liner,Navy,L
E8104BK/4       ,1,144.76,Hummvee Lite Short with Liner,Black,M
E1166BK/5       ,1,66.60,FS260-Pro Aerogel Mitt,Black,L
