SKU,Maximum allowed,Barcode/EAN,Days left
E1039BK/L-XL,1,5055939906720       ,2
E1128BK/L-XL,1,5055205398617       ,2
E1128BK/S-M,1,5055205399164       ,2
E1161BK/5,1,5055939928692       ,2
E1301BK/4,1,5055205363530       ,2
E3125BK/6,1,5055939915418       ,2
E4054BK/6,1,5055939953199       ,2
E6153BK/5,1,5055939953304       ,2
E7135BK/4,1,5055939953120       ,2
E8064BK/7,1,5055939916019       ,2
E8064KH/7,1,5055939916095       ,2
E1130WH/S-M,1,5055205399621       ,4
E1167BK/6,1,5055939929330       ,4
E1102,5,5055205353814       ,6
E1128BK/S-M,1,5055205399164       ,6
E1161BK/6,2,5055939928708       ,6
E1204GC/6,1,5055939950693       ,6
E3125NA/6,1,5055939950853       ,6
E6107BK/3,1,5055939915784       ,6
E9102GV/6,1,5055939925592       ,6
E1102,3,5055205353814       ,9
E1128BK/L-XL,3,5055205398617       ,9
E8066BK/4,1,5055939916347       ,9
E8066BK/5,1,5055939916354       ,9
E9102GV/6,1,5055939925592       ,9
E0060/4,2,5055205323688       ,11
E0116PK,1,5055205381046       ,11
E1160RD/4,1,5055939928623       ,11
E1161BK/4,1,5055939928685       ,11
E1161BK/5,1,5055939928692       ,11
E3125BK/5,1,5055939915401       ,11
E3134BK/4,1,5055939924380       ,11
E3142NA/6,1,5055939952697       ,11
E4055BK/4,1,5055939953076       ,11
E6106PU/4,1,5055939919553       ,11
E6107BK/2,1,5055939915777       ,11
E6120PU/4,1,5055939932811       ,11
E8064BK/6,1,5055939916002       ,11
E8069BK/7,1,5055939916590       ,11
E8081BK/5,1,5055939934976       ,11
E9121YV/5,1,5055939945835       ,11
E0035/5,1,5055205301457       ,16
E1028BK/0,2,5055205385952       ,16
E1157BK/L-XL,1,5055939928418       ,16
E1160RD/5,2,5055939928630       ,16
E1161RD/4,2,5055939928746       ,16
E3109YV/5,1,5055939909028       ,16
E3125RD/5,1,5055939919270       ,16
E4055BK/3,1,5055939953069       ,16
E9121RD/6,1,5055939943480       ,16
E6107BK/5,1,5055939915807       ,16
E7128GY/0,1,5055939934426       ,16
E8064KH/3,1,5055939916057       ,21
E8064KH/6,1,5055939916088       ,21
E1160KH/4,1,5055939928562       ,22
E1160KH/5,1,5055939928579       ,22
E1160KH/7,1,5055939928593       ,22
E8064BK/5,1,5055939915999       ,22
E0061/3,1,5055205323732       ,38
E0061/4,2,5055205323749       ,38
E0128BK/3,1,5055939904924       ,38
E1108BK/S-M,1,5055205387970       ,38
E1160RD/4,1,5055939928623       ,38
E1160RD/7,1,5055939928654       ,38
E1161BK/3,1,5055939928678       ,38
E1161BK/6,2,5055939928708       ,38
E1161RD/3,1,5055939928739       ,38
E1161RD/7,1,5055939928777       ,38
E1183BK/6,1,5055939944258       ,38
E1183BK/7,1,5055939944265       ,38
E1188BK/5,1,5055939944838       ,38
E1188BK/6,1,5055939944845       ,38
E1194BU/S-M,1,5055939946153       ,38
E3125RD/4,1,5055939919263       ,38
E3125RD/5,1,5055939919270       ,38
E3134BK/3,1,5055939924373       ,38
E3156BU/4,1,5055939939520       ,38
E3156BU/5,1,5055939939537       ,38
E3158BK/4,1,5055939942421       ,38
E4027BK/4,2,5055205398266       ,38
E4027BK/5,2,5055205398273       ,38
E4055BK/5,1,5055939953083       ,38
E6106BK/5,1,5055939919515       ,38
E6107BK/4,1,5055939915791       ,38
E6107BK/5,1,5055939915807       ,38
E6120PU/3,1,5055939932804       ,38
E6126BK/3,1,5055939933160       ,38
E6126BK/4,1,5055939933177       ,38
E6153BK/4,1,5055939953298       ,38
E7130AN/5,1,5055939953854       ,38
E8064BK/3,1,5055939915975       ,38
E8069BK/5,1,5055939916576       ,38
E8081BK/3,1,5055939934952       ,38
E8089BK/3,1,5055939944371       ,38
E9102RD/4,1,5055939925479       ,38
E9106BK/4,1,5055939935263       ,38
E9106BK/6,1,5055939935287       ,38
E9121RD/5,1,5055939943473       ,38
E8087BK/3,1,5055939943107       ,49
E8087BK/4,1,5055939943114       ,49
E8087BK/5,2,5055939943121       ,49
E8087BK/6,1,5055939943138       ,49
E8087BK/7,1,5055939943145       ,49
E9107BK/4,1,5055939935416       ,49
E0035/3,3,5055205301440       ,50
E0035/5,3,5055205301457       ,50
E0110BK,3,5055205367224       ,50
E0110BP/0,1,5055939959726       ,50
E0110RR/0,1,5055939959719       ,50
E0110YM/0,1,5055939959702       ,50
E0128BK/3,2,5055939904924       ,50
E0128BK/4,2,5055939904931       ,50
E0128BK/5,2,5055939904948       ,50
E0128BK/6,3,5055939904955       ,50
E0128BK/7,1,5055939904962       ,50
E0154BK/L-XL,3,5055939965987       ,50
E0154BK/S-M,2,5055939958149       ,50
E1038BK/L-XL,3,5055939906706       ,50
E1038BK/S-M,3,5055939906690       ,50
E1039BK/L-XL,1,5055939906720       ,50
E1039BK/S-M,1,5055939906713       ,50
E1042BK/L-XL,2,5055939923857       ,50
E1043BK/L-XL,2,5055939923871       ,50
E1102,10,5055205353814       ,50
E1117BK/3,1,5055205390116       ,50
E1117BK/4,1,5055205390123       ,50
E1117BK/5,1,5055205390130       ,50
E1117BK/6,1,5055205390147       ,50
E1118BK/6,2,5055205389998       ,50
E1120BK/4,1,5055205390222       ,50
E1120BK/5,10,5055205390239       ,50
E1120BK/6,2,5055205390246       ,50
E1128BK/L-XL,5,5055205398617       ,50
E1128BK/S-M,2,5055205399164       ,50
E1128WH/L-XL,1,5055205398624       ,50
E1128WH/S-M,1,5055205399614       ,50
E1145BK/3,1,5055939908182       ,50
E1145BK/4,1,5055939908199       ,50
E1145BK/5,2,5055939908205       ,50
E1145BK/6,1,5055939908212       ,50
E1160BK/3,2,5055939928494       ,50
E1160BK/4,2,5055939928500       ,50
E1160BK/6,2,5055939928524       ,50
E1160RD/5,2,5055939928630       ,50
E1161BK/5,1,5055939928692       ,50
E1161BK/6,1,5055939928708       ,50
E1183BK/4,1,5055939944234       ,50
E1183BK/5,1,5055939944241       ,50
E1183BK/6,1,5055939944258       ,50
E1187BK/4,1,5055939944777       ,50
E1187BK/5,2,5055939944784       ,50
E1187BK/6,1,5055939944791       ,50
E1187BK/7,1,5055939944807       ,50
E1194BU/L-XL,6,5055939946146       ,50
E1216BK/3,1,5055939958347       ,50
E1216BK/4,2,5055939958354       ,50
E1216BK/5,3,5055939958361       ,50
E1216BK/6,2,5055939958378       ,50
E1216BK/7,1,5055939958385       ,50
E1218BK/L-XL,1,5055939958521       ,50
E1218BK/M-L,2,5055939958514       ,50
E1218BK/S-M,1,5055939958507       ,50
E1219BK/L-XL,2,5055939958545       ,50
E1219BK/S-M,1,5055939958538       ,50
E1220BK/L-XL,1,5055939958569       ,50
E1220BK/S-M,1,5055939958552       ,50
E1222BK/0,2,5055939958590       ,50
E1223BK/L-XL,3,5055939958613       ,50
E1223BK/S-M,2,5055939958606       ,50
E1225BK/L-XL,1,5055939959207       ,50
E1225BK/XL-XXL,1,5055939966564       ,50
E1226BK/0,2,5055939959399       ,50
E1227BK/L-XL,5,5055939966311       ,50
E1227BK/S-M,2,5055939959405       ,50
E3061W/4,1,5055205342474       ,50
E3061W/5,1,5055205342481       ,50
E3134BK/4,1,5055939924380       ,50
E3156BU/5,2,5055939939537       ,50
E3181NA/4,1,5055939958248       ,50
E3181NA/5,1,5055939958255       ,50
E3181NA/6,1,5055939958262       ,50
E3183BK/3,1,5055939959290       ,50
E3183BK/4,3,5055939959306       ,50
E3183BK/5,4,5055939959313       ,50
E3183BK/6,1,5055939959320       ,50
E3183BK/7,1,5055939959337       ,50
E4027BK/4,2,5055205398266       ,50
E4027BK/5,2,5055205398273       ,50
E4027BK/6,2,5055205398280       ,50
E5049BK/4,1,5055939924533       ,50
E5049BK/5,1,5055939924540       ,50
E5049BK/6,1,5055939924557       ,50
E5050BK/4,1,5055939927718       ,50
E5050BK/5,1,5055939927725       ,50
E5050BK/6,1,5055939927732       ,50
E5055BK/4,1,5055939941486       ,50
E5055BK/5,1,5055939941493       ,50
E5055BK/6,1,5055939941509       ,50
E5056BK/4,1,5055939941837       ,50
E5056BK/5,1,5055939941844       ,50
E5056BK/6,1,5055939941851       ,50
E6040BK/2,1,5055939904979       ,50
E6040BK/3,1,5055939904986       ,50
E6040BK/4,1,5055939904993       ,50
E6120PU/3,1,5055939932804       ,50
E6120PU/4,1,5055939932811       ,50
E6165BK/2,1,5055939959344       ,50
E6165BK/3,1,5055939959351       ,50
E6165BK/4,2,5055939959368       ,50
E6165BK/5,1,5055939959375       ,50
E6165BK/6,1,5055939959382       ,50
E8073BK/4,1,5055939924670       ,50
E8073BK/5,1,5055939924687       ,50
E8076BK/4,2,5055939924823       ,50
E8076BK/5,2,5055939924830       ,50
E8076BK/6,2,5055939924847       ,50
E9117BK/4,1,5055939942179       ,50
E9117BK/5,1,5055939942186       ,50
E9117BK/6,1,5055939942193       ,50
E9120YV/6,2,5055939943282       ,50
E9121RD/4,1,5055939943466       ,50
E9121RD/6,1,5055939943480       ,50
E9121YV/5,1,5055939945835       ,50
E4055BK/6,1,5055939953090       ,57
E9114BV/5,1,5055939941790       ,57
E9147NA/4,1,5055939959474       ,63
E9147NA/5,1,5055939959481       ,63
E9147NA/6,1,5055939959498       ,63
EU8045BK/4,1,5055205339078       ,66
E3181RR/4,1,5055939958293       ,70
E3181RR/5,1,5055939958309       ,70
E3181RR/6,1,5055939958316       ,70
E0061/4,2,5055205323749       ,72
E0110YM/0,1,5055939959702       ,72
E1157BK/L-XL,1,5055939928418       ,72
E1157BK/S-M,1,5055939928425       ,72
E1160KH/4,1,5055939928562       ,72
E1160KH/5,1,5055939928579       ,72
E1160KH/6,1,5055939928586       ,72
E1160RD/6,1,5055939928647       ,72
E1161BK/4,1,5055939928685       ,72
E1161BK/5,2,5055939928692       ,72
E1161BK/6,1,5055939928708       ,72
E1161RD/4,1,5055939928746       ,72
E1161RD/7,1,5055939928777       ,72
E1183BK/7,1,5055939944265       ,72
E1188BK/4,1,5055939944821       ,72
E1188BK/5,1,5055939944838       ,72
E1188BK/6,1,5055939944845       ,72
E1194BU/S-M,1,5055939946153       ,72
E1216BK/4,1,5055939958354       ,72
E3109YV/6,1,5055939909035       ,72
E3125BK/6,1,5055939915418       ,72
E3125NA/6,1,5055939950853       ,72
E3125RD/4,1,5055939919263       ,72
E3125RD/5,1,5055939919270       ,72
E3142RR/5,1,5055939952635       ,72
E3183BK/6,1,5055939959320       ,72
E4030BK/4,1,5055939917481       ,72
E4054BK/6,1,5055939953199       ,72
E4055BK/3,1,5055939953069       ,72
E4055BK/4,1,5055939953076       ,72
E4055BK/5,1,5055939953083       ,72
E4055BK/6,1,5055939953090       ,72
E5055BK/5,1,5055939941493       ,72
E6040BK/5,1,5055939905006       ,72
E6106BK/6,1,5055939919522       ,72
E6107BK/3,1,5055939915784       ,72
E6119CO/4,1,5055939932699       ,72
E6120PU/5,1,5055939932828       ,72
E6126BK/5,1,5055939933184       ,72
E6153BK/2,1,5055939953274       ,72
E7130AN/5,1,5055939953854       ,72
E7135BK/4,1,5055939953120       ,72
E8064BK/4,1,5055939915982       ,72
E8064BK/5,1,5055939915999       ,72
E8064BK/7,1,5055939916019       ,72
E8064KH/4,1,5055939916064       ,72
E8070BK/4,1,5055939916729       ,72
E8070BK/5,1,5055939916736       ,72
E8073BK/6,1,5055939924694       ,72
E8076BK/3,1,5055939924816       ,72
E8081BK/4,1,5055939934969       ,72
E8081BK/5,1,5055939934976       ,72
E9106BK/3,1,5055939935256       ,72
E9106BK/6,1,5055939935287       ,72
E9106WH/4,1,5055939935362       ,72
E9106WH/6,1,5055939935386       ,72
E9129YV/5,1,5055939943671       ,72
E9134YV/4,1,5055939943367       ,72
E9138GC/5,1,5055939949062       ,72
E8064GY/2,1,5055939916200       ,77
E0060/3,1,5055205323671       ,79
E0060/4,1,5055205323688       ,79
E0061/5,1,5055205323756       ,79
E1145BK/4,2,5055939908199       ,79
E1161RD/3,1,5055939928739       ,79
E1161RD/5,1,5055939928753       ,79
E1219BK/L-XL,1,5055939958545       ,79
E3125NA/7,1,5055939950860       ,79
E3156BU/4,1,5055939939520       ,79
E3156BU/7,1,5055939939551       ,79
E8081BK/3,1,5055939934952       ,79
E8098BK/2,1,5055939953335       ,79
E8098BK/4,1,5055939953359       ,79
E8098BK/5,1,5055939953366       ,79
E9102GV/4,1,5055939925578       ,79
E9114BV/6,1,5055939941806       ,81
E1160KH/4,1,5055939928562       ,86
E1227BK/S-M,1,5055939959405       ,86
E3134BK/5,1,5055939924397       ,86
E3158BK/5,1,5055939942438       ,86
E3158BK/6,1,5055939942445       ,86
E5055BK/3,1,5055939941479       ,86
E6066BK/5,1,5055205363752       ,86
E6120PU/2,1,5055939932798       ,86
E6165BK/3,1,5055939959351       ,86
E7125BK/4,1,5055939924625       ,86
E8076BK/3,1,5055939924816       ,86
E9120YV/5,1,5055939943275       ,86
E3156BU/6,1,5055939939544       ,88
E9120BK/5,1,5055939943220       ,88
E9120YV/7,1,5055939943299       ,88
E9129YV/4,1,5055939943664       ,88
E4027BK/3,1,5055205398259       ,106
E8064BK/5,1,5055939915999       ,106
E0060/4,2,5055205323688       ,114
E0060/6,1,5055205323701       ,114
E0128BK/4,1,5055939904931       ,114
E0128BK/6,2,5055939904955       ,114
E1042BK/S-M,1,5055939923864       ,114
E1117BK/5,1,5055205390130       ,114
E1118BK/5,1,5055205389981       ,114
E1118BK/7,1,5055205390000       ,114
E1120BK/3,1,5055205390215       ,114
E1120BK/6,1,5055205390246       ,114
E1120BK/7,1,5055205390253       ,114
E1145BK/7,1,5055939910659       ,114
E1157BK/S-M,1,5055939928425       ,114
E1161BK/4,1,5055939928685       ,114
E1161BK/6,1,5055939928708       ,114
E1188BK/5,1,5055939944838       ,114
E1202BK/L-XL,1,5055939949918       ,114
E1216BK/5,1,5055939958361       ,114
E1216BK/7,1,5055939958385       ,114
E1226BK/0,1,5055939959399       ,114
E1227BK/S-M,1,5055939959405       ,114
E3125BK/7,1,5055939915425       ,114
E3134BK/6,1,5055939924403       ,114
E3181RR/5,1,5055939958309       ,114
E3183BK/6,1,5055939959320       ,114
E4027BK/4,2,5055205398266       ,114
E4031BK/5,1,5055939916989       ,114
E4054BK/5,1,5055939953182       ,114
E4055BK/3,1,5055939953069       ,114
E4055BK/7,1,5055939953106       ,114
E5055BK/5,1,5055939941493       ,114
E5055BK/7,1,5055939941516       ,114
E5056BK/5,1,5055939941844       ,114
E5056BK/7,1,5055939941868       ,114
E6066BK/6,1,5055205363769       ,114
E6107BK/5,1,5055939915807       ,114
E6107BK/6,1,5055939915746       ,114
E6120PU/4,1,5055939932811       ,114
E6120PU/5,1,5055939932828       ,114
E6153BK/3,1,5055939953281       ,114
E7125BK/5,1,5055939924632       ,114
E7130AN/6,1,5055939953861       ,114
E7131BK/K9,1,5055939949963       ,114
E7132BK/K9,1,5055939949987       ,114
E7135BK/4,1,5055939953120       ,114
E8064BK/3,1,5055939915975       ,114
E8064BK/5,1,5055939915999       ,114
E8064KH/7,1,5055939916095       ,114
E8066BK/3,1,5055939916330       ,114
E8069BK/4,1,5055939916569       ,114
E8070BK/5,1,5055939916736       ,114
E8070BK/6,1,5055939916743       ,114
E8073BK/4,1,5055939924670       ,114
E8073BK/6,1,5055939924694       ,114
E8076BK/4,2,5055939924823       ,114
E8076BK/5,1,5055939924830       ,114
E8087BK/3,1,5055939943107       ,114
E8087BK/4,1,5055939943114       ,114
E8087BK/5,2,5055939943121       ,114
E8098BK/5,1,5055939953366       ,114
E9102GV/5,1,5055939925585       ,114
E9102RD/5,1,5055939925486       ,114
E9120YV/5,1,5055939943275       ,114
E9129YV/4,1,5055939943664       ,114
E9129YV/5,1,5055939943671       ,114
E1038BK/L-XL,1,5055939906706       ,121
E1160BK/5,2,5055939928517       ,121
E1216BK/3,1,5055939958347       ,121
E1218BK/M-L,2,5055939958514       ,121
E1223BK/L-XL,1,5055939958613       ,121
E1223BK/S-M,1,5055939958606       ,121
E3125KH/4,1,5055939919324       ,121
E3125KH/5,1,5055939919331       ,121
E3125KH/6,1,5055939919348       ,121
E3125KH/7,1,5055939919355       ,121
E3181NA/6,1,5055939958262       ,121
E4054BK/6,1,5055939953199       ,121
E7125BK/6,1,5055939924649       ,121
E8070BK/4,1,5055939916729       ,121
E8073BK/7,1,5055939924700       ,121
E8076BK/5,1,5055939924830       ,121
E8088BK/4,1,5055939943169       ,121
E8088BK/5,1,5055939943176       ,121
E8088BK/6,1,5055939943183       ,121
E8088BK/7,1,5055939943190       ,121
E9121YV/5,1,5055939945835       ,121
E0035/5,2,5055205301457       ,127
E0060/6,1,5055205323701       ,127
E1145BK/5,1,5055939908205       ,127
E1160BK/7,1,5055939928531       ,127
E1160KH/5,1,5055939928579       ,127
E1160KH/6,1,5055939928586       ,127
E1160RD/3,1,5055939928616       ,127
E1187BK/6,1,5055939944791       ,127
E1218BK/L-XL,1,5055939958521       ,127
E1219BK/S-M,1,5055939958538       ,127
E1301BK/4,1,5055205363530       ,127
E1301BK/7,1,5055205363561       ,127
E3109YV/4,1,5055939909011       ,127
E3181NA/4,1,5055939958248       ,127
E4055BK/4,1,5055939953076       ,127
E5055BK/4,1,5055939941486       ,127
E6040BK/4,1,5055939904993       ,127
E7131BK/K11,1,5055939949970       ,127
E7132BK/K11,1,5055939949994       ,127
E8064BK/4,1,5055939915982       ,127
E8064BK/6,1,5055939916002       ,127
E8064KH/3,1,5055939916057       ,127
E8066BK/7,1,5055939916378       ,127
E9120BK/7,1,5055939943244       ,127
E9120YV/3,1,5055939943251       ,127
E9129YV/3,1,5055939943657       ,127
E9147NA/4,1,5055939959474       ,127
E0110PK,1,5055205367231       ,134
E0110RR/0,1,5055939959719       ,134
E0128BK/5,1,5055939904948       ,134
E1160BK/6,1,5055939928524       ,134
E1183BK/6,2,5055939944258       ,134
E1216BK/5,2,5055939958361       ,134
E1216BK/6,1,5055939958378       ,134
E1216BK/7,1,5055939958385       ,134
E1223BK/L-XL,1,5055939958613       ,134
E5055BK/4,1,5055939941486       ,134
E7125BK/6,1,5055939924649       ,134
E9120BK/5,1,5055939943220       ,134
E1225BK/L-XL,1,5055939959207       ,137
E5057BK/6,1,5055939942148       ,137
E6040BK/5,1,5055939905006       ,137
E7118BK/4,1,5055939914886       ,137
E7118BK/5,1,5055939914893       ,137
E7127RD/5,1,5055939934402       ,137
E0062/4,2,5055205323770       ,140
E0083BK/5,1,5055205341507       ,140
E0128YV/5,1,5055939909639       ,140
E1120BK/4,2,5055205390222       ,140
E1161BK/5,1,5055939928692       ,140
E1181BK/5,1,5055939942537       ,140
E1217BK/4,1,5055939958460       ,140
E3168BK/4,1,5055939954172       ,140
E7128GY/0,1,5055939934426       ,140
E8065BK/5,1,5055939919164       ,140
E8066BK/5,1,5055939916354       ,140
E8073BK/3,1,5055939924663       ,140
E8073BK/4,1,5055939924670       ,140
E8073BK/5,2,5055939924687       ,140
E8077BK/2,3,5055939924861       ,140
E8084BK/5,2,5055939942384       ,140
E9117OM/6,1,5055939942292       ,140
E9142BK/5,1,5055939957371       ,140
E0062/7,1,5055205323800       ,141
E0128BK/5,2,5055939904948       ,141
E3178BK/4,1,5055939957876       ,141
E7140GY/K11,1,5055939960678       ,141
E8073BK/4,1,5055939924670       ,141
E8073BK/5,1,5055939924687       ,141
E8075BK/3,1,5055939924762       ,141
E9120BK/5,1,5055939943220       ,141
E9144BK/3,1,5055939957555       ,141
E0154BK/L-XL,1,5055939965987       ,143
E1227BK/L-XL,4,5055939966311       ,143
E1227RR/L-XL,2,5055939966335       ,143
E8073BK/5,1,5055939924687       ,143
E1196BK/M-L,1,5055939956510       ,144
E8084BK/6,1,5055939942391       ,144
E1224BK/6,1,5055939966298       ,147
E0110RR/0,1,5055939959719       ,148
E0128BK/4,1,5055939904931       ,148
E0154BK/L-XL,1,5055939965987       ,148
E1117BK/5,1,5055205390130       ,148
E1118BK/6,1,5055205389998       ,148
E1120BK/6,1,5055205390246       ,148
E1145BK/5,1,5055939908205       ,148
E1160BK/6,1,5055939928524       ,148
E1160RD/6,1,5055939928647       ,148
E1161BK/6,1,5055939928708       ,148
E1183BK/5,1,5055939944241       ,148
E1187BK/6,1,5055939944791       ,148
E1216BK/5,1,5055939958361       ,148
E1219BK/S-M,2,5055939958538       ,148
E1223BK/L-XL,1,5055939958613       ,148
E1226BK/0,1,5055939959399       ,148
E1227BK/L-XL,1,5055939966311       ,148
E3125BK/7,1,5055939915425       ,148
E3158BK/5,1,5055939942438       ,148
E5055BK/4,1,5055939941486       ,148
E5056BK/5,1,5055939941844       ,148
E7135BK/6,1,5055939953144       ,148
E7140GY/K11,1,5055939960678       ,148
E8064BK/4,1,5055939915982       ,148
E8064KH/4,1,5055939916064       ,148
E8069BK/5,1,5055939916576       ,148
E8098BK/5,1,5055939953366       ,148
E9106BK/3,1,5055939935256       ,148
E9117BK/6,1,5055939942193       ,148
E9134YV/5,1,5055939943374       ,148
E0060/3,1,5055205323671       ,156
E1117BK/5,3,5055205390130       ,156
E1160KH/6,1,5055939928586       ,156
E1160RD/7,1,5055939928654       ,156
E1161BK/6,1,5055939928708       ,156
E1161RD/4,1,5055939928746       ,156
E1165BK/7,1,5055939928883       ,156
E3109YV/6,1,5055939909035       ,156
E3142NA/5,1,5055939952680       ,156
E4027BK/4,1,5055205398266       ,156
E4055BK/6,1,5055939953090       ,156
E6040BK/3,1,5055939904986       ,156
E6040BK/4,1,5055939904993       ,156
E6066BK/3,1,5055205363738       ,156
E7131BK/K9,1,5055939949963       ,156
E8064KH/3,1,5055939916057       ,156
E8066BK/4,1,5055939916347       ,156
E8066BK/5,2,5055939916354       ,156
E8069BK/5,1,5055939916576       ,156
E8076BK/3,1,5055939924816       ,156
E8076BK/5,1,5055939924830       ,156
E8089BK/4,1,5055939944388       ,156
E9106BK/4,1,5055939935263       ,156
E9120BK/5,1,5055939943220       ,156
E9142BK/6,1,5055939957388       ,156
E1120BK/4,1,5055205390222       ,161
E1120BK/5,2,5055205390239       ,161
E9144BK/4,1,5055939957562       ,161
E9120YV/5,1,5055939943275       ,162
E9120YV/7,1,5055939943299       ,162
E5055BK/4,1,5055939941486       ,169
E0043GK/0,1,5055939961385       ,172
E1120BK/6,1,5055205390246       ,172
E1152BK/4,1,5055939923901       ,172
E1183BK/5,1,5055939944241       ,172
E1183BK/7,1,5055939944265       ,172
E1223BK/L-XL,1,5055939958613       ,172
E5056BK/5,1,5055939941844       ,172
E8064BK/4,1,5055939915982       ,172
E9102RD/5,1,5055939925486       ,172
E0060/7,3,5055205323718       ,175
E1120BK/4,1,5055205390222       ,175
E1120BK/5,1,5055205390239       ,175
E1160BK/5,1,5055939928517       ,175
E1161BK/4,1,5055939928685       ,175
E9114BK/6,1,5055939941752       ,175
E1224BK/5,1,5055939966281       ,179
E1301BK/3,1,5055205363523       ,179
E3156BU/3,1,5055939939513       ,179
E8069BK/3,1,5055939916552       ,179
E9102RD/5,1,5055939925486       ,179
E9106BK/5,1,5055939935270       ,179
E9106WH/5,1,5055939935379       ,179
E9115CO/5,1,5055939941905       ,179
E9129BP/3,1,5055939943619       ,179
E0110BP/0,1,5055939959726       ,183
E0154BK/L-XL,1,5055939965987       ,183
E1038BK/L-XL,1,5055939906706       ,183
E1038BK/S-M,1,5055939906690       ,183
E1042BK/S-M,1,5055939923864       ,183
E1117BK/6,1,5055205390147       ,183
E1120BK/4,2,5055205390222       ,183
E1120BK/6,2,5055205390246       ,183
E1145BK/5,1,5055939908205       ,183
E1145BK/6,2,5055939908212       ,183
E1160BK/6,1,5055939928524       ,183
E1160KH/3,1,5055939928555       ,183
E1161RD/7,1,5055939928777       ,183
E1188BK/4,1,5055939944821       ,183
E1216BK/3,1,5055939958347       ,183
E1216BK/4,1,5055939958354       ,183
E1216BK/5,2,5055939958361       ,183
E1216BK/6,1,5055939958378       ,183
E1216BK/7,1,5055939958385       ,183
E1218BK/M-L,1,5055939958514       ,183
E1223BK/L-XL,1,5055939958613       ,183
E1226BK/0,2,5055939959399       ,183
E1301BK/7,1,5055205363561       ,183
E3125BK/4,1,5055939915395       ,183
E3125KH/5,1,5055939919331       ,183
E3125KH/7,1,5055939919355       ,183
E3134BK/5,1,5055939924397       ,183
E4054BK/3,1,5055939953168       ,183
E4054BK/5,1,5055939953182       ,183
E4055BK/5,1,5055939953083       ,183
E4055BK/6,1,5055939953090       ,183
E5050BK/5,1,5055939927725       ,183
E5055BK/5,1,5055939941493       ,183
E5056BK/4,1,5055939941837       ,183
E6040BK/2,1,5055939904979       ,183
E6165BK/2,1,5055939959344       ,183
E7130AN/4,1,5055939953847       ,183
E7130AN/5,1,5055939953854       ,183
E8064BK/3,1,5055939915975       ,183
E8064BK/4,1,5055939915982       ,183
E8064BK/7,1,5055939916019       ,183
E8064KH/3,1,5055939916057       ,183
E8064KH/4,1,5055939916064       ,183
E8069BK/4,1,5055939916569       ,183
E9102RD/5,1,5055939925486       ,183
E9117BK/4,1,5055939942179       ,183
E9117BK/5,1,5055939942186       ,183
E9120BK/3,1,5055939943206       ,183
E9120BK/4,1,5055939943213       ,183
E9121RD/5,1,5055939943473       ,183
E9147NA/6,1,5055939959498       ,183
E1038BK/S-M,1,5055939906690       ,189
E1039BK/L-XL,1,5055939906720       ,189
E1118BK/6,1,5055205389998       ,189
E1120BK/5,2,5055205390239       ,189
E1120BK/7,1,5055205390253       ,189
E1223BK/L-XL,2,5055939958613       ,189
E1227BK/L-XL,1,5055939966311       ,189
E3156BU/3,1,5055939939513       ,189
E6040BK/3,1,5055939904986       ,189
E6040BK/5,1,5055939905006       ,189
E6066BK/4,1,5055205363745       ,189
E8064BK/4,1,5055939915982       ,189
E8066BK/4,1,5055939916347       ,189
E8073BK/3,1,5055939924663       ,189
E8073BK/4,1,5055939924670       ,189
E8073BK/6,1,5055939924694       ,189
E8087BK/4,1,5055939943114       ,189
E1187BK/5,1,5055939944784       ,190
E1205WH/L-XL,1,5055939956541       ,204
E9114BK/7,1,5055939941769       ,204
E1160BK/5,2,5055939928517       ,206
E9144BV/3,1,5055939957609       ,206
