SKU,Maximum allowed,Barcode/EAN,Days left
E0062/4,15,5055205323770       ,0
E0062/5,30,5055205323787       ,0
E0062/6,20,5055205323794       ,0
E0062/7,10,5055205323800       ,0
E0063/3,15,5055205323824       ,0
E0063/4,15,5055205323831       ,0
E0063/5,5,5055205323848       ,0
E1102,20,5055205353814       ,0
E1128BK/L-XL,20,5055205398617       ,0
E1128BK/S-M,10,5055205399164       ,0
E1134BK/0,15,5055939902470       ,0
E1165BK/3,10,5055939928845       ,0
E1165BK/4,25,5055939928852       ,0
E1165BK/5,40,5055939928869       ,0
E1165BK/6,65,5055939928876       ,0
E1165BK/7,60,5055939928883       ,0
E1165GV/4,10,5055939928906       ,0
E1165GV/5,10,5055939928913       ,0
E1165GV/6,20,5055939928920       ,0
E1165GV/7,25,5055939928937       ,0
E1165RD/4,10,5055939929019       ,0
E1165RD/5,10,5055939929026       ,0
E1165RD/6,10,5055939929033       ,0
E1165RD/7,10,5055939929040       ,0
E1168BK/4,8,5055939929484       ,0
E1168BK/5,15,5055939929491       ,0
E1168BK/6,12,5055939929507       ,0
E1168BK/7,5,5055939929514       ,0
E1504GV/L-XL,10,5055205389707       ,0
E1505GY/L-XL,10,5055939930091       ,0
E1505GY/M-L,15,5055939930107       ,0
E1505MB/L-XL,10,5055939904474       ,0
E1505MB/M-L,40,5055939904481       ,0
E1505MB/S-M,15,5055939904498       ,0
E1505RD/L-XL,10,5055939951287       ,0
E1505RD/M-L,15,5055939951270       ,0
E1505RD/S-M,5,5055939951263       ,0
E1505WH/L-XL,10,5055939904542       ,0
E1505WH/S-M,10,5055939904566       ,0
E1511BK/L-XL,10,5055939930121       ,0
E1511BK/M-L,15,5055939930138       ,0
E1511BK/S-M,5,5055939930145       ,0
E1511KH/L-XL,10,5055939950402       ,0
E1511KH/M-L,10,5055939950396       ,0
E1511KH/S-M,5,5055939950389       ,0
E3109BK/5,6,5055939908977       ,0
E3109BK/6,8,5055939908984       ,0
E3109BK/7,10,5055939908991       ,0
E3109YV/4,5,5055939909011       ,0
E3109YV/5,8,5055939909028       ,0
E3109YV/6,12,5055939909035       ,0
E3109YV/7,15,5055939909042       ,0
E3125BK/4,5,5055939915395       ,0
E3125BK/5,10,5055939915401       ,0
E3125BK/6,10,5055939915418       ,0
E3125BK/7,10,5055939915425       ,0
E3125NA/5,10,5055939950846       ,0
E3125NA/6,8,5055939950853       ,0
E3173GF/4,5,5055939949659       ,0
E3173GF/5,10,5055939949666       ,0
E3173GF/6,10,5055939949673       ,0
E3173GF/7,8,5055939949680       ,0
E4027BK/4,10,5055205398266       ,0
E4027BK/5,12,5055205398273       ,0
E4027BK/6,15,5055205398280       ,0
E4027BK/7,8,5055205398297       ,0
E4054BK/4,6,5055939953175       ,0
E4054BK/5,12,5055939953182       ,0
E4054BK/6,10,5055939953199       ,0
E4054BK/7,8,5055939953205       ,0
E6110BK/3,10,5055939914671       ,0
E6110BK/4,12,5055939914688       ,0
E6110BK/5,6,5055939914695       ,0
E6126BK/3,15,5055939933160       ,0
E6126BK/4,25,5055939933177       ,0
E6126BK/5,15,5055939933184       ,0
E6153BK/3,8,5055939953281       ,0
E6153BK/4,8,5055939953298       ,0
E6153BK/5,5,5055939953304       ,0
E6153BK/6,3,5055939953311       ,0
E7117BK/4,5,5055939917023       ,0
E7117BK/5,12,5055939917030       ,0
E7117BK/6,15,5055939917047       ,0
E7117BK/7,3,5055939917054       ,0
E7120BK/4,15,5055939915500       ,0
E7120BK/5,35,5055939915517       ,0
E7120BK/6,25,5055939915524       ,0
E7120BK/7,8,5055939915531       ,0
E7128KH/0,15,5055939951324       ,0
E8064BK/5,20,5055939915999       ,0
E8064BK/6,30,5055939916002       ,0
E8064BK/7,12,5055939916019       ,0
E8064GY/4,15,5055939916224       ,0
E8064GY/5,30,5055939916231       ,0
E8064GY/6,25,5055939916248       ,0
E8064GY/7,15,5055939916255       ,0
E8065BK/4,12,5055939919157       ,0
E8065BK/5,20,5055939919164       ,0
E8065BK/6,20,5055939919171       ,0
E8065BK/7,10,5055939919188       ,0
E8066BK/4,7,5055939916347       ,0
E8066BK/6,9,5055939916361       ,0
E8066BK/7,3,5055939916378       ,0
E8067BK/4,15,5055939916453       ,0
E8067BK/5,20,5055939916460       ,0
E8067BK/6,10,5055939916477       ,0
E8081BK/4,15,5055939934969       ,0
E8081BK/5,20,5055939934976       ,0
E8081BK/6,12,5055939934983       ,0
E8066BK/5,11,5055939916354       ,1
E8067NA/4,10,5055939949307       ,1
E8067NA/5,15,5055939949314       ,1
E8067NA/6,8,5055939949321       ,1
E8094AN/4,15,5055939949406       ,2
E8094AN/5,20,5055939949413       ,2
E8094AN/6,15,5055939949420       ,2
E8094AN/7,10,5055939949437       ,2
E1167RD/5,2,5055939929385       ,10
E1167RD/6,2,5055939929392       ,10
E3174NA/3,1,5055939952918       ,10
E3174NA/4,1,5055939952925       ,10
E3174NA/5,2,5055939952932       ,10
E3174NA/6,2,5055939952949       ,10
E3174NA/7,2,5055939952956       ,10
E5067BK/3,1,5055939950716       ,10
E5067BK/4,9,5055939950723       ,10
E5067BK/5,14,5055939950730       ,10
E5067BK/6,14,5055939950747       ,10
E5067BK/7,14,5055939950754       ,10
E5067NA/4,2,5055939950778       ,10
E5067NA/5,3,5055939950785       ,10
E5067NA/6,3,5055939950792       ,10
E5067NA/7,2,5055939950808       ,10
E6152CO/2,1,5055939951027       ,10
E6152CO/3,2,5055939951034       ,10
E6152CO/4,2,5055939951041       ,10
E6152CO/5,1,5055939951058       ,10
E6152CO/6,1,5055939951065       ,10
E6152RD/2,1,5055939951072       ,10
E6152RD/3,1,5055939951089       ,10
E6152RD/4,1,5055939951096       ,10
E6152RD/5,1,5055939951102       ,10
E6152RD/6,1,5055939951119       ,10
E8064GC/4,2,5055939950976       ,10
E8064GC/5,3,5055939950983       ,10
E8064GC/6,3,5055939950990       ,10
E8064GC/7,2,5055939951003       ,10
E8064GY/8,2,5055939916262       ,10
E8092BK/3,1,5055939948348       ,10
E8092BK/4,1,5055939948355       ,10
E8092BK/5,2,5055939948362       ,10
E8092BK/6,2,5055939948379       ,10
E8092BK/7,2,5055939948386       ,10
E8094AN/3,2,5055939949390       ,10
E8094AN/4,2,5055939949406       ,10
E8094AN/5,3,5055939949413       ,10
E8094AN/6,2,5055939949420       ,10
E8094AN/7,2,5055939949437       ,10
E9140BK/4,2,5055939953489       ,10
E9140BK/5,2,5055939953496       ,10
E9140BK/6,2,5055939953502       ,10
E9140BK/7,2,5055939953519       ,10
E9140BV/4,2,5055939953533       ,10
E9140BV/5,2,5055939953540       ,10
E9140BV/6,2,5055939953557       ,10
E8064BK/4,20,5055939915982       ,15
E8096AN/2,1,5055939950082       ,16
E8096AN/3,2,5055939950099       ,16
E8096AN/4,2,5055939950105       ,16
E8096AN/5,1,5055939950112       ,16
E8067NA/7,1,5055939949338       ,17
E8095AN/2,1,5055939950006       ,17
E8095AN/3,4,5055939950013       ,17
E8095AN/4,5,5055939950020       ,17
E8095AN/5,3,5055939950037       ,17
E0003/M-L,1,5055205300139       ,24
E0035/3,1,5055205301440       ,24
E0035/5,1,5055205301457       ,24
E0063/6,1,5055205370842       ,24
E0150BK/0,1,5055939936925       ,24
E0151KH/0,1,5055939936963       ,24
E1129BK/0,1,5055205398631       ,24
E1146BK/S-M,1,5055939909714       ,24
E1160BK/4,1,5055939928500       ,24
E1160BK/5,1,5055939928517       ,24
E1160BK/6,1,5055939928524       ,24
E1160BK/7,1,5055939928531       ,24
E1166BK/3,1,5055939929064       ,24
E1166BK/4,2,5055939929071       ,24
E1166BK/5,2,5055939929088       ,24
E1166BK/6,2,5055939929095       ,24
E1166BK/7,1,5055939929101       ,24
E1184BK/4,1,5055939944432       ,24
E1184BK/5,1,5055939944449       ,24
E1184BK/6,1,5055939944456       ,24
E1184BK/7,1,5055939944463       ,24
E1204GC/4,1,5055939950679       ,24
E1204GC/5,1,5055939950686       ,24
E1204GC/6,1,5055939950693       ,24
E1204GC/7,1,5055939950709       ,24
E1250CL,1,5055939955797       ,24
E1251CL,1,5055939955803       ,24
E3063W/4,1,5055205343631       ,24
E3063W/5,1,5055205343648       ,24
E3063W/6,1,5055205343655       ,24
E3063W/7,1,5055205343662       ,24
E3125RD/4,1,5055939919263       ,24
E3125RD/5,1,5055939919270       ,24
E3125RD/6,1,5055939919287       ,24
E3125RD/7,1,5055939919294       ,24
E3142BK/3,1,5055939931357       ,24
E3142BK/4,1,5055939931364       ,24
E3142BK/5,1,5055939931371       ,24
E3142BK/6,1,5055939931388       ,24
E3142BK/7,1,5055939931395       ,24
E5067BK/3,1,5055939950716       ,24
E6105CE/2,1,5055939918396       ,24
E6105CE/3,1,5055939918402       ,24
E6105CE/4,1,5055939918419       ,24
E6105CE/5,1,5055939918426       ,24
E6108BK/3,1,5055939919591       ,24
E6108BK/5,1,5055939919614       ,24
E6108BK/6,1,5055939919621       ,24
E9106BK/4,1,5055939935263       ,24
E9106BK/5,1,5055939935270       ,24
E9106BK/6,1,5055939935287       ,24
E9106BK/7,1,5055939935294       ,24
E9106WH/3,1,5055939935355       ,24
E9106WH/4,1,5055939935362       ,24
E9106WH/5,1,5055939935379       ,24
E9106WH/6,1,5055939935386       ,24
E9121YV/4,1,5055939945828       ,24
E9121YV/5,1,5055939945835       ,24
E9121YV/6,1,5055939945842       ,24
E9121YV/7,1,5055939945859       ,24
E9134YV/7,1,5055939943398       ,24
E8064BK/8,2,5055939916026       ,37
E8075BK/5,4,5055939924786       ,37
E8094AN/5,2,5055939949413       ,37
E3125NA/4,5,5055939950839       ,38
E3125NA/6,2,5055939950853       ,38
E3125NA/7,10,5055939950860       ,38
E0062/4,1,5055205323770       ,41
E3125NA/4,1,5055939950839       ,41
E3125NA/7,1,5055939950860       ,41
E1251CL,1,5055939955803       ,46
E8064GY/4,1,5055939916224       ,46
E8073BK/3,1,5055939924663       ,46
E8073BK/7,1,5055939924700       ,46
E8076BK/6,1,5055939924847       ,46
E8081KH/5,2,5055939935027       ,46
E9117BK/5,1,5055939942186       ,46
E0004/L-XL,2,5055205300153       ,53
E0150BK/0,1,5055939936925       ,53
E1129BK/0,1,5055205398631       ,53
E1166BK/3,1,5055939929064       ,53
E1204BK/5,1,5055939950587       ,53
E1204BK/6,1,5055939950594       ,53
E1511WH/S-M,1,5055939930206       ,53
E3109YV/3,1,5055939909004       ,53
E3125BK/4,1,5055939915395       ,53
E3142BK/4,1,5055939931364       ,53
E4055BK/5,1,5055939953083       ,53
E4055BK/6,1,5055939953090       ,53
E6120BK/3,1,5055939932767       ,53
E6126CE/4,2,5055939933214       ,53
E7117BK/4,1,5055939917023       ,53
E8064GC/5,1,5055939950983       ,53
E8064GY/2,1,5055939916200       ,53
E8064GY/3,1,5055939916217       ,53
E8064GY/8,1,5055939916262       ,53
E8067BK/7,1,5055939916484       ,53
E8073BK/4,1,5055939924670       ,53
E8073BK/5,1,5055939924687       ,53
E8073BK/6,1,5055939924694       ,53
E8081BK/7,1,5055939934990       ,53
E9106BK/4,1,5055939935263       ,53
E9106BK/6,1,5055939935287       ,53
E5067NA/4,1,5055939950778       ,54
E5067NA/5,1,5055939950785       ,54
E5067NA/6,1,5055939950792       ,54
E5067NA/7,1,5055939950808       ,54
E6126CE/3,1,5055939933207       ,54
E6152CO/3,1,5055939951034       ,54
E6152CO/4,1,5055939951041       ,54
E6152CO/5,1,5055939951058       ,54
E8064BK/7,1,5055939916019       ,66
E0004/L-XL,1,5055205300153       ,67
E0004/S-M,1,5055205300160       ,67
E1166BK/4,1,5055939929071       ,67
E1204GC/4,1,5055939950679       ,67
E1204GC/5,1,5055939950686       ,67
E1204GC/6,1,5055939950693       ,67
E3125RD/7,1,5055939919294       ,67
E3142BK/5,1,5055939931371       ,67
E6104CE/2,1,5055939915692       ,67
E6108BK/5,1,5055939919614       ,67
E8064GC/4,2,5055939950976       ,67
E8064GC/5,3,5055939950983       ,67
E8064GC/6,1,5055939950990       ,67
E8073BK/5,1,5055939924687       ,67
E8073BK/6,1,5055939924694       ,67
E9129YV/3,1,5055939943657       ,67
E9134YV/3,1,5055939943350       ,67
E1505GY/L-XL,1,5055939930091       ,68
E0004/L-XL,2,5055205300153       ,74
E0132MB/5,2,5055939922034       ,74
E0150BK/0,1,5055939936925       ,74
E0151KH/0,1,5055939936963       ,74
E1108BK/L-XL,2,5055205387987       ,74
E1108BK/S-M,1,5055205387970       ,74
E1109BK/L-XL,1,5055205388014       ,74
E1109BK/M-L,1,5055205388007       ,74
E1109BK/S-M,1,5055205387994       ,74
E1135BK/0,1,5055205399249       ,74
E1165GV/4,2,5055939928906       ,74
E1165GV/5,2,5055939928913       ,74
E1204GC/4,1,5055939950679       ,74
E1204GC/5,1,5055939950686       ,74
E1204GC/6,1,5055939950693       ,74
E1204GC/7,1,5055939950709       ,74
E1250CL,1,5055939955797       ,74
E1251CL,1,5055939955803       ,74
E1506BK/L-XL,1,5055939920061       ,74
E3109OC/5,1,5055939909127       ,74
E3109OC/6,1,5055939909134       ,74
E3142BK/4,1,5055939931364       ,74
E3142BK/5,1,5055939931371       ,74
E3142BK/6,1,5055939931388       ,74
E3173BK/4,1,5055939949604       ,74
E3173BK/5,2,5055939949611       ,74
E3173BK/7,1,5055939949635       ,74
E4027BK/3,1,5055205398259       ,74
E4027BK/7,1,5055205398297       ,74
E4054BK/4,1,5055939953175       ,74
E6097BK/2,1,5055939901206       ,74
E6097BK/3,2,5055939901213       ,74
E6097BK/4,2,5055939901220       ,74
E6097BK/5,1,5055939901237       ,74
E6104CE/3,1,5055939915708       ,74
E6104CE/4,1,5055939915715       ,74
E6104CE/5,1,5055939915722       ,74
E6104CE/6,1,5055939920931       ,74
E6108BK/3,1,5055939919591       ,74
E6108BK/4,1,5055939919607       ,74
E6108BK/5,1,5055939919614       ,74
E6152RD/3,1,5055939951089       ,74
E6152RD/4,2,5055939951096       ,74
E6152RD/5,1,5055939951102       ,74
E6152RD/6,1,5055939951119       ,74
E6153BK/6,1,5055939953311       ,74
E7131BK/K11,1,5055939949970       ,74
E7131BK/K9,1,5055939949963       ,74
E8064BK/3,1,5055939915975       ,74
E8064BK/8,1,5055939916026       ,74
E8064BK/9,1,5055939916033       ,74
E8073BK/4,1,5055939924670       ,74
E8073BK/5,1,5055939924687       ,74
E8073BK/6,1,5055939924694       ,74
E8098BK/2,1,5055939953335       ,74
E8098BK/3,1,5055939953342       ,74
E8098BK/4,2,5055939953359       ,74
E8098BK/5,1,5055939953366       ,74
E0132MB/5,1,5055939922034       ,75
E0132MB/6,1,5055939922041       ,75
E1160BK/6,1,5055939928524       ,75
E1166BK/7,1,5055939929101       ,75
E1184BK/6,1,5055939944456       ,75
E1250CL,1,5055939955797       ,75
E1251CL,1,5055939955803       ,75
E1511WH/S-M,1,5055939930206       ,75
E3063W/5,1,5055205343648       ,75
E3109BK/6,1,5055939908984       ,75
E3125BK/4,1,5055939915395       ,75
E3125BK/7,1,5055939915425       ,75
E4054BK/4,1,5055939953175       ,75
E4054BK/6,1,5055939953199       ,75
E6106BK/4,1,5055939919508       ,75
E6108BK/4,1,5055939919607       ,75
E6108BK/5,1,5055939919614       ,75
E6126CE/3,1,5055939933207       ,75
E6126CE/4,1,5055939933214       ,75
E6153BK/3,1,5055939953281       ,75
E6153BK/4,1,5055939953298       ,75
E6153BK/5,2,5055939953304       ,75
E6153BK/6,1,5055939953311       ,75
E8073BK/7,1,5055939924700       ,75
E9106BK/5,1,5055939935270       ,75
E9120BK/4,1,5055939943213       ,75
E9120BK/6,1,5055939943237       ,75
E9120BK/7,1,5055939943244       ,75
E9121YV/4,1,5055939945828       ,75
E9121YV/7,1,5055939945859       ,75
E9129YV/2,1,5055939943640       ,75
E8064BK/6,1,5055939916002       ,80
E0063/5,1,5055205323848       ,81
E0151KH/0,3,5055939936963       ,82
E1108BK/L-XL,2,5055205387987       ,82
E1108BK/S-M,2,5055205387970       ,82
E1506BK/M-L,1,5055939920054       ,82
E3109BK/4,1,5055939908960       ,82
E3109BK/5,1,5055939908977       ,82
E3109OC/4,1,5055939909110       ,82
E3109OC/5,1,5055939909127       ,82
E3109OC/6,1,5055939909134       ,82
E3109YV/5,2,5055939909028       ,82
E3123BK/5,1,5055939915340       ,82
E3142RR/4,1,5055939952628       ,82
E3142RR/5,1,5055939952635       ,82
E3142RR/6,1,5055939952642       ,82
E3169BK/6,1,5055939954257       ,82
E3173BK/4,1,5055939949604       ,82
E3173BK/5,2,5055939949611       ,82
E3173BK/7,1,5055939949635       ,82
E3174NA/4,1,5055939952925       ,82
E3174NA/5,1,5055939952932       ,82
E3174NA/6,1,5055939952949       ,82
E4054BK/4,1,5055939953175       ,82
E4055BK/3,1,5055939953069       ,82
E6104CE/3,1,5055939915708       ,82
E6108BK/3,1,5055939919591       ,82
E6108BK/4,1,5055939919607       ,82
E6108BK/5,1,5055939919614       ,82
E6110BK/5,1,5055939914695       ,82
E6125BK/5,2,5055939933061       ,82
E6126CE/3,1,5055939933207       ,82
E6126CE/4,1,5055939933214       ,82
E6126CE/5,1,5055939933221       ,82
E6152RD/3,1,5055939951089       ,82
E6152RD/4,1,5055939951096       ,82
E6152RD/5,1,5055939951102       ,82
E6153BK/6,1,5055939953311       ,82
E7131BK/K9,1,5055939949963       ,82
E8064BK/3,2,5055939915975       ,82
E8064BK/9,1,5055939916033       ,82
E8073BK/6,2,5055939924694       ,82
E8095AN/5,1,5055939950037       ,82
E8098BK/5,2,5055939953366       ,82
E9099CO/3,1,5055939925318       ,82
E9117BK/6,1,5055939942193       ,82
E1199NA/4,1,5055939949758       ,87
E0004/L-XL,1,5055205300153       ,88
E0132MB/5,1,5055939922034       ,88
E0132NA/5,1,5055939915081       ,88
E0150BK/0,1,5055939936925       ,88
E1129BK/0,1,5055205398631       ,88
E3109BK/7,1,5055939908991       ,88
E3142BK/6,1,5055939931388       ,88
E4027BK/5,2,5055205398273       ,88
E4027BK/6,1,5055205398280       ,88
E4027BK/7,2,5055205398297       ,88
E4054BK/4,1,5055939953175       ,88
E4054BK/5,2,5055939953182       ,88
E4054BK/6,3,5055939953199       ,88
E4055BK/6,1,5055939953090       ,88
E6108BK/4,1,5055939919607       ,88
E7120BK/3,1,5055939915494       ,88
E8064GY/4,3,5055939916224       ,88
E9120BK/5,1,5055939943220       ,88
E9120BK/7,1,5055939943244       ,88
E9120YV/7,1,5055939943299       ,88
E9121YV/6,1,5055939945842       ,88
E8064KH/4,2,5055939916064       ,90
E8064GY/5,1,5055939916231       ,93
E0005/L-XL,1,5055205341781       ,95
E0132BK/6,1,5055939915036       ,95
E0132MB/4,1,5055939922027       ,95
E0151KH/0,2,5055939936963       ,95
E1108BK/S-M,2,5055205387970       ,95
E3109BK/4,1,5055939908960       ,95
E3109YV/4,1,5055939909011       ,95
E3123KH/4,1,5055939930480       ,95
E3123KH/5,1,5055939930497       ,95
E3158BK/6,1,5055939942445       ,95
E3173BK/4,2,5055939949604       ,95
E4027BK/5,2,5055205398273       ,95
E6153BK/5,1,5055939953304       ,95
E6153BK/6,1,5055939953311       ,95
E7117BK/7,1,5055939917054       ,95
E8064BK/5,2,5055939915999       ,95
E8064GY/3,1,5055939916217       ,95
E8067BK/7,1,5055939916484       ,95
E0004/L-XL,1,5055205300153       ,96
E0150BK/0,1,5055939936925       ,96
E1135BK/0,2,5055205399249       ,96
E1165RD/3,1,5055939929002       ,96
E1251CL,3,5055939955803       ,96
E1252CL,6,5055939955810       ,96
E3125BK/7,1,5055939915425       ,96
E3134BK/5,1,5055939924397       ,96
E3134BK/6,1,5055939924403       ,96
E3134BK/7,1,5055939924410       ,96
E3134GV/6,1,5055939924458       ,96
E3134GV/7,1,5055939924465       ,96
E3142BK/6,1,5055939931388       ,96
E3169BK/4,1,5055939954233       ,96
E3169BK/5,1,5055939954240       ,96
E3169BK/6,1,5055939954257       ,96
E6106BK/4,1,5055939919508       ,96
E6106BK/5,1,5055939919515       ,96
E6108BK/4,1,5055939919607       ,96
E6120BK/3,1,5055939932767       ,96
E6152CO/2,1,5055939951027       ,96
E6152CO/3,2,5055939951034       ,96
E6152CO/4,2,5055939951041       ,96
E6152CO/5,2,5055939951058       ,96
E7117BK/6,1,5055939917047       ,96
E8064GC/4,2,5055939950976       ,96
E8064GC/5,2,5055939950983       ,96
E8064GY/3,1,5055939916217       ,96
E9106BK/6,1,5055939935287       ,96
E9114GV/6,1,5055939941707       ,96
E9120BK/5,2,5055939943220       ,96
E9120BK/7,1,5055939943244       ,96
E9120YV/5,1,5055939943275       ,96
E9120YV/6,1,5055939943282       ,96
E9120YV/7,1,5055939943299       ,96
E9129YV/3,1,5055939943657       ,96
E9140BK/4,1,5055939953489       ,96
E9140BK/5,2,5055939953496       ,96
E9140BK/6,1,5055939953502       ,96
E9140BK/7,2,5055939953519       ,96
E3125NA/4,1,5055939950839       ,97
E3125NA/7,1,5055939950860       ,97
E0132NA/4,1,5055939915074       ,100
E0132NA/5,1,5055939915081       ,100
E1102,3,5055205353814       ,100
E1167BK/7,2,5055939929347       ,100
E1185BK/4,1,5055939944531       ,100
E1204BK/5,1,5055939950587       ,100
E6105CE/2,1,5055939918396       ,100
E6105CE/3,1,5055939918402       ,100
E6105CE/4,1,5055939918419       ,100
E6105CE/5,1,5055939918426       ,100
E6110BK/5,1,5055939914695       ,100
E8064BK/5,2,5055939915999       ,100
E8064GY/3,1,5055939916217       ,100
E8092BK/5,1,5055939948362       ,100
E8095AN/4,1,5055939950020       ,100
E1505GY/M-L,1,5055939930107       ,102
E1160BK/4,1,5055939928500       ,108
E1165BK/5,1,5055939928869       ,108
E4055BK/5,1,5055939953083       ,108
E6105CE/5,1,5055939918426       ,108
E8064GY/2,1,5055939916200       ,108
E9106BK/4,1,5055939935263       ,108
E9107BK/3,1,5055939935409       ,108
E9107BK/4,1,5055939935416       ,108
E9107BK/5,1,5055939935423       ,108
E9107BK/6,1,5055939935430       ,108
E9107BK/7,1,5055939935447       ,108
E9121YV/6,1,5055939945842       ,108
E9121YV/7,1,5055939945859       ,108
E0004/S-M,1,5055205300160       ,109
E1165BK/6,1,5055939928876       ,109
E6106BK/4,1,5055939919508       ,109
E6108BK/4,2,5055939919607       ,109
E6108BK/5,2,5055939919614       ,109
E6152CO/3,1,5055939951034       ,109
E6152CO/4,1,5055939951041       ,109
E6152CO/5,1,5055939951058       ,109
E6152RD/3,1,5055939951089       ,109
E6152RD/4,1,5055939951096       ,109
E6152RD/5,1,5055939951102       ,109
E6153BK/2,1,5055939953274       ,109
E6153BK/4,1,5055939953298       ,109
E6153BK/5,2,5055939953304       ,109
E6153BK/6,2,5055939953311       ,109
E8064GY/4,2,5055939916224       ,109
E8064GY/5,2,5055939916231       ,109
E1108BK/L-XL,2,5055205387987       ,115
E1108BK/S-M,2,5055205387970       ,115
E1109BK/L-XL,3,5055205388014       ,115
E1165GV/5,1,5055939928913       ,115
E1204GC/4,1,5055939950679       ,115
E1251CL,2,5055939955803       ,115
E1505GV/L-XL,2,5055939904443       ,115
E5067BK/4,1,5055939950723       ,115
E6104CE/5,1,5055939915722       ,115
E7131BK/K9,3,5055939949963       ,115
E8064GY/8,2,5055939916262       ,115
E8073BK/4,1,5055939924670       ,115
E8081BK/7,1,5055939934990       ,115
E8098BK/3,1,5055939953342       ,115
E9126YV/7,1,5055939943954       ,115
E9126YV/8,1,5055939945170       ,115
E0063/5,1,5055205323848       ,116
E1160BK/5,1,5055939928517       ,116
E1160BK/6,1,5055939928524       ,116
E1204GC/6,1,5055939950693       ,116
E3109BK/5,1,5055939908977       ,116
E4055BK/5,1,5055939953083       ,116
E6153BK/2,1,5055939953274       ,116
E8064GY/8,1,5055939916262       ,116
E9098BK/4,1,5055939942889       ,116
E9098BK/5,1,5055939942896       ,116
E9098BK/6,1,5055939942902       ,116
E9098BK/7,1,5055939942919       ,116
E1165GV/5,1,5055939928913       ,121
E1165GV/6,1,5055939928920       ,121
E1505RD/S-M,2,5055939951263       ,121
E3109BK/4,1,5055939908960       ,121
E4055BK/4,1,5055939953076       ,121
E5067BK/4,1,5055939950723       ,121
E6097BK/2,1,5055939901206       ,121
E8064GY/3,2,5055939916217       ,121
E8064GY/5,3,5055939916231       ,121
E8067NA/6,1,5055939949321       ,121
E8067NA/7,1,5055939949338       ,121
E8092BK/4,1,5055939948355       ,121
E8096AN/3,1,5055939950099       ,121
E9114GV/5,1,5055939941691       ,121
E9114GV/6,1,5055939941707       ,121
E9120YV/5,1,5055939943275       ,121
E9120YV/6,1,5055939943282       ,121
E9129YV/4,1,5055939943664       ,121
E9129YV/5,1,5055939943671       ,121
E0004/L-XL,1,5055205300153       ,128
E1166BK/4,1,5055939929071       ,128
E3125BK/6,1,5055939915418       ,128
E3125RD/5,1,5055939919270       ,128
E3142BK/3,1,5055939931357       ,128
E3142BK/4,1,5055939931364       ,128
E4054BK/5,1,5055939953182       ,128
E4054BK/8,1,5055939955094       ,128
E4055BK/4,1,5055939953076       ,128
E4055BK/7,1,5055939953106       ,128
E6104CE/2,1,5055939915692       ,128
E6105CE/5,1,5055939918426       ,128
E6108BK/5,1,5055939919614       ,128
E6126BK/2,1,5055939933153       ,128
E6126CE/5,1,5055939933221       ,128
E6153BK/7,1,5055939953328       ,128
E7117BK/6,1,5055939917047       ,128
E9106BK/6,1,5055939935287       ,128
E0063/5,1,5055205323848       ,129
E0150BK/0,2,5055939936925       ,129
E1102,4,5055205353814       ,129
E1165BK/3,1,5055939928845       ,129
E1165GV/4,1,5055939928906       ,129
E1165GV/7,1,5055939928937       ,129
E5067BK/4,1,5055939950723       ,129
E5067BK/5,1,5055939950730       ,129
E5067BK/6,1,5055939950747       ,129
E6108BK/6,1,5055939919621       ,129
E6126CE/4,1,5055939933214       ,129
E7117BK/6,1,5055939917047       ,129
E8064BK/5,1,5055939915999       ,129
E9114GV/7,1,5055939941714       ,129
E9120BK/5,1,5055939943220       ,129
E3173BK/3,1,5055939949598       ,137
E3173BK/6,1,5055939949628       ,137
E8064BK/7,1,5055939916019       ,137
E8076BK/4,1,5055939924823       ,137
E8076BK/7,1,5055939924854       ,137
E3134BK/5,1,5055939924397       ,138
E3134GV/5,1,5055939924441       ,138
E8064BK/4,3,5055939915982       ,138
E8064BK/5,4,5055939915999       ,138
E8064BK/6,1,5055939916002       ,138
E8064BK/7,1,5055939916019       ,138
E8064BK/8,3,5055939916026       ,138
E8064BK/3,1,5055939915975       ,143
E0063/4,1,5055205323831       ,144
E0063/5,2,5055205323848       ,144
E0132BK/6,1,5055939915036       ,144
E0132NA/5,1,5055939915081       ,144
E0132NA/6,1,5055939915098       ,144
E1108BK/L-XL,2,5055205387987       ,144
E1109BK/S-M,1,5055205387994       ,144
E1204BK/5,2,5055939950587       ,144
E1505GV/M-L,2,5055939904450       ,144
E1505RD/L-XL,2,5055939951287       ,144
E1506GF/L-XL,1,5055939948973       ,144
E3061W/4,1,5055205342474       ,144
E3061W/5,2,5055205342481       ,144
E3109BK/7,1,5055939908991       ,144
E3169BK/3,1,5055939954226       ,144
E3169BK/5,1,5055939954240       ,144
E4054BK/6,1,5055939953199       ,144
E4054BK/8,1,5055939955094       ,144
E6097BK/3,1,5055939901213       ,144
E6104CE/5,1,5055939915722       ,144
E6104CE/6,1,5055939920931       ,144
E6105CE/3,1,5055939918402       ,144
E6108BK/6,1,5055939919621       ,144
E6108TL/5,1,5055939915845       ,144
E6126CE/5,1,5055939933221       ,144
E6151GK/5,1,5055939950310       ,144
E6153BK/3,2,5055939953281       ,144
E8064BK/3,1,5055939915975       ,144
E8064BK/5,4,5055939915999       ,144
E8064GY/5,2,5055939916231       ,144
E8067NA/4,1,5055939949307       ,144
E8067NA/6,2,5055939949321       ,144
E8092BK/4,1,5055939948355       ,144
E8096AN/3,2,5055939950099       ,144
E0063/2,1,5055205323817       ,151
E0063/5,1,5055205323848       ,151
E0132MB/5,2,5055939922034       ,151
E1102,2,5055205353814       ,151
E1108BK/S-M,3,5055205387970       ,151
E1128BK/L-XL,1,5055205398617       ,151
E1160BK/4,1,5055939928500       ,151
E1160BK/6,1,5055939928524       ,151
E1165BK/7,2,5055939928883       ,151
E1165GV/5,2,5055939928913       ,151
E1251CL,1,5055939955803       ,151
E1504GV/M-L,1,5055205389691       ,151
E1505RD/S-M,1,5055939951263       ,151
E1511WH/M-L,1,5055939930190       ,151
E3063W/5,1,5055205343648       ,151
E3123BK/3,1,5055939915326       ,151
E3123OM/4,1,5055939930534       ,151
E3125RD/4,1,5055939919263       ,151
E3125RD/7,1,5055939919294       ,151
E3142BK/5,1,5055939931371       ,151
E3142BK/6,1,5055939931388       ,151
E3142BK/7,2,5055939931395       ,151
E3173GF/6,1,5055939949673       ,151
E4055BK/6,1,5055939953090       ,151
E4055BK/7,2,5055939953106       ,151
E6097BK/3,1,5055939901213       ,151
E6097BK/4,1,5055939901220       ,151
E6097BK/5,2,5055939901237       ,151
E6108BK/4,1,5055939919607       ,151
E6126CE/5,1,5055939933221       ,151
E6153BK/3,1,5055939953281       ,151
E7117BK/6,2,5055939917047       ,151
E7131BK/K11,2,5055939949970       ,151
E8064GY/3,1,5055939916217       ,151
E8064GY/6,1,5055939916248       ,151
E8065BK/4,1,5055939919157       ,151
E9098BK/5,1,5055939942896       ,151
E9107BK/6,1,5055939935430       ,151
E9117BK/7,1,5055939942209       ,151
E9120BK/5,1,5055939943220       ,151
E9120BK/7,1,5055939943244       ,151
E9121YV/5,1,5055939945835       ,151
E9121YV/6,1,5055939945842       ,151
E9129YV/3,1,5055939943657       ,151
E9134YV/7,1,5055939943398       ,151
E9102GV/7,1,5055939925608       ,153
E7120BK/5,2,5055939915517       ,158
E7120BK/6,1,5055939915524       ,158
E0005/L-XL,3,5055205341781       ,165
E0062/6,3,5055205323794       ,165
E0063/4,1,5055205323831       ,165
E0063/5,2,5055205323848       ,165
E0132BK/6,2,5055939915036       ,165
E0150BK/0,2,5055939936925       ,165
E0150NA/0,2,5055939936932       ,165
E1108BK/S-M,2,5055205387970       ,165
E1109BK/M-L,2,5055205388007       ,165
E1160BK/4,1,5055939928500       ,165
E1165BK/3,1,5055939928845       ,165
E1165GV/6,1,5055939928920       ,165
E1167BK/6,2,5055939929330       ,165
E1505GV/L-XL,2,5055939904443       ,165
E1505RD/S-M,2,5055939951263       ,165
E1506WH/L-XL,1,5055939920092       ,165
E1511WH/L-XL,2,5055939930183       ,165
E1511WH/M-L,2,5055939930190       ,165
E3142BK/4,1,5055939931364       ,165
E4054BK/8,1,5055939955094       ,165
E4055BK/6,1,5055939953090       ,165
E6097BK/2,1,5055939901206       ,165
E6105CE/4,1,5055939918419       ,165
E6126BK/5,1,5055939933184       ,165
E7120BK/5,4,5055939915517       ,165
E7120BK/6,3,5055939915524       ,165
E7120BK/7,3,5055939915531       ,165
E7132BK/K11,1,5055939949994       ,165
E8064GY/2,1,5055939916200       ,165
E8064GY/3,1,5055939916217       ,165
E8064GY/7,1,5055939916255       ,165
E8066BK/6,1,5055939916361       ,165
E8067BK/7,2,5055939916484       ,165
E8073BK/5,2,5055939924687       ,165
E8073BK/6,1,5055939924694       ,165
E8073BK/7,2,5055939924700       ,165
E9098BK/7,1,5055939942919       ,165
E9106BK/6,1,5055939935287       ,165
E9117BK/4,1,5055939942179       ,165
E9120YV/4,1,5055939943268       ,165
E9121YV/7,1,5055939945859       ,165
E1128BK/L-XL,3,5055205398617       ,166
E1128BK/S-M,3,5055205399164       ,166
E1128WH/L-XL,1,5055205398624       ,166
E1128WH/S-M,2,5055205399614       ,166
E1129BK/0,2,5055205398631       ,166
E1167BK/4,1,5055939929316       ,166
E1167BK/5,1,5055939929323       ,166
E1167BK/6,1,5055939929330       ,166
E1167BK/7,1,5055939929347       ,166
E1167RD/5,2,5055939929385       ,166
E1167RD/6,1,5055939929392       ,166
E1167RD/7,1,5055939929408       ,166
E4055BK/4,1,5055939953076       ,166
E4055BK/5,1,5055939953083       ,166
E4055BK/6,1,5055939953090       ,166
E6125BK/4,1,5055939933054       ,166
E6125BK/5,1,5055939933061       ,166
E6153BK/3,1,5055939953281       ,166
E6153BK/4,1,5055939953298       ,166
E6153BK/5,1,5055939953304       ,166
E6153BK/6,1,5055939953311       ,166
E0003/M-L,1,5055205300139       ,167
E1167BK/7,2,5055939929347       ,171
E8065BK/4,2,5055939919157       ,171
E1504GV/M-L,1,5055205389691       ,172
E0004/L-XL,2,5055205300153       ,178
E0063/4,1,5055205323831       ,178
E0063/5,2,5055205323848       ,178
E1128BK/L-XL,3,5055205398617       ,178
E1165GV/4,1,5055939928906       ,178
E1165GV/7,1,5055939928937       ,178
E1250CL,2,5055939955797       ,178
E1251CL,2,5055939955803       ,178
E1505MB/L-XL,1,5055939904474       ,178
E3125BK/6,1,5055939915418       ,178
E4054BK/4,1,5055939953175       ,178
E4054BK/5,1,5055939953182       ,178
E4054BK/6,1,5055939953199       ,178
E4055BK/4,1,5055939953076       ,178
E4055BK/5,1,5055939953083       ,178
E5067BK/3,1,5055939950716       ,178
E5067BK/4,2,5055939950723       ,178
E5067BK/5,2,5055939950730       ,178
E5067BK/6,1,5055939950747       ,178
E5067BK/7,2,5055939950754       ,178
E6104CE/5,1,5055939915722       ,178
E6108BK/5,1,5055939919614       ,178
E6126BK/2,1,5055939933153       ,178
E6126CE/2,1,5055939933191       ,178
E6126CE/3,1,5055939933207       ,178
E6152RD/3,1,5055939951089       ,178
E6153BK/5,1,5055939953304       ,178
E6153BK/6,1,5055939953311       ,178
E7117BK/5,1,5055939917030       ,178
E7117BK/6,1,5055939917047       ,178
E7120BK/6,1,5055939915524       ,178
E7128KH/0,1,5055939951324       ,178
E8064GY/6,1,5055939916248       ,178
E8064GY/7,2,5055939916255       ,178
E8065BK/5,2,5055939919164       ,178
E8065BK/6,1,5055939919171       ,178
E9114GV/6,1,5055939941707       ,178
E1160BK/4,1,5055939928500       ,179
E1160BK/5,1,5055939928517       ,179
E1165GV/4,1,5055939928906       ,179
E1165GV/5,2,5055939928913       ,179
E1165GV/6,2,5055939928920       ,179
E1166BK/4,1,5055939929071       ,179
E1166BK/5,1,5055939929088       ,179
E1166BK/6,1,5055939929095       ,179
E1166BK/7,1,5055939929101       ,179
E4054BK/6,1,5055939953199       ,179
E4054BK/7,1,5055939953205       ,179
E4054BK/8,1,5055939955094       ,179
E6108BK/3,1,5055939919591       ,179
E6108BK/4,1,5055939919607       ,179
E6108BK/5,1,5055939919614       ,179
E6108BK/6,1,5055939919621       ,179
E6152RD/3,1,5055939951089       ,179
E6152RD/4,1,5055939951096       ,179
E6152RD/5,1,5055939951102       ,179
E6153BK/3,1,5055939953281       ,179
E6153BK/4,1,5055939953298       ,179
E6153BK/5,1,5055939953304       ,179
E6153BK/6,1,5055939953311       ,179
E8064GY/6,2,5055939916248       ,179
E8064GY/7,2,5055939916255       ,179
E0063/2,2,5055205323817       ,184
E1102,5,5055205353814       ,184
E1108BK/L-XL,1,5055205387987       ,184
E1108BK/S-M,1,5055205387970       ,184
E1165GV/5,1,5055939928913       ,184
E1165GV/6,1,5055939928920       ,184
E1168BK/4,1,5055939929484       ,184
E1168BK/5,1,5055939929491       ,184
E1168BK/6,2,5055939929507       ,184
E1168BK/7,2,5055939929514       ,184
E1184BK/4,1,5055939944432       ,184
E1184BK/5,1,5055939944449       ,184
E1184BK/6,1,5055939944456       ,184
E1184BK/7,1,5055939944463       ,184
E1505GY/L-XL,1,5055939930091       ,184
E1505MB/L-XL,3,5055939904474       ,184
E4055BK/4,2,5055939953076       ,184
E4055BK/5,2,5055939953083       ,184
E4055BK/6,2,5055939953090       ,184
E6097BK/2,2,5055939901206       ,184
E6106BK/4,2,5055939919508       ,184
E6106BK/5,1,5055939919515       ,184
E6108BK/4,1,5055939919607       ,184
E6108BK/5,1,5055939919614       ,184
E6108BK/6,1,5055939919621       ,184
E6153BK/3,1,5055939953281       ,184
E6153BK/4,1,5055939953298       ,184
E6153BK/5,1,5055939953304       ,184
E6153BK/6,1,5055939953311       ,184
E8064GY/6,3,5055939916248       ,184
E8064GY/7,2,5055939916255       ,184
E9117BK/5,2,5055939942186       ,184
E9117BK/7,1,5055939942209       ,184
E3169BK/3,1,5055939954226       ,187
E3169BK/4,2,5055939954233       ,187
E6106BK/5,1,5055939919515       ,187
E7131BK/K11,1,5055939949970       ,187
E8064BK/3,1,5055939915975       ,187
E3109BK/3,1,5055939908953       ,192
E3109BK/4,1,5055939908960       ,192
E3109BK/5,2,5055939908977       ,192
E3109BK/6,2,5055939908984       ,192
E3109OC/3,1,5055939909103       ,192
E3109OC/5,2,5055939909127       ,192
E3109OC/6,2,5055939909134       ,192
E3109OC/7,1,5055939909141       ,192
E6104CE/4,1,5055939915715       ,192
E6104CE/6,1,5055939920931       ,192
E0035/3,2,5055205301440       ,198
E0035/5,10,5055205301457       ,198
E0043GK/0,15,5055939961385       ,198
E0089BK/3,1,5055205343679       ,198
E0089BK/4,1,5055205343686       ,198
E0089BK/5,2,5055205343693       ,198
E0089BK/6,1,5055205343709       ,198
E0128YV/5,5,5055939909639       ,198
E0128YV/6,10,5055939909646       ,198
E0128YV/7,5,5055939909653       ,198
E1043BK/L-XL,1,5055939923871       ,198
E1043BK/S-M,1,5055939923888       ,198
E1118BK/5,5,5055205389981       ,198
E1118BK/6,12,5055205389998       ,198
E1118BK/7,8,5055205390000       ,198
E1145BK/5,2,5055939908205       ,198
E1145BK/6,4,5055939908212       ,198
E1145BK/7,2,5055939910659       ,198
E1165BK/4,5,5055939928852       ,198
E1165BK/5,10,5055939928869       ,198
E1165BK/6,15,5055939928876       ,198
E1165BK/7,15,5055939928883       ,198
E1165RD/5,10,5055939929026       ,198
E1165RD/6,10,5055939929033       ,198
E1165RD/7,10,5055939929040       ,198
E1167BK/6,2,5055939929330       ,198
E1182BK/L-XL,2,5055939942629       ,198
E1182BK/S-M,1,5055939942612       ,198
E1183BK/5,15,5055939944241       ,198
E1183BK/6,10,5055939944258       ,198
E1183BK/7,8,5055939944265       ,198
E1184BK/3,1,5055939944425       ,198
E1184BK/4,1,5055939944432       ,198
E1184BK/5,8,5055939944449       ,198
E1184BK/6,12,5055939944456       ,198
E1184BK/7,8,5055939944463       ,198
E1185BK/5,6,5055939944548       ,198
E1185BK/6,6,5055939944555       ,198
E1185BK/7,5,5055939944562       ,198
E1186BK/3,1,5055939944623       ,198
E1186BK/4,7,5055939944630       ,198
E1186BK/5,10,5055939944647       ,198
E1186BK/6,10,5055939944654       ,198
E1186BK/7,9,5055939944661       ,198
E1224BK/2,1,5055939958798       ,198
E1224BK/3,2,5055939958804       ,198
E1224BK/4,2,5055939966274       ,198
E1224BK/5,2,5055939966281       ,198
E1224BK/6,2,5055939966298       ,198
E1224BK/7,2,5055939966304       ,198
E1227BK/L-XL,4,5055939966311       ,198
E1227BK/S-M,2,5055939959405       ,198
E1505KH/L-XL,2,5055939951317       ,198
E1505KH/M-L,1,5055939951300       ,198
E1505KH/S-M,1,5055939951294       ,198
E1505RD/M-L,1,5055939951270       ,198
E1511WH/S-M,1,5055939930206       ,198
E2010BK/2,1,5055205358062       ,198
E2010BK/3,1,5055205358079       ,198
E2010BK/4,1,5055205358086       ,198
E2010BK/5,1,5055205358093       ,198
E2010BK/6,1,5055205358109       ,198
E3061W/3,1,5055205342467       ,198
E3061W/4,1,5055205342474       ,198
E3123BK/5,2,5055939915340       ,198
E3123BK/6,2,5055939915357       ,198
E3123GF/4,1,5055939948508       ,198
E3123GF/5,2,5055939948515       ,198
E3123GF/6,2,5055939948522       ,198
E3123GF/7,1,5055939948539       ,198
E3133AN/4,2,5055939957074       ,198
E3133AN/5,2,5055939957081       ,198
E3133AN/6,2,5055939957098       ,198
E3133AN/7,2,5055939957104       ,198
E3134BK/4,1,5055939924380       ,198
E3134BK/5,1,5055939924397       ,198
E3134BK/6,1,5055939924403       ,198
E3134BK/7,1,5055939924410       ,198
E3158BK/4,1,5055939942421       ,198
E3158BK/5,1,5055939942438       ,198
E3158BK/6,2,5055939942445       ,198
E3158BK/7,1,5055939942452       ,198
E4054BK/6,1,5055939953199       ,198
E4055BK/4,1,5055939953076       ,198
E4055BK/6,1,5055939953090       ,198
E4055BK/7,1,5055939953106       ,198
E5049BK/4,1,5055939924533       ,198
E5049BK/5,7,5055939924540       ,198
E5049BK/6,10,5055939924557       ,198
E5049BK/7,7,5055939924564       ,198
E5056BK/4,1,5055939941837       ,198
E5056BK/5,6,5055939941844       ,198
E5056BK/6,6,5055939941851       ,198
E5056BK/7,4,5055939941868       ,198
E6104CE/4,1,5055939915715       ,198
E6146BK/2,1,5055939942070       ,198
E6146BK/3,1,5055939942087       ,198
E6146BK/4,1,5055939942094       ,198
E6146BK/5,1,5055939942100       ,198
E6153BK/3,1,5055939953281       ,198
E7135BK/4,2,5055939953120       ,198
E7135BK/5,2,5055939953137       ,198
E7135BK/6,2,5055939953144       ,198
E7135BK/7,2,5055939953151       ,198
E8064BK/4,6,5055939915982       ,198
E8064BK/5,10,5055939915999       ,198
E8064BK/6,5,5055939916002       ,198
E8064GY/6,5,5055939916248       ,198
E8064KH/5,1,5055939916071       ,198
E8073BK/4,10,5055939924670       ,198
E8073BK/5,15,5055939924687       ,198
E8073BK/6,12,5055939924694       ,198
E8073BK/7,5,5055939924700       ,198
E9102BK/4,1,5055939925523       ,198
E9102BK/5,6,5055939925530       ,198
E9102BK/6,6,5055939925547       ,198
E9102BK/7,4,5055939925554       ,198
E9102GV/4,1,5055939925578       ,198
E9102GV/5,1,5055939925585       ,198
E9102GV/6,1,5055939925592       ,198
E9102GV/7,1,5055939925608       ,198
E9102RD/5,5,5055939925486       ,198
E9102RD/6,5,5055939925493       ,198
E9103GV/4,1,5055939925677       ,198
E9103GV/5,1,5055939925684       ,198
E9103GV/6,1,5055939925691       ,198
E9103GV/7,1,5055939925707       ,198
E9106WH/3,1,5055939935355       ,198
E9106WH/4,1,5055939935362       ,198
E9106WH/5,1,5055939935379       ,198
E9106WH/6,1,5055939935386       ,198
E9117BK/5,3,5055939942186       ,198
E9117BK/6,3,5055939942193       ,198
E9119BA/4,1,5055939942988       ,198
E9119BA/5,1,5055939942995       ,198
E9119BA/6,1,5055939943008       ,198
E9119BA/7,1,5055939943015       ,198
E9119GF/4,1,5055939948997       ,198
E9119GF/5,1,5055939949000       ,198
E9119GF/6,1,5055939949017       ,198
E9119GF/7,1,5055939949024       ,198
E9120BK/5,5,5055939943220       ,198
E9120BK/6,5,5055939943237       ,198
E9120BK/7,5,5055939943244       ,198
E9120YV/5,5,5055939943275       ,198
E9120YV/6,5,5055939943282       ,198
E9120YV/7,5,5055939943299       ,198
E9123PW/3,1,5055939943077       ,198
E9123PW/4,1,5055939943084       ,198
E9123PW/5,1,5055939943091       ,198
E9129BP/3,1,5055939943619       ,198
E9129BP/4,1,5055939943626       ,198
E9129BP/5,1,5055939943633       ,198
E1102,1,5055205353814       ,199
E1128BK/L-XL,1,5055205398617       ,199
E1165BK/6,1,5055939928876       ,199
E1165GV/4,1,5055939928906       ,199
E1165GV/6,1,5055939928920       ,199
E1165RD/5,1,5055939929026       ,199
E1168BK/3,1,5055939929477       ,199
E1168BK/4,2,5055939929484       ,199
E1168BK/5,1,5055939929491       ,199
E1168BK/6,2,5055939929507       ,199
E1204GC/4,1,5055939950679       ,199
E1204GC/5,1,5055939950686       ,199
E1505GV/L-XL,1,5055939904443       ,199
E1505GV/M-L,1,5055939904450       ,199
E3125BK/4,1,5055939915395       ,199
E4054BK/5,1,5055939953182       ,199
E6104CE/3,1,5055939915708       ,199
E6105CE/2,1,5055939918396       ,199
E6120BK/2,1,5055939932750       ,199
E6153BK/5,1,5055939953304       ,199
E8064GC/4,1,5055939950976       ,199
E8064GC/5,3,5055939950983       ,199
E8064GC/7,1,5055939951003       ,199
E8065BK/4,1,5055939919157       ,199
E8065BK/6,1,5055939919171       ,199
E8073BK/4,1,5055939924670       ,199
E8081BK/4,1,5055939934969       ,199
E9098BK/5,1,5055939942896       ,199
E9106BK/5,1,5055939935270       ,199
E9106WH/4,1,5055939935362       ,199
E9106WH/5,1,5055939935379       ,199
E9121YV/4,1,5055939945828       ,199
E9134YV/4,1,5055939943367       ,199
E0151GC/0,15,5055939960715       ,200
E0153BK/L-XL,2,5055939965970       ,200
E0153BK/S-M,1,5055939958132       ,200
E0154BK/L-XL,3,5055939965987       ,200
E0154BK/S-M,1,5055939958149       ,200
E1218BK/L-XL,4,5055939958521       ,200
E1218BK/M-L,3,5055939958514       ,200
E1218BK/S-M,1,5055939958507       ,200
E1219BK/L-XL,19,5055939958545       ,200
E1219BK/S-M,1,5055939958538       ,200
E1220BK/L-XL,3,5055939958569       ,200
E1222BK/0,16,5055939958590       ,200
E1223BK/L-XL,22,5055939958613       ,200
E1223BK/S-M,1,5055939958606       ,200
E1224BK/4,5,5055939966274       ,200
E1224BK/5,10,5055939966281       ,200
E1224BK/6,6,5055939966298       ,200
E1227BK/L-XL,15,5055939966311       ,200
E1227BK/S-M,10,5055939959405       ,200
E7120BK/5,10,5055939915517       ,200
E7120BK/6,10,5055939915524       ,200
E7139BK/K11,1,5055939959238       ,200
E7139BK/K9,1,5055939959221       ,200
E7140GY/K11,1,5055939960678       ,200
E7140GY/K9,1,5055939960661       ,200
E8064GY/4,6,5055939916224       ,200
E8064GY/5,10,5055939916231       ,200
E9114BV/4,1,5055939941783       ,200
E9114BV/5,1,5055939941790       ,200
E9114BV/6,1,5055939941806       ,200
E9114BV/7,1,5055939941813       ,200
E9145BK/4,1,5055939959092       ,200
E9145BK/5,1,5055939959108       ,200
E9145BK/6,1,5055939959115       ,200
E1505MB/L-XL,1,5055939904474       ,205
E8064BK/9,2,5055939916033       ,205
E8064GY/4,2,5055939916224       ,205
E1168BK/4,1,5055939929484       ,206
