INVOICE,SIN636743
YOUR REF,SOR390985
DATE,10/10/2019
VALUE,6846


SKU,Qty,Value,Name,Colour,Size
E9119BA/5       ,1,1649,SingleTrack Softshell II,Azure Blue,L
E9119GF/6       ,1,1649,SingleTrack Softshell II,Forest Green,XL
E9119PW/5       ,1,1649,SingleTrack Softshell II,Pewter Grey,L
E9119PW/6       ,1,1649,SingleTrack Softshell II,Pewter Grey,XL
DEL450          ,1,250,Delivery - Czech Republic          ,,
