INVOICE,SIN596464
YOUR REF,SS19
DATE,3/20/2019
VALUE,1216.29


SKU,Qty,Value,Name,Colour,Size
E3109RD/3       ,2,46.85,Pakajak II,Red,S
E3109RD/4       ,3,70.27,Pakajak II,Red,M
E3109RD/5       ,3,70.27,Pakajak II,Red,L
E3109YV/3       ,2,46.85,Pakajak II,Hi-Viz Yellow,S
E3109YV/4       ,3,70.27,Pakajak II,Hi-Viz Yellow,M
E3109YV/5       ,3,70.27,Pakajak II,Hi-Viz Yellow,L
E3109YV/6       ,2,46.85,Pakajak II,Hi-Viz Yellow,XL
E3109YV/7       ,1,23.42,Pakajak II,Hi-Viz Yellow,XXL
E9106BV/4       ,1,42.14,FS260-Pro Adrenaline Race Cape II,Hi-Viz Blue,M
E9106BV/5       ,1,42.14,FS260-Pro Adrenaline Race Cape II,Hi-Viz Blue,L
E9106BV/6       ,1,42.14,FS260-Pro Adrenaline Race Cape II,Hi-Viz Blue,XL
E9106WH/3       ,1,42.14,FS260-Pro Adrenaline Race Cape II,White,S
E9106WH/4       ,2,84.29,FS260-Pro Adrenaline Race Cape II,White,M
E9106WH/5       ,2,84.29,FS260-Pro Adrenaline Race Cape II,White,L
E9106WH/6       ,1,42.14,FS260-Pro Adrenaline Race Cape II,White,XL
E9108CE/1       ,1,42.14,Women's FS260-Pro Adrenaline Race Cape II,Cerise,XXS
E9108CE/2       ,2,84.29,Women's FS260-Pro Adrenaline Race Cape II,Cerise,XS
E9108CE/4       ,1,42.14,Women's FS260-Pro Adrenaline Race Cape II,Cerise,M
E8065BK/3       ,1,32.83,Hummvee Lite Short II with liner,Black,S
E8065BK/5       ,3,98.50,Hummvee Lite Short II with liner,Black,L
E1161RD/5       ,3,39.46,Hummvee Plus Mitt II,Red,L
E1161RD/6       ,2,26.30,Hummvee Plus Mitt II,Red,XL
E1161RD/7       ,2,26.30,Hummvee Plus Mitt II,Red,XXL
