INVOICE,SIN632241
YOUR REF,AW19 FORWARD ORDER
DATE,25/09/2019
VALUE,987.4


SKU,Qty,Value,Name,Colour,Size
E7140BA/K11     ,1,35.30,Kids MT500JR Waterproof Jacket,Azure Blue,11-12yrs
E7140BA/K7      ,1,35.30,Kids MT500JR Waterproof Jacket,Azure Blue,7-8yrs
E8074BK/3       ,1,53.70,MT500 Spray Trouser II,Black,S
E8074BK/4       ,1,53.70,MT500 Spray Trouser II,Black,M
E8074BK/5       ,1,53.70,MT500 Spray Trouser II,Black,L
E8074BK/6       ,1,53.70,MT500 Spray Trouser II,Black,XL
E9117BA/4       ,1,67.83,MT500 Waterproof Jacket,Azure Blue,M
E9147GF/3       ,1,58.70,SingleTrack Jacket,Forest Green,S
E9147GF/4       ,1,58.70,SingleTrack Jacket,Forest Green,M
E9147GF/5       ,1,58.70,SingleTrack Jacket,Forest Green,L
E9147GF/6       ,1,58.70,SingleTrack Jacket,Forest Green,XL
E9147NA/3       ,1,58.70,SingleTrack Jacket,Navy,S
E9147NA/4       ,1,58.70,SingleTrack Jacket,Navy,M
E9147NA/5       ,1,58.70,SingleTrack Jacket,Navy,L
E9147NA/6       ,1,58.70,SingleTrack Jacket,Navy,XL
