E4027BK/4,1
E4027BK/5,1
E4027BK/6,1
E4013BK/4,1
E4013BK/5,1
E4013BK/6,1
E4014BK/4,1
E9071YV/6,1
E8064BK/4,1
E8064BK/5,1
E7118BK/5,1
E9067YV/4,1
E9067YV/5,1
E9067YV/6,1
E9063YV/4,1
E9063YV/5,1
E9063YV/7,1
E0042/5,2
E0042/6,1
E0042/7,1
E4015BK/4,1
E9069YV/5,1
E6040BK/3,1
E6040BK/4,2
E6040BK/5,1
E3069BK/4,1
E3069BK/5,1
E3069BK/7,1
