SKU,Maximum allowed,Barcode/EAN,Days left
E1168BK/4,1,5055939929484       ,173
E1168BK/5,1,5055939929491       ,173
E1168BK/6,1,5055939929507       ,173
E1168OT/4,1,5055939971582       ,173
E1168OT/5,1,5055939971599       ,173
E1170CL/0,1,5055939951331       ,173
E1170GY/0,1,5055939929835       ,173
E1171BK/0,1,5055939929859       ,173
E1174BK/0,1,5055939929972       ,173
E1174GY/0,1,5055939929989       ,173
E1181BK/4,1,5055939942520       ,173
E1181BK/5,1,5055939942537       ,173
E1181BK/6,1,5055939942544       ,173
E1196BK/L-XL,1,5055939948874       ,173
E1196BK/M-L,2,5055939956510       ,173
E1196BK/S-M,1,5055939948867       ,173
E1199NA/4,1,5055939949758       ,173
E1199NA/5,1,5055939949765       ,173
E1199NA/6,1,5055939949772       ,173
E1199NA/7,1,5055939949789       ,173
E1202BK/L-XL,1,5055939949918       ,173
E1202BK/S-M,1,5055939949901       ,173
E1254BK/L-XL,1,5055939971797       ,173
E1254BK/M-L,2,5055939971780       ,173
E1254BK/S-M,1,5055939971773       ,173
E1256BK/L-XL,1,5055939971858       ,173
E1256BK/M-L,1,5055939971841       ,173
E1256BK/S-M,1,5055939971834       ,173
E1257BK/M-L,2,5055939971933       ,173
E1257BK/S-M,1,5055939971926       ,173
E1258BK/4,1,5055939972619       ,173
E1258BK/5,1,5055939972626       ,173
E1258BK/6,1,5055939972633       ,173
E1258BK/7,1,5055939972640       ,173
E3056BK/3,1,5055205337173       ,173
E5073GF/4,1,5055939949154       ,173
E5073GF/5,1,5055939949161       ,173
E5073GF/6,1,5055939949178       ,173
E5073YM/4,1,5055939977744       ,173
E5073YM/5,1,5055939977751       ,173
E6171BK/3,1,5055939973562       ,173
E6171BK/4,1,5055939973579       ,173
E6171BK/5,1,5055939973586       ,173
E6171BP/3,1,5055939973616       ,173
E6171BP/4,1,5055939973623       ,173
E6172BK/3,1,5055939973722       ,173
E6172BK/4,1,5055939973739       ,173
E6172BK/5,1,5055939973746       ,173
E6177BP/3,1,5055939976389       ,173
E6177BP/4,1,5055939976396       ,173
E6177BP/5,1,5055939976402       ,173
E6177CV/3,1,5055939976433       ,173
E6177CV/4,1,5055939976440       ,173
E6177CV/5,1,5055939976457       ,173
E7131BK/K11,1,5055939949970       ,173
E7131BK/K9,1,5055939949963       ,173
E7132BK/K11,1,5055939949994       ,173
E7132BK/K9,1,5055939949987       ,173
E8064BK/5,1,5055939915999       ,173
E8064BK/6,1,5055939916002       ,173
E8064BK/7,1,5055939916019       ,173
E8064GY/5,1,5055939916231       ,173
E8064GY/6,1,5055939916248       ,173
E8083BK/4,1,5055939942322       ,173
E8083BK/5,1,5055939942339       ,173
E9117BK/5,1,5055939942186       ,173
E9117BK/6,1,5055939942193       ,173
E9117CC/4,1,5055939960937       ,173
E9117CC/5,1,5055939960944       ,173
E9147NA/5,1,5055939959481       ,173
E9147NA/6,1,5055939959498       ,173
E9150GK/3,1,5055939960401       ,173
E9150GK/4,1,5055939960418       ,173
E6170BK/4,1,5055939973326       ,180
E6170GK/4,1,5055939973371       ,180
E8101CC/4,1,5055939970783       ,180
E8101CC/5,1,5055939970790       ,180
E3168BK/4,1,5055939954172       ,185
E3168BK/5,1,5055939954189       ,185
E3168BK/6,1,5055939954196       ,185
E3169BK/3,1,5055939954226       ,185
E3169BK/4,1,5055939954233       ,185
E1253WH/L-XL,1,5055939971704       ,193
E1253WH/M-L,2,5055939971698       ,193
E1253WH/S-M,1,5055939971681       ,193
E3184BK/5,1,5055939970394       ,193
E3184BK/6,1,5055939970400       ,193
E3184OT/3,1,5055939970479       ,193
E3184OT/4,1,5055939970486       ,193
E3184OT/5,1,5055939970493       ,193
E1258GF/4,1,5055939972664       ,212
E1258GF/5,1,5055939972671       ,212
E1258GF/6,1,5055939972688       ,212
E1258OT/5,1,5055939972725       ,212
E1258OT/6,1,5055939972732       ,212
E6172CC/3,1,5055939973821       ,212
E6172CC/4,1,5055939973838       ,212
E6172CC/5,1,5055939973845       ,212
