SKU,Maximum allowed,Barcode/EAN,Days left
E1031BK/M-L,2,5055205398037       ,14
E0043GK/0,5,5055939961385       ,22
E0110BK,5,5055205367224       ,22
E0128BK/3,2,5055939904924       ,22
E0128BK/4,3,5055939904931       ,22
E0128BK/5,3,5055939904948       ,22
E0128BK/6,2,5055939904955       ,22
E0130BK/4,2,5055939918006       ,22
E1145BK/3,2,5055939908182       ,22
E1145BK/4,3,5055939908199       ,22
E1145BK/5,3,5055939908205       ,22
E1145BK/6,2,5055939908212       ,22
E1186BK/3,2,5055939944623       ,22
E1186BK/4,3,5055939944630       ,22
E1186BK/5,3,5055939944647       ,22
E1186BK/6,2,5055939944654       ,22
E1188BK/3,1,5055939944814       ,22
E1188BK/4,3,5055939944821       ,22
E1188BK/5,3,5055939944838       ,22
E1188BK/6,2,5055939944845       ,22
E1234BK/L-XL,5,5055939966823       ,22
E1234BK/S-M,5,5055939966816       ,22
E3133AN/3,1,5055939957067       ,22
E3133AN/4,2,5055939957074       ,22
E3133AN/5,2,5055939957081       ,22
E3133AN/6,1,5055939957098       ,22
E3133AN/7,1,5055939957104       ,22
E3133GF/3,1,5055939957128       ,22
E3133GF/4,2,5055939957135       ,22
E3133GF/5,2,5055939957142       ,22
E3133GF/6,1,5055939957159       ,22
E3133GF/7,1,5055939957166       ,22
E3154GF/3,1,5055939956824       ,22
E3154GF/4,2,5055939956831       ,22
E3154GF/5,2,5055939956848       ,22
E3154GF/6,1,5055939956855       ,22
E3157BK/3,1,5055939941424       ,22
E3157BK/4,2,5055939941431       ,22
E3157BK/5,2,5055939941448       ,22
E3157BK/6,1,5055939941455       ,22
E3158BK/3,1,5055939942414       ,22
E3158BK/4,2,5055939942421       ,22
E3158BK/5,2,5055939942438       ,22
E3158BK/6,1,5055939942445       ,22
E3158BK/7,1,5055939942452       ,22
E3159RR/3,1,5055939956701       ,22
E3159RR/4,2,5055939956718       ,22
E3159RR/5,2,5055939956725       ,22
E3159RR/6,1,5055939956732       ,22
E3161BK/3,2,5055939944951       ,22
E3161BK/4,2,5055939944968       ,22
E3161BK/5,2,5055939944975       ,22
E3161BK/6,2,5055939944982       ,22
E3161BK/7,2,5055939944999       ,22
E3176NA/3,1,5055939957005       ,22
E3176NA/4,2,5055939957012       ,22
E3176NA/5,2,5055939957029       ,22
E3176NA/6,1,5055939957036       ,22
E5049BK/3,1,5055939924526       ,22
E5049BK/4,2,5055939924533       ,22
E5049BK/5,2,5055939924540       ,22
E5049BK/6,2,5055939924557       ,22
E5049BK/7,1,5055939924564       ,22
E5055BK/3,1,5055939941479       ,22
E5055BK/4,2,5055939941486       ,22
E5055BK/5,2,5055939941493       ,22
E5055BK/6,1,5055939941509       ,22
E6130GY/2,1,5055939933597       ,22
E6130GY/3,2,5055939933603       ,22
E6130GY/4,2,5055939933610       ,22
E6130GY/5,1,5055939933627       ,22
E6146BK/2,1,5055939942070       ,22
E6146BK/3,3,5055939942087       ,22
E6146BK/4,2,5055939942094       ,22
E6146BK/5,2,5055939942100       ,22
E8073BK/3,1,5055939924663       ,22
E8073BK/4,2,5055939924670       ,22
E8073BK/5,2,5055939924687       ,22
E8073BK/6,1,5055939924694       ,22
E8074BK/3,1,5055939924717       ,22
E8074BK/4,3,5055939924724       ,22
E8074BK/6,1,5055939924748       ,22
E8074BK/7,1,5055939924755       ,22
E8083BK/6,1,5055939942346       ,22
E8088BK/4,2,5055939943169       ,22
E8088BK/5,2,5055939943176       ,22
E8088BK/6,1,5055939943183       ,22
E8088BK/7,1,5055939943190       ,22
E9099BK/2,1,5055939942834       ,22
E9099BK/3,2,5055939942841       ,22
E9106BK/3,1,5055939935256       ,22
E9106BK/4,2,5055939935263       ,22
E9106BK/5,2,5055939935270       ,22
E9106BK/6,1,5055939935287       ,22
E9106BK/7,1,5055939935294       ,22
E9106BV/3,1,5055939941370       ,22
E9106BV/4,2,5055939941387       ,22
E9106BV/5,2,5055939941394       ,22
E9106BV/6,1,5055939941400       ,22
E9106BV/7,1,5055939941417       ,22
E9118PW/3,1,5055939942636       ,22
E9118PW/4,2,5055939942643       ,22
E9118PW/5,2,5055939942650       ,22
E9118PW/6,1,5055939942667       ,22
E9118PW/7,1,5055939942674       ,22
E9137AN/3,1,5055939946269       ,22
E9137AN/4,2,5055939946276       ,22
E9137AN/5,2,5055939946283       ,22
E9137AN/6,1,5055939946290       ,22
E9137AN/7,1,5055939946306       ,22
E9137RD/3,1,5055939946313       ,22
E9137RD/4,2,5055939946320       ,22
E9137RD/5,2,5055939946337       ,22
E9137RD/6,1,5055939946344       ,22
EM0057BK/3,1,5055939925943       ,22
EM0057BK/4,2,5055939925950       ,22
EM0057BK/5,2,5055939925967       ,22
EM0057BK/6,1,5055939925974       ,22
EM0057BK/7,1,5055939925981       ,22
E0152BK/L-XL,5,5055939958125       ,52
E0152BK/S-M,5,5055939958118       ,52
E1052BK/L-XL,3,5055939958040       ,52
E1052BK/M-L,3,5055939958033       ,52
E1052BK/S-M,3,5055939958026       ,52
E1053BK/L-XL,3,5055939958071       ,52
E1053BK/M-L,3,5055939958064       ,52
E1053BK/S-M,2,5055939958057       ,52
E1216BK/3,2,5055939958347       ,52
E1216BK/4,3,5055939958354       ,52
E1216BK/5,3,5055939958361       ,52
E1216BK/6,2,5055939958378       ,52
E1218BK/L-XL,3,5055939958521       ,52
E1218BK/M-L,3,5055939958514       ,52
E1218BK/S-M,3,5055939958507       ,52
E1219BK/L-XL,3,5055939958545       ,52
E1219BK/S-M,3,5055939958538       ,52
E1221BK/L-XL,3,5055939958583       ,52
E1221BK/S-M,3,5055939958576       ,52
E1225BK/L-XL,3,5055939959207       ,52
E1225BK/M-L,3,5055939959191       ,52
E1225BK/XL-XXL,2,5055939966564       ,52
E1226BK/0,5,5055939959399       ,52
E1234GF/L-XL,5,5055939966847       ,52
E1234GF/S-M,5,5055939966830       ,52
E3177BK/2,1,5055939966182       ,52
E3177BK/3,1,5055939957708       ,52
E3177BK/4,2,5055939957715       ,52
E3177BK/5,2,5055939957722       ,52
E3177BK/6,1,5055939957739       ,52
E3178BK/3,1,5055939957869       ,52
E3178BK/4,2,5055939957876       ,52
E3178BK/5,2,5055939957883       ,52
E3178BK/6,1,5055939957890       ,52
E3182AN/3,1,5055939959023       ,52
E3182AN/4,2,5055939959030       ,52
E3182AN/5,2,5055939959047       ,52
E3182AN/6,1,5055939959054       ,52
E3182AN/7,1,5055939959061       ,52
E3183GK/3,2,5055939960449       ,52
E3183GK/4,2,5055939960456       ,52
E3183GK/5,2,5055939960463       ,52
E3183GK/6,2,5055939960470       ,52
E3183GK/7,1,5055939960487       ,52
E6164GK/3,2,5055939958873       ,52
E6164GK/4,2,5055939958880       ,52
E6164GK/5,1,5055939958897       ,52
E7139BK/K11,2,5055939959238       ,52
E7139BK/K7,2,5055939959214       ,52
E7139BK/K9,2,5055939959221       ,52
E7140BA/K11,2,5055939960647       ,52
E7140BA/K7,2,5055939960623       ,52
E7140BA/K9,2,5055939960630       ,52
E8084CC/3,1,5055939961033       ,52
E8084CC/4,2,5055939961040       ,52
E8084CC/5,2,5055939961057       ,52
E8084CC/6,1,5055939961064       ,52
E8100BK/3,1,5055939959139       ,52
E8100BK/4,2,5055939959146       ,52
E8100BK/5,2,5055939959153       ,52
E8100BK/6,1,5055939959160       ,52
E8100BK/7,1,5055939959177       ,52
E9113GK/2,1,5055939966342       ,52
E9113GK/3,1,5055939957302       ,52
E9113GK/4,2,5055939957319       ,52
E9113GK/5,2,5055939957326       ,52
E9113GK/6,1,5055939957333       ,52
E9126YV/3,1,5055939943916       ,52
E9126YV/4,2,5055939943923       ,52
E9126YV/5,2,5055939943930       ,52
E9126YV/6,1,5055939943947       ,52
E9126YV/7,1,5055939943954       ,52
E9142GK/2,1,5055939966229       ,52
E9142GK/3,1,5055939957401       ,52
E9142GK/4,2,5055939957418       ,52
E9142GK/5,2,5055939957425       ,52
E9142GK/6,1,5055939957432       ,52
E9143GK/4,2,5055939957517       ,52
E9143GK/5,2,5055939957524       ,52
E9144BK/3,1,5055939957555       ,52
E9144BK/4,2,5055939957562       ,52
E9144BK/5,2,5055939957579       ,52
E9144BK/6,1,5055939957586       ,52
E9145BK/4,2,5055939959092       ,52
E9145BK/5,2,5055939959108       ,52
E9146MY/2,1,5055939959245       ,52
E9146MY/3,2,5055939959252       ,52
E9146MY/4,2,5055939959269       ,52
E9146MY/5,1,5055939959276       ,52
E9148BK/2,1,5055939959986       ,52
E9148BK/3,1,5055939959993       ,52
E9148BK/4,2,5055939960005       ,52
E9148BK/5,2,5055939960012       ,52
E9148BK/6,1,5055939960029       ,52
E9143GK/2,1,5055939966243       ,54
E9143GK/3,1,5055939957500       ,54
E9143GK/6,1,5055939957531       ,54
E8074BK/5,3,5055939924731       ,58
E3181NA/3,1,5055939958231       ,60
E3181NA/4,2,5055939958248       ,60
E3181NA/5,2,5055939958255       ,60
E3181NA/6,1,5055939958262       ,60
E3181NA/7,1,5055939958279       ,60
E6164GK/2,1,5055939958866       ,80
E8083BK/4,1,5055939942322       ,80
E8083BK/5,2,5055939942339       ,80
E9145BK/3,1,5055939959085       ,80
E9145BK/6,1,5055939959115       ,80
E1053BK/S-M,1,5055939958057       ,89
E8088BK/3,1,5055939943152       ,89
E5057BK/3,1,5055939942117       ,94
E5057BK/4,1,5055939942124       ,94
E5057BK/5,1,5055939942131       ,94
E5057BK/6,1,5055939942148       ,94
E9099BK/4,2,5055939942858       ,94
E9099BK/5,1,5055939942865       ,94
E0130BK/3,1,5055939917993       ,145
E3125BK/8,2,5055939915432       ,145
E0130BK/3,1,5055939917993       ,185
E0130BK/5,2,5055939918013       ,185
E0130BK/6,2,5055939918020       ,185
E0043GK/0,5,5055939961385       ,206
E0060/3,4,5055205323671       ,206
E0060/4,6,5055205323688       ,206
E0060/5,6,5055205323695       ,206
E0060/6,4,5055205323701       ,206
E0061/2,4,5055205323725       ,206
E0061/3,5,5055205323732       ,206
E0061/4,5,5055205323749       ,206
E0061/5,4,5055205323756       ,206
E0073,5,5055205338118       ,206
E0132BK/2,1,5055939914992       ,206
E0132BK/3,2,5055939915005       ,206
E0132BK/4,2,5055939915012       ,206
E0132BK/5,2,5055939915029       ,206
E0132BK/6,2,5055939915036       ,206
E0132BK/7,1,5055939915043       ,206
E0151GC/0,5,5055939960715       ,206
E0151GF/0,5,5055939960708       ,206
E0151RR/0,5,5055939960685       ,206
E1048BK/L-XL,5,5055939928197       ,206
E1048BK/S-M,5,5055939928203       ,206
E1050BK/L-XL,5,5055939928210       ,206
E1050BK/S-M,5,5055939928227       ,206
E1052BK/L-XL,5,5055939958040       ,206
E1052BK/M-L,5,5055939958033       ,206
E1052BK/S-M,5,5055939958026       ,206
E1053BK/L-XL,5,5055939958071       ,206
E1053BK/M-L,5,5055939958064       ,206
E1053BK/S-M,5,5055939958057       ,206
E1054BK/L-XL,5,5055939958101       ,206
E1054BK/M-L,5,5055939958095       ,206
E1054BK/S-M,5,5055939958088       ,206
E1120BK/3,2,5055205390215       ,206
E1120BK/4,2,5055205390222       ,206
E1120BK/5,2,5055205390239       ,206
E1120BK/6,2,5055205390246       ,206
E1120BK/7,2,5055205390253       ,206
E1165BK/2,3,5055939936352       ,206
E1165BK/3,4,5055939928845       ,206
E1165BK/4,4,5055939928852       ,206
E1165BK/5,4,5055939928869       ,206
E1165BK/6,4,5055939928876       ,206
E1165BK/7,3,5055939928883       ,206
E1165GV/2,2,5055939936369       ,206
E1165GV/3,3,5055939928890       ,206
E1165GV/4,3,5055939928906       ,206
E1165GV/5,3,5055939928913       ,206
E1165GV/6,2,5055939928920       ,206
E1165OC/2,2,5055939936376       ,206
E1165OC/3,3,5055939928944       ,206
E1165OC/4,3,5055939928951       ,206
E1165OC/5,3,5055939928968       ,206
E1165OC/6,2,5055939928975       ,206
E1165RD/2,3,5055939928999       ,206
E1165RD/3,4,5055939929002       ,206
E1165RD/4,4,5055939929019       ,206
E1165RD/5,4,5055939929026       ,206
E1165RD/6,3,5055939929033       ,206
E1168BK/3,2,5055939929477       ,206
E1168BK/4,3,5055939929484       ,206
E1168BK/5,3,5055939929491       ,206
E1168BK/6,2,5055939929507       ,206
E1168NA/3,2,5055939929576       ,206
E1168NA/4,3,5055939929583       ,206
E1168NA/5,3,5055939929590       ,206
E1168NA/6,2,5055939929606       ,206
E1168OT/3,2,5055939971575       ,206
E1168OT/4,3,5055939971582       ,206
E1168OT/5,3,5055939971599       ,206
E1168OT/6,2,5055939971605       ,206
E1188BK/3,2,5055939944814       ,206
E1188BK/4,2,5055939944821       ,206
E1188BK/5,2,5055939944838       ,206
E1188BK/6,2,5055939944845       ,206
E1195BK/L-XL,3,5055939948836       ,206
E1195BK/M-L,3,5055939956503       ,206
E1195BK/S-M,3,5055939948829       ,206
E1196BK/L-XL,3,5055939948874       ,206
E1196BK/M-L,3,5055939956510       ,206
E1196BK/S-M,3,5055939948867       ,206
E1199NA/3,2,5055939949741       ,206
E1199NA/4,3,5055939949758       ,206
E1199NA/5,3,5055939949765       ,206
E1199NA/6,2,5055939949772       ,206
E1199RR/3,2,5055939949697       ,206
E1199RR/4,3,5055939949703       ,206
E1199RR/5,3,5055939949710       ,206
E1199RR/6,2,5055939949727       ,206
E1205BK/L-XL,5,5055939951812       ,206
E1205BK/S-M,5,5055939951805       ,206
E1205BV/L-XL,3,5055939951836       ,206
E1205BV/S-M,3,5055939951829       ,206
E1205GK/L-XL,5,5055939956565       ,206
E1205GK/S-M,5,5055939956558       ,206
E1205NA/L-XL,3,5055939951850       ,206
E1205NA/S-M,3,5055939951843       ,206
E1205PS/L-XL,3,5055939974590       ,206
E1205PS/S-M,3,5055939974583       ,206
E1205RD/L-XL,5,5055939951874       ,206
E1205RD/S-M,5,5055939951867       ,206
E1205WH/L-XL,3,5055939956541       ,206
E1205WH/S-M,3,5055939956534       ,206
E1215GF/0,5,5055939957173       ,206
E1222BK/0,5,5055939958590       ,206
E1223BK/L-XL,5,5055939958613       ,206
E1223BK/S-M,5,5055939958606       ,206
E1225BK/L-XL,2,5055939959207       ,206
E1225BK/M-L,2,5055939959191       ,206
E1225BK/S-M,2,5055939959184       ,206
E1225BK/XL-XXL,2,5055939966564       ,206
E1258BK/3,3,5055939972602       ,206
E1258BK/4,6,5055939972619       ,206
E1258BK/5,6,5055939972626       ,206
E1258BK/6,6,5055939972633       ,206
E1258BK/7,2,5055939972640       ,206
E1259BK/2,3,5055939975580       ,206
E1259BK/3,4,5055939975597       ,206
E1259BK/4,4,5055939975603       ,206
E1259BK/5,4,5055939975610       ,206
E1259BK/6,3,5055939975627       ,206
E1259GK/2,3,5055939975641       ,206
E1259GK/3,4,5055939975658       ,206
E1259GK/4,4,5055939975665       ,206
E1259GK/5,4,5055939975672       ,206
E1259GK/6,3,5055939975689       ,206
E1259PS/2,2,5055939975702       ,206
E1259PS/3,3,5055939975719       ,206
E1259PS/4,3,5055939975726       ,206
E1259PS/5,3,5055939975733       ,206
E1259PS/6,2,5055939975740       ,206
E1263BK/L-XL,2,5055939977584       ,206
E1263BK/S-M,2,5055939977577       ,206
E1263WH/L-XL,2,5055939978444       ,206
E1263WH/S-M,2,5055939978437       ,206
E1264GK/L-XL,3,5055939977645       ,206
E1264GK/S-M,3,5055939977638       ,206
E1264RR/L-XL,3,5055939978420       ,206
E1264RR/S-M,3,5055939978413       ,206
E1265BP/0,2,5055939977669       ,206
E1266BP/0,2,5055939977676       ,206
E1506BK/L-XL,1,5055939920061       ,206
E1506BK/M-L,1,5055939920054       ,206
E1506BK/S-M,1,5055939920047       ,206
E1506GF/L-XL,1,5055939948973       ,206
E1506GF/M-L,2,5055939948966       ,206
E1506GF/S-M,1,5055939948959       ,206
E1506NA/L-XL,1,5055939922850       ,206
E1506NA/M-L,2,5055939922843       ,206
E1506NA/S-M,1,5055939922836       ,206
E1511BA/L-XL,1,5055939971643       ,206
E1511BA/M-L,1,5055939971636       ,206
E1511BA/S-M,1,5055939971629       ,206
E1511BK/L-XL,1,5055939930121       ,206
E1511BK/M-L,1,5055939930138       ,206
E1511BK/S-M,1,5055939930145       ,206
E1511KH/L-XL,1,5055939950402       ,206
E1511KH/M-L,1,5055939950396       ,206
E1511KH/S-M,1,5055939950389       ,206
E1512BK/L-XL,1,5055939930213       ,206
E1512BK/M-L,1,5055939930220       ,206
E1512BK/S-M,1,5055939930237       ,206
E1512RB/L-XL,1,5055939951904       ,206
E1512RB/M-L,2,5055939951898       ,206
E1512RB/S-M,1,5055939951881       ,206
E1512WH/L-XL,1,5055939930244       ,206
E1512WH/M-L,1,5055939930251       ,206
E1512WH/S-M,1,5055939930268       ,206
E3061W/2,2,5055205358024       ,206
E3061W/3,3,5055205342467       ,206
E3061W/4,3,5055205342474       ,206
E3061W/5,3,5055205342481       ,206
E3061W/6,2,5055205342498       ,206
E3061W/7,1,5055205342504       ,206
E3063W/2,2,5055205358031       ,206
E3063W/3,3,5055205343624       ,206
E3063W/4,3,5055205343631       ,206
E3063W/5,3,5055205343648       ,206
E3063W/6,2,5055205343655       ,206
E3063W/7,1,5055205343662       ,206
E3125CC/3,2,5055939972503       ,206
E3125CC/4,3,5055939972510       ,206
E3125CC/5,3,5055939972527       ,206
E3125CC/6,3,5055939972534       ,206
E3125CC/7,2,5055939972541       ,206
E3125NA/3,2,5055939950822       ,206
E3125NA/4,3,5055939950839       ,206
E3125NA/5,3,5055939950846       ,206
E3125NA/6,3,5055939950853       ,206
E3125NA/7,2,5055939950860       ,206
E3154GF/3,2,5055939956824       ,206
E3154GF/4,3,5055939956831       ,206
E3154GF/5,3,5055939956848       ,206
E3157BK/3,1,5055939941424       ,206
E3157BK/4,4,5055939941431       ,206
E3157BK/5,4,5055939941448       ,206
E3157BK/6,2,5055939941455       ,206
E3167BK/L-XL,4,5055939954127       ,206
E3167BK/S-M,4,5055939954110       ,206
E3167WH/L-XL,4,5055939954073       ,206
E3167WH/S-M,4,5055939954066       ,206
E3168BK/3,4,5055939954165       ,206
E3168BK/4,3,5055939954172       ,206
E3168BK/5,6,5055939954189       ,206
E3168BK/6,4,5055939954196       ,206
E3169BK/2,4,5055939954219       ,206
E3169BK/3,5,5055939954226       ,206
E3169BK/5,4,5055939954240       ,206
E3176NA/4,2,5055939957012       ,206
E3176NA/5,2,5055939957029       ,206
E3176NA/6,1,5055939957036       ,206
E3189BK/3,2,5055939972398       ,206
E3189BK/4,4,5055939972404       ,206
E3189BK/5,4,5055939972411       ,206
E3189BK/6,4,5055939972428       ,206
E3189BK/7,2,5055939972435       ,206
E3190CG/3,2,5055939974231       ,206
E3190CG/4,3,5055939974248       ,206
E3190CG/5,3,5055939974255       ,206
E3190CG/6,2,5055939974262       ,206
E3191GK/3,2,5055939974415       ,206
E3191GK/4,3,5055939974422       ,206
E3191GK/5,3,5055939974439       ,206
E3191GK/6,2,5055939974446       ,206
E3192GK/3,2,5055939974637       ,206
E3192GK/4,3,5055939974644       ,206
E3192GK/5,3,5055939974651       ,206
E3192GK/6,2,5055939974668       ,206
E3193BK/3,1,5055939975771       ,206
E3193BK/4,2,5055939975788       ,206
E3193BK/5,2,5055939975795       ,206
E3193BK/6,1,5055939975801       ,206
E3193BK/7,1,5055939975818       ,206
E3193YV/3,1,5055939975832       ,206
E3193YV/4,2,5055939975849       ,206
E3193YV/5,2,5055939975856       ,206
E3193YV/6,1,5055939975863       ,206
E4027BK/3,2,5055205398259       ,206
E4027BK/4,3,5055205398266       ,206
E4027BK/5,3,5055205398273       ,206
E4027BK/6,2,5055205398280       ,206
E4027BK/7,1,5055205398297       ,206
E4054BK/3,2,5055939953168       ,206
E4054BK/4,3,5055939953175       ,206
E4054BK/5,3,5055939953182       ,206
E4054BK/6,2,5055939953199       ,206
E4054BK/7,1,5055939953205       ,206
E4055BK/3,2,5055939953069       ,206
E4055BK/4,3,5055939953076       ,206
E4055BK/5,3,5055939953083       ,206
E4055BK/6,2,5055939953090       ,206
E4055BK/7,2,5055939953106       ,206
E4068GY/3,2,5055939975412       ,206
E4068GY/4,3,5055939975429       ,206
E4068GY/5,3,5055939975436       ,206
E4068GY/6,2,5055939975443       ,206
E5068AN/3,2,5055939951348       ,206
E5068AN/4,3,5055939951355       ,206
E5068AN/5,3,5055939951362       ,206
E5068AN/6,2,5055939951379       ,206
E5068AN/7,1,5055939951386       ,206
E5073GF/3,2,5055939949147       ,206
E5073GF/4,4,5055939949154       ,206
E5073GF/5,4,5055939949161       ,206
E5073GF/6,3,5055939949178       ,206
E5073GF/7,2,5055939949185       ,206
E5073YM/3,2,5055939977737       ,206
E5073YM/4,4,5055939977744       ,206
E5073YM/5,4,5055939977751       ,206
E5073YM/6,3,5055939977768       ,206
E5073YM/7,2,5055939977775       ,206
E6106BK/2,2,5055939919485       ,206
E6106BK/3,3,5055939919492       ,206
E6106BK/4,3,5055939919508       ,206
E6106BK/5,2,5055939919515       ,206
E6106BK/6,1,5055939919522       ,206
E6124BK/2,2,5055939932996       ,206
E6124BK/3,3,5055939933009       ,206
E6124BK/4,3,5055939933016       ,206
E6124BK/5,2,5055939933023       ,206
E6127BK/3,3,5055939933320       ,206
E6127BK/4,3,5055939933337       ,206
E6127BK/5,2,5055939933344       ,206
E6127BP/2,2,5055939952772       ,206
E6127BP/3,3,5055939952789       ,206
E6127BP/4,3,5055939952796       ,206
E6127BP/5,2,5055939952802       ,206
E6130CC/2,1,5055939973500       ,206
E6130CC/3,3,5055939973517       ,206
E6130CC/4,3,5055939973524       ,206
E6130CC/5,1,5055939973531       ,206
E6130GY/2,1,5055939933597       ,206
E6130GY/3,1,5055939933603       ,206
E6130GY/4,1,5055939933610       ,206
E6130GY/5,1,5055939933627       ,206
E6132BK/2,2,5055939933719       ,206
E6132BK/3,3,5055939933726       ,206
E6132BK/4,4,5055939933733       ,206
E6132BK/5,3,5055939933740       ,206
E6132BK/6,2,5055939936314       ,206
E6140BK/2,2,5055939933993       ,206
E6140BK/3,3,5055939934006       ,206
E6140BK/4,3,5055939934013       ,206
E6140BK/5,2,5055939934020       ,206
E6167CC/3,3,5055939972961       ,206
E6167CC/5,2,5055939972985       ,206
E6169CC/2,2,5055939973203       ,206
E6169CC/3,3,5055939973210       ,206
E6169CC/4,3,5055939973227       ,206
E6169CC/5,2,5055939973234       ,206
E6171BK/2,3,5055939973555       ,206
E6171BK/3,4,5055939973562       ,206
E6171BK/4,4,5055939973579       ,206
E6171BK/5,3,5055939973586       ,206
E6172BK/2,2,5055939973715       ,206
E6172BK/3,3,5055939973722       ,206
E6172BK/4,3,5055939973739       ,206
E6172BK/5,2,5055939973746       ,206
E6173BP/2,1,5055939976006       ,206
E6173BP/3,2,5055939976013       ,206
E6173BP/4,2,5055939976020       ,206
E6173BP/5,1,5055939976037       ,206
E6173CV/2,2,5055939976051       ,206
E6173CV/3,3,5055939976068       ,206
E6173CV/4,3,5055939976075       ,206
E6173CV/5,2,5055939976082       ,206
E6174WH/2,2,5055939976150       ,206
E6174WH/3,1,5055939976167       ,206
E6174WH/5,2,5055939976181       ,206
E6176GY/2,3,5055939976273       ,206
E6176GY/3,4,5055939976280       ,206
E6176GY/4,4,5055939976297       ,206
E6176GY/5,2,5055939976303       ,206
E6177BP/2,2,5055939976372       ,206
E6177BP/3,3,5055939976389       ,206
E6177BP/4,3,5055939976396       ,206
E6177BP/5,2,5055939976402       ,206
E6177CV/2,2,5055939976426       ,206
E6177CV/3,3,5055939976433       ,206
E6177CV/4,3,5055939976440       ,206
E6177CV/5,2,5055939976457       ,206
E6184BP/2,1,5055939976860       ,206
E6184BP/3,2,5055939976877       ,206
E6184BP/4,2,5055939976884       ,206
E6184BP/5,1,5055939976891       ,206
E6185CV/2,1,5055939977010       ,206
E6185CV/3,2,5055939977027       ,206
E6185CV/4,2,5055939977034       ,206
E6185CV/5,1,5055939977041       ,206
E6187CC/2,2,5055939977478       ,206
E6187CC/3,3,5055939977485       ,206
E6187CC/4,3,5055939977492       ,206
E6187CC/5,2,5055939977508       ,206
E6187GK/2,2,5055939977522       ,206
E6187GK/3,3,5055939977539       ,206
E6187GK/4,3,5055939977546       ,206
E6187GK/5,2,5055939977553       ,206
E7110BK/K11,2,5055205387895       ,206
E7110BK/K7,2,5055205387871       ,206
E7110BK/K9,2,5055205387888       ,206
E7117BK/3,2,5055939917016       ,206
E7117BK/4,2,5055939917023       ,206
E7117BK/5,2,5055939917030       ,206
E7117BK/6,2,5055939917047       ,206
E7117BK/7,1,5055939917054       ,206
E7117NA/3,1,5055939955049       ,206
E7117NA/4,3,5055939955056       ,206
E7117NA/5,3,5055939955063       ,206
E7117NA/6,1,5055939955070       ,206
E7118BK/3,2,5055939914879       ,206
E7118BK/4,3,5055939914886       ,206
E7118BK/5,3,5055939914893       ,206
E7118BK/6,2,5055939914909       ,206
E7120BK/3,3,5055939915494       ,206
E7120BK/4,4,5055939915500       ,206
E7120BK/5,4,5055939915517       ,206
E7120BK/6,3,5055939915524       ,206
E7137BK/K11,2,5055939953762       ,206
E7137BK/K7,2,5055939953748       ,206
E7137BK/K9,2,5055939953755       ,206
E7140GV/K11,2,5055939977850       ,206
E7140GV/K7,2,5055939977836       ,206
E7140GV/K9,2,5055939977843       ,206
E7145BA/K11,2,5055939978123       ,206
E7145BA/K7,2,5055939978109       ,206
E7145BA/K9,2,5055939978116       ,206
E7145OT/K11,2,5055939978093       ,206
E7145OT/K7,2,5055939978079       ,206
E7145OT/K9,2,5055939978086       ,206
E8064BC/3,1,5055939936772       ,206
E8064BC/4,3,5055939936789       ,206
E8064BC/5,3,5055939936796       ,206
E8064BC/6,3,5055939936802       ,206
E8064BC/7,1,5055939936819       ,206
E8064BK/2,2,5055939915968       ,206
E8064BK/3,3,5055939915975       ,206
E8064BK/4,3,5055939915982       ,206
E8064BK/5,3,5055939915999       ,206
E8064BK/6,3,5055939916002       ,206
E8064BK/7,2,5055939916019       ,206
E8064CC/3,2,5055939972220       ,206
E8064CC/4,3,5055939972237       ,206
E8064CC/5,3,5055939972244       ,206
E8064CC/6,3,5055939972251       ,206
E8064CC/7,2,5055939972268       ,206
E8064GC/3,2,5055939950969       ,206
E8064GC/4,3,5055939950976       ,206
E8064GC/5,3,5055939950983       ,206
E8064GC/6,2,5055939950990       ,206
E8064GY/2,1,5055939916200       ,206
E8064GY/3,3,5055939916217       ,206
E8064GY/4,3,5055939916224       ,206
E8064GY/5,3,5055939916231       ,206
E8064GY/6,2,5055939916248       ,206
E8064GY/7,1,5055939916255       ,206
E8077BK/4,2,5055939924885       ,206
E8077BK/5,1,5055939924892       ,206
E8083BK/3,2,5055939942315       ,206
E8083BK/4,4,5055939942322       ,206
E8083BK/5,4,5055939942339       ,206
E8083BK/6,3,5055939942346       ,206
E8084BK/3,2,5055939942360       ,206
E8084BK/4,3,5055939942377       ,206
E8084BK/5,3,5055939942384       ,206
E8084BK/6,2,5055939942391       ,206
E8084BK/7,2,5055939942407       ,206
E8086AN/3,2,5055939942780       ,206
E8086AN/4,3,5055939942797       ,206
E8086AN/5,3,5055939942803       ,206
E8086AN/6,2,5055939942810       ,206
E8087BK/3,2,5055939943107       ,206
E8087BK/4,3,5055939943114       ,206
E8087BK/5,3,5055939943121       ,206
E8087BK/6,3,5055939943138       ,206
E8087BK/7,2,5055939943145       ,206
E8088BK/3,2,5055939943152       ,206
E8088BK/4,3,5055939943169       ,206
E8088BK/5,3,5055939943176       ,206
E8088BK/6,3,5055939943183       ,206
E8088BK/7,2,5055939943190       ,206
E8091BK/3,1,5055939948249       ,206
E8091BK/4,3,5055939948256       ,206
E8091BK/5,3,5055939948263       ,206
E8091BK/6,2,5055939948270       ,206
E8091BK/7,1,5055939948287       ,206
E8092BK/3,2,5055939948348       ,206
E8092BK/4,2,5055939948355       ,206
E8092BK/5,3,5055939948362       ,206
E8092BK/6,2,5055939948379       ,206
E8092BK/7,2,5055939948386       ,206
E8092GF/3,2,5055939948393       ,206
E8092GF/4,3,5055939948409       ,206
E8092GF/5,3,5055939948416       ,206
E8092GF/6,2,5055939948423       ,206
E8092GF/7,2,5055939948430       ,206
E8097GY/3,1,5055939950419       ,206
E8097GY/4,3,5055939950426       ,206
E8097GY/5,3,5055939950433       ,206
E8097GY/6,1,5055939950440       ,206
E8097NA/3,1,5055939950464       ,206
E8097NA/4,3,5055939950471       ,206
E8097NA/5,3,5055939950488       ,206
E8097NA/6,1,5055939950495       ,206
E8102BK/7,2,5055939971261       ,206
E8102GF/4,2,5055939971285       ,206
E8102GF/6,2,5055939971308       ,206
E8104BA/3,2,5055939972015       ,206
E8104BA/4,3,5055939972022       ,206
E8104BA/5,3,5055939972039       ,206
E8104BA/6,2,5055939972046       ,206
E8104BK/3,2,5055939972060       ,206
E8104BK/4,4,5055939972077       ,206
E8104BK/5,4,5055939972084       ,206
E8104BK/6,3,5055939972091       ,206
E8104BK/7,2,5055939972107       ,206
E9106BK/3,2,5055939935256       ,206
E9106BK/4,3,5055939935263       ,206
E9106BK/5,3,5055939935270       ,206
E9106BK/6,3,5055939935287       ,206
E9106BK/7,2,5055939935294       ,206
E9106BV/3,1,5055939941370       ,206
E9106BV/4,4,5055939941387       ,206
E9106BV/5,3,5055939941394       ,206
E9106BV/6,2,5055939941400       ,206
E9106BV/7,1,5055939941417       ,206
E9106GV/3,1,5055939935300       ,206
E9106GV/4,3,5055939935317       ,206
E9106GV/5,3,5055939935324       ,206
E9106GV/6,2,5055939935331       ,206
E9106GV/7,1,5055939935348       ,206
E9106WH/3,1,5055939935355       ,206
E9106WH/4,2,5055939935362       ,206
E9106WH/5,2,5055939935379       ,206
E9106WH/6,1,5055939935386       ,206
E9107BK/3,2,5055939935409       ,206
E9107BK/4,3,5055939935416       ,206
E9107BK/5,3,5055939935423       ,206
E9107BK/6,2,5055939935430       ,206
E9108BK/2,1,5055939935508       ,206
E9108BK/3,2,5055939935515       ,206
E9108BK/4,2,5055939935522       ,206
E9108BK/5,1,5055939935539       ,206
E9108WH/2,2,5055939941950       ,206
E9108WH/3,3,5055939941967       ,206
E9108WH/4,3,5055939941974       ,206
E9108WH/5,2,5055939941981       ,206
E9109BK/2,1,5055939935584       ,206
E9109BK/3,2,5055939935591       ,206
E9109BK/4,2,5055939935607       ,206
E9109BK/5,1,5055939935614       ,206
E9118PW/3,2,5055939942636       ,206
E9118PW/4,3,5055939942643       ,206
E9118PW/5,3,5055939942650       ,206
E9118PW/6,2,5055939942667       ,206
E9119BA/3,2,5055939942971       ,206
E9119BA/4,3,5055939942988       ,206
E9119BA/5,3,5055939942995       ,206
E9119BA/6,2,5055939943008       ,206
E9121YV/3,2,5055939945811       ,206
E9129YV/2,2,5055939943640       ,206
E9129YV/3,3,5055939943657       ,206
E9129YV/5,2,5055939943671       ,206
E9134YV/3,2,5055939943350       ,206
E9134YV/4,3,5055939943367       ,206
E9134YV/5,3,5055939943374       ,206
E9134YV/6,2,5055939943381       ,206
E9138GC/3,2,5055939949048       ,206
E9138GC/4,4,5055939949055       ,206
E9138GC/5,4,5055939949062       ,206
E9138GC/6,4,5055939949079       ,206
E9138GC/7,2,5055939949086       ,206
E9147NA/3,2,5055939959467       ,206
E9147NA/4,3,5055939959474       ,206
E9147NA/5,3,5055939959481       ,206
E9147NA/6,2,5055939959498       ,206
E9147NA/7,2,5055939959504       ,206
E9151BK/3,1,5055939975894       ,206
E9151BK/4,2,5055939975900       ,206
E9151BK/5,2,5055939975917       ,206
E9151BK/6,1,5055939975924       ,206
E3154GF/6,2,5055939956855       ,207
E3154GF/7,1,5055939956862       ,207
E3176NA/3,1,5055939957005       ,207
E6170BK/3,4,5055939973319       ,209
E6170BK/4,4,5055939973326       ,209
E6170BK/5,3,5055939973333       ,209
E6170GK/2,3,5055939973357       ,209
E6170GK/3,4,5055939973364       ,209
E6170GK/4,4,5055939973371       ,209
E6170GK/5,3,5055939973388       ,209
E8077BK/2,1,5055939924861       ,209
E8077BK/3,2,5055939924878       ,209
