INVOICE,SIN541785
YOUR REF,SS2018
DATE,30/05/2018
VALUE,1618.86


SKU,Qty,Value,Name,Colour,Size
E3109OC/3       ,1,23.42,Pakajak II,Ocean,S
E3109OC/4       ,1,23.42,Pakajak II,Ocean,M
E3109OC/5       ,1,23.42,Pakajak II,Ocean,L
E3109OC/6       ,1,23.42,Pakajak II,Ocean,XL
E3109OC/7       ,1,23.42,Pakajak II,Ocean,XXL
E3109RD/4       ,1,23.42,Pakajak II,Red,M
E3109RD/5       ,1,23.42,Pakajak II,Red,L
E3109RD/6       ,1,23.42,Pakajak II,Red,XL
E3109YV/3       ,1,23.42,Pakajak II,Hi-Viz Yellow,S
E3109YV/4       ,1,23.42,Pakajak II,Hi-Viz Yellow,M
E3109YV/5       ,1,23.42,Pakajak II,Hi-Viz Yellow,L
E3109YV/6       ,1,23.42,Pakajak II,Hi-Viz Yellow,XL
E3109YV/7       ,1,23.42,Pakajak II,Hi-Viz Yellow,XXL
E6104CO/3       ,1,23.42,Wms Pakajak II,Cobalt Blue,S
E6104CO/4       ,1,23.42,Wms Pakajak II,Cobalt Blue,M
E9071BK/6       ,1,37.44,Xtract Jacket,Black,XL
E9106WH/4       ,1,42.14,FS260-Pro Adrenaline Race Cape II,White,M
E9106WH/5       ,1,42.14,FS260-Pro Adrenaline Race Cape II,White,L
E3102GV/3       ,1,25.73,Hyperon Jersey,Hi-Viz Green,S
E3102GV/4       ,1,25.73,Hyperon Jersey,Hi-Viz Green,M
E3102GV/5       ,1,25.73,Hyperon Jersey,Hi-Viz Green,L
E3102GV/6       ,1,25.73,Hyperon Jersey,Hi-Viz Green,XL
E3142RD/4       ,1,31.87,FS260-Pro S/S Jersey,Red,M
E3142RD/5       ,1,31.87,FS260-Pro S/S Jersey,Red,L
E3142RD/6       ,1,31.87,FS260-Pro S/S Jersey,Red,XL
E3063W/3        ,1,14.02,Translite S/S Baselayer,White,S
E3063W/4        ,2,28.03,Translite S/S Baselayer,White,M
E3063W/5        ,2,28.03,Translite S/S Baselayer,White,L
E4029BK/3       ,1,37.44,Hyperon II Bibshort,Black,S
E4029BK/4       ,2,74.88,Hyperon II Bibshort,Black,M
E4029BK/5       ,2,74.88,Hyperon II Bibshort,Black,L
E4029BK/6       ,2,74.88,Hyperon II Bibshort,Black,XL
E4029BK/7       ,1,37.44,Hyperon II Bibshort,Black,XXL
E4028BK/3       ,1,31.87,Hyperon II Short,Black,S
E4028BK/4       ,2,63.74,Hyperon II Short,Black,M
E4028BK/5       ,2,63.74,Hyperon II Short,Black,L
E4028BK/6       ,2,63.74,Hyperon II Short,Black,XL
E4028BK/7       ,1,31.87,Hyperon II Short,Black,XXL
E6091BK/3       ,2,46.85,Wms Xtract Short II,Black,S
E6091BK/4       ,2,46.85,Wms Xtract Short II,Black,M
E6091BK/5       ,1,23.42,Wms Xtract Short II,Black,L
E0004/S-M       ,2,28.03,Thermo Leg Warmer,Black/None,S-M
E1160BK/3       ,2,28.03,Hummvee Plus Glove II,Black,S
E1160BK/4       ,2,28.03,Hummvee Plus Glove II,Black,M
E1160BK/5       ,2,28.03,Hummvee Plus Glove II,Black,L
E1160BK/6       ,2,28.03,Hummvee Plus Glove II,Black,XL
E1160BK/7       ,1,14.02,Hummvee Plus Glove II,Black,XXL
E1109BK/L-XL    ,2,51.46,SingleTrack Elbow Protector,Black,L-XL
