SKU,Maximum allowed,Barcode/EAN,Days left
E1505GY/L-XL,1,5055939930091       ,23
E1505GY/M-L,1,5055939930107       ,23
E1505GY/S-M,1,5055939930114       ,23
E1505KH/L-XL,1,5055939951317       ,23
E1505KH/M-L,1,5055939951300       ,23
E1505KH/S-M,1,5055939951294       ,23
E1505MB/L-XL,2,5055939904474       ,23
E1505MB/M-L,2,5055939904481       ,23
E1505MB/S-M,2,5055939904498       ,23
E1185BK/4,1,5055939944531       ,60
E1185BK/5,1,5055939944548       ,60
E1185BK/6,1,5055939944555       ,60
E1185BK/7,1,5055939944562       ,60
E1218BK/L-XL,1,5055939958521       ,60
E1218BK/M-L,1,5055939958514       ,60
E1218BK/S-M,1,5055939958507       ,60
E1219BK/L-XL,1,5055939958545       ,60
E1219BK/S-M,1,5055939958538       ,60
E1223BK/L-XL,1,5055939958613       ,60
E1223BK/S-M,1,5055939958606       ,60
E3168BK/4,1,5055939954172       ,60
E3168BK/5,1,5055939954189       ,60
E3168BK/6,1,5055939954196       ,60
E3168BK/7,1,5055939954202       ,60
E5056BK/3,1,5055939941820       ,60
E5056BK/4,1,5055939941837       ,60
E5056BK/5,1,5055939941844       ,60
E5056BK/6,1,5055939941851       ,60
E5056BK/7,1,5055939941868       ,60
E6146BK/2,1,5055939942070       ,60
E6146BK/3,1,5055939942087       ,60
E6146BK/4,1,5055939942094       ,60
E6146BK/5,1,5055939942100       ,60
E7125BK/6,1,5055939924649       ,60
E9095BK/3,1,5055939918051       ,60
E9095BK/4,1,5055939918068       ,60
E9095BK/6,1,5055939918082       ,60
E9102BK/3,1,5055939925516       ,60
E9102BK/4,1,5055939925523       ,60
E9102BK/5,1,5055939925530       ,60
E9102BK/6,1,5055939925547       ,60
E9116CO/3,1,5055939942049       ,60
E9116CO/4,1,5055939942056       ,60
E9116CO/5,1,5055939942063       ,60
E3072BK/3,1,5055205362144       ,66
E3072BK/4,1,5055205362151       ,66
E3072BK/5,1,5055205362168       ,66
E3072BK/6,1,5055205362175       ,66
E3072BK/7,1,5055205362182       ,66
E3169BK/2,1,5055939954219       ,66
E3169BK/3,1,5055939954226       ,66
E3169BK/4,1,5055939954233       ,66
E3169BK/5,1,5055939954240       ,66
E7125BK/3,1,5055939924618       ,66
E7125BK/4,1,5055939924625       ,66
E7125BK/5,1,5055939924632       ,66
E9095BK/5,1,5055939918075       ,66
E1505GY/L-XL,2,5055939930091       ,72
E1505GY/M-L,2,5055939930107       ,72
E1505GY/S-M,1,5055939930114       ,72
E1505KH/L-XL,2,5055939951317       ,72
E1505KH/M-L,1,5055939951300       ,72
E1505KH/S-M,1,5055939951294       ,72
E1505MB/L-XL,2,5055939904474       ,72
E1505MB/M-L,1,5055939904481       ,72
E1506BK/S-M,1,5055939920047       ,72
E6110BK/2,1,5055939914664       ,72
E9095BK/5,1,5055939918075       ,72
E9095BK/6,1,5055939918082       ,72
E9145BK/2,1,5055939959078       ,72
E1511BK/L-XL,1,5055939930121       ,178
E1511BK/M-L,1,5055939930138       ,178
E1511BK/S-M,1,5055939930145       ,178
E1511BK/L-XL,1,5055939930121       ,181
E1505WH/S-M,2,5055939904566       ,209
E1517BK/L-XL,1,5055939953403       ,209
E1517BK/M-L,1,5055939953397       ,209
E1517WH/M-L,1,5055939953458       ,209
E1517WH/S-M,1,5055939953441       ,209
E3167WH/L-XL,2,5055939954073       ,209
E3167WH/S-M,1,5055939954066       ,209
E3192RR/3,1,5055939974736       ,209
E3192RR/4,1,5055939974743       ,209
E3192RR/5,1,5055939974750       ,209
E3192RR/6,1,5055939974767       ,209
E4070BK/M4,1,5055939979205       ,209
E4070BK/M5,1,5055939979212       ,209
E6124BK/2,1,5055939932996       ,209
E6124BK/3,1,5055939933009       ,209
E6124BK/4,1,5055939933016       ,209
E6174CV/2,1,5055939976105       ,209
E6174CV/3,1,5055939976112       ,209
E6174CV/4,1,5055939976129       ,209
E7117BK/3,1,5055939917016       ,209
E7117BK/6,1,5055939917047       ,209
E7117BK/7,1,5055939917054       ,209
E8104BK/3,1,5055939972060       ,209
E8104BK/4,1,5055939972077       ,209
E8104BK/5,1,5055939972084       ,209
