INVOICE,SIN537166
YOUR REF,SOR322061
DATE,03/05/2018
VALUE,368.05


SKU,Qty,Value,Name,Colour,Size
E3109BK/5       ,1,24.40,Pakajak II,Black,L
E0066MB         ,2,63.60,Mullet Glasses,Matt Black,One size
E0066OR         ,1,31.80,Mullet Glasses,Orange,One size
E1123BK/6       ,2,19.18,Hummvee Plus Mitt,Black,XL
E1134BK/0       ,1,39.00,SingleTrack Backpack ,Black,One size
E1108BK/S-M     ,1,29.30,SingleTrack Knee Protector,Black,S-M
E1112BK/S-M     ,1,34.20,SingleTrack Shin Protector,Black,S-M
E8064BK/5       ,1,31.80,Hummvee Short II with liner,Black,L
E8064CM/5       ,1,34.20,Hummvee Short II with liner,Camouflage,L
E8064GY/5       ,1,31.80,Hummvee Short II with liner,Grey ,L
E1123RD/4       ,1,9.59,Hummvee Plus Mitt,Red,M
E1123RD/5       ,2,19.18,Hummvee Plus Mitt,Red,L
