INVOICE,SIN650265
YOUR REF,SOR399786
DATE,09/12/2019
VALUE,196


SKU,Qty,Value,Name,Colour,Size
E5049BK/5       ,2,112.20,FS260-Pro Thermo Bibtight,Black,L
E0128YV/7       ,1,20.90,Strike II Glove  ,Hi-Viz Yellow,XXL
E6040BK/4       ,1,20.90,Women's Strike II Glove,Black,M
E1223BK/L-XL    ,1,9.80,FS260-Pro Skull Cap,Black,L-XL
E1038BK/S-M     ,1,16.10,THERMOLITEŽ II Sock (Twin pack),Black,S-M
E1038BK/L-XL    ,1,16.10,THERMOLITEŽ II Sock (Twin pack),Black,L-XL
