SKU,Maximum allowed,Barcode/EAN,Days left
E0078CL,8,5055205338521       ,29
E0132NA/5,4,5055939915081       ,29
E0132NA/6,4,5055939915098       ,29
E1502MU/M-L,8,5055205394336       ,29
E0132MB/4,10,5055939922027       ,43
E0132MB/5,10,5055939922034       ,43
E0041,2,5055205301938       ,65
E0062/5,1,5055205323787       ,65
E0132MB/5,1,5055939922034       ,65
E1145BK/4,1,5055939908199       ,65
E1145BK/5,1,5055939908205       ,65
E1502MO/S-M,1,5055205394299       ,65
E1506NA/S-M,1,5055939922836       ,65
E3110NA/4,1,5055939908137       ,65
E3123BK/4,1,5055939915333       ,65
E3123BK/5,2,5055939915340       ,65
E8042BK/5,1,5055205337845       ,65
E8066BK/5,1,5055939916354       ,65
E8073BK/5,2,5055939924687       ,65
E9070RD/5,1,5055205374970       ,65
E9078NA/4,1,5055939913704       ,65
E1505MB/L-XL,6,5055939904474       ,72
E1505MB/M-L,6,5055939904481       ,72
E1505OR/L-XL,2,5055939904504       ,72
E8060BK/3,1,5055205393124       ,73
E8060BK/4,1,5055205393131       ,73
E8073BK/3,1,5055939924663       ,73
E0041,2,5055205301938       ,136
E0132MB/4,1,5055939922027       ,136
E8066KH/4,1,5055939916392       ,136
E9078BK/4,1,5055205389776       ,136
EM0054KH/4,1,5055939935737       ,136
E3123KH/4,1,5055939930480       ,163
E0074BK/4,1,5055205337531       ,169
E1505GY/M-L,2,5055939930107       ,190
E2013BK/3,1,5055205393179       ,190
E3110BK/4,1,5055939908083       ,190
E9063BK/4,1,5055205363387       ,190
E0041,4,5055205301938       ,191
E1135BK/0,5,5055205399249       ,191
E3123KH/3,2,5055939930473       ,191
E3123KH/4,3,5055939930480       ,191
E3123OM/5,2,5055939930541       ,191
E5005/4,2,5055205305578       ,191
E5005/5,1,5055205305585       ,191
E9078BK/3,2,5055205389769       ,191
E9078BK/4,2,5055205389776       ,191
E1301BK/4,1,5055205363530       ,201
E1301BK/5,2,5055205363547       ,201
E2013BK/6,1,5055205393209       ,201
E0040CL,8,5055205301877       ,204
E0132BK/2,1,5055939914992       ,204
E0132BK/4,4,5055939915012       ,204
E0132BK/5,3,5055939915029       ,204
E1134BU/0,8,5055205399225       ,204
E1511BK/L-XL,3,5055939930121       ,204
E1511BK/M-L,4,5055939930138       ,204
E1511BK/S-M,1,5055939930145       ,204
E3115BK/3,4,5055939908526       ,204
E3115BK/4,8,5055939908533       ,204
E3115BK/5,2,5055939908540       ,204
E6066BK/2,1,5055205363721       ,204
E6086BK/2,2,5055205389554       ,204
E8046BK/2,2,5055205339337       ,204
E8081BK/3,3,5055939934952       ,204
E8081BK/4,8,5055939934969       ,204
E8081BK/5,2,5055939934976       ,204
E9078OB/4,7,5055939924915       ,204
E9099CO/3,1,5055939925318       ,204
E1118BK/3,6,5055205389967       ,206
E1118BK/4,12,5055205389974       ,206
E1118BK/5,12,5055205389981       ,206
E1118BK/6,12,5055205389998       ,206
E1135BK/0,20,5055205399249       ,206
E1505MB/S-M,2,5055939904498       ,206
E1506WH/S-M,1,5055939920078       ,213
E3022/3,1,5055205303772       ,213
E3022/4,2,5055205303789       ,213
E3022/5,1,5055205303796       ,213
