SKU,Maximum allowed,Barcode/EAN,Days left
E0132MB/4,1,5055939922027       ,73
E0132MB/5,1,5055939922034       ,73
E1160BK/4,1,5055939928500       ,73
E1160BK/5,2,5055939928517       ,73
E1165BK/3,1,5055939928845       ,73
E1165BK/4,1,5055939928852       ,73
E1165BK/5,1,5055939928869       ,73
E1165BK/6,1,5055939928876       ,73
E1165BK/7,1,5055939928883       ,73
E1165RD/6,1,5055939929033       ,73
E1166BK/4,2,5055939929071       ,73
E1166BK/5,1,5055939929088       ,73
E1166BK/6,2,5055939929095       ,73
E1166BK/7,1,5055939929101       ,73
E4031BK/4,1,5055939916972       ,73
E6140BK/3,1,5055939934006       ,73
E7117BK/4,1,5055939917023       ,73
E7117BK/5,1,5055939917030       ,73
E7117BK/6,1,5055939917047       ,73
E0110BK,2,5055205367224       ,112
E0110BP/0,1,5055939959726       ,112
E0110RR/0,1,5055939959719       ,112
E0110UM,1,5055205367248       ,112
E0110YM/0,1,5055939959702       ,112
E0128BK/2,1,5055939904917       ,112
E0128BK/3,1,5055939904924       ,112
E0128BK/4,2,5055939904931       ,112
E0128BK/5,2,5055939904948       ,112
E0128BK/6,2,5055939904955       ,112
E0128BK/7,1,5055939904962       ,112
E0152BK/L-XL,2,5055939958125       ,112
E0152BK/S-M,1,5055939958118       ,112
E0154BK/L-XL,2,5055939965987       ,112
E0154BK/S-M,1,5055939958149       ,112
E1038BK/L-XL,2,5055939906706       ,112
E1038BK/S-M,1,5055939906690       ,112
E1052BK/L-XL,1,5055939958040       ,112
E1052BK/M-L,1,5055939958033       ,112
E1052BK/S-M,1,5055939958026       ,112
E1053BK/L-XL,1,5055939958071       ,112
E1053BK/M-L,1,5055939958064       ,112
E1053BK/S-M,1,5055939958057       ,112
E1117BK/3,1,5055205390116       ,112
E1117BK/4,1,5055205390123       ,112
E1118BK/3,1,5055205389967       ,112
E1118BK/5,1,5055205389981       ,112
E1118BK/6,1,5055205389998       ,112
E1118BK/7,1,5055205390000       ,112
E1120BK/3,1,5055205390215       ,112
E1120BK/4,1,5055205390222       ,112
E1120BK/7,1,5055205390253       ,112
E1181BK/3,1,5055939942513       ,112
E1181BK/4,1,5055939942520       ,112
E1181BK/5,1,5055939942537       ,112
E1181BK/6,1,5055939942544       ,112
E1181BK/7,1,5055939942551       ,112
E1184GF/3,1,5055939959566       ,112
E1184GF/4,1,5055939959573       ,112
E1184GF/5,2,5055939959580       ,112
E1184GF/6,2,5055939959597       ,112
E1184GF/7,1,5055939959603       ,112
E1187BK/3,1,5055939944760       ,112
E1187BK/4,1,5055939944777       ,112
E1187BK/5,1,5055939944784       ,112
E1187BK/6,1,5055939944791       ,112
E1187BK/7,1,5055939944807       ,112
E1225BK/L-XL,1,5055939959207       ,112
E1225BK/M-L,1,5055939959191       ,112
E1225BK/S-M,1,5055939959184       ,112
E1225BK/XL-XXL,1,5055939966564       ,112
E1227BK/L-XL,2,5055939966311       ,112
E1227BK/S-M,1,5055939959405       ,112
E1227GK/L-XL,2,5055939966328       ,112
E1227GK/S-M,1,5055939960616       ,112
E1250CL,4,5055939955797       ,112
E3178BK/4,1,5055939957876       ,112
E3178BK/5,1,5055939957883       ,112
E3178BK/6,1,5055939957890       ,112
E3178BK/7,1,5055939957906       ,112
E3182AN/4,1,5055939959030       ,112
E3182AN/5,1,5055939959047       ,112
E3182AN/6,1,5055939959054       ,112
E3182AN/7,1,5055939959061       ,112
E3183BK/3,1,5055939959290       ,112
E3183BK/4,1,5055939959306       ,112
E3183BK/5,1,5055939959313       ,112
E3183BK/6,1,5055939959320       ,112
E3183BK/7,1,5055939959337       ,112
E8070BK/3,1,5055939916712       ,112
E8070BK/4,1,5055939916729       ,112
E8070BK/5,1,5055939916736       ,112
E8074BK/3,1,5055939924717       ,112
E8074BK/4,1,5055939924724       ,112
E8074BK/5,1,5055939924731       ,112
E9148BK/4,1,5055939960005       ,112
E9148BK/5,2,5055939960012       ,112
E9148BK/6,1,5055939960029       ,112
E1518GF/M-L,1,5055939948928       ,113
E1117BK/5,1,5055205390130       ,114
E1117BK/6,1,5055205390147       ,114
E1117BK/7,1,5055205390154       ,114
E1118BK/4,1,5055205389974       ,114
E1120BK/5,1,5055205390239       ,114
E1120BK/6,1,5055205390246       ,114
E8070BK/6,1,5055939916743       ,114
E8070BK/7,1,5055939916750       ,114
E8074BK/6,1,5055939924748       ,114
E8074BK/7,1,5055939924755       ,114
E9147GF/4,1,5055939959429       ,120
E9147GF/5,1,5055939959436       ,120
E9147GF/6,1,5055939959443       ,120
E9147GF/7,1,5055939959450       ,120
E9117GF/4,1,5055939948157       ,134
E9117GF/5,1,5055939948164       ,134
E9117GF/6,1,5055939948171       ,134
E9117GF/7,1,5055939948188       ,134
E3178BK/6,1,5055939957890       ,203
E3178BK/7,1,5055939957906       ,203
E8070GF/5,1,5055939948461       ,203
