SKU,Maximum allowed,Barcode/EAN,Days left
E3078BK/4,1,5055205369747       ,64
E3078BK/5,1,5055205369754       ,64
E3158BK/4,1,5055939942421       ,64
E3158BK/5,1,5055939942438       ,64
E8066BK/4,1,5055939916347       ,64
E8066BK/5,1,5055939916354       ,64
E8073BK/4,1,5055939924670       ,64
E8073BK/5,1,5055939924687       ,64
E8084BK/4,1,5055939942377       ,64
E8084BK/5,1,5055939942384       ,64
E9098BK/4,1,5055939942889       ,64
E9098BK/5,1,5055939942896       ,64
E9117BK/4,1,5055939942179       ,64
E9117BK/5,1,5055939942186       ,64
E0132MB/4,1,5055939922027       ,90
E1165BK/4,1,5055939928852       ,90
E0006/3,1,5055205300184       ,114
E0006/5,1,5055205313610       ,114
E0007,2,5055205300191       ,114
E0042/4,1,5055205311944       ,114
E0042/5,1,5055205311951       ,114
E0076BK/3,1,5055205338064       ,114
E0076BK/4,1,5055205338071       ,114
E0076BK/5,1,5055205338088       ,114
E0076BK/6,1,5055205338095       ,114
E0105BK/L-XL,2,5055205359823       ,114
E0105BK/S-M,2,5055205359816       ,114
E0110BK,2,5055205367224       ,114
E1028BK/0,2,5055205385952       ,114
E1035BK/L-XL,1,5055939905075       ,114
E1035BK/M-L,1,5055939905068       ,114
E1035BK/S-M,1,5055939905051       ,114
E1036BK/L-XL,1,5055939905099       ,114
E1036BK/S-M,1,5055939905082       ,114
E1038BK/L-XL,1,5055939906706       ,114
E1038BK/S-M,1,5055939906690       ,114
E3078BK/3,1,5055205369730       ,114
E3078BK/4,1,5055205369747       ,114
E3078BK/5,1,5055205369754       ,114
E3078BK/6,1,5055205369761       ,114
E3091BK/3,1,5055205390581       ,114
E3091BK/4,1,5055205390598       ,114
E3091BK/5,1,5055205390604       ,114
E3158BK/3,1,5055939942414       ,114
E3158BK/6,1,5055939942445       ,114
E8066BK/3,1,5055939916330       ,114
E8066BK/6,1,5055939916361       ,114
E8073BK/3,1,5055939924663       ,114
E8073BK/6,1,5055939924694       ,114
E8084BK/3,1,5055939942360       ,114
E8084BK/6,1,5055939942391       ,114
E9098BK/3,1,5055939942872       ,114
E9098BK/6,1,5055939942902       ,114
E0042/3,1,5055205311937       ,142
E1157BK/L-XL,1,5055939928418       ,142
E1157BK/S-M,1,5055939928425       ,142
