E0035/3,1
E9102BK/6,1
E0068Y/4,1
E0068Y/6,1
E1599BK,1
E9062W/5,1
E8052UM/6,1
E0115WH/L-XL,1
E1120BK/5,1
E1120WH/5,1
E1505OR/M-L,2
E4029BK/4,1
E0128YV/4,1
E1145BK/5,1
E7112BK/K9,2
E8070BK/4,1
E3069BV/4,1
E3113BK/4,1
E3115BK/5,2
E1146BK/L-XL,1
E8076BK/5,1
E5049BK/4,1
E9100CR,1
E9105BV/5,1
E3154BU/4,1
E5054BK/3,1
E0151PT/0,1
E8085AN/4,1
E9128GY/4,1
E1205BV/L-XL,1
