e3025/4,2
E0040CL,1
E6038BU/4,1
E0062/5,1
E0063/3,1
E3064WH/4,1
E1019BK/6,1
E1019WH/4,2
E1024BK/4,1
E1026BK/5,1
E9078BK/5,1
E1505MB/M-L,1
E3101RD/4,2
E3101RD/6,1
E1128WH/S-M,1
E7112BK/K7,1
E8064BK/4,1
E8064KH/5,1
E8064BC/5,1
E8065BK/7,1
E8066BK/7,1
E3109RD/4,1
E4028BK/4,1
E6091BK/2,1
E7117RD/5,1
E3152AN/6,1
E3153BK/6,1
E3154GY/6,1
ET7100MV/2,1
E8081BK/3,1
E6132BK/2,1
