E9058PU/5,1
e0076bk/6,1
e0076bk/7,1
E0004/S-M,1
E0086BK,1
E0110YM/0,1
E1005BK/L-XL,1
E1301BK/4,1
E1019BK/3,1
E1019WH/6,1
E5022BK/5,1
E1505MB/M-L,1
E1505OR/M-L,1
E1505GY/L-XL,1
E0038OC/7,1
E0120YV/L-XL,1
EU8045BK/4,2
EU8045BK/7,1
E9081GV/4,1
E9081GV/6,1
E3115BK/3,2
E3115BK/5,1
E6114CR/2,1
E7117BK/5,1
E6106PU/3,1
E8074BK/4,1
E8074BK/6,1
E8074BK/7,1
E8076BK/5,1
E5049BK/5,1
E5049BK/6,1
E9098BK/5,2
E9099CO/3,1
E9099BK/3,1
E3153GK/4,1
E9108BK/4,1
E9106BV/4,1
E9106BV/5,1
E4043BK/5,1
E3143AN/4,1
E3123BK/6,1
E9117BK/5,1
E9120BK/6,1
E9130AN/5,1
E9118PW/6,1
E9126BV/5,1
E8091BK/5,1
E8091BK/6,1
E9137RD/5,1
E7117NA/4,1
E7117NA/5,2
E8086AN/4,2
E7136WH/0,1
E3157BK/4,1
E1188BK/5,1
E1188GV/5,1
E3176NA/5,1
E8100BK/3,1
E8100BK/4,1
E1226BK/0,1
E1226GK/0,1
