E0060/5,2
E0096BK/3,1
E6065BK/2,1
EU3062TU/4,1
E0128BK/6,1
E7112BK/K11,1
E8064BK/6,1
E7117BK/4,1
E8076BK/5,1
E7125BK/6,1
E8073BK/3,1
E3154GF/4,1
E9108CE/3,1
E6124BK/4,1
E1158BK/L-XL,1
E1157BK/L-XL,1
E1043BK/S-M,1
E8083BK/4,3
E8083BK/5,2
E9117BK/5,1
E9119BA/5,1
E9130AN/5,1
E8091BK/3,1
E8091BK/4,2
E1196BK/S-M,1
E9134BK/4,1
E9145YM/3,1
E9143GK/4,1
E3183BK/5,1
E3178BK/2,1
