E1019BK/6,1
E6065BK/5,1
E1505MB/L-XL,1
E1018RD/5,1
E4031BK/3,1
E1506BK/M-L,1
E8076BK/4,1
E3133GF/4,1
E8073BK/3,1
E3154BV/4,1
E3154GF/4,1
E9106CG/7,1
E9119PW/7,1
E1186BK/5,1
E8090AN/5,1
E5069PS/5,1
E3170BK/6,1
E1205BK/L-XL,2
E1518BK/M-L,1
E1225BK/XL-XXL,1
E1218BK/M-L,1
