E0040ST,1
E9058BK/5,1
E8036ST/4,1
E3080BK/6,1
E6061LL/4,1
ET6058MV,1
E1112BK/S-M,1
E1505GV/L-XL,1
E1505MB/M-L,1
E1124RD/6,1
E1128BK/L-XL,1
E6071RD/5,1
EU8045BK/6,1
E9081GV/7,1
EM0053OM/5,1
E1039BK/L-XL,1
E8064BK/5,1
E8064BK/6,1
E8064GY/6,1
E8064KH/5,1
E9090RD/4,1
E6091BK/3,2
E6092BK/3,1
E6094BK/4,1
E7117BK/4,2
E7117BK/5,1
E7118BK/5,1
E8062BK/4,1
E1506NA/L-XL,1
E1150BK/0,1
E8076BK/4,1
E8073BK/5,1
E9098BK/4,1
E9098BK/5,1
E9100PU/4,1
E3151GY/3,1
E3153GK/4,1
E3154BV/3,1
E3154BV/5,2
E3154GF/5,1
E7128BK/0,1
E3141BV/4,1
E3141BV/5,1
E1170GY/0,2
E1166RD/6,1
E1165GV/4,2
E1161RD/5,1
E9117BK/4,1
E9114BV/4,1
E1513RD/M-L,1
E7117NA/3,2
E3142NA/3,1
E5073BA/7 ,1
E3167WH/S-M,1
E1518GF/M-L,1
E4056BK/3,1
E4058NA/5,1
E6151BK/3,1
