E0060/3,1
E0063/6,1
E6060BK/4,1
E0114YV/L-XL,1
E1019RD/4,2
E1024BK/6,1
E9078BK/4,1
E0038BK/5,1
E0043WC,1
E0132MB/5,1
E8064KH/5,2
E8065BK/4,2
E8066BK/4,1
E8066CM/6,1
E4031BK/5,1
E7120BK/5,1
E8076BK/5,1
E3154GY/4,1
E3142GV/3,1
E3138PT/4,1
