E6038/5,1
E3066R/5,1
E3080BK/6,1
E1019BK/6,2
E1019BK/7,1
E1505MB/M-L,1
E1505KH/S-M,1
E1123BK/6,1
E1124RD/6,1
E4035BK/7,1
E6092BK/4,2
E6094BK/4,1
E7118BK/4,2
E7118BK/6,2
E9106BK/5,1
E3123BK/7,1
E1157BK/S-M,1
E9117BK/7,1
E9137RD/3,1
