e0041,1
e6020/3,1
e6020/5,2
E0087UM/5,1
E0110BP/0,1
E0110RR/0,2
E0110YM/0,2
E1301BK/5,2
E8084BK/4,1
E5022BK/4,1
E7108PK/K7,3
E1118BK/5,1
E1118BK/6,1
E1120BK/5,3
E1120WH/5,2
E3085WH/5,1
E4027BK/5,1
E0128BK/6,1
E0128YV/3,1
E1145BK/4,1
E1145BK/5,1
E8070GF/4,1
E8070GF/6,2
E8066BK/3,1
E8066BK/5,2
E6092BK/3,1
E7120BK/3,1
E8074BK/3,1
E8074BK/4,1
E8074BK/5,1
E8075BK/5,1
E8075BK/6,1
E8075BK/7,1
E8076BK/3,2
E8076BK/4,1
E3133GY/6,1
E3133AN/4,1
E5049BK/6,1
E8073BK/4,1
E9100PU/4,2
E9101CO/4,1
E1152BK/5,1
E1154BK/M-L,1
E1154BK/L-XL,3
E3151GY/5,1
E3153BK/3,1
E3153GK/5,1
E3156BU/4,1
E3123GF/6,1
E1043BK/L-XL,3
E0151GC/0,2
E5055BK/4,1
E8083BK/3,1
E9119BA/5,1
E1181BK/6,1
E9122BK/6,1
E6146BK/4,1
E1171BK/0,1
E0099YV,1
E3029/4,3
E3029/6,1
E3029/7,1
E9147NA/5,1
E9144BK/3,1
E1227BK/L-XL,2
E1227GK/L-XL,1
E1226BK/0,1
E1225BK/XL-XXL,1
E1224BK/4,1
E1224BK/6,1
E7140GY/K11,1
EU8052BK/5,1
