E0062/5,1
E1301BK/3,1
E1301BK/4,1
E1505MB/S-M,1
E1124BK/7,1
E0128BK/5,1
E7112BK/K7,1
E7112BK/K9,1
EM0053OM/3,1
E4035BK/7,1
E1506GF/M-L,1
E8074BK/3,1
E8075BK/6,1
E8076BK/4,4
E9098BK/3,1
E9106RD/4,1
E8083BK/5,1
E9117BK/6,1
E9117OM/6,2
E9113BV/4,1
E9134BK/4,1
E3176NA/5,1
E9150CV/4,1
