e0041,1
E0006/3,1
E4013BK/6,1
E6060BK/5,1
E6065BK/4,1
E1112BK/S-M,1
E9077PV/4,1
E1505KH/L-XL,1
E1124BK/6,1
E1125BK/5,1
E3099NA/3,1
E7112BK/K11,3
E6091BK/2,1
E8076BK/3,1
E9100MY/4,1
E3152AN/5,1
E1166RD/5,1
E3132BV/6,1
E1205BV/L-XL,1
