E3054PU/4,1
1019BK/5,1
E1505RD/S-M,1
EP0055/7,1
E0132BK/5,1
E0132BK/7,1
E3089RD/4,1
E6040BK/4,1
E7117BK/7,1
E8069NA/5,1
E8075BK/4,1
E5049BK/6,1
E8073BK/4,1
E8073BK/5,1
E7128GY/0,1
E9106BK/6,1
E5055BK/5,1
E8083BK/4,1
E8087BK/3,1
E9117BK/2,1
E9117BK/3,1
E9117BK/4,1
E9117BK/6,1
E9117OM/5,1
E9117OM/6,1
E9117YM/4,1
E9114BK/6,1
E9124PW/4,1
E8093BK/5,1
E3168BK/7,1
E3029/4,1
E3029/6,1
E9147NA/5,1
E9145YM/5,1
E1217BK/7,1
E1217BV/5,1
E1216BK/3,1
E0154BK/L-XL,1
E0152BK/L-XL,1
E7140GY/K7,2
E3150UM/5,1
