E0062/4,1
E0062/5,1
E1505MB/M-L,1
E3108BK/4,1
E3108RD/4,1
E3115BK/4,1
E7118BK/5,1
E2009/3,1
E8069NA/4,1
E8076BK/3,1
E7125BK/5,1
E9106RD/7,1
E1170CL/0,1
E9117YM/7,1
E9113GK/6,1
E1202BK/L-XL,1
E5028BK/6,1
