E0035/5,1
E0062/5,2
E0063/6,1
E0086BK,1
E1120BK/5,3
E4027BK/4,1
E8064BK/4,1
E6108TL/6,1
E8076BK/3,1
E1191NA/0,1
E1170GY/0,1
E8083BK/4,1
E8088BK/6,1
E9119BA/3,1
E9114BV/3,1
E8078BK/4,1
E5068AN/6,1
E1183BK/5,1
E1183BK/6,1
E1202BK/S-M,1
E3177BK/2,1
E3177BK/4,1
E1225BK/XL-XXL,1
E1216BV/5,1
EU8052BK/4,1
