E0045,1
E0089BK/5,1
E3080BK/4,1
E1019BK/6,2
E7108PK/K7,1
E1505MB/M-L,2
E1505GY/M-L,1
E1124BK/7,1
E8064BC/7,1
E9090RD/3,1
E3115BK/5,1
E7117BK/3,1
E7120BK/4,1
E8075BK/4,1
E8073BK/3,1
E9100PU/5,1
E1170BK/0,1
E1184BK/5,1
E6146BK/4,1
E7117NA/5,1
E9140BV/5,1
E1113BK,1
E9149CV/2,1
E9149CV/3,1
