Item Ref,Qty reg,Supplier,Location
TC9849B,1,Extra,Shop
TB96785000,1,Extra,Shop
TB96882000,1,Extra,Shop
TPSDXG-1,1,Extra,Shop
CRB-10060,2,Extra,Shop
CRB-15338,2,Extra,Shop
CL130007,1,Extra,Shop
TPSDXG-XL,1,Extra,Shop
CRB-15314,1,Extra,Shop
CRB-15312,1,Extra,Shop
TB96800000,1,Extra,Shop
