INVOICE,SIN612882
YOUR REF,SOR375065
DATE,12/06/2019
VALUE,323.5


SKU,Qty,Value,Name,Colour,Size
E7117WH/4       ,2,97.60,FS260-Pro Bibshort,White,M
E3142RR/4       ,1,33.20,FS260-Pro S/S Jersey,Rust Red,M
E3063W/4        ,2,29.20,Translite S/S Baselayer,White,M
E3061W/4        ,1,13.20,Translite S/L Baselayer,White,M
EM0043OR/5      ,1,37.90,MTR Windproof Jersey S/S,Orange,L
E7117WH/6       ,1,48.80,FS260-Pro Bibshort,White,XL
E4029BK/3       ,1,39.00,Hyperon II Bibshort,Black,S
E3063W/5        ,1,14.60,Translite S/S Baselayer,White,L
DEL10           ,1,10.00,Delivery - Euro                    ,,
