Proposal for: ,TRAI03
,Trailgate GmbH
Proposal name: ,SS19
Created by: ,Edith Niessen
To be delivered: ,2019-03-05


SKU,Qty,Each,RRP,Product Name,Code,Variant,Color,Size,Product Type,Barcode
E9138GC/3,1,55,110,SingleTrack DuraJak,E9138,E9138GC,Grey Camo,S,Hardshell Jackets,5055939949048,
E9138GC/4,1,55,110,SingleTrack DuraJak,E9138,E9138GC,Grey Camo,M,Hardshell Jackets,5055939949055,
E9138GC/5,1,55,110,SingleTrack DuraJak,E9138,E9138GC,Grey Camo,L,Hardshell Jackets,5055939949062,
E9138GC/6,1,55,110,SingleTrack DuraJak,E9138,E9138GC,Grey Camo,XL,Hardshell Jackets,5055939949079,
E9138GC/7,1,55,110,SingleTrack DuraJak,E9138,E9138GC,Grey Camo,XXL,Hardshell Jackets,5055939949086,
E3123KH/4,1,35,70,MT500 Burner L/S Jersey,E3123,E3123KH,Khaki,M,L/S Shirts & Jerseys,5055939930480,
E3123KH/5,1,35,70,MT500 Burner L/S Jersey,E3123,E3123KH,Khaki,L,L/S Shirts & Jerseys,5055939930497,
E3123KH/6,1,35,70,MT500 Burner L/S Jersey,E3123,E3123KH,Khaki,XL,L/S Shirts & Jerseys,5055939930503,
E3123OM/4,1,35,70,MT500 Burner L/S Jersey,E3123,E3123OM,Mango,M,L/S Shirts & Jerseys,5055939930534,
E3123OM/5,1,35,70,MT500 Burner L/S Jersey,E3123,E3123OM,Mango,L,L/S Shirts & Jerseys,5055939930541,
E3123OM/6,1,35,70,MT500 Burner L/S Jersey,E3123,E3123OM,Mango,XL,L/S Shirts & Jerseys,5055939930558,
E3165BK/3,1,27,60,MT500 L/S Print T - LTD,E3165,E3165BK,Black,S,L/S Shirts & Jerseys,5055939948591,
E3165BK/4,1,27,60,MT500 L/S Print T - LTD,E3165,E3165BK,Black,M,L/S Shirts & Jerseys,5055939948607,
E3165BK/5,1,27,60,MT500 L/S Print T - LTD,E3165,E3165BK,Black,L,L/S Shirts & Jerseys,5055939948614,
E3165BK/6,1,27,60,MT500 L/S Print T - LTD,E3165,E3165BK,Black,XL,L/S Shirts & Jerseys,5055939948621,
E3165BK/7,1,27,60,MT500 L/S Print T - LTD,E3165,E3165BK,Black,XXL,L/S Shirts & Jerseys,5055939948638,
E3165GF/4,1,27,60,MT500 L/S Print T - LTD,E3165,E3165GF,Forest Green,M,L/S Shirts & Jerseys,5055939948553,
E3165GF/5,1,27,60,MT500 L/S Print T - LTD,E3165,E3165GF,Forest Green,L,L/S Shirts & Jerseys,5055939948560,
E3165GF/6,1,27,60,MT500 L/S Print T - LTD,E3165,E3165GF,Forest Green,XL,L/S Shirts & Jerseys,5055939948577,
E3165GF/7,1,27,60,MT500 L/S Print T - LTD,E3165,E3165GF,Forest Green,XXL,L/S Shirts & Jerseys,5055939948584,
E6149BK/2,1,27,60,Wms MT500 L/S Print T II - LTD,E6149,E6149BK,Black,XS,L/S Shirts & Jerseys,5055939948690,
E6149BK/3,1,27,60,Wms MT500 L/S Print T II - LTD,E6149,E6149BK,Black,S,L/S Shirts & Jerseys,5055939948706,
E6149BK/4,1,27,60,Wms MT500 L/S Print T II - LTD,E6149,E6149BK,Black,M,L/S Shirts & Jerseys,5055939948713,
E6149BK/5,1,27,60,Wms MT500 L/S Print T II - LTD,E6149,E6149BK,Black,L,L/S Shirts & Jerseys,5055939948720,
E3173BK/3,1,22.5,45,SingleTrack Core Print T,E3173,E3173BK,Black,S,S/S Shirts & Jerseys,5055939949598,
E3173BK/4,1,22.5,45,SingleTrack Core Print T,E3173,E3173BK,Black,M,S/S Shirts & Jerseys,5055939949604,
E3173BK/5,1,22.5,45,SingleTrack Core Print T,E3173,E3173BK,Black,L,S/S Shirts & Jerseys,5055939949611,
E3173BK/6,1,22.5,45,SingleTrack Core Print T,E3173,E3173BK,Black,XL,S/S Shirts & Jerseys,5055939949628,
E3173BK/7,1,22.5,45,SingleTrack Core Print T,E3173,E3173BK,Black,XXL,S/S Shirts & Jerseys,5055939949635,
E3173GF/3,1,22.5,45,SingleTrack Core Print T,E3173,E3173GF,Forest Green,S,S/S Shirts & Jerseys,5055939949642,
E3173GF/4,1,22.5,45,SingleTrack Core Print T,E3173,E3173GF,Forest Green,M,S/S Shirts & Jerseys,5055939949659,
E3173GF/5,1,22.5,45,SingleTrack Core Print T,E3173,E3173GF,Forest Green,L,S/S Shirts & Jerseys,5055939949666,
E3173GF/6,1,22.5,45,SingleTrack Core Print T,E3173,E3173GF,Forest Green,XL,S/S Shirts & Jerseys,5055939949673,
E3173GF/7,1,22.5,45,SingleTrack Core Print T,E3173,E3173GF,Forest Green,XXL,S/S Shirts & Jerseys,5055939949680,
E5073BA/4,1,30,60,SingleTrack Merino T,E5073,E5073BA,Azure Blue,M,S/S Shirts & Jerseys,5055939949109,
E5073BA/5,1,30,60,SingleTrack Merino T,E5073,E5073BA,Azure Blue,L,S/S Shirts & Jerseys,5055939949116,
E5073BA/6,1,30,60,SingleTrack Merino T,E5073,E5073BA,Azure Blue,XL,S/S Shirts & Jerseys,5055939949123,
E5073GF/4,1,30,60,SingleTrack Merino T,E5073,E5073GF,Forest Green,M,S/S Shirts & Jerseys,5055939949154,
E5073GF/5,1,30,60,SingleTrack Merino T,E5073,E5073GF,Forest Green,L,S/S Shirts & Jerseys,5055939949161,
E5073GF/6,1,30,60,SingleTrack Merino T,E5073,E5073GF,Forest Green,XL,S/S Shirts & Jerseys,5055939949178,
E5073RR/4,1,30,60,SingleTrack Merino T,E5073,E5073RR,Rust Red,M,S/S Shirts & Jerseys,5055939949208,
E5073RR/5,1,30,60,SingleTrack Merino T,E5073,E5073RR,Rust Red,L,S/S Shirts & Jerseys,5055939949215,
E5073RR/6,1,30,60,SingleTrack Merino T,E5073,E5073RR,Rust Red,XL,S/S Shirts & Jerseys,5055939949222,
E6151GK/2,1,22.5,45,Wms SingleTrack Core Print T,E6151,E6151GK,Kingfisher,XS,S/S Shirts & Jerseys,5055939950280,
E6151GK/3,1,22.5,45,Wms SingleTrack Core Print T,E6151,E6151GK,Kingfisher,S,S/S Shirts & Jerseys,5055939950297,
E6151GK/4,1,22.5,45,Wms SingleTrack Core Print T,E6151,E6151GK,Kingfisher,M,S/S Shirts & Jerseys,5055939950303,
E6151GK/5,1,22.5,45,Wms SingleTrack Core Print T,E6151,E6151GK,Kingfisher,L,S/S Shirts & Jerseys,5055939950310,
E3171BK/2,1,25,40,Wms Engineered Padded Boxer with Clickfast,E3171,E3171BK,Black,XS,Boxers/Liners,5055939954318,
E3171BK/3,1,25,40,Wms Engineered Padded Boxer with Clickfast,E3171,E3171BK,Black,S,Boxers/Liners,5055939954325,
E3171BK/4,1,25,40,Wms Engineered Padded Boxer with Clickfast,E3171,E3171BK,Black,M,Boxers/Liners,5055939954332,
E3171BK/5,1,25,40,Wms Engineered Padded Boxer with Clickfast,E3171,E3171BK,Black,L,Boxers/Liners,5055939954349,
E3171BK/6,1,25,40,Wms Engineered Padded Boxer with Clickfast,E3171,E3171BK,Black,XL,Boxers/Liners,5055939954356,
E8099GC/3,1,59,140,MT500 Burner Pant II FP,E8099,E8099GC,Grey Camo,S,Baggy Trousers,5055939948294,
E8099GC/4,1,59,140,MT500 Burner Pant II FP,E8099,E8099GC,Grey Camo,M,Baggy Trousers,5055939948300,
E8099GC/5,1,59,140,MT500 Burner Pant II FP,E8099,E8099GC,Grey Camo,L,Baggy Trousers,5055939948317,
E8099GC/6,1,59,140,MT500 Burner Pant II FP,E8099,E8099GC,Grey Camo,XL,Baggy Trousers,5055939948324,
E8099GC/7,1,59,140,MT500 Burner Pant II FP,E8099,E8099GC,Grey Camo,XXL,Baggy Trousers,5055939948331,
E6110BK/2,2,50,100,Wms SingleTrack Lite Short II,E6110,E6110BK,Black,XS,Baggy Shorts,5055939914664,
E6110BK/3,1,50,100,Wms SingleTrack Lite Short II,E6110,E6110BK,Black,S,Baggy Shorts,5055939914671,
E6110BK/4,1,50,100,Wms SingleTrack Lite Short II,E6110,E6110BK,Black,M,Baggy Shorts,5055939914688,
E7133GF/K11,1,24,45,Kids MT500JR L/S T II,E7133,E7133GF,Forest Green,11-12yrs,Baggy Shorts,5055939953649,
E7133GF/K7,1,24,45,Kids MT500JR L/S T II,E7133,E7133GF,Forest Green,7-8yrs,Baggy Shorts,5055939953625,
E7133GF/K9,1,24,45,Kids MT500JR L/S T II,E7133,E7133GF,Forest Green,9-10yrs,Baggy Shorts,5055939953632,
E7133OM/K11,1,24,45,Kids MT500JR L/S T II,E7133,E7133OM,Mango,11-12yrs,Baggy Shorts,5055939953670,
E7133OM/K7,1,24,45,Kids MT500JR L/S T II,E7133,E7133OM,Mango,7-8yrs,Baggy Shorts,5055939953656,
E7133OM/K9,1,24,45,Kids MT500JR L/S T II,E7133,E7133OM,Mango,9-10yrs,Baggy Shorts,5055939953663,
E7134GF/K11,1,30,70,Kids MT500JR Short II,E7134,E7134GF,Forest Green,11-12yrs,Baggy Shorts,5055939953700,
E7134GF/K7,1,30,70,Kids MT500JR Short II,E7134,E7134GF,Forest Green,7-8yrs,Baggy Shorts,5055939953687,
E7134GF/K9,1,30,70,Kids MT500JR Short II,E7134,E7134GF,Forest Green,9-10yrs,Baggy Shorts,5055939953694,
E7134GY/K11,1,30,70,Kids MT500JR Short II,E7134,E7134GY,Grey,11-12yrs,Baggy Shorts,5055939953731,
E7134GY/K7,1,30,70,Kids MT500JR Short II,E7134,E7134GY,Grey,7-8yrs,Baggy Shorts,5055939953717,
E7134GY/K9,1,30,70,Kids MT500JR Short II,E7134,E7134GY,Grey,9-10yrs,Baggy Shorts,5055939953724,
E8067BK/3,1,50,100,SingleTrack Lite Short II,E8067,E8067BK,Black,S,Baggy Shorts,5055939916446,
E8067BK/4,1,50,100,SingleTrack Lite Short II,E8067,E8067BK,Black,M,Baggy Shorts,5055939916453,
E8067BK/5,1,50,100,SingleTrack Lite Short II,E8067,E8067BK,Black,L,Baggy Shorts,5055939916460,
E8067BK/6,1,50,100,SingleTrack Lite Short II,E8067,E8067BK,Black,XL,Baggy Shorts,5055939916477,
E8067BK/7,1,50,100,SingleTrack Lite Short II,E8067,E8067BK,Black,XXL,Baggy Shorts,5055939916484,
E8067PW/3,1,43,100,SingleTrack Lite Short II,E8067,E8067PW,Pewter Grey,S,Baggy Shorts,5055939949345,
E8067PW/4,1,43,100,SingleTrack Lite Short II,E8067,E8067PW,Pewter Grey,M,Baggy Shorts,5055939949352,
E8067PW/5,1,43,100,SingleTrack Lite Short II,E8067,E8067PW,Pewter Grey,L,Baggy Shorts,5055939949369,
E8067PW/6,1,43,100,SingleTrack Lite Short II,E8067,E8067PW,Pewter Grey,XL,Baggy Shorts,5055939949376,
E8067PW/7,1,43,100,SingleTrack Lite Short II,E8067,E8067PW,Pewter Grey,XXL,Baggy Shorts,5055939949383,
E8081KH/3,1,45,90,SingleTrack Short,E8081,E8081KH,Khaki,S,Baggy Shorts,5055939935003,
E8081KH/4,1,45,90,SingleTrack Short,E8081,E8081KH,Khaki,M,Baggy Shorts,5055939935010,
E8081KH/5,1,45,90,SingleTrack Short,E8081,E8081KH,Khaki,L,Baggy Shorts,5055939935027,
E8081KH/6,1,45,90,SingleTrack Short,E8081,E8081KH,Khaki,XL,Baggy Shorts,5055939935034,
E8081KH/7,1,45,90,SingleTrack Short,E8081,E8081KH,Khaki,XXL,Baggy Shorts,5055939935041,
E8081BK/3,1,45,90,SingleTrack Short,E8081,E8081BK,Black,S,Baggy Shorts,5055939934952,
E8081BK/4,1,45,90,SingleTrack Short,E8081,E8081BK,Black,M,Baggy Shorts,5055939934969,
E8081BK/5,1,45,90,SingleTrack Short,E8081,E8081BK,Black,L,Baggy Shorts,5055939934976,
E8081BK/6,1,45,90,SingleTrack Short,E8081,E8081BK,Black,XL,Baggy Shorts,5055939934983,
E8081BK/7,1,45,90,SingleTrack Short,E8081,E8081BK,Black,XXL,Baggy Shorts,5055939934990,
E1506BK/L-XL,1,95,190,MT500 Helmet,E1506,E1506BK,Black,L-XL,Helmets,5055939920061,
E1506BK/M-L,1,95,190,MT500 Helmet,E1506,E1506BK,Black,M-L,Helmets,5055939920054,
E1506BK/S-M,1,95,190,MT500 Helmet,E1506,E1506BK,Black,S-M,Helmets,5055939920047,
E1506GF/M-L,1,95,190,MT500 Helmet,E1506,E1506GF,Forest Green,M-L,Helmets,5055939948966,
E1506GF/S-M,1,95,190,MT500 Helmet,E1506,E1506GF,Forest Green,S-M,Helmets,5055939948959,
E1506NA/M-L,1,95,190,MT500 Helmet,E1506,E1506NA,Navy,M-L,Helmets,5055939922843,
E1506NA/S-M,1,95,190,MT500 Helmet,E1506,E1506NA,Navy,S-M,Helmets,5055939922836,
E1506OM/M-L,1,95,190,MT500 Helmet,E1506,E1506OM,Mango,M-L,Helmets,5055939926063,
E1506OM/S-M,1,95,190,MT500 Helmet,E1506,E1506OM,Mango,S-M,Helmets,5055939926056,
E1511BK/L-XL,1,50,100,SingleTrack Helmet II,E1511,E1511BK,Black,L-XL,Helmets,5055939930121,
E1511BK/M-L,1,50,100,SingleTrack Helmet II,E1511,E1511BK,Black,M-L,Helmets,5055939930138,
E1511BK/S-M,1,50,100,SingleTrack Helmet II,E1511,E1511BK,Black,S-M,Helmets,5055939930145,
E1511KH/M-L,1,50,100,SingleTrack Helmet II,E1511,E1511KH,Khaki,M-L,Helmets,5055939950396,
E1511KH/S-M,1,50,100,SingleTrack Helmet II,E1511,E1511KH,Khaki,S-M,Helmets,5055939950389,
E1511PT/M-L,1,50,100,SingleTrack Helmet II,E1511,E1511PT,Petrol,M-L,Helmets,5055939930169,
E1511PT/S-M,1,50,100,SingleTrack Helmet II,E1511,E1511PT,Petrol,S-M,Helmets,5055939930176,
E7128BK/0,1,25,50,Hummvee Youth Helmet,E7128,E7128BK,Black,One size,Helmets,5055939934419,
E7128GY/0,1,25,50,Hummvee Youth Helmet,E7128,E7128GY,Grey,One size,Helmets,5055939934426,
E7128KH/0,1,25,50,Hummvee Youth Helmet,E7128,E7128KH,Khaki,One size,Helmets,5055939951324,
E0043WC,2,10,20,Endura Multitube,E0043,E0043WC,White Camo,One size,Head warmer,5055205324500,
E1168BK/3,1,22.5,45,SingleTrack Glove,E1168,E1168BK,Black,S,Long finger gloves,5055939929477,
E1168BK/4,1,22.5,45,SingleTrack Glove,E1168,E1168BK,Black,M,Long finger gloves,5055939929484,
E1168BK/5,1,22.5,45,SingleTrack Glove,E1168,E1168BK,Black,L,Long finger gloves,5055939929491,
E1168BK/6,1,22.5,45,SingleTrack Glove,E1168,E1168BK,Black,XL,Long finger gloves,5055939929507,
E1168BK/7,1,22.5,45,SingleTrack Glove,E1168,E1168BK,Black,XXL,Long finger gloves,5055939929514,
E1168NA/5,1,22.5,45,SingleTrack Glove,E1168,E1168NA,Navy,L,Long finger gloves,5055939929590,
E1168NA/6,1,22.5,45,SingleTrack Glove,E1168,E1168NA,Navy,XL,Long finger gloves,5055939929606,
E1168NA/7,1,22.5,45,SingleTrack Glove,E1168,E1168NA,Navy,XXL,Long finger gloves,5055939929613,
E1168RR/5,1,19,45,SingleTrack Glove,E1168,E1168RR,Rust Red,L,Long finger gloves,5055939949819,
E1168RR/6,1,19,45,SingleTrack Glove,E1168,E1168RR,Rust Red,XL,Long finger gloves,5055939949826,
E1168RR/7,1,19,45,SingleTrack Glove,E1168,E1168RR,Rust Red,XXL,Long finger gloves,5055939949833,
E1199NA/5,1,22.5,45,SingleTrack LiteKnit Glove,E1199,E1199NA,Navy,L,Long finger gloves,5055939949765,
E1199NA/6,1,22.5,45,SingleTrack LiteKnit Glove,E1199,E1199NA,Navy,XL,Long finger gloves,5055939949772,
E1199NA/7,1,22.5,45,SingleTrack LiteKnit Glove,E1199,E1199NA,Navy,XXL,Long finger gloves,5055939949789,
E1199RR/3,1,22.5,45,SingleTrack LiteKnit Glove,E1199,E1199RR,Rust Red,S,Long finger gloves,5055939949697,
E1199RR/4,1,22.5,45,SingleTrack LiteKnit Glove,E1199,E1199RR,Rust Red,M,Long finger gloves,5055939949703,
E1199RR/5,1,22.5,45,SingleTrack LiteKnit Glove,E1199,E1199RR,Rust Red,L,Long finger gloves,5055939949710,
E1199RR/6,1,22.5,45,SingleTrack LiteKnit Glove,E1199,E1199RR,Rust Red,XL,Long finger gloves,5055939949727,
E1199RR/7,1,22.5,45,SingleTrack LiteKnit Glove,E1199,E1199RR,Rust Red,XXL,Long finger gloves,5055939949734,
E1204GC/3,1,15,30,Hummvee Lite Glove II,E1204,E1204GC,Grey Camo,S,Long finger gloves,5055939950662,
E1204GC/4,1,15,30,Hummvee Lite Glove II,E1204,E1204GC,Grey Camo,M,Long finger gloves,5055939950679,
E1204GC/5,1,15,30,Hummvee Lite Glove II,E1204,E1204GC,Grey Camo,L,Long finger gloves,5055939950686,
E1204GC/6,1,15,30,Hummvee Lite Glove II,E1204,E1204GC,Grey Camo,XL,Long finger gloves,5055939950693,
E1204GC/7,1,15,30,Hummvee Lite Glove II,E1204,E1204GC,Grey Camo,XXL,Long finger gloves,5055939950709,
E1204GF/5,1,13,30,Hummvee Lite Glove II,E1204,E1204GF,Forest Green,L,Long finger gloves,5055939950631,
E1204GF/6,1,13,30,Hummvee Lite Glove II,E1204,E1204GF,Forest Green,XL,Long finger gloves,5055939950648,
E1204GF/7,1,13,30,Hummvee Lite Glove II,E1204,E1204GF,Forest Green,XXL,Long finger gloves,5055939950655,
E1204NA/5,1,13,30,Hummvee Lite Glove II,E1204,E1204NA,Navy,L,Long finger gloves,5055939950532,
E1204NA/6,1,13,30,Hummvee Lite Glove II,E1204,E1204NA,Navy,XL,Long finger gloves,5055939950549,
E1204NA/7,1,13,30,Hummvee Lite Glove II,E1204,E1204NA,Navy,XXL,Long finger gloves,5055939950556,
E6155GK/2,1,13,30,Wms Hummvee Lite Glove II,E6155,E6155GK,Kingfisher,XS,Long finger gloves,5055939951225,
E6155GK/3,1,13,30,Wms Hummvee Lite Glove II,E6155,E6155GK,Kingfisher,S,Long finger gloves,5055939951232,
E6155GK/4,1,13,30,Wms Hummvee Lite Glove II,E6155,E6155GK,Kingfisher,M,Long finger gloves,5055939951249,
E6155GK/5,1,13,30,Wms Hummvee Lite Glove II,E6155,E6155GK,Kingfisher,L,Long finger gloves,5055939951256,
E7124GF/3,1,10.9,25,Kids Hummvee Glove II,E7124,E7124GF,Forest Green,S,Long finger gloves,5055939953809,
E7124GF/4,1,10.9,25,Kids Hummvee Glove II,E7124,E7124GF,Forest Green,M,Long finger gloves,5055939953816,
E7124GF/5,1,10.9,25,Kids Hummvee Glove II,E7124,E7124GF,Forest Green,L,Long finger gloves,5055939953823,
E7124GY/3,1,10.9,25,Kids Hummvee Glove II,E7124,E7124GY,Matt Grey,S,Long finger gloves,5055939953779,
E7124GY/4,1,10.9,25,Kids Hummvee Glove II,E7124,E7124GY,Matt Grey,M,Long finger gloves,5055939953786,
E7124GY/5,1,10.9,25,Kids Hummvee Glove II,E7124,E7124GY,Matt Grey,L,Long finger gloves,5055939953793,
E1205BK/L-XL,1,11,22,Pro SL Sock II,E1205,E1205BK,Black,L-XL,Lightweight,5055939951812,
E1205BK/S-M,1,11,22,Pro SL Sock II,E1205,E1205BK,Black,S-M,Lightweight,5055939951805,
E1205BV/L-XL,1,11,22,Pro SL Sock II,E1205,E1205BV,Hi-Viz Blue,L-XL,Lightweight,5055939951836,
E1205BV/S-M,1,11,22,Pro SL Sock II,E1205,E1205BV,Hi-Viz Blue,S-M,Lightweight,5055939951829,
E1205NA/L-XL,1,11,22,Pro SL Sock II,E1205,E1205NA,Navy,L-XL,Lightweight,5055939951850,
E1205NA/S-M,1,11,22,Pro SL Sock II,E1205,E1205NA,Navy,S-M,Lightweight,5055939951843,
E1102,2,9,18,Endura Chamois Cream,E1102,E1102,Black/None,One size,Body Protectors,5055205353814,
E1155BK/L-XL,1,50,100,MT500 Knee Protector,E1155,E1155BK,Black,L-XL,Body Protectors,5055939928388,
E1155BK/S-M,1,50,100,MT500 Knee Protector,E1155,E1155BK,Black,S-M,Body Protectors,5055939928395,
E1157BK/L-XL,1,35,70,SingleTrack Lite Knee Protector,E1157,E1157BK,Black,L-XL,Body Protectors,5055939928418,
E1157BK/S-M,1,35,70,SingleTrack Lite Knee Protector,E1157,E1157BK,Black,S-M,Body Protectors,5055939928425,
E1158BK/L-XL,1,30,60,SingleTrack Lite Elbow Protector,E1158,E1158BK,Black,L-XL,Body Protectors,5055939928432,
E1158BK/S-M,1,30,60,SingleTrack Lite Elbow Protector,E1158,E1158BK,Black,S-M,Body Protectors,5055939928449,
E1196BK/L-XL,1,50,100,MT500 Lite Knee Pad,E1196,E1196BK,Black,L-XL,Body Protectors,5055939948874,
E1196BK/S-M,1,50,100,MT500 Lite Knee Pad,E1196,E1196BK,Black,S-M,Body Protectors,5055939948867,
E1202BK/L-XL,2,22.5,45,SingleTrack Shin Guard Sock,E1202,E1202BK,Black,L-XL,Body Protectors,5055939949918,
E1202BK/S-M,2,22.5,45,SingleTrack Shin Guard Sock,E1202,E1202BK,Black,S-M,Body Protectors,5055939949901,
E1202GF/L-XL,2,22.5,45,SingleTrack Shin Guard Sock,E1202,E1202GF,Forest Green,L-XL,Body Protectors,5055939949932,
E1202GF/S-M,2,22.5,45,SingleTrack Shin Guard Sock,E1202,E1202GF,Forest Green,S-M,Body Protectors,5055939949925,
E7131BK/K11,2,35,70,SingleTrack Youth Knee Protector,E7131,E7131BK,Black,11-12yrs,Body Protectors,5055939949970,
E7131BK/K9,2,35,70,SingleTrack Youth Knee Protector,E7131,E7131BK,Black,9-10yrs,Body Protectors,5055939949963,
E7132BK/K11,1,30,60,SingleTrack Youth Elbow Protector,E7132,E7132BK,Black,11-12yrs,Body Protectors,5055939949994,
E7132BK/K9,1,30,60,SingleTrack Youth Elbow Protector,E7132,E7132BK,Black,9-10yrs,Body Protectors,5055939949987,
E8093BK/3,1,50,100,MT500 Protector Undershorts II,E8093,E8093BK,Black,S,Body Protectors,5055939948775,
E8093BK/5,1,50,100,MT500 Protector Undershorts II,E8093,E8093BK,Black,L,Body Protectors,5055939948799,
E8093BK/7,1,50,100,MT500 Protector Undershorts II,E8093,E8093BK,Black,XXL,Body Protectors,5055939948812,
