SKU,Maximum allowed,Barcode/EAN,Days left
E8065GY/5,1,5055939916309       ,26
E0128BK/4,1,5055939904931       ,78
E0128BK/5,2,5055939904948       ,78
E0128BK/6,2,5055939904955       ,78
E0128BK/7,1,5055939904962       ,78
E0128YV/5,2,5055939909639       ,78
E0128YV/6,2,5055939909646       ,78
E1023BK/3,1,5055205372396       ,78
E1023BK/4,1,5055205372402       ,78
E1023BK/5,1,5055205372419       ,78
E1023BK/6,1,5055205372426       ,78
E1024BK/3,1,5055205372587       ,78
E1024BK/4,1,5055205372594       ,78
E1024BK/5,1,5055205372600       ,78
E1024BK/6,1,5055205375519       ,78
E1043BK/L-XL,2,5055939923871       ,78
E1043BK/S-M,1,5055939923888       ,78
E1117BK/4,1,5055205390123       ,78
E1117BK/5,2,5055205390130       ,78
E1117BK/6,1,5055205390147       ,78
E1117BK/7,2,5055205390154       ,78
E1118BK/4,1,5055205389974       ,78
E1118BK/5,2,5055205389981       ,78
E1118BK/6,2,5055205389998       ,78
E1168BK/4,1,5055939929484       ,78
E1168BK/6,2,5055939929507       ,78
E1168BK/7,1,5055939929514       ,78
E1168NA/4,1,5055939929583       ,78
E1168NA/5,2,5055939929590       ,78
E1168NA/6,2,5055939929606       ,78
E1168NA/7,1,5055939929613       ,78
E1186BK/4,1,5055939944630       ,78
E1186BK/5,2,5055939944647       ,78
E1186BK/6,2,5055939944654       ,78
E1186BK/7,1,5055939944661       ,78
E1511BK/L-XL,1,5055939930121       ,78
E1511BK/M-L,1,5055939930138       ,78
E1511BK/S-M,1,5055939930145       ,78
E1511WH/L-XL,1,5055939930183       ,78
E1511WH/M-L,1,5055939930190       ,78
E1511WH/S-M,1,5055939930206       ,78
E5022BK/3,1,5055205360850       ,78
E5022BK/4,2,5055205360867       ,78
E5022BK/6,1,5055205360881       ,78
E5022BK/7,1,5055205360898       ,78
E5056BK/5,1,5055939941844       ,78
E5056BK/7,1,5055939941868       ,78
E8074BK/5,1,5055939924731       ,78
E8088BK/4,1,5055939943169       ,78
E8088BK/5,1,5055939943176       ,78
E8088BK/6,1,5055939943183       ,78
E9102BK/4,1,5055939925523       ,78
E9102BK/5,1,5055939925530       ,78
E9102BK/6,1,5055939925547       ,78
E9102BK/7,1,5055939925554       ,78
E9102GV/5,1,5055939925585       ,78
E9102GV/6,1,5055939925592       ,78
E9102GV/7,1,5055939925608       ,78
E9102RD/4,1,5055939925479       ,78
E9102RD/5,2,5055939925486       ,78
E9102RD/6,1,5055939925493       ,78
E9102RD/7,1,5055939925509       ,78
E9114BV/4,1,5055939941783       ,78
EM0057BK/5,1,5055939925967       ,78
EM0057NA/4,1,5055939926001       ,78
E1168BK/5,2,5055939929491       ,79
E3157BK/4,1,5055939941431       ,79
E3157BK/5,1,5055939941448       ,79
E3157BK/6,1,5055939941455       ,79
E5022BK/5,2,5055205360874       ,79
E5056BK/4,2,5055939941837       ,79
E5056BK/6,1,5055939941851       ,79
E9105BV/5,1,5055939946405       ,79
E0128YV/4,1,5055939909622       ,101
E0128YV/7,1,5055939909653       ,101
EM0057BK/4,1,5055939925950       ,101
EM0057BK/5,1,5055939925967       ,101
EM0057NA/4,1,5055939926001       ,101
EM0057NA/5,1,5055939926018       ,101
E0043BC,1,5055205324494       ,127
E0043RP,1,5055205324470       ,127
E0043WC,1,5055205324500       ,127
E0110UM,1,5055205367248       ,127
E0150BK/0,1,5055939936925       ,127
E0150NA/0,1,5055939936932       ,127
E1505OR/M-L,1,5055939904511       ,127
E1505WH/L-XL,1,5055939904542       ,127
E1505WH/M-L,1,5055939904559       ,127
E1505WH/S-M,1,5055939904566       ,127
E3029/4,1,5055205304236       ,127
E6067PV/4,1,5055205367620       ,127
E6067PV/5,1,5055205367637       ,127
E1118BK/7,2,5055205390000       ,135
