SKU,Maximum allowed,Barcode/EAN,Days left
E0110BK,2,5055205367224       ,16
E0110BP/0,2,5055939959726       ,16
E0110PK,2,5055205367231       ,16
E0110RR/0,2,5055939959719       ,16
E0110UM,2,5055205367248       ,16
E0110YM/0,2,5055939959702       ,16
E0128BK/4,2,5055939904931       ,16
E0128BK/5,2,5055939904948       ,16
E0128BK/6,1,5055939904955       ,16
E0128BK/7,1,5055939904962       ,16
E0152BK/L-XL,2,5055939958125       ,16
E1039BK/L-XL,2,5055939906720       ,16
E1039BK/S-M,1,5055939906713       ,16
E1043BK/L-XL,3,5055939923871       ,16
E1043BK/S-M,3,5055939923888       ,16
E1117BK/5,2,5055205390130       ,16
E1117BK/6,2,5055205390147       ,16
E1117BK/7,2,5055205390154       ,16
E1118BK/5,2,5055205389981       ,16
E1118BK/6,2,5055205389998       ,16
E1118BK/7,2,5055205390000       ,16
E1183BK/4,1,5055939944234       ,16
E1183BK/5,2,5055939944241       ,16
E1183BK/6,2,5055939944258       ,16
E1183BK/7,2,5055939944265       ,16
E1186BK/4,1,5055939944630       ,16
E1186BK/5,2,5055939944647       ,16
E1186BK/6,2,5055939944654       ,16
E1186BK/7,1,5055939944661       ,16
E1186GV/4,1,5055939944685       ,16
E1186GV/5,1,5055939944692       ,16
E1186GV/6,1,5055939944708       ,16
E1186GV/7,1,5055939944715       ,16
E1187BK/4,1,5055939944777       ,16
E1187BK/5,1,5055939944784       ,16
E1187BK/6,1,5055939944791       ,16
E1227BK/L-XL,2,5055939966311       ,16
E1227BK/S-M,1,5055939959405       ,16
E1227GK/L-XL,2,5055939966328       ,16
E1227GK/S-M,1,5055939960616       ,16
E1227RR/L-XL,2,5055939966335       ,16
E1227RR/S-M,1,5055939960609       ,16
E1234BK/L-XL,2,5055939966823       ,16
E1234BK/S-M,1,5055939966816       ,16
E1234GF/L-XL,2,5055939966847       ,16
E1234GF/S-M,1,5055939966830       ,16
E1234RD/L-XL,2,5055939966861       ,16
E1234RD/S-M,1,5055939966854       ,16
E3158BK/4,1,5055939942421       ,16
E3158BK/5,1,5055939942438       ,16
E3158BK/6,1,5055939942445       ,16
E3182AN/4,1,5055939959030       ,16
E3182AN/5,1,5055939959047       ,16
E3182AN/6,1,5055939959054       ,16
E5057BK/4,1,5055939942124       ,16
E6040YV/2,1,5055939909738       ,16
E6040YV/3,1,5055939909745       ,16
E6040YV/4,1,5055939909752       ,16
E6040YV/5,1,5055939909769       ,16
E6067BK/2,1,5055205367644       ,16
E6067BK/3,1,5055205367651       ,16
E6067BK/4,1,5055205367668       ,16
E6067BK/5,1,5055205367675       ,16
E6146BK/2,1,5055939942070       ,16
E6146BK/3,1,5055939942087       ,16
E6146BK/4,1,5055939942094       ,16
E6146BK/5,1,5055939942100       ,16
E7112BK/K11,1,5055205390642       ,16
E7112BK/K7,1,5055205390659       ,16
E7112BK/K9,1,5055205390635       ,16
E8074BK/3,1,5055939924717       ,16
E8074BK/4,2,5055939924724       ,16
E8074BK/5,2,5055939924731       ,16
E8074BK/6,1,5055939924748       ,16
E8100BK/3,1,5055939959139       ,16
E8100BK/4,1,5055939959146       ,16
E8100BK/5,1,5055939959153       ,16
E8100BK/6,1,5055939959160       ,16
E9106GV/3,1,5055939935300       ,16
E9106GV/4,1,5055939935317       ,16
E9106GV/5,1,5055939935324       ,16
E9106GV/6,1,5055939935331       ,16
E9106WH/3,1,5055939935355       ,16
E9106WH/4,1,5055939935362       ,16
E9106WH/5,1,5055939935379       ,16
E9106WH/6,1,5055939935386       ,16
E9108CE/3,1,5055939935553       ,16
E9108CE/4,1,5055939935560       ,16
E9108CE/5,1,5055939935577       ,16
E9113GK/4,1,5055939957319       ,16
E9113GK/5,1,5055939957326       ,16
E9113GK/6,1,5055939957333       ,16
E9117BK/4,1,5055939942179       ,16
E9117BK/5,1,5055939942186       ,16
E9120YV/4,1,5055939943268       ,16
E9120YV/5,1,5055939943275       ,16
E9120YV/6,1,5055939943282       ,16
E9120YV/7,1,5055939943299       ,16
E9122BV/4,1,5055939945422       ,16
E9122BV/5,1,5055939945439       ,16
E9122BV/6,1,5055939945446       ,16
E9124PW/4,1,5055939944050       ,16
E9124PW/5,1,5055939944067       ,16
E9124PW/6,1,5055939944074       ,16
E9125MY/3,1,5055939944159       ,16
E9125MY/4,1,5055939944166       ,16
E9125MY/5,1,5055939944173       ,16
E9130NA/4,1,5055939943695       ,16
E9130NA/5,1,5055939943701       ,16
E9130NA/6,1,5055939943718       ,16
E9130NA/7,1,5055939943725       ,16
E9134YV/3,1,5055939943350       ,16
E9134YV/4,1,5055939943367       ,16
E9134YV/5,1,5055939943374       ,16
E9134YV/6,1,5055939943381       ,16
E9134YV/7,1,5055939943398       ,16
E9137AN/4,1,5055939946276       ,16
E9137AN/5,1,5055939946283       ,16
E9137AN/6,1,5055939946290       ,16
E9137RD/4,1,5055939946320       ,16
E9137RD/5,1,5055939946337       ,16
E9137RD/6,1,5055939946344       ,16
E9138RR/4,1,5055939960258       ,16
E9138RR/5,1,5055939960265       ,16
E0152BK/S-M,1,5055939958118       ,18
E0154BK/L-XL,3,5055939965987       ,18
E0154BK/S-M,3,5055939958149       ,18
E1225BK/L-XL,2,5055939959207       ,18
E1225BK/XL-XXL,2,5055939966564       ,18
E1226BK/0,2,5055939959399       ,18
E1226GK/0,2,5055939960593       ,18
E3179BK/4,1,5055939957937       ,18
E3179BK/5,1,5055939957944       ,18
E3179BK/6,1,5055939957951       ,18
E3181BK/4,1,5055939958194       ,18
E3181BK/5,1,5055939958200       ,18
E3181BK/6,1,5055939958217       ,18
E3181RR/4,1,5055939958293       ,18
E3181RR/5,1,5055939958309       ,18
E5058BK/4,1,5055939942698       ,18
E5058BK/5,1,5055939942704       ,18
E5058BK/6,1,5055939942711       ,18
E6107BK/3,1,5055939915784       ,18
E6107BK/4,1,5055939915791       ,18
E6107BK/5,1,5055939915807       ,18
E6163BK/3,1,5055939958828       ,18
E6163BK/4,1,5055939958835       ,18
E9144BV/3,1,5055939957609       ,18
E9144BV/4,1,5055939957616       ,18
E9144BV/5,1,5055939957623       ,18
E9145BK/4,1,5055939959092       ,18
E9145BK/5,1,5055939959108       ,18
E9145BK/6,1,5055939959115       ,18
E9148BK/3,1,5055939959993       ,18
E9148BK/4,1,5055939960005       ,18
E9148BK/5,1,5055939960012       ,18
E9148BK/6,1,5055939960029       ,18
E9149BP/3,1,5055939960050       ,18
E9149BP/4,1,5055939960067       ,18
E9149BP/5,1,5055939960074       ,18
E9145YM/3,1,5055939961125       ,22
E9145YM/4,1,5055939961132       ,22
E9145YM/5,1,5055939961149       ,22
E8064GC/4,1,5055939950976       ,23
E9099CC/3,1,5055939960302       ,37
E9099CC/4,1,5055939960319       ,37
E9099CC/5,1,5055939960326       ,37
E9117YM/3,1,5055939960982       ,37
E9117YM/4,1,5055939960999       ,37
E9117YM/5,1,5055939961002       ,37
E9117YM/6,1,5055939961019       ,37
E9147RR/4,1,5055939959528       ,37
E9147RR/5,1,5055939959535       ,37
E9147RR/6,1,5055939959542       ,37
E9150GK/3,1,5055939960401       ,37
E9150GK/4,1,5055939960418       ,37
E9150GK/5,1,5055939960425       ,37
E8087BK/4,1,5055939943114       ,44
E8087BK/5,1,5055939943121       ,44
E8087BK/6,1,5055939943138       ,44
E8087BK/7,1,5055939943145       ,44
E8100BK/4,1,5055939959146       ,44
E8100BK/5,1,5055939959153       ,44
E9117YM/4,1,5055939960999       ,44
E9117YM/5,2,5055939961002       ,44
E9117YM/6,1,5055939961019       ,44
E9120YV/4,1,5055939943268       ,44
E9120YV/5,1,5055939943275       ,44
E9120YV/6,1,5055939943282       ,44
E9120YV/7,1,5055939943299       ,44
E9145BK/4,1,5055939959092       ,44
E9145BK/5,2,5055939959108       ,44
E9145BK/6,1,5055939959115       ,44
E0066BK,6,5055205340234       ,46
E0066OR,6,5055939900032       ,46
E1170BK/0,3,5055939929828       ,46
E1170CL/0,3,5055939951331       ,46
E1170GY/0,3,5055939929835       ,46
E1170YV/0,3,5055939929842       ,46
E1171BK/0,6,5055939929859       ,46
E1171WH/0,6,5055939929866       ,46
E1174BK/0,6,5055939929972       ,46
E1174GY/0,6,5055939929989       ,46
E1174PT/0,6,5055939929996       ,46
E5057BK/5,1,5055939942131       ,53
E6066BK/3,1,5055205363738       ,53
E6066BK/4,1,5055205363745       ,53
E6066BK/5,1,5055205363752       ,53
E6104CO/3,1,5055939918327       ,53
E6104CO/4,1,5055939918334       ,53
E6104CO/5,1,5055939918341       ,53
E7112BK/K9,3,5055205390635       ,53
E9116CE/3,1,5055939942001       ,53
E9116CE/4,1,5055939942018       ,53
E9116CE/5,1,5055939942025       ,53
E9116CO/3,1,5055939942049       ,53
E9116CO/4,1,5055939942056       ,53
E9116CO/5,1,5055939942063       ,53
E9146MY/3,1,5055939959252       ,53
E9146MY/4,1,5055939959269       ,53
E9146MY/5,1,5055939959276       ,53
E9150CV/3,1,5055939960357       ,53
E9150CV/4,1,5055939960364       ,53
E0154BK/L-XL,6,5055939965987       ,57
E0154BK/S-M,6,5055939958149       ,57
E1118BK/5,2,5055205389981       ,57
E1118BK/6,2,5055205389998       ,57
E1183BK/4,2,5055939944234       ,57
E1183BK/5,2,5055939944241       ,57
E1183BK/6,1,5055939944258       ,57
E1225BK/M-L,2,5055939959191       ,57
E5049BK/5,2,5055939924540       ,57
E1117BK/4,1,5055205390123       ,65
E1117BK/5,2,5055205390130       ,65
E1117BK/6,1,5055205390147       ,65
E1225BK/L-XL,2,5055939959207       ,65
E1227BK/L-XL,1,5055939966311       ,65
E1227BK/S-M,1,5055939959405       ,65
E1227GK/L-XL,1,5055939966328       ,65
E1227GK/S-M,1,5055939960616       ,65
E1227RR/L-XL,1,5055939966335       ,65
E1227RR/S-M,1,5055939960609       ,65
E6067BK/2,1,5055205367644       ,65
E6067BK/3,2,5055205367651       ,65
E6067BK/4,2,5055205367668       ,65
E6067BK/5,1,5055205367675       ,65
E6107BK/6,1,5055939915746       ,65
E8086AN/6,1,5055939942810       ,65
E8087BK/6,1,5055939943138       ,65
E1225BK/S-M,1,5055939959184       ,68
E1225BK/XL-XXL,2,5055939966564       ,68
E8085AN/6,1,5055939956213       ,68
E9120YV/4,1,5055939943268       ,68
E0154BK/S-M,3,5055939958149       ,80
E1043BK/L-XL,5,5055939923871       ,80
E1043BK/S-M,5,5055939923888       ,80
E1225BK/L-XL,2,5055939959207       ,80
E1225BK/M-L,1,5055939959191       ,80
E9108WH/3,1,5055939941967       ,80
E9117GF/4,1,5055939948157       ,81
E9117YM/4,1,5055939960999       ,81
E0128YV/2,1,5055939909608       ,89
E0128YV/3,1,5055939909615       ,89
E0128YV/4,2,5055939909622       ,89
E0152BK/L-XL,2,5055939958125       ,89
E1195BK/L-XL,1,5055939948836       ,89
E1195BK/M-L,1,5055939956503       ,89
E1195BK/S-M,1,5055939948829       ,89
E1196BK/L-XL,1,5055939948874       ,89
E1196BK/M-L,2,5055939956510       ,89
E1196BK/S-M,1,5055939948867       ,89
E3168BK/3,1,5055939954165       ,89
E3168BK/4,1,5055939954172       ,89
E3168BK/5,1,5055939954189       ,89
E3168BK/6,1,5055939954196       ,89
E3168BK/7,1,5055939954202       ,89
E3178BK/3,1,5055939957869       ,89
E3178BK/4,1,5055939957876       ,89
E3178BK/5,1,5055939957883       ,89
E5049BK/4,1,5055939924533       ,89
E5049BK/5,1,5055939924540       ,89
E5049BK/6,1,5055939924557       ,89
E8064BK/3,1,5055939915975       ,89
E8064BK/4,1,5055939915982       ,89
E8064BK/5,1,5055939915999       ,89
E8064BK/6,1,5055939916002       ,89
E8070BK/4,1,5055939916729       ,89
E8070BK/5,1,5055939916736       ,89
E8070BK/6,1,5055939916743       ,89
E8074BK/4,2,5055939924724       ,89
E8074BK/6,1,5055939924748       ,89
E8083BK/5,3,5055939942339       ,89
E8100BK/4,1,5055939959146       ,89
E8100BK/5,1,5055939959153       ,89
E8100BK/6,1,5055939959160       ,89
E9099CO/2,1,5055939925301       ,89
E9099CO/3,1,5055939925318       ,89
E9106GV/5,1,5055939935324       ,89
E9106WH/2,1,5055939936253       ,89
E9106WH/4,1,5055939935362       ,89
E9106WH/5,1,5055939935379       ,89
E9106WH/6,1,5055939935386       ,89
E9117BK/6,1,5055939942193       ,89
E9120YV/5,1,5055939943275       ,89
E9099CC/4,2,5055939960319       ,93
E9117BK/4,1,5055939942179       ,93
E9117BK/5,1,5055939942186       ,93
E1109BK/L-XL,4,5055205388014       ,96
E9120YV/6,2,5055939943282       ,96
E9122BK/7,1,5055939945408       ,96
E0154BK/L-XL,6,5055939965987       ,99
E1042BK/L-XL,3,5055939923857       ,99
E1043BK/L-XL,5,5055939923871       ,99
E1118BK/3,2,5055205389967       ,99
E1118BK/4,1,5055205389974       ,99
E1118BK/5,2,5055205389981       ,99
E1118BK/6,1,5055205389998       ,99
E1196BK/S-M,2,5055939948867       ,99
E9145YM/6,1,5055939961156       ,99
E8070BK/3,1,5055939916712       ,100
E0128YV/2,2,5055939909608       ,102
E0128YV/3,2,5055939909615       ,102
E0128YV/4,3,5055939909622       ,102
E1137BK/0,1,5055939901350       ,102
E1137WH/0,1,5055939901343       ,102
E1138BK/0,1,5055939901367       ,102
E1138RD/0,1,5055939901381       ,102
E1138WH/0,1,5055939901374       ,102
E1170BK/0,1,5055939929828       ,102
E1170CL/0,1,5055939951331       ,102
E1170GY/0,1,5055939929835       ,102
E1170YV/0,1,5055939929842       ,102
E8090AN/4,2,5055939944333       ,102
E8090AN/5,2,5055939944340       ,102
E8090AN/6,2,5055939944357       ,102
E8090AN/7,1,5055939944364       ,102
E9120YV/3,1,5055939943251       ,102
E9120YV/4,2,5055939943268       ,102
E9120YV/5,2,5055939943275       ,102
E9120YV/6,2,5055939943282       ,102
E9130NA/4,1,5055939943695       ,102
E9130NA/5,1,5055939943701       ,102
E9130NA/6,1,5055939943718       ,102
E9130NA/7,1,5055939943725       ,102
E9134YV/3,2,5055939943350       ,102
E9134YV/4,2,5055939943367       ,102
E9134YV/5,2,5055939943374       ,102
E9134YV/6,2,5055939943381       ,102
E9134YV/7,2,5055939943398       ,102
E9137AN/4,1,5055939946276       ,102
E9137AN/5,1,5055939946283       ,102
E9137AN/6,1,5055939946290       ,102
E9137AN/7,1,5055939946306       ,102
E9137RD/4,1,5055939946320       ,102
E9137RD/5,1,5055939946337       ,102
E9137RD/6,1,5055939946344       ,102
E9137RD/7,1,5055939946351       ,102
E9146MY/3,1,5055939959252       ,102
E9146MY/4,1,5055939959269       ,102
E9146MY/5,1,5055939959276       ,102
E9146MY/6,1,5055939959283       ,102
E0128YV/5,6,5055939909639       ,108
E0128YV/6,6,5055939909646       ,108
E0128YV/7,2,5055939909653       ,108
E6040YV/3,1,5055939909745       ,108
E0073,3,5055205338118       ,116
E6067BK/2,4,5055205367644       ,116
E6067BK/3,4,5055205367651       ,116
E1183BK/4,1,5055939944234       ,117
E1183BK/5,1,5055939944241       ,117
E1225BK/XL-XXL,3,5055939966564       ,117
E9117GF/6,2,5055939948171       ,117
E9117YM/4,1,5055939960999       ,130
E9120YV/4,1,5055939943268       ,130
E9147RR/4,1,5055939959528       ,130
E9120YV/7,1,5055939943299       ,135
E9120YV/8,1,5055939983110       ,135
E0035/3,2,5055205301440       ,138
E0128YV/5,2,5055939909639       ,138
E0154BK/L-XL,2,5055939965987       ,138
E1118BK/3,1,5055205389967       ,138
E1118BK/4,1,5055205389974       ,138
E1118BK/5,1,5055205389981       ,138
E1118BK/6,2,5055205389998       ,138
E1145BK/5,1,5055939908205       ,142
E1145BK/6,1,5055939908212       ,142
E8085AN/4,1,5055939956190       ,142
E8085AN/5,1,5055939956206       ,142
E8090AN/3,1,5055939944326       ,142
E9120YV/7,1,5055939943299       ,142
E9120YV/8,1,5055939983110       ,142
E9145YM/7,1,5055939961163       ,142
E8083BK/4,1,5055939942322       ,163
E8083BK/6,1,5055939942346       ,163
E1152BK/6,2,5055939923925       ,169
E1152BK/7,2,5055939923932       ,169
E1166BK/4,1,5055939929071       ,183
E1166BK/5,2,5055939929088       ,183
E1166BK/6,2,5055939929095       ,183
E1166BK/7,1,5055939929101       ,183
E1166RR/4,1,5055939974910       ,183
E1166RR/5,1,5055939974927       ,183
E1166RR/6,1,5055939974934       ,183
E1166RR/7,1,5055939974941       ,183
E1195BK/L-XL,1,5055939948836       ,183
E1195BK/M-L,1,5055939956503       ,183
E1195BK/S-M,1,5055939948829       ,183
E1196BK/L-XL,2,5055939948874       ,183
E1196BK/M-L,2,5055939956510       ,183
E1196BK/S-M,1,5055939948867       ,183
E1205BK/L-XL,2,5055939951812       ,183
E1205BK/S-M,2,5055939951805       ,183
E1205GK/L-XL,1,5055939956565       ,183
E1205GK/S-M,1,5055939956558       ,183
E1205PS/L-XL,1,5055939974590       ,183
E1205PS/S-M,1,5055939974583       ,183
E1254BK/L-XL,1,5055939971797       ,183
E1254BK/M-L,1,5055939971780       ,183
E1254BK/S-M,1,5055939971773       ,183
E1256BK/L-XL,1,5055939971858       ,183
E1256BK/M-L,1,5055939971841       ,183
E1256BK/S-M,1,5055939971834       ,183
E1257BK/L-XL,1,5055939971940       ,183
E1257BK/M-L,1,5055939971933       ,183
E1257BK/S-M,1,5055939971926       ,183
E1258BK/4,1,5055939972619       ,183
E1258BK/5,2,5055939972626       ,183
E1258BK/6,2,5055939972633       ,183
E1258BK/7,1,5055939972640       ,183
E1263BK/L-XL,2,5055939977584       ,183
E1263BK/S-M,2,5055939977577       ,183
E1263WH/L-XL,1,5055939978444       ,183
E1263WH/S-M,1,5055939978437       ,183
E1264GK/L-XL,1,5055939977645       ,183
E1264RR/L-XL,1,5055939978420       ,183
E1518GF/M-L,1,5055939948928       ,183
E3168BK/3,1,5055939954165       ,183
E3168BK/5,1,5055939954189       ,183
E3168BK/7,1,5055939954202       ,183
E3169BK/2,1,5055939954219       ,183
E3184BK/4,1,5055939970387       ,183
E3184BK/5,1,5055939970394       ,183
E3184BK/6,1,5055939970400       ,183
E3189BA/3,1,5055939972343       ,183
E3189BA/4,1,5055939972350       ,183
E3189BA/5,1,5055939972367       ,183
E3189BA/6,1,5055939972374       ,183
E3189BK/4,1,5055939972404       ,183
E3189BK/5,1,5055939972411       ,183
E3189BK/6,1,5055939972428       ,183
E3189BK/7,1,5055939972435       ,183
E3190PS/4,1,5055939974309       ,183
E3190PS/5,2,5055939974316       ,183
E3190PS/6,1,5055939974323       ,183
E3192GK/W3,1,5055939978727       ,183
E3192GK/W4,1,5055939978734       ,183
E3193YV/2,1,5055939975825       ,183
E3193YV/3,1,5055939975832       ,183
E3193YV/4,1,5055939975849       ,183
E3193YV/5,1,5055939975856       ,183
E3193YV/6,1,5055939975863       ,183
E3193YV/7,1,5055939975870       ,183
E4055BK/5,1,5055939953083       ,183
E4055BK/6,1,5055939953090       ,183
E4055BK/7,1,5055939953106       ,183
E4070BK/M4,1,5055939979205       ,183
E4070BK/M5,1,5055939979212       ,183
E4070BK/M6,1,5055939979229       ,183
E5049BK/6,2,5055939924557       ,183
E5069BK/3,1,5055939951577       ,183
E5069BK/4,1,5055939951584       ,183
E5069BK/5,1,5055939951591       ,183
E5069GK/3,1,5055939951638       ,183
E5069GK/4,1,5055939951645       ,183
E5069GK/5,1,5055939951652       ,183
E5073YM/4,1,5055939977744       ,183
E5073YM/5,1,5055939977751       ,183
E5073YM/6,1,5055939977768       ,183
E5073YM/7,1,5055939977775       ,183
E6124BK/3,1,5055939933009       ,183
E6124BK/4,1,5055939933016       ,183
E6124BK/5,1,5055939933023       ,183
E6167CC/3,1,5055939972961       ,183
E6169CC/3,1,5055939973210       ,183
E6169CC/4,1,5055939973227       ,183
E6169CC/5,1,5055939973234       ,183
E6170BK/4,1,5055939973326       ,183
E6170BK/5,1,5055939973333       ,183
E6170BK/6,1,5055939973340       ,183
E6170GK/3,1,5055939973364       ,183
E6170GK/4,1,5055939973371       ,183
E6170GK/5,1,5055939973388       ,183
E6172BK/3,1,5055939973722       ,183
E6172BK/4,1,5055939973739       ,183
E6172BK/5,1,5055939973746       ,183
E6187GK/3,1,5055939977539       ,183
E6187GK/4,1,5055939977546       ,183
E6187GK/5,1,5055939977553       ,183
E7117BK/3,1,5055939917016       ,183
E7117BK/4,2,5055939917023       ,183
E7117BK/5,2,5055939917030       ,183
E7117BK/6,1,5055939917047       ,183
E7117BK/7,1,5055939917054       ,183
E7117NA/4,1,5055939955056       ,183
E7131BK/K11,1,5055939949970       ,183
E7131BK/K9,1,5055939949963       ,183
E7132BK/K11,1,5055939949994       ,183
E7132BK/K9,1,5055939949987       ,183
E7145OT/K11,1,5055939978093       ,183
E7145OT/K7,1,5055939978079       ,183
E7145OT/K9,1,5055939978086       ,183
E8064CC/4,1,5055939972237       ,183
E8064CC/5,1,5055939972244       ,183
E8064CC/6,1,5055939972251       ,183
E8064GY/2,1,5055939916200       ,183
E8064GY/3,1,5055939916217       ,183
E8064GY/4,1,5055939916224       ,183
E8064GY/5,2,5055939916231       ,183
E8064GY/6,2,5055939916248       ,183
E8064GY/7,1,5055939916255       ,183
E8064NA/3,1,5055939950891       ,183
E8064NA/4,1,5055939950907       ,183
E8064NA/5,1,5055939950914       ,183
E8064NA/6,1,5055939950921       ,183
E8075BK/7,1,5055939924809       ,183
E8088BK/3,1,5055939943152       ,183
E8088BK/4,1,5055939943169       ,183
E8088BK/5,1,5055939943176       ,183
E8088BK/6,1,5055939943183       ,183
E8088BK/7,1,5055939943190       ,183
E8101CC/4,1,5055939970783       ,183
E8101CC/5,1,5055939970790       ,183
E8101CC/6,1,5055939970806       ,183
E8102BK/7,1,5055939971261       ,183
E9106CG/3,1,5055939974965       ,183
E9106CG/4,1,5055939974972       ,183
E9106CG/5,1,5055939974989       ,183
E9106CG/6,1,5055939974996       ,183
E9106GV/3,1,5055939935300       ,183
E9106GV/4,1,5055939935317       ,183
E9106GV/5,1,5055939935324       ,183
E9106GV/6,1,5055939935331       ,183
E9106GV/7,1,5055939935348       ,183
E9106WH/2,1,5055939936253       ,183
E9106WH/3,1,5055939935355       ,183
E9106WH/4,1,5055939935362       ,183
E9106WH/5,1,5055939935379       ,183
E9108CE/2,1,5055939935546       ,183
E9108CE/3,1,5055939935553       ,183
E9108CE/4,1,5055939935560       ,183
E9108WH/3,1,5055939941967       ,183
E9108WH/4,1,5055939941974       ,183
E9108WH/5,1,5055939941981       ,183
E9108WH/6,1,5055939945736       ,183
E9117CC/4,1,5055939960937       ,183
E9117CC/5,1,5055939960944       ,183
E9117CC/6,1,5055939960951       ,183
E9117YM/4,1,5055939960999       ,183
E9117YM/5,1,5055939961002       ,183
E9117YM/6,1,5055939961019       ,183
E9120YV/4,1,5055939943268       ,183
E9120YV/5,1,5055939943275       ,183
E9120YV/6,1,5055939943282       ,183
E9120YV/7,1,5055939943299       ,183
E9120YV/8,1,5055939983110       ,183
E9134YV/4,1,5055939943367       ,183
E9134YV/5,1,5055939943374       ,183
E9134YV/6,1,5055939943381       ,183
E9134YV/7,1,5055939943398       ,183
E1253WH/L-XL,2,5055939971704       ,187
E1253WH/M-L,2,5055939971698       ,187
E1253WH/S-M,1,5055939971681       ,187
E1255BK/L-XL,1,5055939971827       ,187
E1255BK/M-L,1,5055939971810       ,187
E1255BK/S-M,1,5055939971803       ,187
E3168BK/4,2,5055939954172       ,187
E3168BK/5,1,5055939954189       ,187
E3168BK/6,1,5055939954196       ,187
E3169BK/3,1,5055939954226       ,187
E3169BK/4,1,5055939954233       ,187
E3169BK/5,1,5055939954240       ,187
E3184OT/4,1,5055939970486       ,187
E3184OT/5,1,5055939970493       ,187
E3184OT/6,1,5055939970509       ,187
E3192GK/W5,1,5055939978741       ,187
E3192RR/W4,1,5055939978833       ,187
E3192RR/W5,1,5055939978840       ,187
E3192RR/W6,1,5055939978857       ,187
E3192RR/W7,1,5055939978864       ,187
E7143BC/K11,1,5055939981505       ,187
E7143BC/K7,1,5055939981482       ,187
E7143BC/K9,1,5055939981499       ,187
E8075BK/4,1,5055939924779       ,187
E8075BK/5,1,5055939924786       ,187
E8075BK/6,1,5055939924793       ,187
E0035/5,4,5055205301457       ,192
E0128BK/3,1,5055939904924       ,192
E0128BK/4,2,5055939904931       ,192
E0128BK/5,2,5055939904948       ,192
E1118BK/7,2,5055205390000       ,192
E1145BK/7,1,5055939910659       ,192
E1186BK/5,1,5055939944647       ,192
E1186BK/6,2,5055939944654       ,192
E1186BK/7,1,5055939944661       ,192
E1258YM/4,1,5055939972763       ,205
E1258YM/5,1,5055939972770       ,205
E1258YM/6,1,5055939972787       ,205
E1258YM/7,1,5055939972794       ,205
E6172BK/6,1,5055939973753       ,205
E6172CC/3,1,5055939973821       ,205
E6172CC/4,1,5055939973838       ,205
E6172CC/5,1,5055939973845       ,205
E6172CC/6,1,5055939973852       ,205
E1255BK/L-XL,1,5055939971827       ,206
E1255BK/M-L,2,5055939971810       ,206
E1255BK/S-M,1,5055939971803       ,206
E3168BK/3,1,5055939954165       ,206
E3168BK/4,2,5055939954172       ,206
E3168BK/5,2,5055939954189       ,206
E3168BK/6,2,5055939954196       ,206
E3168BK/7,1,5055939954202       ,206
E3169BK/3,1,5055939954226       ,206
E3169BK/4,2,5055939954233       ,206
E3169BK/5,2,5055939954240       ,206
E3169BK/6,1,5055939954257       ,206
E3189BA/3,1,5055939972343       ,206
E3189BA/4,1,5055939972350       ,206
E3189BA/5,1,5055939972367       ,206
E3189BA/6,1,5055939972374       ,206
E3189BA/7,1,5055939972381       ,206
E3189CC/4,1,5055939972459       ,206
E3189CC/5,1,5055939972466       ,206
E3189CC/7,1,5055939972480       ,206
E3190CG/3,1,5055939974231       ,206
E3191GK/3,1,5055939974415       ,206
E3191GK/4,1,5055939974422       ,206
E3191GK/5,2,5055939974439       ,206
E3191GK/6,1,5055939974446       ,206
E3192GK/W4,1,5055939978734       ,206
E3192GK/W5,1,5055939978741       ,206
E3192GK/W6,1,5055939978758       ,206
E3192GK/W7,1,5055939978765       ,206
E3192RR/W4,1,5055939978833       ,206
E3192RR/W5,1,5055939978840       ,206
E3192RR/W6,1,5055939978857       ,206
E3192RR/W7,1,5055939978864       ,206
E6106BK/3,1,5055939919492       ,206
E6106BK/4,1,5055939919508       ,206
E6106BK/5,1,5055939919515       ,206
E6106BK/6,1,5055939919522       ,206
E6106GK/3,1,5055939973678       ,206
E6106GK/4,1,5055939973685       ,206
E6106GK/5,1,5055939973692       ,206
E6106GK/6,1,5055939973708       ,206
E6187CC/3,1,5055939977485       ,206
E6187CC/4,1,5055939977492       ,206
E6187CC/5,1,5055939977508       ,206
E6187CC/6,1,5055939977515       ,206
E7117BK/3,1,5055939917016       ,206
E7117BK/6,2,5055939917047       ,206
E8064GY/3,1,5055939916217       ,206
E8064GY/4,1,5055939916224       ,206
E8064GY/5,1,5055939916231       ,206
E8064GY/6,1,5055939916248       ,206
E8064GY/7,1,5055939916255       ,206
E9106CG/3,1,5055939974965       ,206
E9106CG/4,1,5055939974972       ,206
E9106CG/5,1,5055939974989       ,206
E9106CG/6,1,5055939974996       ,206
E9106GV/4,1,5055939935317       ,206
E9106GV/5,1,5055939935324       ,206
E3189CC/3,1,5055939972442       ,207
E3189CC/6,1,5055939972473       ,207
E1238BU/L-XL,1,5055939975351       ,212
E1239PS/L-XL,1,5055939975375       ,212
E3185BK/4,1,5055939970530       ,212
E3185BK/5,1,5055939970547       ,212
E3185BK/6,1,5055939970554       ,212
E3188BK/3,1,5055939971070       ,212
E3188BK/4,1,5055939971087       ,212
E3188BK/5,1,5055939971094       ,212
E3188BK/6,1,5055939971100       ,212
E3188BK/7,1,5055939971117       ,212
E3188LG/4,1,5055939971131       ,212
E3188LG/5,1,5055939971148       ,212
E3188LG/6,1,5055939971155       ,212
E5074BU/4,1,5055939975023       ,212
E5074BU/5,1,5055939975030       ,212
E5075PS/4,1,5055939975078       ,212
E5075PS/5,1,5055939975085       ,212
E6124PR/3,1,5055939978680       ,212
E6166CC/3,1,5055939972862       ,212
E6166CC/4,1,5055939972879       ,212
E6166CC/5,1,5055939972886       ,212
E6168CV/2,1,5055939973159       ,212
E6168CV/3,1,5055939973166       ,212
E6168CV/4,1,5055939973173       ,212
E6168CV/5,1,5055939973180       ,212
E6179CV/3,1,5055939978468       ,212
E6179CV/4,1,5055939978475       ,212
E6179CV/5,1,5055939978482       ,212
E7142BA/K11,1,5055939977294       ,212
E7142BA/K7,1,5055939977270       ,212
E7142BA/K9,1,5055939977287       ,212
E7143OT/K11,1,5055939977386       ,212
E7143OT/K7,1,5055939977362       ,212
E8102YM/4,1,5055939971339       ,212
