SKU,Maximum allowed,Barcode/EAN,Days left
E3180GY/4,1,5055939957982       ,13
E7136WH/0,1,5055939948942       ,13
E7140GY/K9,1,5055939960661       ,13
E8100BK/4,1,5055939959146       ,13
E9142GK/4,1,5055939957418       ,13
E9144BV/4,1,5055939957616       ,13
E9145BK/4,1,5055939959092       ,13
E9146MY/3,1,5055939959252       ,13
E9147GF/4,1,5055939959429       ,13
E9147RR/4,1,5055939959528       ,13
E9149BP/3,1,5055939960050       ,13
E9150GK/3,1,5055939960401       ,13
E1170CL/0,1,5055939951331       ,23
E8084CC/4,1,5055939961040       ,37
E9113GK/4,1,5055939957319       ,37
E9117CC/4,1,5055939960937       ,37
E9117YM/4,1,5055939960999       ,37
E1215GF/0,1,5055939957173       ,48
E3133GF/4,1,5055939957135       ,48
E3153GK/4,1,5055939956596       ,48
E3154BV/4,1,5055939956770       ,48
E3154GF/4,1,5055939956831       ,48
E3159GY/4,1,5055939956657       ,48
E3159RR/4,1,5055939956718       ,48
E3176NA/4,1,5055939957012       ,48
E6162BP/3,1,5055939966380       ,48
E6162MY/3,1,5055939956923       ,48
E1166PS/4,1,5055939974859       ,155
E1166RR/4,1,5055939974910       ,155
E1205PS/L-XL,1,5055939974590       ,155
E1235BU/0,1,5055939975313       ,155
E1238BU/L-XL,1,5055939975351       ,155
E1253OT/M-L,1,5055939971759       ,155
E1254BK/M-L,1,5055939971780       ,155
E1255BK/M-L,1,5055939971810       ,155
E1256LG/M-L,1,5055939971872       ,155
E1257BK/M-L,1,5055939971933       ,155
E1258BA/4,1,5055939972565       ,155
E1258BK/4,1,5055939972619       ,155
E1258GF/4,1,5055939972664       ,155
E1258OT/4,1,5055939972718       ,155
E1258YM/4,1,5055939972763       ,155
E1259BK/4,1,5055939975603       ,155
E1259GK/4,1,5055939975665       ,155
E1261CV/0,1,5055939978550       ,155
E1263BK/L-XL,1,5055939977584       ,155
E1263WH/L-XL,1,5055939978444       ,155
E1264GK/L-XL,1,5055939977645       ,155
E1264RR/L-XL,1,5055939978420       ,155
E1265BP/0,1,5055939977669       ,155
E1266BP/0,1,5055939977676       ,155
E1505BA/M-L,1,5055939978147       ,155
E1511BA/M-L,1,5055939971636       ,155
E1518OT/M-L,1,5055939970950       ,155
E1537BK/M-L,1,5055939977072       ,155
E3184OT/4,1,5055939970486       ,155
E3185LG/4,1,5055939978222       ,155
E3186NA/4,1,5055939978277       ,155
E3188BK/4,1,5055939971087       ,155
E3188OT/4,1,5055939978178       ,155
E3189CC/4,1,5055939972459       ,155
E3190CG/4,1,5055939974248       ,155
E3191GK/4,1,5055939974422       ,155
E3192BK/4,1,5055939974699       ,155
E3193YV/4,1,5055939975849       ,155
E4068GY/4,1,5055939975429       ,155
E4069GY/4,1,5055939975542       ,155
E4070BK/M4,1,5055939979205       ,155
E5069PS/4,1,5055939974545       ,155
E5073YM/4,1,5055939977744       ,155
E5074BU/4,1,5055939975023       ,155
E6124PR/3,1,5055939978680       ,155
E6130CC/3,1,5055939973517       ,155
E6166WH/3,1,5055939978574       ,155
E6168GK/3,1,5055939978376       ,155
E6169CC/3,1,5055939973210       ,155
E6172BK/3,1,5055939973722       ,155
E6172BP/3,1,5055939973777       ,155
E6172CC/3,1,5055939973821       ,155
E6173CV/3,1,5055939976068       ,155
E6174WH/3,1,5055939976167       ,155
E6176GY/3,1,5055939976280       ,155
E6177BP/3,1,5055939976389       ,155
E6177CV/3,1,5055939976433       ,155
E6179CV/3,1,5055939978468       ,155
E6184BP/3,1,5055939976877       ,155
E6185CV/3,1,5055939977027       ,155
E6186GY/3,1,5055939976495       ,155
E6187GK/3,1,5055939977539       ,155
E7117RR/4,1,5055939978628       ,155
E7128OT/0,1,5055939977461       ,155
E7136BA/0,1,5055939977393       ,155
E7141OT/K9,1,5055939977256       ,155
E7142BA/K9,1,5055939977287       ,155
E7144BA/K9,1,5055939977416       ,155
E7144OT/K9,1,5055939977447       ,155
E7145BA/K9,1,5055939978116       ,155
E9106CG/4,1,5055939974972       ,155
E9151BK/4,1,5055939975900       ,155
E6167CC/3,1,5055939972961       ,166
E6170CR/3,1,5055939979618       ,166
E6170GK/3,1,5055939973364       ,166
E6171BP/3,1,5055939973616       ,166
E7143OT/K9,1,5055939977379       ,166
E8064CC/4,1,5055939972237       ,166
E8066GC/4,1,5055939972305       ,166
E8101BK/4,1,5055939970738       ,166
E8101CC/4,1,5055939970783       ,166
E8102BK/4,1,5055939971230       ,166
E8102GF/4,1,5055939971285       ,166
E8103BK/S4,1,5055939978987       ,166
E8103OT/4,1,5055939971483       ,166
E8104BA/4,1,5055939972022       ,166
E8104BK/4,1,5055939972077       ,166
E9147BK/4,1,5055939977799       ,166
E3192GK/4,1,5055939974644       ,168
E8067NA/4,1,5055939949307       ,210
E8067NA/5,1,5055939949314       ,210
E8067NA/6,1,5055939949321       ,210
E8067NA/7,1,5055939949338       ,210
