INVOICE,SIN594931
YOUR REF,SS19 - ADDITIONAL
DATE,13/03/2019
VALUE,2147.02


SKU,Qty,Value,Name,Colour,Size
E1160BK/3       ,1,14.30,Hummvee Plus Glove II,Black,S
E1160BK/4       ,1,14.30,Hummvee Plus Glove II,Black,M
E1160BK/5       ,1,14.30,Hummvee Plus Glove II,Black,L
E1160BK/6       ,1,14.30,Hummvee Plus Glove II,Black,XL
E1160BK/7       ,1,14.30,Hummvee Plus Glove II,Black,XXL
E1160KH/3       ,1,14.30,Hummvee Plus Glove II,Khaki,S
E1160KH/4       ,1,14.30,Hummvee Plus Glove II,Khaki,M
E1160KH/5       ,1,14.30,Hummvee Plus Glove II,Khaki,L
E1160RD/3       ,1,14.30,Hummvee Plus Glove II,Red,S
E1160RD/4       ,1,14.30,Hummvee Plus Glove II,Red,M
E1160RD/5       ,1,14.30,Hummvee Plus Glove II,Red,L
E1183BK/4       ,1,21.50,Urban Luminite Overshoe,Black,M
E1183BK/5       ,1,21.50,Urban Luminite Overshoe,Black,L
E1183BK/6       ,1,21.50,Urban Luminite Overshoe,Black,XL
E1183BK/7       ,1,21.50,Urban Luminite Overshoe,Black,XXL
E3125RD/5       ,1,23.90,Hummvee S/S Jersey,Red,L
E3125RD/7       ,1,23.90,Hummvee S/S Jersey,Red,XXL
E3141BV/4       ,1,43.10,Pro SL Lite Jersey II,Hi-Viz Blue,M
E3141BV/5       ,1,43.10,Pro SL Lite Jersey II,Hi-Viz Blue,L
E3142BK/4       ,1,33.50,FS260-Pro S/S Jersey,Black,M
E3142BK/5       ,1,33.50,FS260-Pro S/S Jersey,Black,L
E3142NA/5       ,1,33.50,FS260-Pro S/S Jersey,Navy,L
E3142NA/6       ,1,33.50,FS260-Pro S/S Jersey,Navy,XL
E3168BK/3       ,1,19.10,Engineered Padded Boxer II,Black,S
E3168BK/4       ,2,38.21,Engineered Padded Boxer II,Black,M
E3168BK/5       ,2,38.21,Engineered Padded Boxer II,Black,L
E3168BK/6       ,1,19.10,Engineered Padded Boxer II,Black,XL
E3168BK/7       ,1,19.10,Engineered Padded Boxer II,Black,XXL
E3169BK/2       ,1,19.10,Wms Engineered Padded Boxer,Black,XS
E3169BK/3       ,1,19.10,Wms Engineered Padded Boxer,Black,S
E3169BK/4       ,1,19.10,Wms Engineered Padded Boxer,Black,M
E3169BK/5       ,1,19.10,Wms Engineered Padded Boxer,Black,L
E3169BK/6       ,1,19.10,Wms Engineered Padded Boxer,Black,XL
E3174NA/5       ,1,33.50,Hyperon S/S Jersey II,Navy,L
E3174NA/6       ,1,33.50,Hyperon S/S Jersey II,Navy,XL
E4028BK/4       ,1,33.50,Hyperon II Short,Black,M
E4028BK/5       ,1,33.50,Hyperon II Short,Black,L
E4028BK/6       ,1,33.50,Hyperon II Short,Black,XL
E4029BK/4       ,1,38.30,Hyperon II Bibshort,Black,M
E4029BK/5       ,1,38.30,Hyperon II Bibshort,Black,L
E4029BK/6       ,1,38.30,Hyperon II Bibshort,Black,XL
E4055BK/3       ,1,26.30,Xtract Gel Short II,Black,S
E4055BK/4       ,1,26.30,Xtract Gel Short II,Black,M
E4055BK/5       ,1,26.30,Xtract Gel Short II,Black,L
E4055BK/6       ,1,26.30,Xtract Gel Short II,Black,XL
E4055BK/7       ,1,26.30,Xtract Gel Short II,Black,XXL
E5069GK/5       ,1,43.10,Pro SL S/S Jersey II,Kingfisher,L
E5069GK/6       ,1,43.10,Pro SL S/S Jersey II,Kingfisher,XL
E6106BK/3       ,1,33.50,Women's Hummvee Short II,Black,S
E6106BK/4       ,1,33.50,Women's Hummvee Short II,Black,M
E6106BK/5       ,1,33.50,Women's Hummvee Short II,Black,L
E6108BK/3       ,1,33.50,Women's Hummvee Lite Short II with liner,Black,S
E6108BK/4       ,1,33.50,Women's Hummvee Lite Short II with liner,Black,M
E6108BK/5       ,1,33.50,Women's Hummvee Lite Short II with liner,Black,L
E6108BK/6       ,1,33.50,Women's Hummvee Lite Short II with liner,Black,XL
E6119CO/3       ,1,26.30,Wms SingleTrack Lite Jersey,Cobalt Blue,S
E6119CO/5       ,1,26.30,Wms SingleTrack Lite Jersey,Cobalt Blue,L
E6119MY/4       ,1,26.30,Wms SingleTrack Lite Jersey,Mulberry,M
E6153BK/3       ,1,26.30,Wms Xtract Short,Black,S
E6153BK/4       ,1,26.30,Wms Xtract Short,Black,M
E6153BK/5       ,1,26.30,Wms Xtract Short,Black,L
E6153BK/6       ,1,26.30,Wms Xtract Short,Black,XL
E8064GY/4       ,1,33.50,Hummvee Short II with liner,Grey,M
E8064GY/5       ,1,33.50,Hummvee Short II with liner,Grey,L
E8064NA/5       ,1,33.50,Hummvee Short II with liner,Navy,L
E8065BK/4       ,1,33.50,Hummvee Lite Short II with liner,Black,M
E8065BK/5       ,1,33.50,Hummvee Lite Short II with liner,Black,L
E8065BK/6       ,1,33.50,Hummvee Lite Short II with liner,Black,XL
E8065GY/5       ,1,33.50,Hummvee Lite Short II with liner,Grey,L
E8065GY/6       ,1,33.50,Hummvee Lite Short II with liner,Grey,XL
E8065GY/7       ,1,33.50,Hummvee Lite Short II with liner,Grey,XXL
E9095RD/3       ,1,19.10,Pakagilet II,Red,S
E9095RD/5       ,1,19.10,Pakagilet II,Red,L
E9095RD/6       ,1,19.10,Pakagilet II,Red,XL
E9095YV/4       ,1,19.10,Pakagilet II,Hi-Viz Yellow,M
E9095YV/5       ,1,19.10,Pakagilet II,Hi-Viz Yellow,L
E9095YV/7       ,1,19.10,Pakagilet II,Hi-Viz Yellow,XXL
E9134YV/4       ,1,23.90,Hummvee Gilet,Hi-Viz Yellow,M
E9134YV/5       ,1,23.90,Hummvee Gilet,Hi-Viz Yellow,L
E9134YV/6       ,1,23.90,Hummvee Gilet,Hi-Viz Yellow,XL
