SKU,Maximum allowed,Barcode/EAN,Days left
E1120BK/4,1,5055205390222       ,164
E1120BK/5,1,5055205390239       ,164
E1506BK/M-L,1,5055939920054       ,164
E1506WH/M-L,1,5055939920085       ,164
E1511BK/M-L,1,5055939930138       ,164
E1511KH/M-L,1,5055939950396       ,164
E1511PT/M-L,1,5055939930169       ,164
E3123BK/5,2,5055939915340       ,164
E8081KH/6,1,5055939935034       ,164
E1137BK/0,1,5055939901350       ,208
E1506BK/S-M,1,5055939920047       ,208
E8082KH/3,1,5055939935157       ,208
