INVOICE,SIN619626
YOUR REF,SOR379993
DATE,22/07/2019
VALUE,270.32


SKU,Qty,Value,Name,Colour,Size
E7118BK/5       ,2,84.80,FS260-Pro Short,Black,L
E9075TU/3       ,1,35.92,Wms FS260-Pro Adrenaline Race Cape,Turquoise,S
E4028BK/5       ,2,69.80,Hyperon II Short,Black,L
E4028BK/4       ,2,69.80,Hyperon II Short,Black,M
DEL10           ,1,10.00,Delivery - Euro                    ,,
