SKU,Maximum allowed,Barcode/EAN,Days left
E1038BK/L-XL,1,5055939906706       ,5
E3069BK/5,1,5055939904757       ,5
E3069BK/6,1,5055939904764       ,5
E9073YV/5,1,5055205370521       ,6
E3142RD/7,1,5055939931494       ,10
E7117RD/5,1,5055939917900       ,10
E7117RD/6,2,5055939917917       ,10
E7117RD/7,2,5055939917924       ,10
E1132BK/L-XL,1,5055205398686       ,18
E1132BK/S-M,1,5055205399645       ,18
E1132WH/L-XL,1,5055205398693       ,18
E1132WH/S-M,1,5055205399638       ,18
E1505MB/L-XL,1,5055939904474       ,18
E1505MB/M-L,1,5055939904481       ,18
E1505MB/S-M,1,5055939904498       ,18
E1505OR/M-L,1,5055939904511       ,18
E1505OR/S-M,1,5055939904528       ,18
E1511BK/L-XL,1,5055939930121       ,18
E1511BK/M-L,2,5055939930138       ,18
E1511BK/S-M,1,5055939930145       ,18
E1511PT/M-L,2,5055939930169       ,18
E1511PT/S-M,1,5055939930176       ,18
E4014BK/4,1,5055205333922       ,18
E4014BK/5,2,5055205333939       ,18
E4014BK/6,2,5055205333946       ,18
E4014BK/7,1,5055205333953       ,18
E8081BK/4,1,5055939934969       ,18
E8081BK/5,1,5055939934976       ,18
E8081BK/6,1,5055939934983       ,18
E0098YV/L-XL,1,5055205363349       ,31
E0098YV/S-M,1,5055205359571       ,31
E3139RD/5,2,5055939931050       ,31
E6096BK/4,1,5055939901183       ,32
E1505GY/L-XL,1,5055939930091       ,44
E1505GY/M-L,2,5055939930107       ,44
E1505MB/M-L,2,5055939904481       ,44
E1505MB/S-M,1,5055939904498       ,44
E1505OR/M-L,1,5055939904511       ,44
E4029BK/3,1,5055939900964       ,44
E4029BK/4,1,5055939900971       ,44
E4029BK/5,1,5055939900988       ,44
E0096BK/3,2,5055205352947       ,47
E0096BK/5,2,5055205352954       ,47
E1026BK/3,1,5055205380995       ,47
E1026BK/4,2,5055205381008       ,47
E1026BK/5,1,5055205381015       ,47
E1026BK/7,1,5055205381039       ,47
E1102,6,5055205353814       ,47
E1131BK/L-XL,1,5055205398662       ,47
E1132WH/L-XL,2,5055205398693       ,47
E1132WH/S-M,2,5055205399638       ,47
E1160KH/3,1,5055939928555       ,47
E1160KH/4,2,5055939928562       ,47
E1160KH/5,2,5055939928579       ,47
E1160KH/6,1,5055939928586       ,47
E1160KH/7,1,5055939928593       ,47
E1161BK/4,1,5055939928685       ,47
E1161BK/5,2,5055939928692       ,47
E1161BK/6,2,5055939928708       ,47
E1165BK/3,1,5055939928845       ,47
E1165BK/4,2,5055939928852       ,47
E1165BK/5,2,5055939928869       ,47
E1165BK/6,1,5055939928876       ,47
E1165RD/4,1,5055939929019       ,47
E1165RD/5,2,5055939929026       ,47
E1165RD/6,1,5055939929033       ,47
E1165RD/7,1,5055939929040       ,47
E1166BK/3,1,5055939929064       ,47
E1166BK/4,1,5055939929071       ,47
E1166BK/5,4,5055939929088       ,47
E1166BK/6,1,5055939929095       ,47
E1166BK/7,2,5055939929101       ,47
E1166RD/5,2,5055939929200       ,47
E1166RD/7,1,5055939929224       ,47
E1167BK/5,1,5055939929323       ,47
E1167BK/6,2,5055939929330       ,47
E1167WH/4,2,5055939929439       ,47
E1167WH/6,1,5055939929453       ,47
E3120BK/5,1,5055939917320       ,47
E3132MY/5,1,5055939930602       ,47
E3132NA/4,1,5055939921907       ,47
E6091BK/5,1,5055205399102       ,47
E6125CO/3,1,5055939933085       ,47
E6127WH/3,1,5055939933368       ,47
E6127WH/5,1,5055939933382       ,47
E7117BK/5,1,5055939917030       ,47
E7117BK/6,1,5055939917047       ,47
E7117RD/3,1,5055939917887       ,47
E7117RD/4,2,5055939917894       ,47
E7117RD/5,2,5055939917900       ,47
E7117RD/7,1,5055939917924       ,47
E8064KH/5,1,5055939916071       ,47
E9071RD/6,1,5055205369457       ,47
E9071RD/7,1,5055205369464       ,47
E4031BK/3,1,5055939916965       ,62
E6091BK/3,1,5055205399089       ,62
E6091BK/4,1,5055205399096       ,62
E3139BK/5,1,5055939931005       ,66
E8064BK/3,1,5055939915975       ,66
E3142RD/4,2,5055939931463       ,67
E3142RD/5,2,5055939931470       ,67
E3142RD/6,2,5055939931487       ,67
E1157BK/L-XL,2,5055939928418       ,87
E1157BK/S-M,2,5055939928425       ,87
E1158BK/L-XL,1,5055939928432       ,87
E1505MB/M-L,2,5055939904481       ,92
E1505OR/M-L,2,5055939904511       ,92
E1511PT/M-L,1,5055939930169       ,92
E7117RD/7,1,5055939917924       ,92
E1158BK/S-M,1,5055939928449       ,123
E3132NA/6,1,5055939921921       ,123
E0003/L-XL,2,5055205300122       ,143
E0003/M-L,2,5055205300139       ,143
E0003/S-M,1,5055205300146       ,143
E0004/L-XL,2,5055205300153       ,143
E0004/S-M,2,5055205300160       ,143
E0005/L-XL,2,5055205341781       ,143
E0005/S-M,2,5055205341774       ,143
E0006/3,2,5055205300184       ,143
E0006/5,4,5055205313610       ,143
E0095/4,2,5055205344331       ,143
E0095/5,2,5055205344348       ,143
E0095/6,2,5055205344355       ,143
E0110BK,3,5055205367224       ,143
E0110PK,2,5055205367231       ,143
E0110UM,2,5055205367248       ,143
E0116PK,4,5055205381046       ,143
E0127BK/3,1,5055939904818       ,143
E0127BK/4,2,5055939904825       ,143
E0127BK/5,2,5055939904832       ,143
E0127BK/6,2,5055939904849       ,143
E0127BK/7,1,5055939904856       ,143
E0128BK/3,1,5055939904924       ,143
E0128BK/4,2,5055939904931       ,143
E0128BK/5,2,5055939904948       ,143
E0128BK/6,2,5055939904955       ,143
E0128BK/7,1,5055939904962       ,143
E0150BK/0,2,5055939936925       ,143
E0150NA/0,2,5055939936932       ,143
E0151KH/0,2,5055939936963       ,143
E0151MY/0,2,5055939936956       ,143
E0151PT/0,2,5055939936949       ,143
E1005BK/L-XL,4,5055205359458       ,143
E1005BK/S-M,2,5055205359441       ,143
E1038BK/L-XL,4,5055939906706       ,143
E1038BK/S-M,2,5055939906690       ,143
E1039BK/L-XL,4,5055939906720       ,143
E1039BK/S-M,2,5055939906713       ,143
E1042BK/L-XL,6,5055939923857       ,143
E1042BK/S-M,2,5055939923864       ,143
E1043BK/L-XL,6,5055939923871       ,143
E1043BK/S-M,2,5055939923888       ,143
E1048BK/L-XL,4,5055939928197       ,143
E1048BK/S-M,2,5055939928203       ,143
E1050BK/L-XL,4,5055939928210       ,143
E1050BK/S-M,2,5055939928227       ,143
E1120BK/4,1,5055205390222       ,143
E1120BK/5,2,5055205390239       ,143
E1120BK/6,2,5055205390246       ,143
E1120BK/7,2,5055205390253       ,143
E1146BK/L-XL,4,5055939909721       ,143
E1146BK/S-M,2,5055939909714       ,143
E1182BK/L-XL,4,5055939942629       ,143
E1182BK/S-M,2,5055939942612       ,143
E1185BK/4,1,5055939944531       ,143
E1185BK/5,2,5055939944548       ,143
E1185BK/6,2,5055939944555       ,143
E1185BK/7,2,5055939944562       ,143
E1185GV/4,1,5055939944586       ,143
E1185GV/5,2,5055939944593       ,143
E1185GV/6,2,5055939944609       ,143
E1185GV/7,2,5055939944616       ,143
E1186BK/3,1,5055939944623       ,143
E1186BK/4,2,5055939944630       ,143
E1186BK/5,2,5055939944647       ,143
E1186BK/6,2,5055939944654       ,143
E1186BK/7,1,5055939944661       ,143
E1186GV/3,1,5055939944678       ,143
E1186GV/4,2,5055939944685       ,143
E1186GV/5,2,5055939944692       ,143
E1186GV/6,1,5055939944708       ,143
E1186GV/7,1,5055939944715       ,143
E1187BK/4,1,5055939944777       ,143
E1187BK/5,2,5055939944784       ,143
E1187BK/6,1,5055939944791       ,143
E1187BK/7,1,5055939944807       ,143
E3029/5,2,5055205304243       ,143
E3029/6,2,5055205304250       ,143
E3029/7,1,5055205304267       ,143
E3069BV/4,1,5055939941332       ,143
E3069BV/5,2,5055939941349       ,143
E3069BV/6,1,5055939941356       ,143
E3069BV/7,1,5055939941363       ,143
E3119BK/4,1,5055939924083       ,143
E3119BK/5,1,5055939924090       ,143
E3119BK/6,1,5055939924106       ,143
E3119BK/7,1,5055939924113       ,143
E3119BV/4,1,5055939941288       ,143
E3161BK/7,1,5055939944999       ,143
E5049BK/3,1,5055939924526       ,143
E5049BK/4,1,5055939924533       ,143
E5049BK/5,2,5055939924540       ,143
E5049BK/6,1,5055939924557       ,143
E5049BK/7,1,5055939924564       ,143
E5056BK/3,1,5055939941820       ,143
E5056BK/4,2,5055939941837       ,143
E5056BK/5,2,5055939941844       ,143
E5056BK/6,2,5055939941851       ,143
E5056BK/7,1,5055939941868       ,143
E6032/3,1,5055205307268       ,143
E6032/5,1,5055205307282       ,143
E6032/6,1,5055205340487       ,143
E6040YV/2,1,5055939909738       ,143
E6040YV/3,1,5055939909745       ,143
E6040YV/4,2,5055939909752       ,143
E6040YV/5,1,5055939909769       ,143
E6086BK/2,1,5055205389554       ,143
E6086BK/3,1,5055205389561       ,143
E6086BK/4,1,5055205389578       ,143
E6086BK/5,1,5055205389585       ,143
E6146BK/2,1,5055939942070       ,143
E6146BK/3,1,5055939942087       ,143
E6146BK/4,1,5055939942094       ,143
E6146BK/5,1,5055939942100       ,143
E6147BK/2,1,5055939944722       ,143
E6147BK/3,1,5055939944739       ,143
E6147BK/4,2,5055939944746       ,143
E6147BK/5,1,5055939944753       ,143
E7125BK/4,1,5055939924625       ,143
E7125BK/5,1,5055939924632       ,143
E7125BK/6,1,5055939924649       ,143
E8062BK/2,1,5055205398570       ,143
E8062BK/3,1,5055205398587       ,143
E8062BK/4,1,5055205398594       ,143
E8062BK/5,1,5055205398600       ,143
E8062BK/6,1,5055939902463       ,143
E8087BK/3,1,5055939943107       ,143
E8087BK/4,1,5055939943114       ,143
E8087BK/5,1,5055939943121       ,143
E8087BK/6,1,5055939943138       ,143
E8087BK/7,1,5055939943145       ,143
E9104CO/2,1,5055939925752       ,143
E9104CO/3,1,5055939925769       ,143
E9104CO/4,1,5055939925776       ,143
E9104CO/5,1,5055939925783       ,143
E9114GV/3,1,5055939941677       ,143
E9114GV/4,1,5055939941684       ,143
E9114GV/5,1,5055939941691       ,143
E9114GV/6,1,5055939941707       ,143
E9114GV/7,1,5055939941714       ,143
E9115CO/4,1,5055939941899       ,143
E9115CO/5,1,5055939941905       ,143
E9115CO/6,1,5055939945088       ,143
E9116CE/2,1,5055939941998       ,143
E9116CE/3,1,5055939942001       ,143
E9116CE/4,1,5055939942018       ,143
E9116CE/5,1,5055939942025       ,143
E9116CE/6,1,5055939945101       ,143
E9120KH/4,1,5055939943312       ,143
E9120KH/5,1,5055939943329       ,143
E9120KH/6,1,5055939943336       ,143
E9120KH/7,1,5055939943343       ,143
E9120YV/4,1,5055939943268       ,143
E9120YV/5,1,5055939943275       ,143
E9120YV/6,1,5055939943282       ,143
E9120YV/7,1,5055939943299       ,143
E0128BK/3,1,5055939904924       ,147
E0128BK/4,2,5055939904931       ,147
E0128BK/5,2,5055939904948       ,147
E0128BK/6,2,5055939904955       ,147
E1146BK/L-XL,2,5055939909721       ,147
E3134BK/4,1,5055939924380       ,147
E3134BK/5,2,5055939924397       ,147
E3134BK/6,1,5055939924403       ,147
E3134BK/7,1,5055939924410       ,147
E8070BK/4,1,5055939916729       ,147
E8070BK/5,1,5055939916736       ,147
E8070BK/6,1,5055939916743       ,147
E9098BK/4,1,5055939942889       ,147
E9098BK/5,1,5055939942896       ,147
E9098BK/6,1,5055939942902       ,147
E9098CM/4,1,5055939925165       ,147
E9098CM/5,1,5055939925172       ,147
E9098CM/6,1,5055939925189       ,147
E5056BK/4,1,5055939941837       ,148
E5056BK/5,2,5055939941844       ,148
E5056BK/6,2,5055939941851       ,148
E5056BK/7,1,5055939941868       ,148
E3029/4,1,5055205304236       ,149
E3161BK/5,2,5055939944975       ,149
E3161BK/6,1,5055939944982       ,149
E4041BK/4,1,5055939924489       ,150
E4041BK/5,2,5055939924496       ,150
E4041BK/6,1,5055939924502       ,150
E5049BK/6,1,5055939924557       ,154
E9098BK/5,1,5055939942896       ,154
E9098CM/6,1,5055939925189       ,154
E1043BK/L-XL,3,5055939923871       ,158
E1043BK/S-M,2,5055939923888       ,158
E4031BK/5,1,5055939916989       ,164
E9106WH/6,1,5055939935386       ,164
E3069BV/7,1,5055939941363       ,168
E6032/4,1,5055205307275       ,168
E6147CE/3,1,5055939945477       ,168
E6147CE/4,2,5055939945484       ,168
E9115CO/3,1,5055939941882       ,168
E9113BV/4,1,5055939941189       ,177
E9113BV/5,2,5055939941196       ,177
E9113BV/6,1,5055939941202       ,177
E9113BV/7,1,5055939941219       ,177
E3161BK/4,1,5055939944968       ,191
E9111BK/5,2,5055939935690       ,191
E9111BK/6,1,5055939935706       ,191
E0005/L-XL,2,5055205341781       ,198
E0128BK/5,2,5055939904948       ,198
E5056BK/4,1,5055939941837       ,198
E5056BK/5,1,5055939941844       ,198
E6147CE/2,1,5055939945460       ,204
E6147CE/5,1,5055939945491       ,204
E9122BK/4,1,5055939945378       ,204
E9122BK/5,1,5055939945385       ,204
E9122BK/6,1,5055939945392       ,204
E9122BK/7,1,5055939945408       ,204
