SKU,Maximum allowed,Barcode/EAN,Days left
E6100TU/3,1,5055939905914       ,5
E6100TU/4,1,5055939905921       ,5
E9100MY/4,1,5055939943046       ,5
E9125MY/5,1,5055939944173       ,5
E9099CO/3,1,5055939925318       ,11
E0130BK/3,1,5055939917993       ,48
E1183BK/3,1,5055939944227       ,48
E5066BK/4,1,5055939949253       ,58
E7117BK/4,1,5055939917023       ,58
E3159GY/3,2,5055939956640       ,138
E3159GY/4,4,5055939956657       ,138
E3159GY/5,4,5055939956664       ,138
E3159GY/6,2,5055939956671       ,138
E3159GY/7,2,5055939956688       ,138
E1199RR/4,1,5055939949703       ,139
E1196BK/M-L,2,5055939956510       ,153
E8070GF/5,1,5055939948461       ,158
E1108BK/L-XL,1,5055205387987       ,175
E1196BK/M-L,1,5055939956510       ,175
E1202BK/S-M,1,5055939949901       ,175
E1506BK/M-L,1,5055939920054       ,179
E1511BK/M-L,1,5055939930138       ,179
