INVOICE,SIN609392
YOUR REF,00008955
DATE,24/05/2019
VALUE,46.16


SKU,Qty,Value,Name,Colour,Size
E9100PU/4       ,1,33.72,Women's SingleTrack Jacket II,Purple,M
DEL             ,1,4.75,Delivery -Mainland UK (up to 30kgs),,
