INVOICE,SIN547167
YOUR REF,SOR328929
DATE,6/28/2018
VALUE,620.46


SKU,Qty,Value,Name,Colour,Size
E4014BK/3       ,1,26.90,Xtract Gel Bib Short,Black,S
E4014BK/4       ,2,53.80,Xtract Gel Bib Short,Black,M
E4014BK/5       ,2,53.80,Xtract Gel Bib Short,Black,L
E4014BK/6       ,1,26.90,Xtract Gel Bib Short,Black,XL
E7117BK/4       ,2,83.00,FS260-Pro Bibshort,Black,M
E7117BK/5       ,2,83.00,FS260-Pro Bibshort,Black,L
E9095YV/2       ,1,17.80,Pakagilet II,Hi-Viz Yellow,XS
E9095YV/3       ,1,17.80,Pakagilet II,Hi-Viz Yellow,S
E8062BK/3       ,1,24.40,Wms Xtract Knicker,Black,S
E8062BK/4       ,1,24.40,Wms Xtract Knicker,Black,M
E1165BK/5       ,2,19.40,Xtract Mitt II,Black,L
E1165BK/6       ,2,19.40,Xtract Mitt II,Black,XL
E1165BK/7       ,1,9.70,Xtract Mitt II,Black,XXL
E6069PU/2       ,1,5.81,Wms Xtract Mitt,Purple,XS
E6069PU/4       ,2,11.62,Wms Xtract Mitt,Purple,M
E6069BK/3       ,1,5.81,Wms Xtract Mitt,Black,S
E6069BK/4       ,1,5.81,Wms Xtract Mitt,Black,M
E6069BK/5       ,1,5.81,Wms Xtract Mitt,Black,L
E6091BK/3       ,1,21.90,Wms Xtract Short II,Black,S
