SKU,Maximum allowed,Barcode/EAN,Days left
E1102,8,5055205353814       ,9
E1204GC/4,2,5055939950679       ,9
E1204GC/5,2,5055939950686       ,9
E1204GC/6,2,5055939950693       ,9
E1505GY/M-L,2,5055939930107       ,9
E1505MB/M-L,2,5055939904481       ,9
E1505RD/M-L,1,5055939951270       ,9
E1505WH/M-L,1,5055939904559       ,9
E7128GY/0,5,5055939934426       ,9
E4027BK/4,3,5055205398266       ,16
E4027BK/5,4,5055205398273       ,16
E4027BK/6,4,5055205398280       ,16
E4027BK/7,1,5055205398297       ,16
E0083BK/4,2,5055205341491       ,66
E0083BK/6,2,5055205341514       ,66
E0083BK/7,2,5055205341521       ,66
E0105BK/L-XL,2,5055205359823       ,66
E0105BK/S-M,1,5055205359816       ,66
E1102,10,5055205353814       ,66
E1120BK/4,2,5055205390222       ,66
E1120BK/5,2,5055205390239       ,66
E1120BK/6,2,5055205390246       ,66
E1120BK/7,1,5055205390253       ,66
E1128BK/L-XL,1,5055205398617       ,66
E1128WH/L-XL,1,5055205398624       ,66
E1131BK/L-XL,2,5055205398662       ,66
E1131BK/S-M,1,5055205398679       ,66
E1160BK/4,2,5055939928500       ,66
E1160BK/5,2,5055939928517       ,66
E1160BK/6,2,5055939928524       ,66
E1160BK/7,1,5055939928531       ,66
E1160KH/4,1,5055939928562       ,66
E1160KH/6,1,5055939928586       ,66
E1160KH/7,1,5055939928593       ,66
E1160RD/4,2,5055939928623       ,66
E1160RD/5,2,5055939928630       ,66
E1160RD/6,2,5055939928647       ,66
E1160RD/7,1,5055939928654       ,66
E1161BK/4,1,5055939928685       ,66
E1161BK/5,1,5055939928692       ,66
E1161BK/7,1,5055939928715       ,66
E1161RD/4,1,5055939928746       ,66
E1161RD/5,1,5055939928753       ,66
E1186BK/4,2,5055939944630       ,66
E1186BK/5,2,5055939944647       ,66
E1186BK/6,2,5055939944654       ,66
E1188BK/4,1,5055939944821       ,66
E1188BK/5,1,5055939944838       ,66
E1188BK/6,1,5055939944845       ,66
E1223BK/L-XL,2,5055939958613       ,66
E1223BK/S-M,2,5055939958606       ,66
E1505GY/M-L,2,5055939930107       ,66
E1505MB/M-L,2,5055939904481       ,66
E3072BK/4,3,5055205362151       ,66
E3072BK/5,2,5055205362168       ,66
E3072BK/6,1,5055205362175       ,66
E3109BK/4,1,5055939908960       ,66
E3109BK/5,1,5055939908977       ,66
E3109BK/6,1,5055939908984       ,66
E3161BK/4,2,5055939944968       ,66
E3161BK/5,2,5055939944975       ,66
E3181BK/4,1,5055939958194       ,66
E3181BK/5,1,5055939958200       ,66
E3181BK/6,1,5055939958217       ,66
E3181BK/7,1,5055939958224       ,66
E3181RR/4,1,5055939958293       ,66
E3181RR/5,1,5055939958309       ,66
E3181RR/6,1,5055939958316       ,66
E5056BK/4,2,5055939941837       ,66
E5056BK/6,2,5055939941851       ,66
E7128BK/0,2,5055939934419       ,66
E7128GY/0,2,5055939934426       ,66
E9095BK/4,1,5055939918068       ,66
E9095BK/6,1,5055939918082       ,66
E9095RD/4,1,5055939918181       ,66
E9095RD/5,1,5055939918198       ,66
E9095YV/4,1,5055939918129       ,66
E9095YV/5,1,5055939918136       ,66
E9095YV/6,1,5055939918143       ,66
E9114BK/4,1,5055939941738       ,66
E9114BK/5,1,5055939941745       ,66
E9114BK/6,1,5055939941752       ,66
E9114GV/4,1,5055939941684       ,66
E9114GV/5,1,5055939941691       ,66
E9114GV/6,1,5055939941707       ,66
E9128GY/4,1,5055939943565       ,66
E9128GY/5,1,5055939943572       ,66
E9128GY/6,1,5055939943589       ,66
E0060/4,3,5055205323688       ,71
E0060/5,3,5055205323695       ,71
E0083BK/5,2,5055205341507       ,71
E1160KH/5,1,5055939928579       ,71
E3072BK/3,1,5055205362144       ,71
E3072BK/5,1,5055205362168       ,71
E3072BK/6,2,5055205362175       ,71
E3161BK/6,1,5055939944982       ,71
E9095BK/5,1,5055939918075       ,71
E0153BK/L-XL,1,5055939965970       ,122
E1218BK/L-XL,3,5055939958521       ,122
E1218BK/M-L,3,5055939958514       ,122
E1218BK/S-M,1,5055939958507       ,122
E1219BK/L-XL,3,5055939958545       ,122
E1219BK/S-M,2,5055939958538       ,122
E5066BK/6,1,5055939949277       ,122
E7117BK/4,1,5055939917023       ,122
E7117WH/5,1,5055939917085       ,122
E9095YV/3,2,5055939918112       ,122
