SKU,Maximum allowed,Barcode/EAN,Days left
E8064GY/7,1,5055939916255       ,5
E8064GY/9,1,5055939916279       ,5
E8064GC/5,1,5055939950983       ,35
E8064GC/6,1,5055939950990       ,35
E0035/3,1,5055205301440       ,42
E0035/5,2,5055205301457       ,42
E0060/4,2,5055205323688       ,42
E0060/6,2,5055205323701       ,42
E0062/4,1,5055205323770       ,42
E0062/5,2,5055205323787       ,42
E0062/6,1,5055205323794       ,42
E0083BK/5,1,5055205341507       ,42
E0105BK/L-XL,2,5055205359823       ,42
E0110BK,1,5055205367224       ,42
E0110BP/0,1,5055939959726       ,42
E0110RR/0,1,5055939959719       ,42
E0128BK/4,1,5055939904931       ,42
E0128BK/5,2,5055939904948       ,42
E0128BK/6,2,5055939904955       ,42
E0128BK/7,1,5055939904962       ,42
E0128YV/4,1,5055939909622       ,42
E0128YV/5,2,5055939909639       ,42
E0128YV/6,2,5055939909646       ,42
E0128YV/7,1,5055939909653       ,42
E1038BK/L-XL,4,5055939906706       ,42
E1038BK/S-M,1,5055939906690       ,42
E1039BK/L-XL,2,5055939906720       ,42
E1117BK/4,2,5055205390123       ,42
E1117BK/5,4,5055205390130       ,42
E1117BK/7,1,5055205390154       ,42
E1120BK/7,1,5055205390253       ,42
E1128BK/L-XL,2,5055205398617       ,42
E1145BK/7,2,5055939910659       ,42
E1160BK/5,2,5055939928517       ,42
E1182BK/L-XL,2,5055939942629       ,42
E1183BK/4,1,5055939944234       ,42
E1183BK/5,2,5055939944241       ,42
E1183BK/6,2,5055939944258       ,42
E1184BK/4,1,5055939944432       ,42
E1186BK/6,2,5055939944654       ,42
E1194BU/L-XL,1,5055939946146       ,42
E1227BK/L-XL,3,5055939966311       ,42
E1227BK/S-M,1,5055939959405       ,42
E1227GK/L-XL,3,5055939966328       ,42
E1227GK/S-M,1,5055939960616       ,42
E1227RR/L-XL,2,5055939966335       ,42
E1227RR/S-M,1,5055939960609       ,42
E1234BK/L-XL,3,5055939966823       ,42
E1234BK/S-M,1,5055939966816       ,42
E1234GF/L-XL,3,5055939966847       ,42
E1234GF/S-M,1,5055939966830       ,42
E1234RD/L-XL,2,5055939966861       ,42
E1234RD/S-M,1,5055939966854       ,42
E2010BK/4,1,5055205358086       ,42
E5049BK/5,1,5055939924540       ,42
E5049BK/6,1,5055939924557       ,42
E7117NA/4,1,5055939955056       ,42
E8064GC/7,1,5055939951003       ,42
E8064KH/4,1,5055939916064       ,42
E8064KH/5,1,5055939916071       ,42
E8064NA/5,1,5055939950914       ,42
E8073BK/4,1,5055939924670       ,42
E8073BK/6,1,5055939924694       ,42
E8074BK/6,2,5055939924748       ,42
E8075BK/7,1,5055939924809       ,42
E8076BK/5,1,5055939924830       ,42
E8088BK/4,1,5055939943169       ,42
E8088BK/6,1,5055939943183       ,42
E8088BK/7,1,5055939943190       ,42
E8091BK/6,1,5055939948270       ,42
E8100BK/4,1,5055939959146       ,42
E8100BK/5,1,5055939959153       ,42
E8100BK/6,1,5055939959160       ,42
E9095YV/4,1,5055939918129       ,42
E9106BK/4,1,5055939935263       ,42
E9106BK/5,1,5055939935270       ,42
E9106BV/4,1,5055939941387       ,42
E9106GV/4,1,5055939935317       ,42
E9106GV/6,1,5055939935331       ,42
E9106GV/7,1,5055939935348       ,42
E9108WH/5,1,5055939941981       ,42
E9114BV/5,1,5055939941790       ,42
E9114BV/6,1,5055939941806       ,42
E9114GV/6,1,5055939941707       ,42
E9117BK/6,1,5055939942193       ,42
E9120YV/6,1,5055939943282       ,42
E9120YV/7,1,5055939943299       ,42
E9124NA/6,1,5055939944128       ,42
E9124PW/6,1,5055939944074       ,42
EM0053OM/5,1,5055939925912       ,42
EM0057BK/4,1,5055939925950       ,42
EM0057BK/6,1,5055939925974       ,42
E0151GC/0,2,5055939960715       ,43
E0151GF/0,2,5055939960708       ,43
E0151RR/0,2,5055939960685       ,43
E0154BK/L-XL,2,5055939965987       ,43
E1117BK/6,4,5055205390147       ,43
E1120WH/5,1,5055205390284       ,43
E1120WH/6,1,5055205390291       ,43
E1120WH/7,1,5055205390307       ,43
E1216BK/4,1,5055939958354       ,43
E1216BK/6,1,5055939958378       ,43
E1218BK/L-XL,2,5055939958521       ,43
E1219BK/L-XL,3,5055939958545       ,43
E1223BK/L-XL,2,5055939958613       ,43
E1223BK/S-M,1,5055939958606       ,43
E1224BK/4,1,5055939966274       ,43
E1224BK/5,2,5055939966281       ,43
E1224BK/6,2,5055939966298       ,43
E1224BK/7,1,5055939966304       ,43
E1225BK/L-XL,1,5055939959207       ,43
E1225BK/XL-XXL,1,5055939966564       ,43
E1301BK/5,1,5055205363547       ,43
E1301BK/6,1,5055205363554       ,43
E3123BK/5,1,5055939915340       ,43
E3123BK/6,1,5055939915357       ,43
E3123GF/5,1,5055939948515       ,43
E3123GF/6,1,5055939948522       ,43
E6066BK/3,2,5055205363738       ,43
E8064GC/4,1,5055939950976       ,43
E8075BK/4,1,5055939924779       ,43
E8075BK/5,1,5055939924786       ,43
E8091BK/4,1,5055939948256       ,43
E8091BK/5,1,5055939948263       ,43
E9095YV/5,1,5055939918136       ,43
E9126YV/4,1,5055939943923       ,43
E9126YV/6,1,5055939943947       ,43
E9143BK/4,1,5055939957463       ,43
E9143BK/5,1,5055939957470       ,43
E9145BK/4,1,5055939959092       ,43
E8074BK/5,2,5055939924731       ,48
E3181NA/4,1,5055939958248       ,50
E0083BK/6,1,5055205341514       ,62
E9099CC/3,1,5055939960302       ,62
E9099CC/4,1,5055939960319       ,62
E9099CC/5,1,5055939960326       ,62
E9147GF/4,1,5055939959429       ,62
E9147GF/5,1,5055939959436       ,62
E9147GF/6,1,5055939959443       ,62
E9147NA/4,1,5055939959474       ,62
E9147NA/5,1,5055939959481       ,62
E9147NA/6,1,5055939959498       ,62
E9150CV/3,1,5055939960357       ,62
E9150CV/4,1,5055939960364       ,62
E9150CV/5,1,5055939960371       ,62
E9150GK/3,1,5055939960401       ,62
E9150GK/4,1,5055939960418       ,62
E9150GK/5,1,5055939960425       ,62
E9109BK/5,1,5055939935614       ,65
E3181BK/5,1,5055939958200       ,71
E3181BK/6,1,5055939958217       ,71
E9145BK/5,1,5055939959108       ,71
E9145BK/6,1,5055939959115       ,71
E0035/5,3,5055205301457       ,78
E0060/4,2,5055205323688       ,78
E0062/4,2,5055205323770       ,78
E0063/5,1,5055205323848       ,78
E0098YV/S-M,2,5055205359571       ,78
E0128BK/4,1,5055939904931       ,78
E0128YV/4,1,5055939909622       ,78
E1157BK/L-XL,1,5055939928418       ,78
E1157BK/S-M,1,5055939928425       ,78
E1158BK/L-XL,1,5055939928432       ,78
E8064BK/7,1,5055939916019       ,78
E8064GY/7,1,5055939916255       ,78
E8073BK/4,1,5055939924670       ,78
E8073BK/6,1,5055939924694       ,78
E8075BK/4,1,5055939924779       ,78
E8075BK/7,1,5055939924809       ,78
E9106BK/4,1,5055939935263       ,78
E9106BK/5,1,5055939935270       ,78
E9106GV/4,1,5055939935317       ,78
E9106WH/5,1,5055939935379       ,78
E9106WH/6,1,5055939935386       ,78
E9117OM/5,1,5055939942285       ,84
E0060/7,1,5055205323718       ,91
E8064BC/7,1,5055939936819       ,91
E8064GC/4,1,5055939950976       ,91
