SKU,Name,Color,Size,Qty,Value,
E6149BK/5,Damen MT500 L/S Print T  II LTD,Black,L,2,38.35,
E6149MY/3,Damen MT500 L/S Print T  II LTD,Mulberry,S,1,18.54,
E6149MY/4,Damen MT500 L/S Print T  II LTD,Mulberry,M,1,18.54,
E6149MY/5,Damen MT500 L/S Print T  II LTD,Mulberry,L,1,18.54,
E6149BK/3,Damen MT500 L/S Print T  II LTD,Black,S,1,18.54,
E6149BK/4,Damen MT500 L/S Print T  II LTD,Black,M,1,18.54,
