SKU,Maximum allowed,Barcode/EAN,Days left
E0076BK/3,1,5055205338064       ,5
E0076BK/4,1,5055205338071       ,5
E0076BK/5,1,5055205338088       ,5
E1182BK/S-M,1,5055939942612       ,5
EM0053OM/4,1,5055939925905       ,5
