SKU,Maximum allowed,Barcode/EAN,Days left
E0043GK/0,2,5055939961385       ,73
E0151GC/0,2,5055939960715       ,73
E0151GF/0,2,5055939960708       ,73
E0151RR/0,2,5055939960685       ,73
E1038BK/L-XL,2,5055939906706       ,73
E1038BK/S-M,2,5055939906690       ,73
E1042BK/L-XL,2,5055939923857       ,73
E1120BK/6,1,5055205390246       ,73
E1183BK/6,1,5055939944258       ,73
E1205BK/L-XL,1,5055939951812       ,73
E1205BK/S-M,1,5055939951805       ,73
E1205BV/L-XL,1,5055939951836       ,73
E1205BV/S-M,1,5055939951829       ,73
E1205WH/L-XL,2,5055939956541       ,73
E1205WH/S-M,1,5055939956534       ,73
E1216BK/4,1,5055939958354       ,73
E1216BK/5,1,5055939958361       ,73
E1216BK/6,1,5055939958378       ,73
E1216BK/7,1,5055939958385       ,73
E1218BK/L-XL,2,5055939958521       ,73
E1218BK/M-L,2,5055939958514       ,73
E1218BK/S-M,2,5055939958507       ,73
E1219BK/L-XL,2,5055939958545       ,73
E1219BK/S-M,2,5055939958538       ,73
E1223BK/L-XL,2,5055939958613       ,73
E1223BK/S-M,2,5055939958606       ,73
E1251CL,5,5055939955803       ,73
E3134BK/3,1,5055939924373       ,73
E3134BK/4,1,5055939924380       ,73
E3134BK/5,1,5055939924397       ,73
E3134GV/4,1,5055939924434       ,73
E3134GV/5,1,5055939924441       ,73
E3134GV/6,1,5055939924458       ,73
E3163BK/3,2,5055939945972       ,73
E3163BK/4,1,5055939945989       ,73
E5049BK/5,1,5055939924540       ,73
E5056BK/3,1,5055939941820       ,73
E5056BK/4,2,5055939941837       ,73
E5056BK/5,2,5055939941844       ,73
E7112BK/K11,1,5055205390642       ,73
E7112BK/K9,1,5055205390635       ,73
E9095YV/2,1,5055939918105       ,73
E9095YV/3,1,5055939918112       ,73
E9095YV/4,1,5055939918129       ,73
E9095YV/5,1,5055939918136       ,73
E9095YV/6,1,5055939918143       ,73
E9102RD/5,1,5055939925486       ,73
E9106WH/2,1,5055939936253       ,73
E9106WH/3,1,5055939935355       ,73
E9106WH/4,1,5055939935362       ,73
E9106WH/5,1,5055939935379       ,73
E9106WH/6,1,5055939935386       ,73
E9106WH/7,1,5055939935393       ,73
E9113BK/3,1,5055939941127       ,73
E9148BK/4,1,5055939960005       ,73
E9148BK/5,1,5055939960012       ,73
E7112BK/K7,1,5055205390659       ,167
E9148BK/5,1,5055939960012       ,167
E1205BK/L-XL,1,5055939951812       ,212
E1205BK/S-M,1,5055939951805       ,212
E1205NA/L-XL,1,5055939951850       ,212
E1205NA/S-M,1,5055939951843       ,212
E1234BK/L-XL,2,5055939966823       ,212
E1234BK/S-M,2,5055939966816       ,212
E1234RD/L-XL,2,5055939966861       ,212
E1234RD/S-M,2,5055939966854       ,212
E1259BK/2,1,5055939975580       ,212
E1259BK/3,1,5055939975597       ,212
E1259BK/4,1,5055939975603       ,212
E1259BK/5,1,5055939975610       ,212
E1259BK/6,1,5055939975627       ,212
E3192RR/W3,1,5055939978826       ,212
E3192RR/W4,1,5055939978833       ,212
E3192RR/W5,1,5055939978840       ,212
E3192RR/W6,1,5055939978857       ,212
E3193BK/2,1,5055939975764       ,212
E3193BK/3,1,5055939975771       ,212
E3193BK/4,1,5055939975788       ,212
E3193BK/5,1,5055939975795       ,212
E3193BK/6,1,5055939975801       ,212
E4054BK/3,1,5055939953168       ,212
E4070BK/M6,1,5055939979229       ,212
E5069BK/3,1,5055939951577       ,212
E5069BK/4,1,5055939951584       ,212
E5069BK/5,1,5055939951591       ,212
E5069BK/6,1,5055939951607       ,212
