INVOICE,SIN562141
YOUR REF,SOR340421
DATE,26/09/2018
VALUE,275.5


SKU,Qty,Value,Name,Colour,Size
E9076GV/4       ,1,43.80,Luminite DL Jacket,Hi-Viz Green,M
E9076GV/5       ,1,43.80,Luminite DL Jacket,Hi-Viz Green,L
E9068PV/3       ,1,34.23,Women's Luminite II Jacket,Hi-Viz Pink,S
E0068Y/4        ,1,19.40,Luminite Glove,Yellow,M
E0068Y/5        ,1,19.40,Luminite Glove,Yellow,L
E9058BK/5       ,1,12.75,Wms Pakajak,Black,L
E9100CR/5       ,1,56.20,Women's SingleTrack Jacket II,Coral,L
