SKU,Maximum allowed,Barcode/EAN,Days left
E9117BA/7,1,5055939942254       ,2
E6078BK/4,3,5055205386676       ,22
E8070BK/3,4,5055939916712       ,22
E3157BK/3,2,5055939941424       ,53
E3157BK/4,5,5055939941431       ,53
E3157BK/5,3,5055939941448       ,53
E3157BK/6,3,5055939941455       ,53
E3157BK/7,1,5055939941462       ,53
E8070GF/4,1,5055939948454       ,53
E9099CO/2,1,5055939925301       ,53
E9099CO/4,3,5055939925325       ,53
E9099CO/5,2,5055939925332       ,53
E9106BK/4,2,5055939935263       ,53
E9106BK/5,3,5055939935270       ,53
E9106BK/6,2,5055939935287       ,53
E9106BV/3,2,5055939941370       ,53
E9106BV/5,2,5055939941394       ,53
E9106GV/4,2,5055939935317       ,53
E9106GV/5,2,5055939935324       ,53
E9106GV/6,3,5055939935331       ,53
E9106WH/3,10,5055939935355       ,53
E9106WH/4,12,5055939935362       ,53
E9106WH/5,6,5055939935379       ,53
E9106WH/6,4,5055939935386       ,53
E9117OM/5,1,5055939942285       ,53
E8070GF/4,1,5055939948454       ,71
E9099BK/4,2,5055939942858       ,71
E9117OM/5,1,5055939942285       ,71
E8084BK/4,3,5055939942377       ,80
E8084BK/5,5,5055939942384       ,80
E9117OM/4,2,5055939942278       ,80
E9117OM/7,1,5055939942308       ,80
E3157BK/4,3,5055939941431       ,91
E3157BK/5,5,5055939941448       ,91
E3157BK/6,2,5055939941455       ,91
E3157BK/7,1,5055939941462       ,91
E8084BK/3,1,5055939942360       ,91
E8084BK/7,1,5055939942407       ,91
E9099CO/2,2,5055939925301       ,91
E9099CO/3,1,5055939925318       ,91
E9099CO/5,2,5055939925332       ,91
E9106BK/7,2,5055939935294       ,91
E9106GV/7,1,5055939935348       ,91
E9106WH/4,2,5055939935362       ,91
E9106WH/5,8,5055939935379       ,91
E9106WH/6,6,5055939935386       ,91
E9117OM/4,1,5055939942278       ,91
E3157BK/3,1,5055939941424       ,92
E9117OM/4,1,5055939942278       ,92
E9117OM/5,1,5055939942285       ,92
E9117BK/4,1,5055939942179       ,105
E9117BK/5,1,5055939942186       ,105
E9117BK/3,1,5055939942162       ,109
E9117GF/5,1,5055939948164       ,109
E9117OM/6,1,5055939942292       ,109
E1165OC/4,4,5055939928951       ,112
E1165OC/5,2,5055939928968       ,112
E1165OC/6,4,5055939928975       ,112
E3157BK/4,3,5055939941431       ,112
E5067NA/4,3,5055939950778       ,112
E5067NA/5,3,5055939950785       ,112
E5067NA/6,4,5055939950792       ,112
E9099CO/5,1,5055939925332       ,112
E9106WH/4,2,5055939935362       ,112
E9106WH/5,2,5055939935379       ,112
E9106WH/6,2,5055939935386       ,112
E9117OM/6,1,5055939942292       ,112
E8084BK/4,6,5055939942377       ,123
E8084BK/5,2,5055939942384       ,123
E9117CC/6,1,5055939960951       ,123
E3157BK/3,12,5055939941424       ,140
E3157BK/4,15,5055939941431       ,140
E3157BK/5,18,5055939941448       ,140
E3157BK/6,8,5055939941455       ,140
E3157BK/7,2,5055939941462       ,140
E8070BK/4,1,5055939916729       ,140
E8101BK/3,14,5055939970721       ,140
E8101BK/4,34,5055939970738       ,140
E8101BK/5,34,5055939970745       ,140
E8101BK/6,16,5055939970752       ,140
E8101BK/7,12,5055939970769       ,140
E9099CO/3,8,5055939925318       ,140
E9106BK/3,4,5055939935256       ,140
E9106BK/4,8,5055939935263       ,140
E9106BK/5,8,5055939935270       ,140
E9106BK/6,8,5055939935287       ,140
E9106BK/7,4,5055939935294       ,140
E9106GV/2,12,5055939936246       ,140
E9106GV/3,18,5055939935300       ,140
E9106GV/4,55,5055939935317       ,140
E9106GV/5,55,5055939935324       ,140
E9106GV/6,35,5055939935331       ,140
E9106GV/7,15,5055939935348       ,140
E9108WH/2,6,5055939941950       ,140
E9108WH/3,20,5055939941967       ,140
E9108WH/4,20,5055939941974       ,140
E3157BK/3,2,5055939941424       ,155
