SKU,Maximum allowed,Barcode/EAN,Days left
E1505RD/M-L,4,5055939951270       ,9
E1505RD/S-M,2,5055939951263       ,9
E1506BK/L-XL,2,5055939920061       ,9
E1506BK/M-L,2,5055939920054       ,9
E1506BK/S-M,2,5055939920047       ,9
E1506GF/L-XL,2,5055939948973       ,9
E1506GF/M-L,4,5055939948966       ,9
E1506GF/S-M,2,5055939948959       ,9
E1506NA/M-L,2,5055939922843       ,9
E1506WH/L-XL,2,5055939920092       ,9
E1506WH/M-L,4,5055939920085       ,9
E1506WH/S-M,2,5055939920078       ,9
E3157BK/5,1,5055939941448       ,146
E8085AN/5,1,5055939956206       ,146
E1518BK/M-L,1,5055939948898       ,175
