SKU,Maximum allowed,Barcode/EAN,Days left
E1221BK/L-XL,1,5055939958583       ,5
E8064GY/5,1,5055939916231       ,9
E5067NA/4,1,5055939950778       ,32
E1218BK/L-XL,2,5055939958521       ,59
E1218BK/M-L,2,5055939958514       ,59
E1218BK/S-M,2,5055939958507       ,59
E1219BK/L-XL,2,5055939958545       ,59
E1219BK/S-M,2,5055939958538       ,59
E1220BK/L-XL,1,5055939958569       ,59
E1220BK/S-M,1,5055939958552       ,59
E1223BK/L-XL,2,5055939958613       ,59
E1223BK/S-M,2,5055939958606       ,59
E3158BK/4,1,5055939942421       ,59
E3168BK/4,1,5055939954172       ,59
E3168BK/5,1,5055939954189       ,59
E3168BK/6,1,5055939954196       ,59
E6146BK/3,1,5055939942087       ,59
E6146BK/4,1,5055939942094       ,59
E6146BK/5,1,5055939942100       ,59
E6164RR/3,1,5055939958927       ,59
E6164RR/4,1,5055939958934       ,59
E6164RR/5,1,5055939958941       ,59
E8074BK/4,1,5055939924724       ,59
E8074BK/5,1,5055939924731       ,59
E8074BK/6,1,5055939924748       ,59
E8100BK/4,1,5055939959146       ,59
E8100BK/5,1,5055939959153       ,59
E9117YM/4,1,5055939960999       ,59
E9117YM/5,1,5055939961002       ,59
E9144BV/3,1,5055939957609       ,59
E9144BV/4,1,5055939957616       ,59
E9144BV/6,1,5055939957630       ,59
E9145BK/4,1,5055939959092       ,59
E9145BK/5,1,5055939959108       ,59
E9145BK/6,1,5055939959115       ,59
E9147NA/4,1,5055939959474       ,59
E9147NA/5,1,5055939959481       ,59
E9147NA/6,1,5055939959498       ,59
E9149CV/3,1,5055939960104       ,59
E9149CV/4,1,5055939960111       ,59
E9149CV/5,1,5055939960128       ,59
E1131BK/L-XL,4,5055205398662       ,61
E1131BK/S-M,4,5055205398679       ,61
E1225BK/L-XL,2,5055939959207       ,61
E1225BK/XL-XXL,2,5055939966564       ,61
E1234BK/L-XL,2,5055939966823       ,61
E1234BK/S-M,2,5055939966816       ,61
E3158BK/5,1,5055939942438       ,61
E3158BK/6,1,5055939942445       ,61
E3169BK/3,1,5055939954226       ,61
E3169BK/4,1,5055939954233       ,61
E3169BK/5,1,5055939954240       ,61
E3169BK/6,1,5055939954257       ,61
E8074BK/7,1,5055939924755       ,61
E9148BK/3,1,5055939959993       ,61
E9148BK/4,1,5055939960005       ,61
E9148BK/5,1,5055939960012       ,61
E9148BK/6,1,5055939960029       ,61
E9144BV/5,1,5055939957623       ,95
E5049BK/6,1,5055939924557       ,176
E5049BK/7,1,5055939924564       ,176
E9145YM/6,1,5055939961156       ,176
E1048BK/L-XL,2,5055939928197       ,198
E1048BK/S-M,2,5055939928203       ,198
E1050BK/L-XL,2,5055939928210       ,198
E1050BK/S-M,2,5055939928227       ,198
E1263BK/L-XL,2,5055939977584       ,198
E1263BK/S-M,2,5055939977577       ,198
E3168BK/3,2,5055939954165       ,198
E3168BK/4,2,5055939954172       ,198
E3168BK/5,2,5055939954189       ,198
E3168BK/6,2,5055939954196       ,198
E3168BK/7,1,5055939954202       ,198
E3169BK/2,1,5055939954219       ,198
E3169BK/3,2,5055939954226       ,198
E3169BK/4,2,5055939954233       ,198
E3169BK/6,1,5055939954257       ,198
E3189BA/3,1,5055939972343       ,198
E3189BA/4,2,5055939972350       ,198
E3189BA/5,2,5055939972367       ,198
E3189BA/6,1,5055939972374       ,198
E3190CG/4,1,5055939974248       ,198
E3190CG/5,1,5055939974255       ,198
E3190CG/6,1,5055939974262       ,198
E3193YV/4,1,5055939975849       ,198
E3193YV/5,1,5055939975856       ,198
E3193YV/6,1,5055939975863       ,198
E3193YV/7,1,5055939975870       ,198
E4055BK/4,1,5055939953076       ,198
E4055BK/5,1,5055939953083       ,198
E4055BK/6,1,5055939953090       ,198
E6153BK/3,1,5055939953281       ,198
E6153BK/4,1,5055939953298       ,198
E6153BK/6,1,5055939953311       ,198
E6170GK/4,1,5055939973371       ,198
E6170GK/5,1,5055939973388       ,198
E6170GK/6,1,5055939973395       ,198
E6184BP/3,1,5055939976877       ,198
E6184BP/4,1,5055939976884       ,198
E6184BP/5,1,5055939976891       ,198
E6184BP/6,1,5055939976907       ,198
E6185BP/3,1,5055939976976       ,198
E6185BP/4,1,5055939976983       ,198
E6185BP/5,1,5055939976990       ,198
E6185BP/6,1,5055939977003       ,198
E6187GK/3,1,5055939977539       ,198
E7117BK/3,1,5055939917016       ,198
E7117BK/4,1,5055939917023       ,198
E7117BK/5,1,5055939917030       ,198
E8064BK/3,1,5055939915975       ,198
E8064BK/4,1,5055939915982       ,198
E8064BK/5,1,5055939915999       ,198
E8064BK/6,1,5055939916002       ,198
E8064BK/7,1,5055939916019       ,198
E8064BK/8,1,5055939916026       ,198
E8074BK/4,1,5055939924724       ,198
E8074BK/5,1,5055939924731       ,198
E9117OM/3,1,5055939942261       ,198
E9117OM/4,2,5055939942278       ,198
E9150GK/3,1,5055939960401       ,198
E9150GK/4,1,5055939960418       ,198
E9150GK/5,1,5055939960425       ,198
E9150GK/6,1,5055939960432       ,198
E9151YV/4,1,5055939975962       ,198
E9151YV/5,1,5055939975979       ,198
E9151YV/6,1,5055939975986       ,198
E9151YV/7,1,5055939975993       ,198
E3168BK/6,1,5055939954196       ,209
E3169BK/5,2,5055939954240       ,209
E3185LG/4,1,5055939978222       ,209
E3185LG/5,1,5055939978239       ,209
E3185LG/6,1,5055939978246       ,209
E6166CC/4,1,5055939972879       ,209
E6187GK/4,1,5055939977546       ,209
E6187GK/5,1,5055939977553       ,209
E6187GK/6,1,5055939977560       ,209
