E0132NA/6,1
E6132BK/5,1
E8064GY/4,2
E8064GY/6,1
E7117BK/4,2
E1166BK/6,1
E6126BK/3,1
E6126BK/4,1
E6126CO/4,1
E6126CO/5,1
E1165BK/6,2
E1165BK/7,1
E1165RD/6,1
E8064GY/3,1
E8064GC/6,2
E8064GC/7,1
E8098BK/4,2
E5073RR/4,2
E5073BA/4,2
E8067PW/3,1
E8067PW/4,2
E1205NA/L-XL,2
E1166NA/4,2
E1166NA/5,2
E1166NA/6,1
E3168BK/4,2
E3168BK/5,2
E4055BK/5,2
E4055BK/6,1
