SKU,Maximum allowed,Barcode/EAN,Days left
E0132MB/3,1,5055939922010       ,3
E0132MB/4,1,5055939922027       ,3
E0132MB/5,1,5055939922034       ,3
E0132MB/7,1,5055939922058       ,3
E0150BK/0,3,5055939936925       ,3
E0150NA/0,3,5055939936932       ,3
E1048BK/L-XL,4,5055939928197       ,3
E1102,10,5055205353814       ,3
E1166BK/4,1,5055939929071       ,3
E1166BK/5,1,5055939929088       ,3
E1166BK/7,1,5055939929101       ,3
E1170BK/0,1,5055939929828       ,3
E1170GY/0,2,5055939929835       ,3
E1170YV/0,2,5055939929842       ,3
E1171BK/0,1,5055939929859       ,3
E1171WH/0,1,5055939929866       ,3
E1174BK/0,1,5055939929972       ,3
E1174GY/0,1,5055939929989       ,3
E1174PT/0,1,5055939929996       ,3
E1183BK/5,2,5055939944241       ,3
E1204GC/4,1,5055939950679       ,3
E1204GC/5,1,5055939950686       ,3
E1506GF/M-L,1,5055939948966       ,3
E1506GF/S-M,1,5055939948959       ,3
E1506WH/M-L,1,5055939920085       ,3
E1506WH/S-M,1,5055939920078       ,3
E1511BK/L-XL,1,5055939930121       ,3
E1511BK/M-L,1,5055939930138       ,3
E1511BK/S-M,1,5055939930145       ,3
E1511KH/M-L,1,5055939950396       ,3
E1511KH/S-M,1,5055939950389       ,3
E1511PT/M-L,1,5055939930169       ,3
E1511PT/S-M,1,5055939930176       ,3
E1512BK/M-L,1,5055939930220       ,3
E1512BK/S-M,1,5055939930237       ,3
E1513BK/L-XL,1,5055939930275       ,3
E1513BK/M-L,1,5055939930282       ,3
E1513BK/S-M,1,5055939930299       ,3
E1513WH/M-L,1,5055939930343       ,3
E1513WH/S-M,1,5055939930350       ,3
E3061W/3,1,5055205342467       ,3
E3061W/4,2,5055205342474       ,3
E3061W/5,2,5055205342481       ,3
E3061W/6,2,5055205342498       ,3
E3061W/7,1,5055205342504       ,3
E3109OC/3,1,5055939909103       ,3
E3109OC/4,1,5055939909110       ,3
E3109OC/5,1,5055939909127       ,3
E3109OC/6,1,5055939909134       ,3
E3109OC/7,1,5055939909141       ,3
E3109YV/4,1,5055939909011       ,3
E3109YV/5,1,5055939909028       ,3
E3109YV/6,1,5055939909035       ,3
E3123BK/4,1,5055939915333       ,3
E3123BK/5,1,5055939915340       ,3
E3123BK/6,1,5055939915357       ,3
E3173GF/3,1,5055939949642       ,3
E3173GF/4,1,5055939949659       ,3
E3173GF/5,1,5055939949666       ,3
E3173GF/6,1,5055939949673       ,3
E3173GF/7,1,5055939949680       ,3
E5069GK/3,1,5055939951638       ,3
E5069GK/4,1,5055939951645       ,3
E5069GK/5,1,5055939951652       ,3
E5069GK/6,1,5055939951669       ,3
E6104CE/2,1,5055939915692       ,3
E6104CE/3,1,5055939915708       ,3
E6104CE/4,1,5055939915715       ,3
E6104CE/5,1,5055939915722       ,3
E6110BK/2,1,5055939914664       ,3
E6110BK/3,1,5055939914671       ,3
E6110BK/4,1,5055939914688       ,3
E6110BK/5,1,5055939914695       ,3
E6110CO/3,1,5055939919768       ,3
E6110CO/4,1,5055939919775       ,3
E6110CO/5,1,5055939919782       ,3
E6132BK/1,1,5055939936307       ,3
E6132BK/2,1,5055939933719       ,3
E6132BK/3,1,5055939933726       ,3
E6132BK/4,1,5055939933733       ,3
E6132BK/5,1,5055939933740       ,3
E6132BK/6,1,5055939936314       ,3
E6151GK/2,1,5055939950280       ,3
E6151GK/3,1,5055939950297       ,3
E6151GK/4,1,5055939950303       ,3
E6151GK/5,1,5055939950310       ,3
E7110BK/K11,1,5055205387895       ,3
E7110BK/K7,2,5055205387871       ,3
E7110BK/K9,1,5055205387888       ,3
E7117NA/4,1,5055939955056       ,3
E7117NA/5,1,5055939955063       ,3
E7117NA/6,1,5055939955070       ,3
E7118BK/3,1,5055939914879       ,3
E7118BK/4,1,5055939914886       ,3
E7118BK/5,1,5055939914893       ,3
E7118BK/6,1,5055939914909       ,3
E7118BK/7,1,5055939914916       ,3
E7123PU/K11,1,5055939919980       ,3
E7123PU/K7,1,5055939919997       ,3
E7123PU/K9,1,5055939920009       ,3
E7123RD/K11,1,5055939919959       ,3
E7123RD/K7,1,5055939919966       ,3
E7123RD/K9,1,5055939919973       ,3
E7127BK/3,1,5055939934358       ,3
E7127BK/4,1,5055939934365       ,3
E7127BK/5,1,5055939934372       ,3
E7127RD/3,1,5055939934389       ,3
E7127RD/4,1,5055939934396       ,3
E7127RD/5,1,5055939934402       ,3
E7128GY/0,5,5055939934426       ,3
E7128KH/0,5,5055939951324       ,3
E8064BC/6,1,5055939936802       ,3
E8064GY/3,1,5055939916217       ,3
E8064GY/4,1,5055939916224       ,3
E8064GY/5,1,5055939916231       ,3
E8064GY/6,1,5055939916248       ,3
E8064GY/7,1,5055939916255       ,3
E8064GY/8,1,5055939916262       ,3
E8070GF/3,1,5055939948447       ,3
E8070GF/4,1,5055939948454       ,3
E8070GF/5,1,5055939948461       ,3
E8070GF/6,1,5055939948478       ,3
E8070GF/7,1,5055939948485       ,3
E8098BK/2,1,5055939953335       ,3
E8098BK/3,1,5055939953342       ,3
E8098BK/4,1,5055939953359       ,3
E8098BK/5,1,5055939953366       ,3
E8098BK/6,1,5055939953373       ,3
E9095YV/3,1,5055939918112       ,3
E9095YV/4,1,5055939918129       ,3
E9095YV/5,1,5055939918136       ,3
E9095YV/6,1,5055939918143       ,3
E9099BK/3,1,5055939942841       ,3
E9099BK/4,1,5055939942858       ,3
E9099BK/5,1,5055939942865       ,3
E9106BK/3,1,5055939935256       ,3
E9106BK/4,1,5055939935263       ,3
E9106BK/5,1,5055939935270       ,3
E9106BK/6,1,5055939935287       ,3
E9106BK/7,1,5055939935294       ,3
E9106BV/4,1,5055939941387       ,3
E9106BV/5,1,5055939941394       ,3
E9106BV/6,1,5055939941400       ,3
E9107BK/3,1,5055939935409       ,3
E9107BK/4,2,5055939935416       ,3
E9107BK/5,2,5055939935423       ,3
E9107BK/6,1,5055939935430       ,3
E9107BK/7,1,5055939935447       ,3
E9108BK/3,1,5055939935515       ,3
E9108BK/4,1,5055939935522       ,3
E9108BK/5,1,5055939935539       ,3
E9108BK/6,1,5055939938271       ,3
E9108CE/2,1,5055939935546       ,3
E9108CE/3,1,5055939935553       ,3
E9108CE/4,1,5055939935560       ,3
E9108CE/5,1,5055939935577       ,3
E9109BK/2,1,5055939935584       ,3
E9109BK/3,1,5055939935591       ,3
E9109BK/4,1,5055939935607       ,3
E9113BV/4,1,5055939941189       ,3
E9113BV/5,1,5055939941196       ,3
E9113BV/6,1,5055939941202       ,3
EM0058NA/3,1,5055939935829       ,3
EM0058NA/4,1,5055939935836       ,3
EM0058NA/5,1,5055939935843       ,3
EM0058NA/6,1,5055939935850       ,3
EM0058NA/7,1,5055939935867       ,3
E3167WH/L-XL,1,5055939954073       ,4
E3167WH/S-M,1,5055939954066       ,4
E3168BK/3,1,5055939954165       ,4
E3168BK/4,2,5055939954172       ,4
E3168BK/5,2,5055939954189       ,4
E3168BK/6,2,5055939954196       ,4
E3168BK/7,1,5055939954202       ,4
E3169BK/2,1,5055939954219       ,4
E3169BK/3,2,5055939954226       ,4
E3169BK/4,2,5055939954233       ,4
E3169BK/5,2,5055939954240       ,4
E3169BK/6,1,5055939954257       ,4
E3170BK/3,1,5055939954264       ,4
E3170BK/4,1,5055939954271       ,4
E3170BK/5,1,5055939954288       ,4
E3170BK/6,1,5055939954295       ,4
E3170BK/7,1,5055939954301       ,4
E3171BK/2,1,5055939954318       ,4
E3171BK/3,1,5055939954325       ,4
E3171BK/4,1,5055939954332       ,4
E3171BK/5,1,5055939954349       ,4
E8094AN/3,1,5055939949390       ,10
E8094AN/4,1,5055939949406       ,10
E8094AN/5,1,5055939949413       ,10
E8094AN/6,1,5055939949420       ,10
E8094AN/7,1,5055939949437       ,10
E3174NA/3,1,5055939952918       ,15
E3174NA/4,1,5055939952925       ,15
E3174NA/5,1,5055939952932       ,15
E3174NA/6,1,5055939952949       ,15
E3174NA/7,1,5055939952956       ,15
E5067BK/3,1,5055939950716       ,15
E5067BK/4,1,5055939950723       ,15
E5067BK/5,1,5055939950730       ,15
E5067BK/6,1,5055939950747       ,15
E5067BK/7,1,5055939950754       ,15
E5067NA/4,1,5055939950778       ,15
E5067NA/5,1,5055939950785       ,15
E5067NA/6,1,5055939950792       ,15
E6154RD/3,1,5055939953021       ,15
E6154RD/4,1,5055939953038       ,15
E6154RD/5,1,5055939953045       ,15
E6154WH/3,1,5055939952970       ,15
E6154WH/4,1,5055939952987       ,15
E6154WH/5,1,5055939952994       ,15
E8064BC/3,1,5055939936772       ,18
E8064BC/4,1,5055939936789       ,18
E8064BC/5,1,5055939936796       ,18
E8064BC/7,1,5055939936819       ,18
E9117GF/4,1,5055939948157       ,22
E9117GF/5,1,5055939948164       ,22
E9117GF/6,1,5055939948171       ,22
E6146BK/2,1,5055939942070       ,39
E6146BK/3,1,5055939942087       ,39
E6146BK/4,1,5055939942094       ,39
E3163BK/3,2,5055939945972       ,45
E3163BK/4,3,5055939945989       ,45
E3163BK/5,3,5055939945996       ,45
E6154RD/6,1,5055939953052       ,45
E9095YV/6,1,5055939918143       ,48
E9095YV/7,1,5055939918150       ,48
E6154RD/2,1,5055939953014       ,66
E1506BK/M-L,2,5055939920054       ,97
E0073,5,5055205338118       ,107
E1166BK/6,1,5055939929095       ,107
E1166WH/3,2,5055939929248       ,107
E1183BK/4,2,5055939944234       ,107
E1513BK/M-L,2,5055939930282       ,107
E3061W/3,1,5055205342467       ,107
E3061W/5,1,5055205342481       ,107
E3061W/6,1,5055205342498       ,107
E3063W/3,1,5055205343624       ,107
E3063W/4,1,5055205343631       ,107
E3063W/5,1,5055205343648       ,107
E3109YV/3,1,5055939909004       ,107
E3123BK/5,1,5055939915340       ,107
E3167WH/L-XL,1,5055939954073       ,107
E3167WH/S-M,1,5055939954066       ,107
E3170BK/4,1,5055939954271       ,107
E3170BK/5,1,5055939954288       ,107
E3170BK/7,1,5055939954301       ,107
E3171BK/3,1,5055939954325       ,107
E3174NA/7,1,5055939952956       ,107
E6154RD/2,1,5055939953014       ,107
E7118BK/3,1,5055939914879       ,107
E7118BK/4,1,5055939914886       ,107
E7118BK/5,1,5055939914893       ,107
E8070GF/4,1,5055939948454       ,107
E8070GF/5,1,5055939948461       ,107
E8094AN/4,1,5055939949406       ,107
E9117GF/4,1,5055939948157       ,107
E9117GF/5,1,5055939948164       ,107
E8070BK/4,1,5055939916729       ,123
E8070GF/4,1,5055939948454       ,123
E7136WH/0,6,5055939948942       ,124
E0063/3,1,5055205323824       ,151
E0063/4,2,5055205323831       ,151
E0063/5,1,5055205323848       ,151
E0132MB/4,1,5055939922027       ,151
E0132MB/5,1,5055939922034       ,151
E0132MB/6,1,5055939922041       ,151
E0132MB/7,1,5055939922058       ,151
E1506GF/L-XL,1,5055939948973       ,151
E1506GF/M-L,1,5055939948966       ,151
E1512BK/L-XL,1,5055939930213       ,151
E1512BK/S-M,1,5055939930237       ,151
E3061W/3,1,5055205342467       ,151
E3061W/6,1,5055205342498       ,151
E3063W/2,1,5055205358031       ,151
E3063W/4,2,5055205343631       ,151
E3063W/5,2,5055205343648       ,151
E3168BK/3,1,5055939954165       ,151
E3168BK/4,2,5055939954172       ,151
E3168BK/5,2,5055939954189       ,151
E3168BK/6,1,5055939954196       ,151
E3168BK/7,2,5055939954202       ,151
E3170BK/3,1,5055939954264       ,151
E3170BK/4,1,5055939954271       ,151
E3171BK/4,2,5055939954332       ,151
E3171BK/5,2,5055939954349       ,151
E3173GF/4,2,5055939949659       ,151
E5067BK/5,1,5055939950730       ,151
E6104CE/4,1,5055939915715       ,151
E6104CO/3,1,5055939918327       ,151
E6104CO/6,1,5055939920948       ,151
E6132BK/2,1,5055939933719       ,151
E6132BK/5,1,5055939933740       ,151
E6132BK/6,1,5055939936314       ,151
E6151GK/3,1,5055939950297       ,151
E6151GK/4,1,5055939950303       ,151
E6151GK/5,1,5055939950310       ,151
E6154RD/4,1,5055939953038       ,151
E6154WH/2,1,5055939952963       ,151
E6154WH/6,1,5055939953007       ,151
E7110BK/K9,1,5055205387888       ,151
E7118BK/5,2,5055939914893       ,151
E8064GY/3,1,5055939916217       ,151
E8064GY/5,1,5055939916231       ,151
E8064GY/7,1,5055939916255       ,151
E8070GF/3,1,5055939948447       ,151
E8070GF/4,2,5055939948454       ,151
E8070GF/5,1,5055939948461       ,151
E8070GF/6,1,5055939948478       ,151
E8094AN/4,1,5055939949406       ,151
E8098BK/3,1,5055939953342       ,151
E8098BK/4,1,5055939953359       ,151
E9108BK/2,1,5055939935508       ,151
E9108BK/3,1,5055939935515       ,151
E9108BK/4,1,5055939935522       ,151
E9108BK/5,1,5055939935539       ,151
E9109BK/4,1,5055939935607       ,151
E9109BK/5,1,5055939935614       ,151
E9109BK/6,1,5055939938332       ,151
EM0054BK/3,1,5055939918723       ,151
EM0054BK/4,1,5055939918730       ,151
EM0054BK/6,1,5055939918754       ,151
EM0054BK/7,1,5055939918761       ,151
EM0058NA/3,1,5055939935829       ,151
E8064GY/8,1,5055939916262       ,164
E1219BK/L-XL,3,5055939958545       ,194
E1219BK/S-M,2,5055939958538       ,194
