SKU,Maximum allowed,Barcode/EAN,Days left
E1134BK/0,1,5055939902470       ,37
E9027BK/4,1,5055205387178       ,37
E9078OB/4,1,5055939924915       ,37
E0060/4,1,5055205323688       ,46
E1154BK/L-XL,1,5055939923949       ,46
E1154BK/M-L,1,5055939923956       ,46
E5049BK/4,1,5055939924533       ,46
E5049BK/5,1,5055939924540       ,46
E0128BK/6,1,5055939904955       ,58
E3115BK/4,1,5055939908533       ,58
