INVOICE,SIN654787
YOUR REF,AW 2019
DATE,08/01/2020
VALUE,48.27


SKU,Qty,Value,Name,Colour,Size
E0130BK/3       ,1,16.09,Adrenaline Shell Glove,Black,S
E0130BK/4       ,1,16.09,Adrenaline Shell Glove,Black,M
E0130BK/5       ,1,16.09,Adrenaline Shell Glove,Black,L
