SKU,Maximum allowed,Barcode/EAN,Days left
E1166BK/5,1,5055939929088       ,23
E1166BK/6,2,5055939929095       ,23
E1166WH/5,1,5055939929262       ,23
E1166WH/6,1,5055939929279       ,23
E4031BK/4,1,5055939916972       ,23
E4033BK/5,1,5055939917610       ,23
E6127BK/5,1,5055939933344       ,23
E6127WH/5,1,5055939933382       ,23
E4030BK/4,1,5055939917481       ,28
E1120BK/5,5,5055205390239       ,35
E1120BK/6,5,5055205390246       ,35
E1120BK/7,2,5055205390253       ,35
E1187BK/3,1,5055939944760       ,35
E1187BK/4,2,5055939944777       ,35
E1187BK/6,2,5055939944791       ,35
E1216BK/3,1,5055939958347       ,35
E1216BK/4,2,5055939958354       ,35
E1216BK/5,2,5055939958361       ,35
E1216BK/6,2,5055939958378       ,35
E3178BK/4,1,5055939957876       ,35
E5049BK/3,1,5055939924526       ,35
E5049BK/4,1,5055939924533       ,35
E6146BK/5,1,5055939942100       ,35
E6164GK/3,1,5055939958873       ,35
E9106BV/3,1,5055939941370       ,35
E9106BV/4,1,5055939941387       ,35
E9108WH/3,1,5055939941967       ,35
E9108WH/4,1,5055939941974       ,35
E9108WH/5,1,5055939941981       ,35
E9113BV/4,1,5055939941189       ,35
E9122BV/4,1,5055939945422       ,35
E9122BV/6,1,5055939945446       ,35
E1187BK/5,2,5055939944784       ,43
E1038BK/L-XL,2,5055939906706       ,50
E1145BK/2,2,5055939908175       ,50
E1145BK/3,1,5055939908182       ,50
E1145BK/5,2,5055939908205       ,50
E1152BK/4,1,5055939923901       ,50
E1152BK/5,1,5055939923918       ,50
E1152BK/6,1,5055939923925       ,50
E1218BK/L-XL,2,5055939958521       ,50
E1218BK/M-L,2,5055939958514       ,50
E1218BK/S-M,1,5055939958507       ,50
E6147BK/3,1,5055939944739       ,50
E7117BK/4,2,5055939917023       ,50
E7118BK/6,1,5055939914909       ,50
E1128BK/L-XL,2,5055205398617       ,63
E1218BK/L-XL,2,5055939958521       ,63
E1219BK/L-XL,2,5055939958545       ,63
E1224BK/2,1,5055939958798       ,63
E1224BK/3,1,5055939958804       ,63
E1224BK/5,2,5055939966281       ,63
E1224BK/6,1,5055939966298       ,63
E7117BK/3,1,5055939917016       ,63
E7117BK/5,1,5055939917030       ,63
E7117BK/7,1,5055939917054       ,63
E9106BK/5,1,5055939935270       ,63
E9106BK/6,1,5055939935287       ,63
E9117GF/5,1,5055939948164       ,63
E1052BK/M-L,1,5055939958033       ,71
E6147BK/5,2,5055939944753       ,71
E9106WH/4,1,5055939935362       ,71
E8074BK/4,1,5055939924724       ,86
E1120BK/5,4,5055205390239       ,97
E1185GV/4,1,5055939944586       ,97
E3178BK/4,1,5055939957876       ,97
E5050BK/4,1,5055939927718       ,97
E5050BK/5,1,5055939927725       ,97
E5050BK/6,1,5055939927732       ,97
E1120BK/5,4,5055205390239       ,104
E1145BK/2,3,5055939908175       ,104
E1145BK/3,3,5055939908182       ,104
E1187BK/5,3,5055939944784       ,104
E1216BK/4,2,5055939958354       ,104
E1216BK/5,1,5055939958361       ,104
E1223BK/L-XL,5,5055939958613       ,104
E1223BK/S-M,3,5055939958606       ,104
E3179BK/5,1,5055939957944       ,104
E9106BK/5,1,5055939935270       ,104
E1220BK/L-XL,3,5055939958569       ,115
E1224BK/3,1,5055939958804       ,115
E1224BK/4,1,5055939966274       ,115
E1224BK/5,2,5055939966281       ,115
E1224BK/6,2,5055939966298       ,115
E6110BK/3,1,5055939914671       ,115
E9106BK/4,3,5055939935263       ,115
E5049BK/4,1,5055939924533       ,126
E0035/3,2,5055205301440       ,132
E1038BK/L-XL,1,5055939906706       ,132
E1038BK/S-M,1,5055939906690       ,132
E3154BV/3,1,5055939956763       ,132
E6147BK/2,1,5055939944722       ,132
E6147BK/4,1,5055939944746       ,132
E1145BK/6,1,5055939908212       ,154
E1187BK/3,2,5055939944760       ,154
E1226BK/0,1,5055939959399       ,154
E6147BK/2,1,5055939944722       ,154
E6147BK/4,2,5055939944746       ,154
E3140OC/3,1,5055939931135       ,188
E6164GK/3,1,5055939958873       ,188
E1138BK/0,2,5055939901367       ,204
E1166BK/2,1,5055939929057       ,204
E1166BK/3,1,5055939929064       ,204
E1166BK/4,2,5055939929071       ,204
E1166BK/5,4,5055939929088       ,204
E1166BK/6,4,5055939929095       ,204
E1166BK/7,1,5055939929101       ,204
E3061W/3,1,5055205342467       ,204
E3061W/4,1,5055205342474       ,204
E3061W/5,1,5055205342481       ,204
E3061W/6,1,5055205342498       ,204
E3192BK/W5,1,5055939978796       ,204
E3192BK/W6,1,5055939978802       ,204
E3192BK/W7,1,5055939978819       ,204
E3192GK/3,1,5055939974637       ,204
E3192GK/4,1,5055939974644       ,204
E3192GK/5,1,5055939974651       ,204
E4070BK/M4,1,5055939979205       ,204
E4070BK/M5,1,5055939979212       ,204
E6132BK/3,1,5055939933726       ,204
E6132BK/4,1,5055939933733       ,204
E6174WH/3,1,5055939976167       ,204
E6174WH/4,1,5055939976174       ,204
E6174WH/5,1,5055939976181       ,204
