SKU,Maximum allowed,Barcode/EAN,Days left
E1048BK/L-XL,1,5055939928197       ,4
E1048BK/S-M,1,5055939928203       ,4
E1050BK/L-XL,1,5055939928210       ,4
E1050BK/S-M,1,5055939928227       ,4
E1125MB/5,1,5055939928258       ,4
E1166BK/5,1,5055939929088       ,4
E1185BK/4,1,5055939944531       ,4
E3070WH/L-XL,1,5055205361178       ,4
E3120BK/5,1,5055939917320       ,4
E3142BK/5,1,5055939931371       ,4
E1030BK/L-XL,1,5055205397979       ,46
E1037BK/L-XL,1,5055939905129       ,46
E1125MB/4,1,5055939928241       ,46
E1146BK/L-XL,1,5055939909721       ,46
E3069BV/4,2,5055939941332       ,46
E0035/5,1,5055205301457       ,104
E0116PK,1,5055205381046       ,104
E3029/4,1,5055205304236       ,104
E3069BK/4,1,5055939904740       ,104
E1118BK/5,1,5055205389981       ,173
E1517WH/M-L,1,5055939953458       ,173
E3029/6,1,5055205304250       ,173
E3069BK/5,2,5055939904757       ,173
E3069BV/7,3,5055939941363       ,173
E3135BV/6,1,5055939941257       ,173
E3142BK/5,1,5055939931371       ,173
E6132BK/3,1,5055939933726       ,173
E8064NA/4,1,5055939950907       ,173
E1102,1,5055205353814       ,203
E3069BV/4,1,5055939941332       ,203
E3108BK/5,1,5055939909301       ,203
E3109OC/6,1,5055939909134       ,203
E3153GK/7,2,5055939956626       ,203
E6132BK/4,1,5055939933733       ,203
