SKU,Maximum allowed,Barcode/EAN,Days left
E0060/5,1,5055205323695       ,144
E0060/6,1,5055205323701       ,144
E3063W/3,1,5055205343624       ,13
E3063W/4,1,5055205343631       ,13
E3063W/5,1,5055205343648       ,13
E3063W/6,1,5055205343655       ,13
E3063W/7,1,5055205343662       ,13
E3123GF/3,1,5055939948492       ,13
E3123GF/4,1,5055939948508       ,13
E3123GF/5,1,5055939948515       ,13
E3123GF/6,1,5055939948522       ,13
E3123KH/4,1,5055939930480       ,13
E3123KH/5,1,5055939930497       ,13
E3123KH/6,1,5055939930503       ,13
E3125BK/3,1,5055939915388       ,13
E3125BK/4,1,5055939915395       ,13
E3125BK/5,1,5055939915401       ,13
E3125BK/6,1,5055939915418       ,13
E3125RD/4,1,5055939919263       ,13
E3125RD/5,1,5055939919270       ,13
E3125RD/6,1,5055939919287       ,13
E3142BK/3,1,5055939931357       ,13
E3142BK/4,1,5055939931364       ,13
E3142BK/5,1,5055939931371       ,13
E3142BK/6,1,5055939931388       ,13
E3142BK/7,1,5055939931395       ,13
E3142NA/4,1,5055939952673       ,13
E3142NA/5,1,5055939952680       ,13
E3142NA/6,1,5055939952697       ,13
E3142RR/5,1,5055939952635       ,13
E3142RR/6,1,5055939952642       ,13
E3158BK/4,1,5055939942421       ,191
E3158BK/5,1,5055939942438       ,191
E3158BK/6,1,5055939942445       ,191
E3158BK/7,1,5055939942452       ,191
E3167WH/L-XL,1,5055939954073       ,13
E3167WH/S-M,1,5055939954066       ,13
E3183BK/3,1,5055939959290       ,191
E3183BK/4,1,5055939959306       ,191
E3183BK/5,1,5055939959313       ,191
E3183BK/6,1,5055939959320       ,191
E3183BK/7,1,5055939959337       ,191
E3183GK/4,1,5055939960456       ,191
E3183GK/5,1,5055939960463       ,191
E3183GK/6,1,5055939960470       ,191
E4054BK/3,1,5055939953168       ,174
E4054BK/4,1,5055939953175       ,13
E4054BK/5,2,5055939953182       ,13
E4054BK/6,2,5055939953199       ,13
E4054BK/7,1,5055939953205       ,174
E4055BK/3,1,5055939953069       ,13
E4055BK/4,2,5055939953076       ,13
E4055BK/5,2,5055939953083       ,13
E4055BK/6,1,5055939953090       ,13
E4055BK/7,1,5055939953106       ,174
E5049BK/3,1,5055939924526       ,191
E5049BK/4,1,5055939924533       ,191
E5049BK/5,1,5055939924540       ,191
E5049BK/6,1,5055939924557       ,191
E5049BK/7,1,5055939924564       ,191
E5066BK/4,1,5055939949253       ,13
E5066BK/5,1,5055939949260       ,13
E5066BK/6,1,5055939949277       ,13
E5067BK/3,1,5055939950716       ,13
E5067BK/4,1,5055939950723       ,13
E5067BK/5,1,5055939950730       ,13
E5067BK/6,1,5055939950747       ,13
E5067BK/7,1,5055939950754       ,145
E5067NA/4,1,5055939950778       ,13
E5067NA/5,1,5055939950785       ,13
E5067NA/6,1,5055939950792       ,13
E6078BK/4,1,5055205386676       ,192
E6078BK/5,1,5055205386683       ,191
E6078BK/6,1,5055939922300       ,206
E6106BK/3,1,5055939919492       ,13
E6106BK/4,1,5055939919508       ,13
E6106BK/5,1,5055939919515       ,13
E6106BK/6,1,5055939919522       ,13
E6124BK/3,3,5055939933009       ,13
E6124BK/4,2,5055939933016       ,13
E6124BK/5,1,5055939933023       ,13
E6146BK/2,1,5055939942070       ,191
E6146BK/3,1,5055939942087       ,191
E6146BK/4,1,5055939942094       ,191
E6146BK/5,1,5055939942100       ,191
E6152CO/3,1,5055939951034       ,13
E6152CO/4,1,5055939951041       ,13
E6152CO/5,1,5055939951058       ,13
E6152CO/6,1,5055939951065       ,13
E6152RD/3,1,5055939951089       ,13
E6152RD/4,1,5055939951096       ,13
E6152RD/5,1,5055939951102       ,13
E6153BK/3,2,5055939953281       ,13
E6153BK/4,2,5055939953298       ,13
E6153BK/5,2,5055939953304       ,13
E6153BK/6,1,5055939953311       ,13
E6154WH/3,1,5055939952970       ,13
E6154WH/4,1,5055939952987       ,13
E6154WH/5,1,5055939952994       ,144
E6165BK/3,1,5055939959351       ,191
E6165BK/4,1,5055939959368       ,191
E6165BK/5,1,5055939959375       ,191
E6165BK/6,1,5055939959382       ,191
E7117BK/3,1,5055939917016       ,174
E7117BK/4,2,5055939917023       ,13
E7117BK/5,2,5055939917030       ,13
E7117BK/6,2,5055939917047       ,13
E7117BK/7,1,5055939917054       ,174
E7117WH/4,2,5055939917078       ,144
E8064BK/3,1,5055939915975       ,174
E8064BK/4,1,5055939915982       ,13
E8064BK/5,2,5055939915999       ,13
E8064BK/6,1,5055939916002       ,13
E8064BK/7,1,5055939916019       ,174
E8064NA/4,1,5055939950907       ,13
E8064NA/5,1,5055939950914       ,13
E8064NA/6,1,5055939950921       ,13
E8065BK/4,1,5055939919157       ,13
E8065BK/5,1,5055939919164       ,13
E8065BK/6,1,5055939919171       ,13
E8070BK/4,1,5055939916729       ,192
E8070BK/5,1,5055939916736       ,192
E8070BK/6,1,5055939916743       ,192
E8070BK/7,1,5055939916750       ,192
E8088BK/4,1,5055939943169       ,174
E8088BK/5,1,5055939943176       ,174
E8088BK/6,1,5055939943183       ,174
E8098BK/3,1,5055939953342       ,13
E8098BK/4,1,5055939953359       ,13
E8098BK/5,1,5055939953366       ,13
E9095YV/2,1,5055939918105       ,62
E9095YV/3,1,5055939918112       ,62
E9098NA/3,1,5055939925257       ,13
E9098NA/4,1,5055939925264       ,40
E9098NA/5,1,5055939925271       ,13
E9098NA/6,1,5055939925288       ,13
E9098NA/7,1,5055939925295       ,13
E9100MY/3,1,5055939943039       ,13
E9100MY/4,1,5055939943046       ,13
E9100MY/5,1,5055939943053       ,13
E9100MY/6,1,5055939945743       ,13
E9102BK/4,1,5055939925523       ,191
E9102BK/5,1,5055939925530       ,191
E9102BK/6,1,5055939925547       ,191
E9102BK/7,1,5055939925554       ,191
E9102GV/5,1,5055939925585       ,191
E9102GV/6,1,5055939925592       ,191
E9102GV/7,1,5055939925608       ,191
E9106BK/4,1,5055939935263       ,13
E9106BK/5,1,5055939935270       ,13
E9106BK/6,1,5055939935287       ,13
E9106BK/7,1,5055939935294       ,13
E9106WH/4,1,5055939935362       ,13
E9106WH/5,1,5055939935379       ,13
E9106WH/6,1,5055939935386       ,13
E9106WH/7,1,5055939935393       ,13
E9117BK/5,1,5055939942186       ,191
E9117BK/6,1,5055939942193       ,191
E9120YV/3,1,5055939943251       ,174
E9120YV/4,1,5055939943268       ,174
E9147GF/3,1,5055939959412       ,206
E9147GF/4,1,5055939959429       ,206
E9147GF/5,1,5055939959436       ,206
E9147GF/6,1,5055939959443       ,206
E9147GF/7,1,5055939959450       ,206
E9147NA/5,1,5055939959481       ,200
E9147NA/6,1,5055939959498       ,200
