SKU,Maximum allowed,Barcode/EAN,Days left
E1145BK/5,2,5055939908205       ,150
E1145BK/6,2,5055939908212       ,150
E1145BK/7,2,5055939910659       ,150
E1224BK/4,1,5055939966274       ,150
E1224BK/5,2,5055939966281       ,150
E1224BK/6,2,5055939966298       ,150
E1224BK/7,2,5055939966304       ,150
E9121NA/6,1,5055939943534       ,153
