SKU,Name,Color,Size,Qty,Value,
E0098YV/L-XL,Luminite Helmschutz,Hi-Viz Yellow,L-XL,5,73.01,
E3109YV/7,Pakajak II,Hi-Viz Yellow,XXL,2,48.80,
E3059BK/6,Pakajak,Black,XL,1,17.91,
E3059G/6,Pakajak,Green,XL,1,17.91,
E3059YV/6,Pakajak,Hi-Viz Yellow,XL,1,12.54,
