SKU,Maximum allowed,Barcode/EAN,Days left
E4070BK/M4,1,5055939979205       ,116
E0156BK/5,1,5055939986142       ,193
E0157BK/5,1,5055939987897       ,193
E0157CC/5,1,5055939988801       ,193
E0157YV/5,1,5055939988016       ,193
E1055BK/L-XL,1,5055939986104       ,193
E1185YV/5,1,5055939986555       ,193
E1186YV/5,1,5055939986500       ,193
E1268BK/5,1,5055939984483       ,193
E1269BK/5,1,5055939988078       ,193
E1270BK/5,1,5055939988351       ,193
E1271BK/5,1,5055939988405       ,193
E1272BK/L-XL,1,5055939988443       ,193
E3134NA/4,1,5055939986753       ,193
E3177FO/4,1,5055939989006       ,193
E3194BK/4,1,5055939984117       ,193
E3194MO/4,1,5055939984162       ,193
E5077BK/4,1,5055939984063       ,193
E5078BK/4,1,5055939986432       ,193
E5079BK/4,1,5055939986593       ,193
E5081BK/4,1,5055939986807       ,193
E6147BP/4,1,5055939987033       ,193
E6188BK/3,1,5055939987217       ,193
E6189BK/4,1,5055939988245       ,193
E7146BK/K9,1,5055939988313       ,193
E8101MO/4,1,5055939984018       ,193
E8106BK/4,1,5055939983714       ,193
E8107NU/4,1,5055939983868       ,193
E8108BK/4,1,5055939983912       ,193
E8109BK/3,1,5055939984421       ,193
E8110GF/4,1,5055939984728       ,193
E9106YV/4,1,5055939986708       ,193
E9108BP/3,1,5055939986876       ,193
E9115YV/3,1,5055939987064       ,193
E9142OP/4,1,5055939985879       ,193
E9144OP/4,1,5055939985992       ,193
E9147LG/4,1,5055939984520       ,193
E9148OP/4,1,5055939986050       ,193
E9150NU/3,1,5055939985022       ,193
E9152BK/4,1,5055939983486       ,193
E9152GK/4,1,5055939983608       ,193
E9152NU/4,1,5055939983547       ,193
E9153BK/3,1,5055939988474       ,193
E9154BK/4,1,5055939984773       ,193
E9155BK/4,1,5055939984926       ,193
E9156FO/4,1,5055939985121       ,193
E9157BA/4,1,5055939988528       ,193
E9158NU/4,1,5055939985275       ,193
E9161RR/4,1,5055939986234       ,193
E9161YV/4,1,5055939986289       ,193
E9162BK/4,1,5055939986333       ,193
E9163BP/3,1,5055939986920       ,193
E9164YV/4,1,5055939987415       ,193
E9165BP/3,1,5055939987477       ,193
E9166BK/4,1,5055939987576       ,193
E9167YV/3,1,5055939987828       ,193
E9168BP/3,1,5055939988894       ,193
E9169RR/4,1,5055939989174       ,193
E1273BK/L-XL,1,5055939990576       ,199
E1273LG/L-XL,1,5055939990514       ,199
E1273NA/L-XL,1,5055939990552       ,199
E1273OT/L-XL,1,5055939990538       ,199
E1274BK/L-XL,1,5055939990637       ,199
E1274BV/L-XL,1,5055939990651       ,199
E1274GK/L-XL,1,5055939990590       ,199
E1274RR/L-XL,1,5055939990613       ,199
E8111NA/4,1,5055939989402       ,199
E1538YV/M-L,1,5055939978024       ,208
