SKU,Maximum allowed,Barcode/EAN,Days left
E1505MB/L-XL,1,5055939904474       ,18
E0043GK/0,1,5055939961385       ,34
E0110BK,2,5055205367224       ,34
E0110RR/0,1,5055939959719       ,34
E0110UM,1,5055205367248       ,34
E0128BK/3,1,5055939904924       ,34
E0128BK/4,2,5055939904931       ,34
E0128BK/5,2,5055939904948       ,34
E0128BK/6,1,5055939904955       ,34
E0128BK/7,1,5055939904962       ,34
E0151GC/0,1,5055939960715       ,34
E0151GF/0,1,5055939960708       ,34
E0151RR/0,1,5055939960685       ,34
E1038BK/L-XL,2,5055939906706       ,34
E1038BK/S-M,2,5055939906690       ,34
E1052BK/L-XL,1,5055939958040       ,34
E1052BK/M-L,1,5055939958033       ,34
E1052BK/S-M,1,5055939958026       ,34
E1054BK/L-XL,1,5055939958101       ,34
E1054BK/M-L,1,5055939958095       ,34
E1054BK/S-M,1,5055939958088       ,34
E1117BK/4,1,5055205390123       ,34
E1117BK/5,1,5055205390130       ,34
E1117BK/6,1,5055205390147       ,34
E1120BK/3,1,5055205390215       ,34
E1120BK/4,2,5055205390222       ,34
E1120BK/5,2,5055205390239       ,34
E1120BK/6,1,5055205390246       ,34
E1120BK/7,1,5055205390253       ,34
E1184BK/3,1,5055939944425       ,34
E1184BK/4,2,5055939944432       ,34
E1184BK/5,2,5055939944449       ,34
E1184BK/6,1,5055939944456       ,34
E1184BK/7,1,5055939944463       ,34
E1188BK/3,1,5055939944814       ,34
E1188BK/4,1,5055939944821       ,34
E1188BK/5,1,5055939944838       ,34
E1188BK/6,1,5055939944845       ,34
E1218BK/L-XL,1,5055939958521       ,34
E1218BK/M-L,1,5055939958514       ,34
E1218BK/S-M,1,5055939958507       ,34
E1220BK/L-XL,1,5055939958569       ,34
E1220BK/S-M,1,5055939958552       ,34
E1227BK/L-XL,1,5055939966311       ,34
E1227BK/S-M,1,5055939959405       ,34
E1227GK/L-XL,1,5055939966328       ,34
E1227GK/S-M,1,5055939960616       ,34
E1227RR/L-XL,1,5055939966335       ,34
E1227RR/S-M,1,5055939960609       ,34
E3133GF/3,1,5055939957128       ,34
E3133GF/4,1,5055939957135       ,34
E3133GF/5,1,5055939957142       ,34
E3133GF/6,1,5055939957159       ,34
E3181BK/3,1,5055939958187       ,34
E3181BK/4,1,5055939958194       ,34
E3181BK/5,1,5055939958200       ,34
E3181BK/6,1,5055939958217       ,34
E3181NA/4,1,5055939958248       ,34
E3181NA/5,1,5055939958255       ,34
E3181NA/6,1,5055939958262       ,34
E3183BK/3,1,5055939959290       ,34
E3183BK/4,1,5055939959306       ,34
E3183BK/5,1,5055939959313       ,34
E3183BK/6,1,5055939959320       ,34
E5049BK/3,1,5055939924526       ,34
E5049BK/4,1,5055939924533       ,34
E5049BK/5,1,5055939924540       ,34
E5049BK/6,1,5055939924557       ,34
E6040BK/2,1,5055939904979       ,34
E6040BK/3,1,5055939904986       ,34
E6040BK/4,1,5055939904993       ,34
E6040BK/5,1,5055939905006       ,34
E6147BK/2,1,5055939944722       ,34
E6147BK/3,1,5055939944739       ,34
E6147BK/4,1,5055939944746       ,34
E6147BK/5,1,5055939944753       ,34
E6165BK/3,1,5055939959351       ,34
E6165BK/4,1,5055939959368       ,34
E6165BK/5,1,5055939959375       ,34
E6165BK/6,1,5055939959382       ,34
E7140BA/K11,1,5055939960647       ,34
E7140BA/K7,1,5055939960623       ,34
E7140BA/K9,1,5055939960630       ,34
E7140GY/K11,1,5055939960678       ,34
E7140GY/K7,1,5055939960654       ,34
E7140GY/K9,1,5055939960661       ,34
E9142BK/3,1,5055939957357       ,34
E9142BK/4,1,5055939957364       ,34
E9142BK/5,1,5055939957371       ,34
E9142BK/6,1,5055939957388       ,34
E9148BK/3,1,5055939959993       ,34
E9148BK/4,1,5055939960005       ,34
E9148BK/5,1,5055939960012       ,34
E9148BK/6,1,5055939960029       ,34
E9147GF/3,1,5055939959412       ,46
E9147GF/4,1,5055939959429       ,46
E9147GF/5,1,5055939959436       ,46
E9147GF/6,1,5055939959443       ,46
E9147NA/3,1,5055939959467       ,46
E9147NA/4,1,5055939959474       ,46
E9147NA/5,1,5055939959481       ,46
E9147NA/6,1,5055939959498       ,46
E9150GK/2,1,5055939960395       ,46
E9150GK/3,1,5055939960401       ,46
E9150GK/4,1,5055939960418       ,46
E9150GK/5,1,5055939960425       ,46
E1506BK/M-L,1,5055939920054       ,48
E3181NA/3,1,5055939958231       ,54
E1505GV/L-XL,1,5055939904443       ,74
E1505MB/M-L,1,5055939904481       ,74
E1505MB/S-M,1,5055939904498       ,74
E1505RD/L-XL,1,5055939951287       ,74
E1505RD/S-M,1,5055939951263       ,74
E1506BK/M-L,1,5055939920054       ,74
E6163BK/5,1,5055939958842       ,74
E0040CL,3,5055205301877       ,82
E1160KH/6,1,5055939928586       ,82
E0132MB/7,1,5055939922058       ,94
E3174NA/4,1,5055939952925       ,94
E3174NA/5,1,5055939952932       ,94
E3174NA/6,1,5055939952949       ,94
E3174NA/7,1,5055939952956       ,94
E0128BK/5,1,5055939904948       ,123
E1168OT/4,1,5055939971582       ,123
E6040BK/3,2,5055939904986       ,123
E6040BK/4,1,5055939904993       ,123
E9127YV/3,1,5055939943978       ,123
E3183GK/6,1,5055939960470       ,129
E1225BK/M-L,1,5055939959191       ,136
E9124PW/6,1,5055939944074       ,136
E3158BK/5,1,5055939942438       ,158
E5066BK/4,1,5055939949253       ,158
E3156BU/3,1,5055939939513       ,159
E3158BK/6,1,5055939942445       ,161
E1225BK/L-XL,1,5055939959207       ,164
E8089BK/5,1,5055939944395       ,207
E9151YV/6,1,5055939975986       ,207
E1117BK/5,1,5055205390130       ,210
