E5034BK/2,2,80.85,161.70
E5038BK/2,1,57.53,57.53
E5038BK/3,1,57.53,57.53
E7117BK/4,2,40.67,81.34
E7117BK/5,1,40.67,40.67
E3132NA/4,1,35.87,35.87
E3132NA/5,1,35.87,35.87
E3107OC/6,1,28.69,28.69
E3132RD/4,1,35.87,35.87
E5043BK/2,1,157.00,157.00
E5043BK/3,2,157.00,313.99
E5043BK/7,1,157.00,157.00
E4034BK/5,2,57.53,115.05
E4031BK/3,3,57.53,172.58
E4032BK/4,1,57.53,57.53
E3132BK/3,2,35.87,71.74
E3132BK/4,1,35.87,35.87
E3132MY/3,2,35.87,71.74
E9107BK/7,1,31.07,31.07
E4045NA/4,1,35.48,35.48
P6024-S,2,275.38,550.76
P6024-M,3,275.38,826.14
