E9106WH/6,1
E9106BK/4,2
E9106BK/5,3
E9106BV/3,4
E9106BV/5,1
E9106BV/6,2
E9124NA/4,1
E3133GY/5,1
E4055BK/7,4
E9126YV/6,1
E1506BK/M-L,2
E1506WH/L-XL,2
E1227BK/S-M,10
E1227BK/L-XL,20
E1234RD/L-XL,10
E5049BK/3,2
E5049BK/5,4
E5049BK/7,1
E9106RD/2,1
E9106RD/4,1
E9142GK/3,2
E9144BK/4,1
EM0057BU/3,1
