SKU,Maximum allowed,Barcode/EAN,Days left
E8064BK/6,2,5055939916002       ,54
E9120YV/4,1,5055939943268       ,54
E9120YV/5,2,5055939943275       ,54
E9120YV/6,2,5055939943282       ,54
E9120YV/7,1,5055939943299       ,54
E9126YV/5,2,5055939943930       ,54
E9126YV/6,2,5055939943947       ,54
E9126YV/7,1,5055939943954       ,54
E4027BK/4,1,5055205398266       ,56
E4027BK/5,2,5055205398273       ,56
E4027BK/6,2,5055205398280       ,56
E4027BK/7,1,5055205398297       ,56
E8064BK/5,2,5055939915999       ,56
E9126YV/7,1,5055939943954       ,90
E3109YV/5,1,5055939909028       ,123
