SKU,Maximum allowed,Barcode/EAN,Days left
E0043GK/0,1,5055939961385       ,45
E0151GC/0,1,5055939960715       ,45
E0151GF/0,1,5055939960708       ,45
E0151RR/0,1,5055939960685       ,45
E1042BK/L-XL,2,5055939923857       ,45
E1042BK/S-M,1,5055939923864       ,45
E1117BK/5,3,5055205390130       ,45
E1117BK/6,2,5055205390147       ,45
E1117BK/7,1,5055205390154       ,45
E1118BK/6,3,5055205389998       ,45
E1118BK/7,1,5055205390000       ,45
E1120WH/4,1,5055205390277       ,45
E1120WH/5,2,5055205390284       ,45
E1120WH/6,2,5055205390291       ,45
E1145BK/4,1,5055939908199       ,45
E1145BK/5,1,5055939908205       ,45
E1145BK/6,2,5055939908212       ,45
E1145BK/7,1,5055939910659       ,45
E1185BK/4,1,5055939944531       ,45
E1185BK/5,1,5055939944548       ,45
E1185BK/6,1,5055939944555       ,45
E1186BK/4,1,5055939944630       ,45
E1186BK/5,1,5055939944647       ,45
E1186BK/6,2,5055939944654       ,45
E1186BK/7,1,5055939944661       ,45
E1216BK/4,1,5055939958354       ,45
E1216BK/5,1,5055939958361       ,45
E1216BK/6,1,5055939958378       ,45
E1216BK/7,1,5055939958385       ,45
E1223BK/L-XL,2,5055939958613       ,45
E1223BK/S-M,1,5055939958606       ,45
E1224BK/6,2,5055939966298       ,45
E1227BK/L-XL,2,5055939966311       ,45
E1227BK/S-M,1,5055939959405       ,45
E5049BK/4,1,5055939924533       ,45
E5049BK/5,1,5055939924540       ,45
E5049BK/6,1,5055939924557       ,45
E5049BK/7,1,5055939924564       ,45
E5056BK/4,1,5055939941837       ,45
E5056BK/5,1,5055939941844       ,45
E5056BK/6,1,5055939941851       ,45
E5056BK/7,1,5055939941868       ,45
E6146BK/3,1,5055939942087       ,45
E6146BK/4,1,5055939942094       ,45
E6164GK/3,1,5055939958873       ,45
E6164GK/5,1,5055939958897       ,45
E6164RR/4,1,5055939958934       ,45
E9106RD/5,1,5055939958651       ,45
E9106RD/6,1,5055939958668       ,45
E9106RD/7,1,5055939958675       ,45
E9120YV/4,1,5055939943268       ,45
E9120YV/6,1,5055939943282       ,45
E9120YV/7,1,5055939943299       ,45
E9148BK/4,1,5055939960005       ,45
E9148BK/7,1,5055939960036       ,45
E9148BK/5,1,5055939960012       ,47
E9148BK/6,1,5055939960029       ,47
E1186BK/6,2,5055939944654       ,60
E9120YV/5,1,5055939943275       ,60
E1043BK/L-XL,2,5055939923871       ,94
E1043BK/S-M,2,5055939923888       ,94
E1118BK/5,3,5055205389981       ,94
E4031BK/5,1,5055939916989       ,109
E6154WH/3,1,5055939952970       ,109
E5056BK/3,2,5055939941820       ,145
E1117BK/3,1,5055205390116       ,152
E1165BK/4,1,5055939928852       ,213
E1165BK/5,1,5055939928869       ,213
E1165BK/6,1,5055939928876       ,213
E1165RD/4,1,5055939929019       ,213
E1165RD/5,1,5055939929026       ,213
E1165RD/6,1,5055939929033       ,213
E1166BK/3,1,5055939929064       ,213
E1166BK/4,1,5055939929071       ,213
E1166BK/5,1,5055939929088       ,213
E1166BK/6,1,5055939929095       ,213
E1166BK/7,1,5055939929101       ,213
E1166RD/5,1,5055939929200       ,213
E1166RD/6,1,5055939929217       ,213
E1258BK/4,1,5055939972619       ,213
E1258BK/5,2,5055939972626       ,213
E1258BK/6,1,5055939972633       ,213
E3167WH/S-M,2,5055939954066       ,213
E3192GK/3,1,5055939974637       ,213
E3192GK/4,1,5055939974644       ,213
E3192GK/5,1,5055939974651       ,213
E3192GK/6,1,5055939974668       ,213
E3192RR/4,1,5055939974743       ,213
E3192RR/5,1,5055939974750       ,213
E3192RR/6,1,5055939974767       ,213
E3192RR/7,1,5055939974774       ,213
E4068GY/3,1,5055939975412       ,213
E4068GY/4,2,5055939975429       ,213
E4068GY/5,2,5055939975436       ,213
E4068GY/6,1,5055939975443       ,213
E4070BK/M6,1,5055939979229       ,213
E6174CV/3,1,5055939976112       ,213
E6174CV/4,1,5055939976129       ,213
E6174WH/4,1,5055939976174       ,213
E6174WH/5,1,5055939976181       ,213
E6175GY/2,1,5055939976211       ,213
E6175GY/3,2,5055939976228       ,213
E6175GY/4,2,5055939976235       ,213
E6175GY/5,1,5055939976242       ,213
E7117BK/3,1,5055939917016       ,213
E7117BK/6,1,5055939917047       ,213
