SKU,Maximum allowed,Barcode/EAN,Days left
E0003/L-XL,3,5055205300122       ,194
E0003/M-L,3,5055205300139       ,194
E0003/S-M,3,5055205300146       ,194
E0004/L-XL,3,5055205300153       ,194
E0004/S-M,3,5055205300160       ,194
E0005/L-XL,3,5055205341781       ,194
E0005/S-M,3,5055205341774       ,194
E0043BC,5,5055205324494       ,194
E0043WC,5,5055205324500       ,194
E0127BK/2,2,5055939904801       ,194
E0127BK/3,4,5055939904818       ,194
E0127BK/4,5,5055939904825       ,194
E0127BK/5,5,5055939904832       ,194
E0127BK/6,3,5055939904849       ,194
E0127BK/7,3,5055939904856       ,194
E0130BK/2,2,5055939917986       ,194
E0130BK/3,4,5055939917993       ,194
E0130BK/4,5,5055939918006       ,194
E0130BK/5,5,5055939918013       ,194
E0130BK/6,3,5055939918020       ,194
E0130BK/7,3,5055939918037       ,194
E0150BK/0,5,5055939936925       ,194
E0150NA/0,5,5055939936932       ,194
E0151KH/0,5,5055939936963       ,194
E1028AN/0,5,5055205389240       ,194
E1028BK/0,5,5055205385952       ,194
E1102,20,5055205353814       ,194
E1182BK/L-XL,5,5055939942629       ,194
E1182BK/S-M,5,5055939942612       ,194
E1205BK/L-XL,5,5055939951812       ,194
E1205BK/S-M,5,5055939951805       ,194
E1205BV/L-XL,5,5055939951836       ,194
E1205BV/S-M,5,5055939951829       ,194
E1205NA/L-XL,5,5055939951850       ,194
E1205NA/S-M,5,5055939951843       ,194
E1205RD/L-XL,5,5055939951874       ,194
E1205RD/S-M,5,5055939951867       ,194
E1251CL,20,5055939955803       ,194
E1252CL,60,5055939955810       ,194
E3069BV/3,2,5055939941325       ,194
E3069BV/4,2,5055939941332       ,194
E3069BV/5,4,5055939941349       ,194
E3069BV/6,4,5055939941356       ,194
E3069BV/7,3,5055939941363       ,194
E6040BK/2,3,5055939904979       ,194
E6040BK/3,3,5055939904986       ,194
E6040BK/4,3,5055939904993       ,194
E6040BK/5,3,5055939905006       ,194
E9108BK/1,3,5055939936284       ,194
E9108BK/2,3,5055939935508       ,194
E9108BK/3,3,5055939935515       ,194
E9108BK/4,3,5055939935522       ,194
E9108BK/5,3,5055939935539       ,194
E9108BK/6,1,5055939938271       ,194
EM0053OM/3,2,5055939925899       ,194
EM0053OM/4,4,5055939925905       ,194
EM0053OM/5,4,5055939925912       ,194
EM0053OM/6,3,5055939925929       ,194
EM0053OM/7,3,5055939925936       ,194
