INVOICE,SIN662175
YOUR REF,DOBO01 ZAMÓWIENIE WI
DATE,25/02/2020
VALUE,11379.64


SKU,Qty,Value,Name,Colour,Size
E9113BK/4       ,1,375.06,Pro SL Shell Jacket II,Black,M
E9113BK/5       ,1,375.06,Pro SL Shell Jacket II,Black,L
E9138GC/4       ,1,168.26,SingleTrack DuraJak,Grey Camo,M
E9138GC/5       ,1,168.26,SingleTrack DuraJak,Grey Camo,L
E9138GC/6       ,1,168.26,SingleTrack DuraJak,Grey Camo,XL
E9111BK/4       ,1,234.06,Pro SL Windshell,Black,M
E9111BK/5       ,1,234.06,Pro SL Windshell,Black,L
E3158BK/4       ,1,187.06,MT500 Thermo L/S Jersey,Black,M
E3158BK/5       ,1,187.06,MT500 Thermo L/S Jersey,Black,L
E3158BK/6       ,1,187.06,MT500 Thermo L/S Jersey,Black,XL
E3176NA/3       ,1,93.06,One Clan Hoodie,Navy,S
E3176NA/4       ,1,93.06,One Clan Hoodie,Navy,M
E3176NA/5       ,1,93.06,One Clan Hoodie,Navy,L
E8073BK/3       ,1,177.66,SingleTrack Trouser,Black,S
E8073BK/4       ,1,177.66,SingleTrack Trouser,Black,M
E8073BK/5       ,1,177.66,SingleTrack Trouser,Black,L
E8073BK/6       ,1,177.66,SingleTrack Trouser,Black,XL
E6106BK/2       ,1,125.96,Women's Hummvee Short II,Black,XS
E6106BK/3       ,1,125.96,Women's Hummvee Short II,Black,S
E6106BK/4       ,1,125.96,Women's Hummvee Short II,Black,M
E6106BK/5       ,1,125.96,Women's Hummvee Short II,Black,L
E6106CO/3       ,1,125.96,Women's Hummvee Short II,Cobalt Blue,S
E6106CO/4       ,1,125.96,Women's Hummvee Short II,Cobalt Blue,M
E7107BK/3       ,1,69.30,Wms Trekkit Short,Black,S
E7107BK/4       ,1,69.30,Wms Trekkit Short,Black,M
E7107BK/5       ,1,69.30,Wms Trekkit Short,Black,L
E8064BK/3       ,1,125.96,Hummvee Short II with liner,Black,S
E8064BK/4       ,1,125.96,Hummvee Short II with liner,Black,M
E8064BK/5       ,1,125.96,Hummvee Short II with liner,Black,L
E8064BK/6       ,1,125.96,Hummvee Short II with liner,Black,XL
E8064BK/7       ,1,125.96,Hummvee Short II with liner,Black,XXL
E8064GC/4       ,1,125.96,Hummvee Short II with liner,Grey Camo,M
E8064GC/5       ,1,125.96,Hummvee Short II with liner,Grey Camo,L
E8064GC/6       ,1,125.96,Hummvee Short II with liner,Grey Camo,XL
E8064NA/4       ,1,125.96,Hummvee Short II with liner,Navy,M
E8064NA/5       ,1,125.96,Hummvee Short II with liner,Navy,L
E8064NA/6       ,1,125.96,Hummvee Short II with liner,Navy,XL
E8104BK/3       ,1,144.76,Hummvee Lite Short with Liner,Black,S
E8104BK/4       ,1,144.76,Hummvee Lite Short with Liner,Black,M
E8104BK/5       ,1,144.76,Hummvee Lite Short with Liner,Black,L
E8104BK/6       ,1,144.76,Hummvee Lite Short with Liner,Black,XL
E8092BK/4       ,1,168.26,MT500 Burner Short II,Black,M
E8092BK/5       ,1,168.26,MT500 Burner Short II,Black,L
E8092BK/6       ,1,168.26,MT500 Burner Short II,Black,XL
E8094AN/4       ,1,118.30,Singletrack Lite Short Short,Anthracite,M
E8094AN/5       ,1,118.30,Singletrack Lite Short Short,Anthracite,L
E8094AN/6       ,1,118.30,Singletrack Lite Short Short,Anthracite,XL
E7117BK/3       ,1,182.36,FS260-Pro Bibshort,Black,S
E7117BK/4       ,1,182.36,FS260-Pro Bibshort,Black,M
E7117BK/5       ,1,182.36,FS260-Pro Bibshort,Black,L
E4054BK/4       ,1,121.26,Xtract Bibshort II,Black,M
E4054BK/5       ,1,121.26,Xtract Bibshort II,Black,L
E4054BK/6       ,1,121.26,Xtract Bibshort II,Black,XL
E4055BK/4       ,1,93.06,Xtract Gel Short II,Black,M
E4055BK/5       ,1,93.06,Xtract Gel Short II,Black,L
E4055BK/6       ,1,93.06,Xtract Gel Short II,Black,XL
E1505BA/M-L     ,1,83.66,Hummvee Helmet,Azure Blue,M-L
E1505BA/L-XL    ,1,83.66,Hummvee Helmet,Azure Blue,L-XL
E1505MB/M-L     ,1,83.66,Hummvee Helmet,Matt Black,M-L
E1505MB/L-XL    ,1,83.66,Hummvee Helmet,Matt Black,L-XL
E1505RD/M-L     ,1,83.66,Hummvee Helmet,Red,M-L
E1505RD/L-XL    ,1,83.66,Hummvee Helmet,Red,L-XL
E7128GY/0       ,1,66.74,Hummvee Youth Helmet,Grey,One size
E7128KH/0       ,1,66.74,Hummvee Youth Helmet,Khaki,One size
E7128OT/0       ,1,66.74,Hummvee Youth Helmet,Tangerine,One size
E0132MB/3       ,1,65.80,MT500 Glove II ,Matt Black,S
E1168BK/7       ,1,66.60,SingleTrack Glove,Black,XXL
E1258BK/3       ,1,44.10,Hummvee Lite Icon Glove,Black,S
E1258BK/4       ,1,44.10,Hummvee Lite Icon Glove,Black,M
E1258BK/5       ,1,44.10,Hummvee Lite Icon Glove,Black,L
E1258BK/6       ,1,44.10,Hummvee Lite Icon Glove,Black,XL
E1162BK/3       ,1,89.10,Pro SL Mitt,Black,S
E1162BK/4       ,1,89.10,Pro SL Mitt,Black,M
E1162BK/5       ,1,89.10,Pro SL Mitt,Black,L
E1162BK/6       ,1,89.10,Pro SL Mitt,Black,XL
E1165BK/3       ,1,44.10,Xtract Mitt II,Black,S
E1165BK/4       ,1,44.10,Xtract Mitt II,Black,M
E1165BK/5       ,1,44.10,Xtract Mitt II,Black,L
E1165BK/6       ,1,44.10,Xtract Mitt II,Black,XL
E1166BK/3       ,1,66.60,FS260-Pro Aerogel Mitt,Black,S
E1166BK/4       ,1,66.60,FS260-Pro Aerogel Mitt,Black,M
E1166BK/5       ,1,66.60,FS260-Pro Aerogel Mitt,Black,L
E1166BK/6       ,1,66.60,FS260-Pro Aerogel Mitt,Black,XL
E1166NA/4       ,1,66.60,FS260-Pro Aerogel Mitt,Navy,M
E1166NA/5       ,1,66.60,FS260-Pro Aerogel Mitt,Navy,L
E1166NA/6       ,1,66.60,FS260-Pro Aerogel Mitt,Navy,XL
E1257BK/S-M     ,1,107.16,SingleTrack Lite Elbow Protector II,Black,S-M
E1257BK/M-L     ,1,107.16,SingleTrack Lite Elbow Protector II,Black,M-L
E1257BK/L-XL    ,1,107.16,SingleTrack Lite Elbow Protector II,Black,L-XL
E8093BK/3       ,1,158.86,MT500 Protector Undershorts II,Black,S
E0132BK/3       ,1,84.60,MT500 Glove II ,Black,S
E0132BK/4       ,1,84.60,MT500 Glove II ,Black,M
E0132BK/5       ,2,169.20,MT500 Glove II ,Black,L
E0132BK/6       ,1,84.60,MT500 Glove II ,Black,XL
E1256BK/L-XL    ,1,107.16,SingleTrack Lite Knee Protector II,Black,L-XL
E1256BK/S-M     ,1,107.16,SingleTrack Lite Knee Protector II,Black,S-M
