SKU,Maximum allowed,Barcode/EAN,Days left
E0003/M-L,1,5055205300139       ,205
E0004/L-XL,1,5055205300153       ,205
E0063/3,1,5055205323824       ,205
E0095GV/2,1,5055205376615       ,205
E0095GV/4,1,5055205376639       ,205
E1042BK/L-XL,1,5055939923857       ,205
E1042BK/S-M,1,5055939923864       ,205
E1125MY/4,1,5055939928296       ,205
E6110CR/3,1,5055939915869       ,205
E8074BK/5,1,5055939924731       ,205
E8077BK/3,1,5055939924878       ,205
