Identifier,Qty
E1513BK/S-M,1
E3125KH/4,1
E4027BK/5,1
E4027BK/4,1
E1167WH/5,1
E1165GV/7,1
E6126CE/4,1
E1165BK/7,1
E1165RD/4,1
E8004GY/3,1
E1165RD/6,1
E6126WH/2,1
E9027BK/3,1
E7128BK/0,4
E1165BK/4,1
E1165BK/5,1
