SKU,Maximum allowed,Barcode/EAN,Days left
E7128BK/0,1,5055939934419       ,1
E1513BV/M-L,1,5055939966588       ,2
E0041,1,5055205301938       ,13
E1138WH/0,1,5055939901374       ,13
E1160BK/3,1,5055939928494       ,13
E1160BK/5,2,5055939928517       ,13
E1160BK/6,2,5055939928524       ,13
E1161BK/5,2,5055939928692       ,13
E1161BK/6,2,5055939928708       ,13
E1165BK/3,1,5055939928845       ,13
E1165BK/4,1,5055939928852       ,13
E1165BK/5,2,5055939928869       ,13
E1165BK/6,2,5055939928876       ,13
E1170GY/0,1,5055939929835       ,13
E1505GY/L-XL,1,5055939930091       ,13
E1505GY/M-L,1,5055939930107       ,13
E1505KH/L-XL,1,5055939951317       ,13
E1505KH/M-L,1,5055939951300       ,13
E1505WH/L-XL,2,5055939904542       ,13
E1505WH/M-L,1,5055939904559       ,13
E1128BK/L-XL,2,5055205398617       ,26
E1128BK/S-M,2,5055205399164       ,26
E1161BK/6,1,5055939928708       ,26
E1161BK/7,2,5055939928715       ,26
E1165BK/5,3,5055939928869       ,26
E1165BK/6,2,5055939928876       ,26
E1505GY/L-XL,2,5055939930091       ,26
E1505KH/L-XL,1,5055939951317       ,26
E1505KH/M-L,1,5055939951300       ,26
E3125RD/5,1,5055939919270       ,26
E3125RD/7,1,5055939919294       ,26
E3138GY/4,1,5055939930893       ,26
E3138PT/5,1,5055939930954       ,26
E4055BK/5,2,5055939953083       ,26
E7120BK/6,1,5055939915524       ,27
E8064BK/6,1,5055939916002       ,33
E1166BK/4,2,5055939929071       ,41
E1166BK/5,1,5055939929088       ,41
E1166BK/6,1,5055939929095       ,41
E4031BK/4,1,5055939916972       ,41
E4031BK/5,1,5055939916989       ,41
E4031BK/6,1,5055939916996       ,41
E5067NA/5,1,5055939950785       ,41
E8069BK/5,1,5055939916576       ,41
E1165BK/5,1,5055939928869       ,46
E1160KH/2,1,5055939928548       ,48
E1160KH/3,1,5055939928555       ,48
E1160KH/4,1,5055939928562       ,48
E1160KH/5,1,5055939928579       ,48
E1160KH/6,1,5055939928586       ,48
E4055BK/5,1,5055939953083       ,48
E7118BK/5,1,5055939914893       ,48
E8064GY/3,1,5055939916217       ,48
E8064GY/4,1,5055939916224       ,48
E8064GY/5,1,5055939916231       ,48
E8064KH/4,1,5055939916064       ,48
E1165BK/4,1,5055939928852       ,54
E1165BK/5,1,5055939928869       ,54
E1166BK/4,1,5055939929071       ,54
E1166BK/5,1,5055939929088       ,54
E1171BK/0,1,5055939929859       ,54
E1504GV/M-L,1,5055205389691       ,54
E4034BK/4,1,5055939917665       ,54
E9114BV/7,1,5055939941813       ,54
E9114GV/5,2,5055939941691       ,54
E1042BK/L-XL,2,5055939923857       ,67
E1042BK/S-M,2,5055939923864       ,67
E1155BK/L-XL,1,5055939928388       ,67
E1155BK/S-M,1,5055939928395       ,67
E1181BK/4,1,5055939942520       ,67
E1181BK/5,2,5055939942537       ,67
E1181BK/6,2,5055939942544       ,67
E1181BK/7,1,5055939942551       ,67
E1225BK/L-XL,2,5055939959207       ,67
E7128BK/0,2,5055939934419       ,67
E7128GY/0,2,5055939934426       ,67
E7128KH/0,2,5055939951324       ,67
E8064GY/5,1,5055939916231       ,67
E8064KH/5,1,5055939916071       ,67
E8087BK/4,1,5055939943114       ,67
E8087BK/5,1,5055939943121       ,67
E8087BK/6,1,5055939943138       ,67
E8064GY/6,2,5055939916248       ,73
E5067BK/4,1,5055939950723       ,77
E5067BK/7,1,5055939950754       ,77
E5067NA/6,2,5055939950792       ,77
E7117BK/4,1,5055939917023       ,77
E8064GY/5,3,5055939916231       ,77
E8064GY/7,1,5055939916255       ,77
E1166BK/4,1,5055939929071       ,81
E1505GV/M-L,1,5055939904450       ,81
E1505GY/S-M,2,5055939930114       ,81
E1505KH/S-M,2,5055939951294       ,81
E1505OR/M-L,1,5055939904511       ,81
E1505OR/S-M,1,5055939904528       ,81
E1505WH/M-L,2,5055939904559       ,81
E1505WH/S-M,2,5055939904566       ,81
E1160KH/5,2,5055939928579       ,88
E1160KH/6,1,5055939928586       ,88
E1160KH/7,1,5055939928593       ,88
E1227BK/L-XL,4,5055939966311       ,88
E1227GK/L-XL,2,5055939966328       ,88
E1227GK/S-M,2,5055939960616       ,88
E1251CL,3,5055939955803       ,88
E9114BK/6,1,5055939941752       ,88
E9114BV/5,1,5055939941790       ,88
E0068BK/4,2,5055205367705       ,94
E0068BK/6,2,5055205367729       ,94
E0110BP/0,1,5055939959726       ,94
E0110PK,1,5055205367231       ,94
E0110UM,1,5055205367248       ,94
E1038BK/L-XL,2,5055939906706       ,94
E1038BK/S-M,2,5055939906690       ,94
E1039BK/L-XL,2,5055939906720       ,94
E1039BK/S-M,2,5055939906713       ,94
E1043BK/L-XL,2,5055939923871       ,94
E1145BK/4,1,5055939908199       ,94
E1145BK/5,1,5055939908205       ,94
E1145BK/6,1,5055939908212       ,94
E1183BK/4,2,5055939944234       ,94
E1183BK/5,2,5055939944241       ,94
E1183BK/6,1,5055939944258       ,94
E1186GV/4,2,5055939944685       ,94
E1186GV/5,2,5055939944692       ,94
E1186GV/6,2,5055939944708       ,94
E1223BK/L-XL,3,5055939958613       ,94
E1223BK/S-M,3,5055939958606       ,94
E6067BK/3,1,5055205367651       ,94
E6067BK/4,1,5055205367668       ,94
E6067BK/5,1,5055205367675       ,94
E6147CE/2,2,5055939945460       ,94
E6147CE/3,2,5055939945477       ,94
E6147CE/4,2,5055939945484       ,94
E7128GY/0,2,5055939934426       ,94
E7128KH/0,2,5055939951324       ,94
E9120KH/4,1,5055939943312       ,94
E9120KH/5,1,5055939943329       ,94
E9120KH/6,1,5055939943336       ,94
E9124PW/4,1,5055939944050       ,94
E9124PW/5,1,5055939944067       ,94
E9124PW/6,1,5055939944074       ,94
E9126YV/6,1,5055939943947       ,94
E1160KH/6,2,5055939928586       ,96
E1227BK/S-M,2,5055939959405       ,96
E7125BK/5,1,5055939924632       ,96
E9114BK/6,1,5055939941752       ,96
E9114BV/5,1,5055939941790       ,96
E0110BK,1,5055205367224       ,97
E1043BK/S-M,2,5055939923888       ,97
E9126YV/4,1,5055939943923       ,97
E9126YV/5,1,5055939943930       ,97
E0110YM/0,1,5055939959702       ,103
E0151RR/0,1,5055939960685       ,103
E1117BK/6,1,5055205390147       ,103
E1186GV/5,1,5055939944692       ,103
E1188BK/4,1,5055939944821       ,103
E1188BK/5,1,5055939944838       ,103
E1188GV/5,1,5055939944883       ,103
E5056BK/4,1,5055939941837       ,103
E9106BK/5,1,5055939935270       ,103
E9108CE/4,1,5055939935560       ,103
E1117BK/4,1,5055205390123       ,109
E1117BK/5,1,5055205390130       ,109
E1117BK/6,1,5055205390147       ,109
E1117BK/7,1,5055205390154       ,109
E1120WH/4,1,5055205390277       ,109
E1120WH/5,1,5055205390284       ,109
E1120WH/6,1,5055205390291       ,109
E1120WH/7,1,5055205390307       ,109
E1188BK/4,1,5055939944821       ,109
E1188BK/6,1,5055939944845       ,109
E1188GV/5,1,5055939944883       ,109
E1224BK/5,1,5055939966281       ,109
E1224BK/6,1,5055939966298       ,109
E3158BK/4,1,5055939942421       ,109
E3158BK/5,1,5055939942438       ,109
E3158BK/6,1,5055939942445       ,109
E3158BK/7,1,5055939942452       ,109
E9113GK/4,1,5055939957319       ,109
E9113GK/5,1,5055939957326       ,109
E9113GK/6,1,5055939957333       ,109
E9113GK/7,1,5055939957340       ,109
E9114GV/6,1,5055939941707       ,109
E9121NA/4,1,5055939943510       ,109
E9121NA/5,1,5055939943527       ,109
E9121NA/6,1,5055939943534       ,109
E9121NA/7,1,5055939943541       ,109
E5055BK/5,1,5055939941493       ,111
E9140BV/4,1,5055939953533       ,111
E0128BK/3,1,5055939904924       ,115
E0128BK/4,1,5055939904931       ,115
E0128BK/5,1,5055939904948       ,115
E0128BK/6,1,5055939904955       ,115
E1181BK/4,1,5055939942520       ,115
E1223BK/L-XL,2,5055939958613       ,115
E1223BK/S-M,2,5055939958606       ,115
E1224BK/5,1,5055939966281       ,115
E1226BK/0,2,5055939959399       ,115
E1226GK/0,2,5055939960593       ,115
E9114BV/3,1,5055939941776       ,115
E1505GY/S-M,1,5055939930114       ,116
E1505RD/S-M,1,5055939951263       ,116
E7128GY/0,1,5055939934426       ,116
E7128KH/0,2,5055939951324       ,116
E0060/4,1,5055205323688       ,122
E0060/5,1,5055205323695       ,122
E0060/6,1,5055205323701       ,122
E0062/4,1,5055205323770       ,122
E0062/5,1,5055205323787       ,122
E0062/6,1,5055205323794       ,122
E1160KH/6,1,5055939928586       ,122
E1160KH/7,1,5055939928593       ,122
E1188BK/5,1,5055939944838       ,122
E1188GV/5,2,5055939944883       ,122
E1188GV/6,1,5055939944890       ,122
E1224BK/5,2,5055939966281       ,122
E1226BK/0,1,5055939959399       ,122
E8064GY/4,1,5055939916224       ,122
E8064GY/5,1,5055939916231       ,122
E8064GY/6,1,5055939916248       ,122
E8064KH/5,1,5055939916071       ,122
E8064KH/6,1,5055939916088       ,122
E8074BK/4,1,5055939924724       ,122
E8074BK/5,1,5055939924731       ,122
E8074BK/6,1,5055939924748       ,122
E9114BV/4,1,5055939941783       ,122
E0035/5,2,5055205301457       ,129
E0073,2,5055205338118       ,129
E0128BK/3,1,5055939904924       ,129
E0128BK/4,2,5055939904931       ,129
E0128BK/5,2,5055939904948       ,129
E0128BK/6,1,5055939904955       ,129
E1038BK/S-M,1,5055939906690       ,129
E1043BK/L-XL,2,5055939923871       ,129
E1043BK/S-M,1,5055939923888       ,129
E1160KH/6,1,5055939928586       ,129
E1186BK/3,1,5055939944623       ,129
E1186GV/2,1,5055939945255       ,129
E1186GV/3,2,5055939944678       ,129
E1186GV/4,2,5055939944685       ,129
E1188BK/4,1,5055939944821       ,129
E1188BK/5,1,5055939944838       ,129
E1188BK/6,1,5055939944845       ,129
E1188GV/5,2,5055939944883       ,129
E1188GV/6,1,5055939944890       ,129
E1224BK/3,3,5055939958804       ,129
E1224BK/4,2,5055939966274       ,129
E1224BK/5,1,5055939966281       ,129
E1224BK/6,1,5055939966298       ,129
E3158BK/6,1,5055939942445       ,129
E9114GV/3,1,5055939941677       ,129
E9114GV/4,1,5055939941684       ,129
E9126YV/5,1,5055939943930       ,132
E4034BK/5,1,5055939917672       ,133
E1186BK/4,2,5055939944630       ,145
E1186BK/5,2,5055939944647       ,145
E1186BK/6,2,5055939944654       ,145
E1186BK/7,1,5055939944661       ,145
E0128BK/4,1,5055939904931       ,147
E0128BK/5,2,5055939904948       ,147
E0128YV/5,1,5055939909639       ,147
E0128YV/6,1,5055939909646       ,147
E1117BK/4,1,5055205390123       ,147
E1117BK/5,1,5055205390130       ,147
E1186BK/3,1,5055939944623       ,147
E1186BK/4,1,5055939944630       ,147
E1186BK/5,1,5055939944647       ,147
E1186BK/6,1,5055939944654       ,147
E1188BK/3,1,5055939944814       ,147
E0110BK,1,5055205367224       ,150
E0128YV/6,1,5055939909646       ,150
E1118BK/5,1,5055205389981       ,150
E1227GK/L-XL,2,5055939966328       ,150
E8064GY/5,1,5055939916231       ,150
E8064KH/5,2,5055939916071       ,150
E8064NA/5,1,5055939950914       ,150
E8086AN/4,1,5055939942797       ,150
E1186GV/4,1,5055939944685       ,157
E1188GV/6,1,5055939944890       ,157
E1118BK/6,1,5055205389998       ,158
E1181BK/5,1,5055939942537       ,158
E1188GV/4,1,5055939944876       ,158
E0110BP/0,1,5055939959726       ,165
E0110RR/0,1,5055939959719       ,165
E0110YM/0,1,5055939959702       ,165
E1042BK/L-XL,2,5055939923857       ,165
E1227GK/L-XL,1,5055939966328       ,165
E1227GK/S-M,1,5055939960616       ,165
E3157BK/5,1,5055939941448       ,165
E3157BK/7,1,5055939941462       ,165
E3158BK/5,1,5055939942438       ,165
E8064GY/5,1,5055939916231       ,165
E8064KH/5,1,5055939916071       ,165
E0110BP/0,1,5055939959726       ,178
E0110PK,1,5055205367231       ,178
E0110RR/0,1,5055939959719       ,178
E0110UM,1,5055205367248       ,178
E0128YV/5,1,5055939909639       ,178
E0128YV/6,1,5055939909646       ,178
E1117BK/6,1,5055205390147       ,178
E1117BK/7,1,5055205390154       ,178
E1118BK/6,1,5055205389998       ,178
E1120BK/6,1,5055205390246       ,178
E1120BK/7,1,5055205390253       ,178
E1188BK/5,1,5055939944838       ,178
E1188BK/6,1,5055939944845       ,178
E1188GV/5,1,5055939944883       ,178
E1188GV/6,1,5055939944890       ,178
E1227BK/L-XL,3,5055939966311       ,178
E1227BK/S-M,1,5055939959405       ,178
E1227GK/L-XL,2,5055939966328       ,178
E1227RR/L-XL,2,5055939966335       ,178
E1227RR/S-M,1,5055939960609       ,178
E9114BK/4,1,5055939941738       ,178
E9114BK/7,1,5055939941769       ,178
E9114GV/4,1,5055939941684       ,178
E9114GV/7,1,5055939941714       ,178
E9121NA/4,1,5055939943510       ,178
E9121NA/5,1,5055939943527       ,178
E0043GK/0,1,5055939961385       ,193
E1038BK/L-XL,2,5055939906706       ,193
E1042BK/L-XL,2,5055939923857       ,193
E1145BK/5,1,5055939908205       ,193
E1222BK/0,4,5055939958590       ,193
E1223BK/L-XL,3,5055939958613       ,193
E1505GY/M-L,2,5055939930107       ,193
E1505KH/M-L,1,5055939951300       ,193
E1505MB/M-L,2,5055939904481       ,193
E3183BK/4,1,5055939959306       ,193
E7128BK/0,1,5055939934419       ,193
E7128GY/0,2,5055939934426       ,193
E7128KH/0,1,5055939951324       ,193
E0110BP/0,1,5055939959726       ,199
E0110PK,1,5055205367231       ,199
E0110UM,1,5055205367248       ,199
E1038BK/S-M,1,5055939906690       ,199
E1185BK/4,1,5055939944531       ,199
E1185BK/5,1,5055939944548       ,199
E1185BK/6,1,5055939944555       ,199
E1185GV/4,1,5055939944586       ,199
E1185GV/5,1,5055939944593       ,199
E1185GV/6,1,5055939944609       ,199
E1226BK/0,1,5055939959399       ,199
E1506WH/L-XL,1,5055939920092       ,199
E0040ST,1,5055205301914       ,207
E0041,2,5055205301938       ,207
E0045,1,5055205315935       ,207
E1118BK/5,2,5055205389981       ,207
E1224BK/5,2,5055939966281       ,207
E8064GY/4,1,5055939916224       ,207
E8064NA/4,1,5055939950907       ,207
