INVOICE,SIN548681
YOUR REF,SOR330564
DATE,09/07/2018
VALUE,449.13


SKU,Qty,Value,Name,Colour,Size
E8064BK/4       ,2,69.80,Hummvee Short II with liner,Black,M
E8064BK/5       ,2,69.80,Hummvee Short II with liner,Black,L
E8064BK/6       ,2,69.80,Hummvee Short II with liner,Black,XL
E6070PK/4       ,1,10.43,Wms Hyperon Mitt,Pink,M
E4029BK/5       ,1,39.90,Hyperon II Bibshort,Black,L
E9078BK/5       ,1,114.90,MT500 Waterproof Jacket II,Black,L
E1161BK/4       ,1,14.90,Hummvee Plus Mitt II,Black,M
E1161BK/5       ,2,29.80,Hummvee Plus Mitt II,Black,L
E1161BK/6       ,2,29.80,Hummvee Plus Mitt II,Black,XL
