SKU,Maximum allowed,Barcode/EAN,Days left
E1108BK/L-XL,2,5055205387987       ,25
E1160BK/3,1,5055939928494       ,25
E1160BK/4,2,5055939928500       ,25
E1160BK/5,2,5055939928517       ,25
E1160BK/6,2,5055939928524       ,25
E1160BK/7,1,5055939928531       ,25
E1160KH/3,1,5055939928555       ,25
E1160KH/4,2,5055939928562       ,25
E1160KH/5,2,5055939928579       ,25
E1160KH/6,2,5055939928586       ,25
E1161BK/6,2,5055939928708       ,25
E1161BK/7,2,5055939928715       ,25
E7120BK/4,1,5055939915500       ,25
E7120BK/5,1,5055939915517       ,25
E7120BK/6,1,5055939915524       ,25
E9115CO/3,1,5055939941882       ,26
E9115CO/4,1,5055939941899       ,26
E9115CO/6,1,5055939945088       ,26
E9115CE/3,1,5055939941929       ,53
E9115CE/4,1,5055939941936       ,53
E9115CE/5,1,5055939941943       ,53
E9114BK/4,2,5055939941738       ,65
E9114BK/5,2,5055939941745       ,65
E9114BK/6,2,5055939941752       ,65
E9114BK/7,2,5055939941769       ,65
E9115CE/6,1,5055939945095       ,65
E9114BV/4,2,5055939941783       ,73
E9114BV/5,2,5055939941790       ,73
E9114BV/6,2,5055939941806       ,73
E3125BK/5,1,5055939915401       ,155
E6066BK/3,1,5055205363738       ,207
E6066BK/4,1,5055205363745       ,207
