SKU,Maximum allowed,Barcode/EAN,Days left
E1157BK/L-XL,1,5055939928418       ,172
E1157BK/S-M,2,5055939928425       ,172
E1171BK/0,1,5055939929859       ,131
E1174BK/0,1,5055939929972       ,131
E1174PT/0,1,5055939929996       ,131
E5068AN/4,1,5055939951355       ,131
E5068AN/5,1,5055939951362       ,131
E5068AN/6,1,5055939951379       ,131
E5068AN/7,1,5055939951386       ,131
E8092GF/4,1,5055939948409       ,131
E8092GF/5,1,5055939948416       ,131
E8092GF/6,1,5055939948423       ,131
E8092GF/7,1,5055939948430       ,131
EM0054BK/4,1,5055939918730       ,131
EM0054BK/5,1,5055939918747       ,131
EM0054BK/6,1,5055939918754       ,131
EM0054BK/7,1,5055939918761       ,131
