SKU,Maximum allowed,Barcode/EAN,Days left
E1108BK/L-XL,2,5055205387987       ,6
E1108BK/S-M,2,5055205387970       ,6
E1109BK/L-XL,1,5055205388014       ,6
E1109BK/M-L,2,5055205388007       ,6
E1168BK/3,1,5055939929477       ,6
E1168BK/4,1,5055939929484       ,6
E1168BK/5,2,5055939929491       ,6
E1168BK/6,2,5055939929507       ,6
E1168BK/7,1,5055939929514       ,6
E1168NA/3,1,5055939929576       ,6
E1168NA/4,1,5055939929583       ,6
E1168NA/5,2,5055939929590       ,6
E1168NA/6,2,5055939929606       ,6
E1168NA/7,1,5055939929613       ,6
E1196BK/M-L,2,5055939956510       ,6
E1196BK/S-M,1,5055939948867       ,6
E1505KH/M-L,1,5055939951300       ,6
E1505KH/S-M,1,5055939951294       ,6
E1505MB/M-L,1,5055939904481       ,6
E1505MB/S-M,1,5055939904498       ,6
E1505RD/M-L,1,5055939951270       ,6
E1505RD/S-M,1,5055939951263       ,6
E1505WH/M-L,1,5055939904559       ,6
E1505WH/S-M,1,5055939904566       ,6
E1506BK/L-XL,1,5055939920061       ,6
E1506BK/M-L,2,5055939920054       ,6
E1506GF/M-L,2,5055939948966       ,6
E1506NA/M-L,2,5055939922843       ,6
E1506NA/S-M,1,5055939922836       ,6
E1506WH/M-L,2,5055939920085       ,6
E1511BK/M-L,1,5055939930138       ,6
E1511BK/S-M,1,5055939930145       ,6
E1511KH/L-XL,1,5055939950402       ,6
E1511KH/M-L,1,5055939950396       ,6
E1511PT/M-L,1,5055939930169       ,6
E1511PT/S-M,1,5055939930176       ,6
E3123GF/4,1,5055939948508       ,6
E3123GF/6,1,5055939948522       ,6
E3123KH/3,1,5055939930473       ,6
E3123KH/4,1,5055939930480       ,6
E3123KH/5,1,5055939930497       ,6
E3168BK/3,1,5055939954165       ,6
E3168BK/4,2,5055939954172       ,6
E3168BK/5,2,5055939954189       ,6
E3168BK/6,1,5055939954196       ,6
E3169BK/3,1,5055939954226       ,6
E3169BK/4,1,5055939954233       ,6
E3169BK/5,1,5055939954240       ,6
E3169BK/6,1,5055939954257       ,6
E3173GF/3,1,5055939949642       ,6
E3173GF/4,2,5055939949659       ,6
E7131BK/K11,2,5055939949970       ,6
E7132BK/K11,2,5055939949994       ,6
E8064GC/3,1,5055939950969       ,6
E8064GC/4,1,5055939950976       ,6
E8067NA/4,2,5055939949307       ,6
E8070BK/4,2,5055939916729       ,6
E8070BK/5,2,5055939916736       ,6
E8070GF/3,1,5055939948447       ,6
E8070GF/4,2,5055939948454       ,6
E8081KH/3,2,5055939935003       ,6
E8092GF/3,1,5055939948393       ,6
E8092GF/4,2,5055939948409       ,6
E9117GF/4,1,5055939948157       ,6
E9117GF/5,1,5055939948164       ,6
E1168BK/4,2,5055939929484       ,26
E1168BK/5,2,5055939929491       ,26
E1511BK/L-XL,1,5055939930121       ,26
E1511KH/M-L,1,5055939950396       ,26
E3069BK/6,1,5055939904764       ,26
E8081BK/6,1,5055939934983       ,26
E8081BK/7,1,5055939934990       ,26
E1511BK/L-XL,1,5055939930121       ,28
E1511KH/L-XL,3,5055939950402       ,28
E9134BK/3,1,5055939943404       ,28
E9134BK/6,1,5055939943435       ,28
E1511BK/S-M,1,5055939930145       ,71
E1511KH/S-M,1,5055939950389       ,71
E1511PT/S-M,1,5055939930176       ,71
E9098BK/4,1,5055939942889       ,71
E1168NA/3,1,5055939929576       ,90
E7131BK/K11,2,5055939949970       ,90
E7132BK/K11,2,5055939949994       ,90
E9098CM/4,1,5055939925165       ,90
E1511RR/M-L,1,5055939959627       ,166
E1518BK/S-M,1,5055939948881       ,166
E1518GF/M-L,1,5055939948928       ,166
E1518GF/S-M,1,5055939948911       ,166
