SKU,Maximum allowed,Barcode/EAN,Days left
E6104CO/6,1,5055939920948       ,1
E1102,1,5055205353814       ,9
E3015/4,1,5055205303635       ,9
E3015/5,1,5055205303642       ,9
E9098CT/5,1,5055939925226       ,9
E9100CR/2,1,5055939925349       ,9
E3108BK/5,1,5055939909301       ,24
E3108BK/6,1,5055939909318       ,24
E9100PU/2,1,5055939925387       ,38
E9100PU/3,1,5055939925394       ,44
E9100PU/4,1,5055939925400       ,44
E9100PU/5,1,5055939925417       ,44
E5022BK/3,1,5055205360850       ,51
E9100CR/3,1,5055939925356       ,52
E9100CR/4,1,5055939925363       ,52
E9100CR/5,1,5055939925370       ,52
E8011/5,1,5055205308326       ,74
E6061UM/6,1,5055205352640       ,94
E0061/2,1,5055205323725       ,148
E0061/3,1,5055205323732       ,148
E0061/4,1,5055205323749       ,148
E0061/5,1,5055205323756       ,148
E0068BK/4,1,5055205367705       ,148
E0068BK/5,1,5055205367712       ,148
E0068BK/7,1,5055205367736       ,148
E0072BK/4,1,5055205335407       ,148
E0072BK/5,1,5055205335414       ,148
E0072BK/6,1,5055205335421       ,148
E0072GV/4,1,5055205390178       ,148
E0072GV/5,1,5055205390185       ,148
E0072GV/6,1,5055205390192       ,148
E0088BK/L-XL,1,5055205343211       ,148
E0088BK/S-M,1,5055205343204       ,148
E0095/4,1,5055205344331       ,148
E0095/5,1,5055205344348       ,148
E0095/6,1,5055205344355       ,148
E0095/7,1,5055205375977       ,148
E0098BK/L-XL,1,5055205363332       ,148
E0098BK/S-M,1,5055205363325       ,148
E0098YV/L-XL,1,5055205363349       ,148
E0098YV/S-M,1,5055205359571       ,148
E0107BK/4,1,5055205358123       ,148
E0107BK/5,1,5055205358130       ,148
E0107BK/6,1,5055205358147       ,148
E0107BK/7,1,5055205358154       ,148
E0110BK,2,5055205367224       ,148
E0110PK,2,5055205367231       ,148
E0110UM,2,5055205367248       ,148
E0130BK/4,1,5055939918006       ,148
E0130BK/5,1,5055939918013       ,148
E0130BK/6,1,5055939918020       ,148
E0130BK/7,1,5055939918037       ,148
E0132MB/4,1,5055939922027       ,148
E0132MB/5,1,5055939922034       ,148
E0132MB/6,1,5055939922041       ,148
E0132MB/7,1,5055939922058       ,148
E0132NA/4,1,5055939915074       ,148
E0132NA/5,1,5055939915081       ,148
E0132NA/6,1,5055939915098       ,148
E0132NA/7,1,5055939915104       ,148
E0150BK/0,2,5055939936925       ,148
E0150NA/0,2,5055939936932       ,148
E0151KH/0,2,5055939936963       ,148
E0151MY/0,2,5055939936956       ,148
E0151PT/0,2,5055939936949       ,148
E1023BK/3,1,5055205372396       ,148
E1023BK/4,1,5055205372402       ,148
E1023BK/5,1,5055205372419       ,148
E1023BK/6,1,5055205372426       ,148
E1024BK/2,1,5055205372570       ,148
E1024BK/3,1,5055205372587       ,148
E1024BK/4,1,5055205372594       ,148
E1024BK/5,1,5055205372600       ,148
E1024BK/6,1,5055205375519       ,148
E1041WH/0,2,5055939919881       ,148
E1042BK/L-XL,2,5055939923857       ,148
E1108BK/L-XL,1,5055205387987       ,148
E1108BK/S-M,1,5055205387970       ,148
E1109BK/L-XL,1,5055205388014       ,148
E1109BK/M-L,1,5055205388007       ,148
E1109BK/S-M,1,5055205387994       ,148
E1112BK/L-XL,1,5055205384689       ,148
E1112BK/S-M,1,5055205384672       ,148
E1120WH/5,1,5055205390284       ,148
E1120WH/6,1,5055205390291       ,148
E1120WH/7,1,5055205390307       ,148
E1125BK/4,1,5055205397061       ,148
E1125BK/5,1,5055205397078       ,148
E1125BK/6,1,5055205397085       ,148
E1125BK/7,1,5055205397092       ,148
E1125MB/4,1,5055939928241       ,148
E1125MB/5,1,5055939928258       ,148
E1125MB/6,1,5055939928265       ,148
E1125MB/7,1,5055939928272       ,148
E1128BK/L-XL,3,5055205398617       ,148
E1128BK/S-M,3,5055205399164       ,148
E1128WH/L-XL,3,5055205398624       ,148
E1128WH/S-M,3,5055205399614       ,148
E1129BK/0,2,5055205398631       ,148
E1129WH/0,2,5055205398648       ,148
E1130WH/L-XL,3,5055205398655       ,148
E1130WH/S-M,3,5055205399621       ,148
E1134BK/0,1,5055939902470       ,148
E1134BU/0,1,5055205399225       ,148
E1134KG/0,1,5055205399232       ,148
E1135BK/0,1,5055205399249       ,148
E1143BK/0,1,5055939905365       ,148
E1143BU/0,1,5055939905389       ,148
E1143KG/0,1,5055939905396       ,148
E1144BK/0,1,5055939905372       ,148
E1154BK/L-XL,1,5055939923949       ,148
E1154BK/M-L,1,5055939923956       ,148
E1155BK/L-XL,1,5055939928388       ,148
E1155BK/S-M,1,5055939928395       ,148
E1157BK/L-XL,1,5055939928418       ,148
E1157BK/S-M,1,5055939928425       ,148
E1158BK/L-XL,1,5055939928432       ,148
E1158BK/S-M,1,5055939928449       ,148
E1160BK/4,1,5055939928500       ,148
E1160BK/5,1,5055939928517       ,148
E1160BK/6,1,5055939928524       ,148
E1160BK/7,1,5055939928531       ,148
E1166BK/4,1,5055939929071       ,148
E1166BK/5,1,5055939929088       ,148
E1166BK/6,1,5055939929095       ,148
E1166BK/7,1,5055939929101       ,148
E1166WH/4,1,5055939929255       ,148
E1166WH/5,1,5055939929262       ,148
E1166WH/6,1,5055939929279       ,148
E1166WH/7,1,5055939929286       ,148
E1167BK/4,1,5055939929316       ,148
E1167BK/5,1,5055939929323       ,148
E1167BK/6,1,5055939929330       ,148
E1167BK/7,1,5055939929347       ,148
E1167WH/4,1,5055939929439       ,148
E1167WH/5,1,5055939929446       ,148
E1167WH/6,1,5055939929453       ,148
E1167WH/7,1,5055939929460       ,148
E1168BK/4,1,5055939929484       ,148
E1168BK/5,1,5055939929491       ,148
E1168BK/6,1,5055939929507       ,148
E1168BK/7,1,5055939929514       ,148
E1168NA/4,1,5055939929583       ,148
E1168NA/5,1,5055939929590       ,148
E1168NA/6,1,5055939929606       ,148
E1503WH/L-XL,1,5055205389615       ,148
E1503WH/M-L,1,5055205389608       ,148
E1503WH/S-M,1,5055205389592       ,148
E1504YV/L-XL,1,5055205389738       ,148
E1504YV/M-L,1,5055205389721       ,148
E1504YV/S-M,1,5055205389714       ,148
E1505GV/L-XL,1,5055939904443       ,148
E1505GV/M-L,1,5055939904450       ,148
E1505GV/S-M,1,5055939904467       ,148
E1505GY/L-XL,1,5055939930091       ,148
E1505GY/M-L,1,5055939930107       ,148
E1505GY/S-M,1,5055939930114       ,148
E1505WH/L-XL,1,5055939904542       ,148
E1505WH/M-L,1,5055939904559       ,148
E1505WH/S-M,1,5055939904566       ,148
E1506BK/S-M,1,5055939920047       ,148
E1506NA/L-XL,1,5055939922850       ,148
E1506NA/S-M,1,5055939922836       ,148
E1506OM/M-L,1,5055939926063       ,148
E1506WH/L-XL,1,5055939920092       ,148
E1506WH/M-L,1,5055939920085       ,148
E1506WH/S-M,1,5055939920078       ,148
E1511BK/L-XL,1,5055939930121       ,148
E1511BK/M-L,1,5055939930138       ,148
E1511BK/S-M,1,5055939930145       ,148
E1511PT/L-XL,1,5055939930152       ,148
E1511PT/M-L,1,5055939930169       ,148
E1511PT/S-M,1,5055939930176       ,148
E1511WH/L-XL,1,5055939930183       ,148
E1511WH/M-L,1,5055939930190       ,148
E1511WH/S-M,1,5055939930206       ,148
E1513BK/L-XL,1,5055939930275       ,148
E1513BK/M-L,1,5055939930282       ,148
E1513BK/S-M,1,5055939930299       ,148
E1513GV/L-XL,1,5055939930305       ,148
E1513GV/M-L,1,5055939930312       ,148
E1513WH/L-XL,1,5055939930336       ,148
E1513WH/M-L,1,5055939930343       ,148
E1513WH/S-M,1,5055939930350       ,148
E2013BK/4,1,5055205393186       ,148
E2013BK/5,1,5055205393193       ,148
E3096BK/4,1,5055205396071       ,148
E3096BK/5,1,5055205396088       ,148
E3102RD/4,1,5055939900155       ,148
E3102RD/5,1,5055939900162       ,148
E3102RD/6,1,5055939900179       ,148
E3102RD/7,1,5055939900186       ,148
E3102WH/4,1,5055939900209       ,148
E3102WH/5,1,5055939900216       ,148
E3102WH/6,1,5055939900223       ,148
E3109BK/5,1,5055939908977       ,148
E3109BK/7,1,5055939908991       ,148
E3109OC/7,1,5055939909141       ,148
E3109YV/4,1,5055939909011       ,148
E3109YV/5,1,5055939909028       ,148
E3109YV/6,1,5055939909035       ,148
E3109YV/7,1,5055939909042       ,148
E3125KH/4,1,5055939919324       ,148
E3125KH/5,1,5055939919331       ,148
E3125KH/6,1,5055939919348       ,148
E3125KH/7,1,5055939919355       ,148
E3125KH/8,1,5055939919362       ,148
E3125RD/4,1,5055939919263       ,148
E3125RD/5,1,5055939919270       ,148
E3125RD/6,1,5055939919287       ,148
E3125RD/7,1,5055939919294       ,148
E3125RD/8,1,5055939919300       ,148
E3138GY/4,1,5055939930893       ,148
E3138GY/5,1,5055939930909       ,148
E3138GY/6,1,5055939930916       ,148
E3138GY/7,1,5055939930923       ,148
E3138PT/4,1,5055939930947       ,148
E3138PT/5,1,5055939930954       ,148
E3138PT/6,1,5055939930961       ,148
E3138PT/7,1,5055939930978       ,148
E3139BK/3,1,5055939930985       ,148
E3139BK/4,1,5055939930992       ,148
E3139BK/5,1,5055939931005       ,148
E3139BK/6,1,5055939931012       ,148
E3139BK/7,1,5055939931029       ,148
E3139BK/8,1,5055939938196       ,148
E3139RD/3,1,5055939931036       ,148
E3139RD/4,1,5055939931043       ,148
E3139RD/5,1,5055939931050       ,148
E3139RD/6,1,5055939931067       ,148
E3139RD/7,1,5055939931074       ,148
E3139RD/8,1,5055939938202       ,148
E3140RD/4,1,5055939931197       ,148
E3140RD/5,1,5055939931203       ,148
E3140RD/6,1,5055939931210       ,148
E3140RD/7,1,5055939931227       ,148
E3142BK/4,1,5055939931364       ,148
E3142BK/5,1,5055939931371       ,148
E3142BK/6,1,5055939931388       ,148
E3142BK/7,1,5055939931395       ,148
E4013BK/4,1,5055205333878       ,148
E4013BK/5,1,5055205333885       ,148
E4013BK/6,1,5055205333892       ,148
E4013BK/7,1,5055205333908       ,148
E4029BK/4,1,5055939900971       ,148
E4029BK/5,1,5055939900988       ,148
E4029BK/6,1,5055939900995       ,148
E4029BK/7,1,5055939901008       ,148
E4029RD/4,1,5055939901022       ,148
E4029RD/5,1,5055939901039       ,148
E4029RD/6,1,5055939901046       ,148
E4029RD/7,1,5055939901053       ,148
E4030BK/3,1,5055939917474       ,148
E4030BK/4,1,5055939917481       ,148
E4031BK/3,1,5055939916965       ,148
E4031BK/4,1,5055939916972       ,148
E4031BK/5,1,5055939916989       ,148
E4031BK/6,1,5055939916996       ,148
E4031BK/7,1,5055939917009       ,148
E4032BK/5,1,5055939917559       ,148
E4032BK/6,1,5055939917566       ,148
E4032BK/7,1,5055939917573       ,148
E6061LL/4,1,5055205398549       ,148
E6061LL/5,1,5055205398556       ,148
E6061LL/6,1,5055205398563       ,148
E6061UM/2,1,5055205352312       ,148
E6061UM/3,1,5055205352329       ,148
E6061UM/4,1,5055205352336       ,148
E6061UM/5,1,5055205352343       ,148
E6061UM/6,1,5055205352640       ,148
E6078BK/3,1,5055205386669       ,148
E6078BK/4,1,5055205386676       ,148
E6090CE/2,1,5055205398440       ,148
E6090CE/3,1,5055205398457       ,148
E6090CE/4,1,5055205398464       ,148
E6090CE/5,1,5055205398471       ,148
E6090WH/3,1,5055205398419       ,148
E6090WH/4,1,5055205398426       ,148
E6090WH/5,1,5055205398433       ,148
E6091BK/2,1,5055205399072       ,148
E6091BK/3,1,5055205399089       ,148
E6091BK/4,1,5055205399096       ,148
E6091BK/5,1,5055205399102       ,148
E6091BK/6,1,5055939901329       ,148
E6095BK/2,1,5055939901114       ,148
E6095BK/3,1,5055939901121       ,148
E6095BK/4,1,5055939901138       ,148
E6095BK/5,1,5055939901145       ,148
E6095BK/6,1,5055939901152       ,148
E6097BK/2,1,5055939901206       ,148
E6097BK/3,1,5055939901213       ,148
E6097BK/4,1,5055939901220       ,148
E6097BK/5,1,5055939901237       ,148
E6104BK/2,1,5055939918358       ,148
E6104BK/3,1,5055939918365       ,148
E6104BK/4,1,5055939918372       ,148
E6104BK/6,1,5055939920924       ,148
E6104CE/2,1,5055939915692       ,148
E6104CE/3,1,5055939915708       ,148
E6104CE/4,1,5055939915715       ,148
E6104CE/5,1,5055939915722       ,148
E6104CE/6,1,5055939920931       ,148
E6105CE/2,1,5055939918396       ,148
E6105CE/3,1,5055939918402       ,148
E6105CE/4,1,5055939918419       ,148
E6105CE/5,1,5055939918426       ,148
E6105CE/6,1,5055939922317       ,148
E6105WH/2,1,5055939918433       ,148
E6105WH/3,1,5055939918440       ,148
E6105WH/4,1,5055939918457       ,148
E6105WH/5,1,5055939918464       ,148
E6105WH/6,1,5055939922324       ,148
E6108BK/2,1,5055939919584       ,148
E6108BK/3,1,5055939919591       ,148
E6108BK/4,1,5055939919607       ,148
E6108BK/5,1,5055939919614       ,148
E6108BK/6,1,5055939919621       ,148
E6108TL/2,1,5055939915814       ,148
E6108TL/3,1,5055939915821       ,148
E6108TL/4,1,5055939915838       ,148
E6108TL/5,1,5055939915845       ,148
E6108TL/6,1,5055939915753       ,148
E6110BK/2,1,5055939914664       ,148
E6110BK/3,1,5055939914671       ,148
E6110BK/4,1,5055939914688       ,148
E6110BK/6,1,5055939922331       ,148
E6110CO/2,1,5055939919751       ,148
E6110CO/3,1,5055939919768       ,148
E6110CO/4,1,5055939919775       ,148
E6110CO/5,1,5055939919782       ,148
E6110CR/2,1,5055939915852       ,148
E6110CR/3,1,5055939915869       ,148
E6110CR/4,1,5055939915876       ,148
E6110CR/5,1,5055939915883       ,148
E6119CO/2,1,5055939932675       ,148
E6119CO/3,1,5055939932682       ,148
E6119CO/4,1,5055939932699       ,148
E6119CO/5,1,5055939932705       ,148
E6119MY/2,1,5055939932712       ,148
E6119MY/3,1,5055939932729       ,148
E6120BK/3,1,5055939932767       ,148
E6120BK/4,1,5055939932774       ,148
E6120BK/5,1,5055939932781       ,148
E6122CO/3,1,5055939932927       ,148
E6122CO/4,1,5055939932934       ,148
E6122CO/5,1,5055939932941       ,148
E6125BK/4,1,5055939933054       ,148
E6125BK/5,1,5055939933061       ,148
E6125WH/4,1,5055939933139       ,148
E6125WH/5,1,5055939933146       ,148
E6131BK/3,1,5055939933641       ,148
E6131BK/4,1,5055939933658       ,148
E6131BK/5,1,5055939933665       ,148
E6131CO/3,1,5055939933689       ,148
E6131CO/4,1,5055939933696       ,148
E6131CO/5,1,5055939933702       ,148
E6132BK/3,1,5055939933726       ,148
E6132BK/4,1,5055939933733       ,148
E6132BK/5,1,5055939933740       ,148
E7105GY/4,1,5055205398785       ,148
E7105GY/5,1,5055205398792       ,148
E7105GY/6,1,5055205398808       ,148
E7105GY/7,1,5055205398815       ,148
E7106BK/2,1,5055205372716       ,148
E7106BK/3,1,5055205372723       ,148
E7106BK/4,1,5055205372730       ,148
E7106BK/5,1,5055205372747       ,148
E7107BK/2,1,5055205372754       ,148
E7107BK/3,1,5055205372761       ,148
E7107BK/4,1,5055205372778       ,148
E7110BK/K11,1,5055205387895       ,148
E7110BK/K7,1,5055205387871       ,148
E7110BK/K9,1,5055205387888       ,148
E7113GV/K11,1,5055205392707       ,148
E7113GV/K7,1,5055205392721       ,148
E7113GV/K9,1,5055205392714       ,148
E7117WH/4,1,5055939917078       ,148
E7117WH/5,1,5055939917085       ,148
E7117WH/6,1,5055939917092       ,148
E7121BK/K11,1,5055939914633       ,148
E7121BK/K7,1,5055939914640       ,148
E7121BK/K9,1,5055939914657       ,148
E7122BK/K11,1,5055939915951       ,148
E7122BK/K7,1,5055939915937       ,148
E7122BK/K9,1,5055939915944       ,148
E7123RD/K11,1,5055939919959       ,148
E7123RD/K7,1,5055939919966       ,148
E7123RD/K9,1,5055939919973       ,148
E7124BK/3,1,5055939923017       ,148
E7124BK/4,1,5055939923024       ,148
E7124BK/5,1,5055939923031       ,148
E7127BK/3,1,5055939934358       ,148
E7127BK/4,1,5055939934365       ,148
E7127BK/5,1,5055939934372       ,148
E7128BK/0,2,5055939934419       ,148
E7128GY/0,2,5055939934426       ,148
E8011/4,1,5055205308319       ,148
E8011/5,1,5055205308326       ,148
E8023/4,1,5055205309095       ,148
E8060BK/4,1,5055205393131       ,148
E8060BK/5,1,5055205393148       ,148
E8062BK/3,1,5055205398587       ,148
E8062BK/4,1,5055205398594       ,148
E8062BK/5,1,5055205398600       ,148
E8062BK/6,1,5055939902463       ,148
E8064BC/4,1,5055939936789       ,148
E8064BC/5,1,5055939936796       ,148
E8064GY/3,1,5055939916217       ,148
E8064GY/4,1,5055939916224       ,148
E8064GY/5,1,5055939916231       ,148
E8064GY/6,1,5055939916248       ,148
E8064GY/7,1,5055939916255       ,148
E8064GY/8,1,5055939916262       ,148
E8064GY/9,1,5055939916279       ,148
E8064KH/3,1,5055939916057       ,148
E8064KH/4,1,5055939916064       ,148
E8064KH/5,1,5055939916071       ,148
E8064KH/6,1,5055939916088       ,148
E8067BK/4,1,5055939916453       ,148
E8067BK/5,1,5055939916460       ,148
E8067BK/6,1,5055939916477       ,148
E8067BK/7,1,5055939916484       ,148
E8067OC/3,1,5055939916507       ,148
E8067OC/4,1,5055939916514       ,148
E8067OC/5,1,5055939916521       ,148
E8069BK/4,1,5055939916569       ,148
E8069BK/5,1,5055939916576       ,148
E8069BK/6,1,5055939916583       ,148
E8069NA/4,1,5055939919447       ,148
E8069NA/5,1,5055939919454       ,148
E8070BK/5,1,5055939916736       ,148
E8078BK/4,1,5055939934716       ,148
E8078BK/5,1,5055939934723       ,148
E8078BK/6,1,5055939934730       ,148
E9071YV/4,1,5055205369488       ,148
E9071YV/5,1,5055205369495       ,148
E9071YV/6,1,5055205369501       ,148
E9072PV/2,1,5055205369570       ,148
E9072PV/3,1,5055205369587       ,148
E9072PV/4,1,5055205369594       ,148
E9072UM/3,1,5055205369631       ,148
E9072UM/4,1,5055205369648       ,148
E9072UM/5,1,5055205369655       ,148
E9072UM/6,1,5055205369662       ,148
E9095BK/4,1,5055939918068       ,148
E9095BK/5,1,5055939918075       ,148
E9095BK/6,1,5055939918082       ,148
E9095BK/7,1,5055939918099       ,148
E9095YV/4,1,5055939918129       ,148
E9095YV/5,1,5055939918136       ,148
E9095YV/6,1,5055939918143       ,148
E9095YV/7,1,5055939918150       ,148
E9098CT/4,1,5055939925219       ,148
E9098CT/5,1,5055939925226       ,148
E9098CT/6,1,5055939925233       ,148
E9098NA/7,1,5055939925295       ,148
E9100CR/3,1,5055939925356       ,148
E9100CR/4,1,5055939925363       ,148
E9100CR/5,1,5055939925370       ,148
E9100PU/3,1,5055939925394       ,148
E9100PU/4,1,5055939925400       ,148
E9100PU/5,1,5055939925417       ,148
E9106BK/4,1,5055939935263       ,148
E9106BK/5,1,5055939935270       ,148
E9107BK/4,1,5055939935416       ,148
E9107BK/5,1,5055939935423       ,148
E9108BK/3,1,5055939935515       ,148
E9108BK/4,1,5055939935522       ,148
E9108BK/5,1,5055939935539       ,148
EM0054BK/3,1,5055939918723       ,148
EM0054BK/4,1,5055939918730       ,148
EM0054BK/5,1,5055939918747       ,148
EM0054BK/6,1,5055939918754       ,148
EM0054BK/7,1,5055939918761       ,148
EM0054NA/4,1,5055939916675       ,148
EM0054NA/5,1,5055939916682       ,148
EM0056BK/L-XL,1,5055939920023       ,148
EM0056BK/M-L,1,5055939920030       ,148
EM0056BK/S-M,1,5055939920016       ,148
EM0058NA/4,1,5055939935836       ,148
EM0058NA/5,1,5055939935843       ,148
EM0058NA/6,1,5055939935850       ,148
EM0058NA/7,1,5055939935867       ,148
E0068BK/3,1,5055205367699       ,157
E0068BK/6,1,5055205367729       ,157
E1042BK/S-M,2,5055939923864       ,157
E1506BK/L-XL,1,5055939920061       ,157
E1506BK/M-L,1,5055939920054       ,157
E1506NA/M-L,1,5055939922843       ,157
E4043BK/4,1,5055939931838       ,157
E4043BK/5,1,5055939931845       ,157
E6132BK/2,1,5055939933719       ,157
E6139BK/2,1,5055939932835       ,157
E6139BK/3,1,5055939932842       ,157
E6140BK/3,1,5055939934006       ,157
E6140BK/4,1,5055939934013       ,157
E6140BK/5,1,5055939934020       ,157
E6141BK/4,1,5055939934051       ,157
E6141BK/5,1,5055939934068       ,157
E9108CE/2,1,5055939935546       ,157
E9108CE/3,1,5055939935553       ,157
E9109BK/3,1,5055939935591       ,157
E9109BK/4,1,5055939935607       ,157
E9109BK/5,1,5055939935614       ,157
E9109CE/2,1,5055939935621       ,157
E9109CE/3,1,5055939935638       ,157
E0074BK/4,1,5055205337531       ,194
E0074BK/5,1,5055205337548       ,194
E6119MY/4,1,5055939932736       ,194
E6119MY/5,1,5055939932743       ,194
E7121BK/K11,1,5055939914633       ,209
E7121BK/K9,1,5055939914657       ,209
E7122BK/K11,1,5055939915951       ,209
E7122BK/K9,1,5055939915944       ,209
E1512BK/L-XL,1,5055939930213       ,210
E1512BK/M-L,1,5055939930220       ,210
E1512WH/M-L,1,5055939930251       ,210
