SKU,Maximum allowed,Barcode/EAN,Days left
E0062/4,1,5055205323770       ,20
E0062/5,2,5055205323787       ,20
E0062/6,2,5055205323794       ,20
E0062/7,1,5055205323800       ,20
E1131BK/L-XL,3,5055205398662       ,20
E1131BK/S-M,3,5055205398679       ,20
E1160BK/3,1,5055939928494       ,20
E1160BK/4,2,5055939928500       ,20
E1160BK/5,2,5055939928517       ,20
E1160BK/6,2,5055939928524       ,20
E1160BK/7,1,5055939928531       ,20
E1165BK/3,1,5055939928845       ,20
E1165BK/4,2,5055939928852       ,20
E1165BK/5,2,5055939928869       ,20
E1165BK/6,2,5055939928876       ,20
E1165BK/7,1,5055939928883       ,20
E1165RD/3,1,5055939929002       ,20
E1165RD/4,2,5055939929019       ,20
E1165RD/5,2,5055939929026       ,20
E1165RD/6,2,5055939929033       ,20
E1165RD/7,1,5055939929040       ,20
E1166BK/3,1,5055939929064       ,20
E1166BK/4,2,5055939929071       ,20
E1166BK/5,2,5055939929088       ,20
E1166BK/6,2,5055939929095       ,20
E1166BK/7,1,5055939929101       ,20
E1196BK/L-XL,1,5055939948874       ,20
E1196BK/M-L,1,5055939956510       ,20
E1196BK/S-M,1,5055939948867       ,20
E1505GY/L-XL,1,5055939930091       ,20
E1505GY/M-L,2,5055939930107       ,20
E1505MB/M-L,2,5055939904481       ,20
E1505MB/S-M,1,5055939904498       ,20
E1505WH/L-XL,1,5055939904542       ,20
E1505WH/M-L,2,5055939904559       ,20
E3142NA/4,1,5055939952673       ,20
E3142NA/5,1,5055939952680       ,20
E3142NA/6,1,5055939952697       ,20
E3173BK/4,1,5055939949604       ,20
E3173BK/5,1,5055939949611       ,20
E3173BK/6,1,5055939949628       ,20
E3173GF/3,1,5055939949642       ,20
E3173GF/4,1,5055939949659       ,20
E3173GF/5,1,5055939949666       ,20
E3174WH/4,1,5055939952864       ,20
E3174WH/5,1,5055939952871       ,20
E3174WH/6,1,5055939952888       ,20
E4028BK/4,1,5055939901077       ,20
E4028BK/5,1,5055939901084       ,20
E4028BK/6,1,5055939901091       ,20
E4029BK/3,1,5055939900964       ,20
E4029BK/5,2,5055939900988       ,20
E4029BK/6,1,5055939900995       ,20
E5067BK/3,1,5055939950716       ,20
E5067BK/4,1,5055939950723       ,20
E5067BK/5,1,5055939950730       ,20
E5067BK/6,1,5055939950747       ,20
E6095BK/3,1,5055939901121       ,20
E6095BK/4,1,5055939901138       ,20
E6095BK/5,1,5055939901145       ,20
E6095BK/6,1,5055939901152       ,20
E6097BK/2,1,5055939901206       ,20
E6097BK/3,2,5055939901213       ,20
E6097BK/4,2,5055939901220       ,20
E6097BK/5,1,5055939901237       ,20
E6119CO/3,1,5055939932682       ,20
E6119CO/4,1,5055939932699       ,20
E6119CO/5,1,5055939932705       ,20
E6126CE/3,1,5055939933207       ,20
E6126CE/4,2,5055939933214       ,20
E6126CE/5,2,5055939933221       ,20
E7117BK/3,1,5055939917016       ,20
E7117BK/4,2,5055939917023       ,20
E7117BK/5,2,5055939917030       ,20
E7117BK/6,1,5055939917047       ,20
E8064GY/3,1,5055939916217       ,20
E8064GY/4,2,5055939916224       ,20
E8064GY/5,2,5055939916231       ,20
E8064GY/6,2,5055939916248       ,20
E8064GY/7,1,5055939916255       ,20
E8065BK/3,1,5055939919140       ,20
E8065BK/4,2,5055939919157       ,20
E8065BK/5,2,5055939919164       ,20
E8065BK/6,1,5055939919171       ,20
E8073BK/3,1,5055939924663       ,20
E8073BK/4,1,5055939924670       ,20
E8073BK/5,1,5055939924687       ,20
E9106BV/3,1,5055939941370       ,20
E9106BV/4,1,5055939941387       ,20
E9106BV/5,1,5055939941394       ,20
E9106BV/6,1,5055939941400       ,20
E9108CE/3,1,5055939935553       ,20
E9108CE/4,1,5055939935560       ,20
E1160BK/4,1,5055939928500       ,91
E0128BK/6,2,5055939904955       ,205
E1118BK/6,2,5055205389998       ,205
E1157BK/L-XL,1,5055939928418       ,205
E1157BK/S-M,1,5055939928425       ,205
E1158BK/L-XL,1,5055939928432       ,205
E1184BK/4,1,5055939944432       ,205
E1184BK/5,2,5055939944449       ,205
E1184BK/6,2,5055939944456       ,205
E1184BK/7,1,5055939944463       ,205
E1187BK/6,1,5055939944791       ,205
E1225BK/L-XL,1,5055939959207       ,205
E1225BK/XL-XXL,1,5055939966564       ,205
E1227BK/L-XL,3,5055939966311       ,205
E1227BK/S-M,1,5055939959405       ,205
E5049BK/4,1,5055939924533       ,205
E5049BK/5,2,5055939924540       ,205
E5049BK/6,1,5055939924557       ,205
E8073BK/3,1,5055939924663       ,205
E8073BK/4,1,5055939924670       ,205
E8073BK/5,1,5055939924687       ,205
E9116CO/4,1,5055939942056       ,205
E9116CO/5,1,5055939942063       ,205
E9122BV/4,1,5055939945422       ,205
E9122BV/5,1,5055939945439       ,205
E9122BV/6,1,5055939945446       ,205
E1117BK/6,1,5055205390147       ,207
E1216BK/5,1,5055939958361       ,207
E1216BK/6,2,5055939958378       ,207
E1216BK/7,1,5055939958385       ,207
E3123BK/4,1,5055939915333       ,207
E3123BK/5,1,5055939915340       ,207
E3123BK/6,1,5055939915357       ,207
E3181NA/4,1,5055939958248       ,207
E3181NA/5,1,5055939958255       ,207
E3181NA/6,1,5055939958262       ,207
E9142GK/5,1,5055939957425       ,207
E9142GK/6,1,5055939957432       ,207
