SKU,Maximum allowed,Barcode/EAN,Days left
E0043BC,2,5055205324494       ,28
E0043GK/0,3,5055939961385       ,28
E0043WC,3,5055205324500       ,28
E0128BK/2,1,5055939904917       ,28
E0128BK/3,1,5055939904924       ,28
E0128BK/4,1,5055939904931       ,28
E0128BK/5,1,5055939904948       ,28
E0128BK/6,1,5055939904955       ,28
E0128BK/7,1,5055939904962       ,28
E1187BK/3,1,5055939944760       ,28
E1187BK/4,1,5055939944777       ,28
E1187BK/5,1,5055939944784       ,28
E1187BK/6,1,5055939944791       ,28
E1187BK/7,1,5055939944807       ,28
E5049BK/4,1,5055939924533       ,28
E5049BK/5,1,5055939924540       ,28
E5049BK/6,1,5055939924557       ,28
E6146BK/3,1,5055939942087       ,28
E6146BK/4,1,5055939942094       ,28
E6146BK/5,1,5055939942100       ,28
E8074BK/4,1,5055939924724       ,28
E8074BK/5,1,5055939924731       ,28
E8074BK/6,1,5055939924748       ,28
E8088BK/3,1,5055939943152       ,28
E8088BK/4,1,5055939943169       ,28
E8088BK/5,1,5055939943176       ,28
E8088BK/6,1,5055939943183       ,28
E9120BK/4,1,5055939943213       ,28
E9120BK/5,1,5055939943220       ,28
E9120BK/6,1,5055939943237       ,28
E0154BK/L-XL,3,5055939965987       ,29
E0154BK/S-M,3,5055939958149       ,29
E1218BK/L-XL,1,5055939958521       ,29
E1218BK/M-L,1,5055939958514       ,29
E1218BK/S-M,1,5055939958507       ,29
E1219BK/L-XL,1,5055939958545       ,29
E1219BK/S-M,1,5055939958538       ,29
E1220BK/L-XL,1,5055939958569       ,29
E1220BK/S-M,1,5055939958552       ,29
E1222BK/0,3,5055939958590       ,29
E1223BK/L-XL,3,5055939958613       ,29
E1223BK/S-M,3,5055939958606       ,29
E8100BK/4,1,5055939959146       ,29
E8100BK/5,1,5055939959153       ,29
E8100BK/6,1,5055939959160       ,29
E1182BK/L-XL,4,5055939942629       ,79
E3134BK/4,1,5055939924380       ,79
E3134BK/5,1,5055939924397       ,79
E3134BK/6,1,5055939924403       ,79
E3168BK/5,1,5055939954189       ,79
E3168BK/6,1,5055939954196       ,79
E3169BK/3,1,5055939954226       ,79
E3169BK/4,1,5055939954233       ,79
E3169BK/5,1,5055939954240       ,79
E5049BK/5,1,5055939924540       ,79
E5055BK/4,1,5055939941486       ,79
E5055BK/5,1,5055939941493       ,79
E5055BK/6,1,5055939941509       ,79
E6132BK/4,1,5055939933733       ,79
E8064GC/4,1,5055939950976       ,79
E8064GC/5,1,5055939950983       ,79
E8064GC/6,1,5055939950990       ,79
E8070BK/5,1,5055939916736       ,79
E8070BK/6,1,5055939916743       ,79
E9120YV/5,1,5055939943275       ,79
E8064GY/4,1,5055939916224       ,114
E8070BK/4,1,5055939916729       ,114
E8097GY/4,1,5055939950426       ,114
E1505WH/M-L,1,5055939904559       ,121
E1506BK/L-XL,1,5055939920061       ,121
E1506WH/L-XL,1,5055939920092       ,121
E1506WH/M-L,1,5055939920085       ,121
E1511KH/L-XL,1,5055939950402       ,121
E3109RD/5,1,5055939909073       ,121
E8065BK/6,1,5055939919171       ,121
E1192NA/0,1,5055939945330       ,162
E1192OR/0,1,5055939945354       ,162
E1506GF/M-L,1,5055939948966       ,162
E3134BK/5,1,5055939924397       ,162
E8088BK/4,1,5055939943169       ,170
E1535BK/0,1,5055939968810       ,198
E1165BK/2,1,5055939936352       ,210
E1165BK/3,2,5055939928845       ,210
E1165BK/4,3,5055939928852       ,210
E1165BK/5,3,5055939928869       ,210
E1165BK/6,3,5055939928876       ,210
E1165BK/7,1,5055939928883       ,210
E1166BK/2,1,5055939929057       ,210
E1166BK/3,2,5055939929064       ,210
E1166BK/4,3,5055939929071       ,210
E1166BK/5,3,5055939929088       ,210
E1166BK/6,3,5055939929095       ,210
E1166BK/7,1,5055939929101       ,210
E1258BK/3,1,5055939972602       ,210
E1258BK/4,2,5055939972619       ,210
E1258BK/5,2,5055939972626       ,210
E1258BK/6,2,5055939972633       ,210
E1259BK/4,1,5055939975603       ,210
E1259BK/5,1,5055939975610       ,210
E1259BK/6,1,5055939975627       ,210
E1505GY/M-L,4,5055939930107       ,210
E1505MB/M-L,4,5055939904481       ,210
E1505WH/L-XL,4,5055939904542       ,210
E3169BK/2,1,5055939954219       ,210
E3189BA/3,1,5055939972343       ,210
E3189BA/4,1,5055939972350       ,210
E3189BA/5,1,5055939972367       ,210
E3189BA/6,1,5055939972374       ,210
E3189BK/3,1,5055939972398       ,210
E3189BK/4,1,5055939972404       ,210
E3189BK/5,1,5055939972411       ,210
E3189BK/6,1,5055939972428       ,210
E3193BK/2,1,5055939975764       ,210
E3193BK/3,1,5055939975771       ,210
E3193BK/4,1,5055939975788       ,210
E3193BK/5,1,5055939975795       ,210
E3193BK/6,1,5055939975801       ,210
E3193YV/2,1,5055939975825       ,210
E3193YV/3,1,5055939975832       ,210
E3193YV/4,1,5055939975849       ,210
E3193YV/5,1,5055939975856       ,210
E3193YV/6,1,5055939975863       ,210
E6132BK/2,1,5055939933719       ,210
E6132BK/3,2,5055939933726       ,210
E6132BK/4,2,5055939933733       ,210
E6132BK/5,2,5055939933740       ,210
E6132BK/6,1,5055939936314       ,210
E6170BK/3,1,5055939973319       ,210
E6170BK/4,1,5055939973326       ,210
E6170BK/5,1,5055939973333       ,210
E6170GK/2,1,5055939973357       ,210
E6170GK/3,1,5055939973364       ,210
E6170GK/4,1,5055939973371       ,210
E6170GK/5,1,5055939973388       ,210
E6187CC/2,1,5055939977478       ,210
E6187CC/3,1,5055939977485       ,210
E6187CC/4,1,5055939977492       ,210
E6187CC/5,1,5055939977508       ,210
E6187GK/2,1,5055939977522       ,210
E6187GK/3,1,5055939977539       ,210
E6187GK/4,1,5055939977546       ,210
E7117BK/4,1,5055939917023       ,210
E7117BK/5,1,5055939917030       ,210
E7117BK/6,2,5055939917047       ,210
E7118BK/4,2,5055939914886       ,210
E7118BK/5,2,5055939914893       ,210
E7118BK/6,2,5055939914909       ,210
E7118BK/7,1,5055939914916       ,210
E8064BK/3,1,5055939915975       ,210
E8064BK/4,2,5055939915982       ,210
E8064BK/5,2,5055939915999       ,210
E8064BK/6,2,5055939916002       ,210
E8064GC/3,1,5055939950969       ,210
E8064GC/4,1,5055939950976       ,210
E8064GC/5,1,5055939950983       ,210
E8064GC/6,1,5055939950990       ,210
E3168BK/3,1,5055939954165       ,211
E3168BK/4,2,5055939954172       ,211
E3168BK/5,2,5055939954189       ,211
E3168BK/6,2,5055939954196       ,211
E3169BK/3,2,5055939954226       ,211
