SKU,Maximum allowed,Barcode/EAN,Days left
E0061/3,2,5055205323732       ,55
E1155BK/L-XL,1,5055939928388       ,55
E1155BK/S-M,1,5055939928395       ,55
E0127BK/4,1,5055939904825       ,69
E0127BK/5,1,5055939904832       ,69
E0127BK/6,1,5055939904849       ,69
E0127BK/7,1,5055939904856       ,69
E0128BK/4,2,5055939904931       ,69
E0128BK/5,3,5055939904948       ,69
E0128BK/6,2,5055939904955       ,69
E0128BK/7,1,5055939904962       ,69
E0152BK/L-XL,2,5055939958125       ,69
E0152BK/S-M,2,5055939958118       ,69
E1145BK/4,1,5055939908199       ,69
E1145BK/5,3,5055939908205       ,69
E1145BK/6,3,5055939908212       ,69
E1145BK/7,1,5055939910659       ,69
E1223BK/L-XL,2,5055939958613       ,69
E1223BK/S-M,2,5055939958606       ,69
E3158BK/4,1,5055939942421       ,69
E5049BK/3,1,5055939924526       ,69
E5049BK/4,3,5055939924533       ,69
E5049BK/5,3,5055939924540       ,69
E5049BK/6,2,5055939924557       ,69
E5056BK/3,1,5055939941820       ,69
E5056BK/4,2,5055939941837       ,69
E5056BK/5,2,5055939941844       ,69
E5056BK/6,2,5055939941851       ,69
E5056BK/7,1,5055939941868       ,69
E6146BK/3,1,5055939942087       ,69
E6146BK/4,1,5055939942094       ,69
E6146BK/5,1,5055939942100       ,69
E8074BK/3,1,5055939924717       ,69
E8074BK/4,1,5055939924724       ,69
E8074BK/5,1,5055939924731       ,69
E8088BK/3,1,5055939943152       ,69
E8088BK/4,1,5055939943169       ,69
E8088BK/5,1,5055939943176       ,69
E8088BK/6,1,5055939943183       ,69
E9122BK/3,1,5055939945361       ,69
E9122BK/4,1,5055939945378       ,69
E9122BK/6,1,5055939945392       ,69
E9122BV/3,1,5055939945415       ,69
E9122BV/4,1,5055939945422       ,69
E9122BV/5,1,5055939945439       ,69
E9122BV/6,1,5055939945446       ,69
E9143BK/4,1,5055939957463       ,69
E9143BK/5,1,5055939957470       ,69
E9143BK/6,1,5055939957487       ,69
E9148BK/3,1,5055939959993       ,69
E9148BK/4,1,5055939960005       ,69
E9148BK/5,1,5055939960012       ,69
E9148BK/6,1,5055939960029       ,69
EM0057BU/4,1,5055939946085       ,69
EM0057BU/5,1,5055939946092       ,69
EM0057BU/6,1,5055939946108       ,69
E3133AN/3,1,5055939957067       ,73
E3158BK/5,1,5055939942438       ,73
E3158BK/6,1,5055939942445       ,73
E9114BK/4,1,5055939941738       ,73
E9114BK/5,1,5055939941745       ,73
E9114BK/6,1,5055939941752       ,73
E9114BV/4,1,5055939941783       ,73
E9114BV/5,1,5055939941790       ,73
E9114BV/6,1,5055939941806       ,73
E9122BK/5,1,5055939945385       ,86
E6066BK/2,1,5055205363721       ,90
E3161BK/4,1,5055939944968       ,128
E9117OM/4,1,5055939942278       ,128
