SKU,Maximum allowed,Barcode/EAN,Days left
E1162BK/4,1,5055939928807       ,0
E1188BK/6,1,5055939944845       ,0
E1199RR/5,1,5055939949710       ,0
E3142BK/3,1,5055939931357       ,0
E3142BK/4,1,5055939931364       ,0
E3142BK/6,1,5055939931388       ,0
E4031BK/3,1,5055939916965       ,0
E4031BK/4,1,5055939916972       ,0
E4031BK/5,2,5055939916989       ,0
E5069BK/4,2,5055939951584       ,0
E5069BK/6,1,5055939951607       ,0
E6120BK/2,1,5055939932750       ,0
E6120BK/3,1,5055939932767       ,0
E6122BP/2,1,5055939951911       ,0
E6122BP/3,1,5055939951928       ,0
E7117BK/3,1,5055939917016       ,0
E7117BK/4,1,5055939917023       ,0
E1506WH/S-M,1,5055939920078       ,14
E3142BK/6,2,5055939931388       ,15
E4031BK/3,1,5055939916965       ,15
E4031BK/5,1,5055939916989       ,15
E9106BK/5,1,5055939935270       ,15
E5049BK/3,1,5055939924526       ,26
E9144BK/3,1,5055939957555       ,26
E9144BK/5,1,5055939957579       ,26
E3177BK/3,1,5055939957708       ,27
E3177BK/6,1,5055939957739       ,27
E9122BK/5,1,5055939945385       ,27
E1166BK/7,1,5055939929101       ,39
E1188BK/5,1,5055939944838       ,39
E1188BK/6,1,5055939944845       ,39
E4031BK/3,1,5055939916965       ,39
E7117BK/6,1,5055939917047       ,39
E1166BK/5,2,5055939929088       ,53
E1166BK/6,1,5055939929095       ,53
E5049BK/3,1,5055939924526       ,53
E5069BK/4,1,5055939951584       ,53
E5069BK/5,2,5055939951591       ,53
E6164GK/3,1,5055939958873       ,53
E9141BK/3,1,5055939951515       ,67
E9141BK/4,1,5055939951522       ,67
E1218BK/M-L,2,5055939958514       ,68
E1218BK/S-M,1,5055939958507       ,68
E1219BK/S-M,2,5055939958538       ,68
E1220BK/S-M,2,5055939958552       ,68
E1223BK/S-M,2,5055939958606       ,68
E1053BK/S-M,1,5055939958057       ,74
E1223BK/L-XL,2,5055939958613       ,74
E7125BK/4,2,5055939924625       ,74
E3181BK/3,2,5055939958187       ,89
E6163BK/4,1,5055939958835       ,89
E6164GK/2,1,5055939958866       ,103
E1162BK/4,2,5055939928807       ,195
E1162BK/5,2,5055939928814       ,195
E1162BK/6,2,5055939928821       ,195
E1162BK/7,1,5055939928838       ,195
E1166BK/5,2,5055939929088       ,195
E1166BK/6,2,5055939929095       ,195
E1166BK/7,1,5055939929101       ,195
E3192BK/3,1,5055939974682       ,195
E3192BK/4,2,5055939974699       ,195
E3192BK/5,2,5055939974705       ,195
E3192BK/6,1,5055939974712       ,195
E3192BK/7,1,5055939974729       ,195
E4070BK/M4,2,5055939979205       ,195
E4070BK/M5,2,5055939979212       ,195
E4070BK/M6,1,5055939979229       ,195
E4070BK/M7,1,5055939979236       ,195
E5069BK/3,1,5055939951577       ,195
E5069BK/4,2,5055939951584       ,195
E5069BK/5,2,5055939951591       ,195
E5069BK/6,1,5055939951607       ,195
E5069BK/7,1,5055939951614       ,195
E6124BK/2,1,5055939932996       ,195
E6124BK/3,2,5055939933009       ,195
E6124BK/4,2,5055939933016       ,195
E6124BK/5,1,5055939933023       ,195
E6124BK/6,1,5055939938233       ,195
E6127BK/3,1,5055939933320       ,195
E6127BK/4,2,5055939933337       ,195
E6127BK/5,2,5055939933344       ,195
E6127BK/6,1,5055939936338       ,195
E6173BP/2,1,5055939976006       ,195
E6173BP/3,2,5055939976013       ,195
E6173BP/4,2,5055939976020       ,195
E6173BP/5,1,5055939976037       ,195
E6173BP/6,1,5055939976044       ,195
E7117BK/3,1,5055939917016       ,195
E7117BK/4,2,5055939917023       ,195
E7117BK/5,2,5055939917030       ,195
E7117BK/6,1,5055939917047       ,195
E7117BK/7,1,5055939917054       ,195
E8086AN/3,1,5055939942780       ,195
E8086AN/4,1,5055939942797       ,195
E8086AN/5,1,5055939942803       ,195
E8086AN/6,1,5055939942810       ,195
E9106BK/4,2,5055939935263       ,195
E9106BK/5,2,5055939935270       ,195
E9106BK/7,1,5055939935294       ,195
E9113BK/4,2,5055939941134       ,195
E9113BK/7,1,5055939941165       ,195
