INVOICE,SIN648831
YOUR REF,SOR398620
DATE,02/12/2019
VALUE,343.26


SKU,Qty,Value,Name,Colour,Size
E1223BK/L-XL    ,3,27.62,FS260-Pro Skull Cap,Black,L-XL
E9145YM/3       ,1,81.28,MT500 Freezing Point Jacket,Mustard,S
E6066BK/5       ,1,32.46,Women's Gridlock II Trouser,Black,L
E3173GF/6       ,1,18.51,SingleTrack Core Print T ,Forest Green,XL
E6040BK/4       ,1,20.83,Women's Strike II Glove,Black,M
E9145YM/5       ,1,81.28,MT500 Freezing Point Jacket,Mustard,L
E9145YM/6       ,1,81.28,MT500 Freezing Point Jacket,Mustard,XL
