SKU,Maximum allowed,Barcode/EAN,Days left
E0089BK/5,2,5055205343693       ,17
E1108BK/L-XL,2,5055205387987       ,17
E1112BK/L-XL,1,5055205384689       ,17
E1157BK/S-M,3,5055939928425       ,17
E1202BK/S-M,2,5055939949901       ,17
E3170BK/7,2,5055939954301       ,17
E6067PV/4,1,5055205367620       ,17
E6106BK/3,1,5055939919492       ,17
E6124BK/3,1,5055939933009       ,17
E8067NA/4,1,5055939949307       ,17
E8067NA/5,1,5055939949314       ,17
E8075BK/4,2,5055939924779       ,17
E8075BK/5,3,5055939924786       ,17
E8075BK/6,2,5055939924793       ,17
E8075BK/7,1,5055939924809       ,17
E8077BK/2,1,5055939924861       ,17
E8081BK/7,1,5055939934990       ,17
E8090AN/4,1,5055939944333       ,17
E0063/4,2,5055205323831       ,22
E1250CL,2,5055939955797       ,22
E1506GF/L-XL,1,5055939948973       ,22
E1511BK/M-L,3,5055939930138       ,22
E3169BK/3,2,5055939954226       ,22
E3170BK/4,2,5055939954271       ,22
E3170BK/5,3,5055939954288       ,22
E3170BK/6,2,5055939954295       ,22
E4031BK/5,1,5055939916989       ,22
E6153BK/4,1,5055939953298       ,22
EM0053OM/4,1,5055939925905       ,22
E8070BK/5,1,5055939916736       ,23
E0035/3,3,5055205301440       ,30
E0035/5,10,5055205301457       ,30
E0110BK,3,5055205367224       ,30
E0110BP/0,3,5055939959726       ,30
E0110PK,3,5055205367231       ,30
E0110RR/0,3,5055939959719       ,30
E0110UM,3,5055205367248       ,30
E0110YM/0,3,5055939959702       ,30
E0128BK/3,1,5055939904924       ,30
E0128BK/4,2,5055939904931       ,30
E0128BK/5,3,5055939904948       ,30
E0128BK/6,3,5055939904955       ,30
E0128BK/7,2,5055939904962       ,30
E1038BK/L-XL,3,5055939906706       ,30
E1038BK/S-M,2,5055939906690       ,30
E1043BK/L-XL,5,5055939923871       ,30
E1043BK/S-M,2,5055939923888       ,30
E1117BK/4,2,5055205390123       ,30
E1117BK/5,8,5055205390130       ,30
E1118BK/4,2,5055205389974       ,30
E1118BK/5,8,5055205389981       ,30
E1118BK/6,8,5055205389998       ,30
E1118BK/7,2,5055205390000       ,30
E1119BK/4,1,5055205390543       ,30
E1119BK/5,2,5055205390550       ,30
E1119BK/6,2,5055205390567       ,30
E1119BK/7,1,5055205390574       ,30
E1120BK/4,2,5055205390222       ,30
E1120BK/5,5,5055205390239       ,30
E1120BK/6,2,5055205390246       ,30
E1120BK/7,1,5055205390253       ,30
E1145BK/3,1,5055939908182       ,30
E1145BK/4,2,5055939908199       ,30
E1145BK/5,3,5055939908205       ,30
E1145BK/6,3,5055939908212       ,30
E1145BK/7,2,5055939910659       ,30
E1181BK/3,1,5055939942513       ,30
E1181BK/4,2,5055939942520       ,30
E1181BK/5,3,5055939942537       ,30
E1181BK/6,2,5055939942544       ,30
E1181BK/7,1,5055939942551       ,30
E1182BK/L-XL,5,5055939942629       ,30
E1182BK/S-M,2,5055939942612       ,30
E1183BK/4,2,5055939944234       ,30
E1183BK/5,4,5055939944241       ,30
E1183BK/6,4,5055939944258       ,30
E1183BK/7,2,5055939944265       ,30
E1184BK/3,1,5055939944425       ,30
E1184BK/4,2,5055939944432       ,30
E1184BK/5,3,5055939944449       ,30
E1184BK/6,2,5055939944456       ,30
E1184BK/7,1,5055939944463       ,30
E1184GF/3,1,5055939959566       ,30
E1184GF/4,2,5055939959573       ,30
E1184GF/5,3,5055939959580       ,30
E1184GF/6,2,5055939959597       ,30
E1184GF/7,1,5055939959603       ,30
E1184NA/3,1,5055939944470       ,30
E1184NA/4,2,5055939944487       ,30
E1184NA/5,3,5055939944494       ,30
E1184NA/6,2,5055939944500       ,30
E1184NA/7,1,5055939944517       ,30
E1186BK/3,1,5055939944623       ,30
E1186BK/4,2,5055939944630       ,30
E1186BK/5,3,5055939944647       ,30
E1186BK/6,3,5055939944654       ,30
E1186BK/7,2,5055939944661       ,30
E1227BK/L-XL,6,5055939966311       ,30
E1227BK/S-M,2,5055939959405       ,30
E1227GK/L-XL,6,5055939966328       ,30
E1227GK/S-M,2,5055939960616       ,30
E1227RR/L-XL,6,5055939966335       ,30
E1227RR/S-M,2,5055939960609       ,30
E1250CL,5,5055939955797       ,30
E1251CL,5,5055939955803       ,30
E1301BK/3,3,5055205363523       ,30
E1301BK/4,7,5055205363530       ,30
E1301BK/5,8,5055205363547       ,30
E1301BK/6,4,5055205363554       ,30
E1301BK/7,2,5055205363561       ,30
E3181BK/4,1,5055939958194       ,30
E3182AN/6,1,5055939959054       ,30
E5049BK/4,3,5055939924533       ,30
E5049BK/5,3,5055939924540       ,30
E5049BK/6,2,5055939924557       ,30
E5049BK/7,1,5055939924564       ,30
E5050BK/4,2,5055939927718       ,30
E5050BK/5,2,5055939927725       ,30
E5050BK/6,1,5055939927732       ,30
E6040BK/3,2,5055939904986       ,30
E6040BK/4,2,5055939904993       ,30
E6040BK/5,1,5055939905006       ,30
E6067BK/3,2,5055205367651       ,30
E6067BK/4,2,5055205367668       ,30
E6067BK/5,1,5055205367675       ,30
E6067PV/3,2,5055205367613       ,30
E6067PV/4,2,5055205367620       ,30
E6067PV/5,1,5055205367637       ,30
E8073BK/4,8,5055939924670       ,30
E8073BK/5,8,5055939924687       ,30
E8073BK/6,4,5055939924694       ,30
E8073BK/7,2,5055939924700       ,30
E8074BK/3,2,5055939924717       ,30
E8074BK/4,8,5055939924724       ,30
E8074BK/7,2,5055939924755       ,30
E8077BK/3,2,5055939924878       ,30
E8077BK/4,2,5055939924885       ,30
E8083BK/6,2,5055939942346       ,30
E8083BK/7,1,5055939942353       ,30
E8085AN/3,1,5055939956183       ,30
E8085AN/4,3,5055939956190       ,30
E8085AN/5,4,5055939956206       ,30
E8085AN/6,2,5055939956213       ,30
E8085AN/7,1,5055939956220       ,30
E8100BK/3,1,5055939959139       ,30
E8100BK/4,3,5055939959146       ,30
E8100BK/5,5,5055939959153       ,30
E8100BK/6,4,5055939959160       ,30
E8100BK/7,2,5055939959177       ,30
E9099BK/3,1,5055939942841       ,30
E9099CO/3,1,5055939925318       ,30
E9099CO/4,1,5055939925325       ,30
E9113BK/4,1,5055939941134       ,30
E9113BK/5,1,5055939941141       ,30
E9113BK/6,1,5055939941158       ,30
E9113BK/7,1,5055939941165       ,30
E9113GK/4,1,5055939957319       ,30
E9113GK/5,1,5055939957326       ,30
E9113GK/6,1,5055939957333       ,30
E9117BK/4,1,5055939942179       ,30
E9117BK/5,2,5055939942186       ,30
E9117BK/6,1,5055939942193       ,30
E9117OM/6,2,5055939942292       ,30
E9137AN/4,2,5055939946276       ,30
E9137AN/5,2,5055939946283       ,30
E9137RD/4,2,5055939946320       ,30
E9137RD/5,2,5055939946337       ,30
EM0053GF/4,1,5055939951409       ,30
EM0053GF/5,1,5055939951416       ,30
EM0053OM/4,1,5055939925905       ,30
EM0053OM/5,1,5055939925912       ,30
EM0057BK/4,1,5055939925950       ,30
EM0057BK/5,2,5055939925967       ,30
EM0057BK/6,2,5055939925974       ,30
EM0057BK/7,1,5055939925981       ,30
EM0057BU/4,1,5055939946085       ,30
EM0057BU/5,1,5055939946092       ,30
EM0057BU/6,1,5055939946108       ,30
E0152BK/L-XL,5,5055939958125       ,32
E0152BK/S-M,3,5055939958118       ,32
E0153BK/L-XL,5,5055939965970       ,32
E0153BK/S-M,3,5055939958132       ,32
E0154BK/L-XL,5,5055939965987       ,32
E0154BK/S-M,3,5055939958149       ,32
E1052BK/L-XL,1,5055939958040       ,32
E1052BK/M-L,2,5055939958033       ,32
E1052BK/S-M,1,5055939958026       ,32
E1053BK/L-XL,1,5055939958071       ,32
E1053BK/M-L,2,5055939958064       ,32
E1054BK/L-XL,1,5055939958101       ,32
E1054BK/S-M,1,5055939958088       ,32
E1117BK/6,4,5055205390147       ,32
E1117BK/7,2,5055205390154       ,32
E1218BK/L-XL,1,5055939958521       ,32
E1218BK/M-L,2,5055939958514       ,32
E1218BK/S-M,1,5055939958507       ,32
E1219BK/L-XL,1,5055939958545       ,32
E1219BK/S-M,1,5055939958538       ,32
E1220BK/L-XL,1,5055939958569       ,32
E1220BK/S-M,1,5055939958552       ,32
E1221BK/L-XL,1,5055939958583       ,32
E1221BK/S-M,1,5055939958576       ,32
E1222BK/0,5,5055939958590       ,32
E1223BK/L-XL,5,5055939958613       ,32
E1223BK/S-M,3,5055939958606       ,32
E1225BK/L-XL,3,5055939959207       ,32
E1225BK/M-L,2,5055939959191       ,32
E1225BK/XL-XXL,3,5055939966564       ,32
E1226BK/0,10,5055939959399       ,32
E1226GK/0,10,5055939960593       ,32
E3178BK/3,1,5055939957869       ,32
E3178BK/4,3,5055939957876       ,32
E3178BK/5,4,5055939957883       ,32
E3178BK/6,3,5055939957890       ,32
E3179BK/3,1,5055939957920       ,32
E3179BK/4,3,5055939957937       ,32
E3179BK/5,4,5055939957944       ,32
E3179BK/7,2,5055939957968       ,32
E3182AN/4,1,5055939959030       ,32
E3182AN/5,2,5055939959047       ,32
E3183BK/3,1,5055939959290       ,32
E3183BK/4,2,5055939959306       ,32
E3183BK/5,2,5055939959313       ,32
E3183BK/6,2,5055939959320       ,32
E3183BK/7,1,5055939959337       ,32
E3183GK/3,1,5055939960449       ,32
E3183GK/4,2,5055939960456       ,32
E3183GK/5,2,5055939960463       ,32
E3183GK/6,2,5055939960470       ,32
E3183GK/7,1,5055939960487       ,32
E3183RR/3,1,5055939960494       ,32
E3183RR/4,2,5055939960500       ,32
E3183RR/5,2,5055939960517       ,32
E3183RR/6,2,5055939960524       ,32
E3183RR/7,1,5055939960531       ,32
E6163BK/3,2,5055939958828       ,32
E6163BK/4,2,5055939958835       ,32
E6163BK/5,1,5055939958842       ,32
E6165BK/3,1,5055939959351       ,32
E6165BK/4,1,5055939959368       ,32
E6165BK/5,1,5055939959375       ,32
E6165BP/3,1,5055939960555       ,32
E6165BP/4,1,5055939960562       ,32
E6165BP/5,1,5055939960579       ,32
E9142BK/4,1,5055939957364       ,32
E9142BK/5,1,5055939957371       ,32
E9142BK/6,1,5055939957388       ,32
E9142GK/4,1,5055939957418       ,32
E9142GK/5,2,5055939957425       ,32
E9142GK/6,1,5055939957432       ,32
E9142GK/7,1,5055939957449       ,32
E9143BK/5,2,5055939957470       ,32
E9143BK/6,1,5055939957487       ,32
E9143BK/7,1,5055939957494       ,32
E9143GK/4,1,5055939957517       ,32
E9143GK/5,2,5055939957524       ,32
E9143GK/6,1,5055939957531       ,32
E9148BK/4,1,5055939960005       ,32
E9148BK/5,2,5055939960012       ,32
E9148BK/6,1,5055939960029       ,32
E0066BK,2,5055205340234       ,36
E1157BK/L-XL,2,5055939928418       ,36
E1158BK/L-XL,2,5055939928432       ,36
E1202GF/L-XL,2,5055939949932       ,36
E3158BK/7,1,5055939942452       ,36
E8074BK/3,1,5055939924717       ,36
E8074BK/5,8,5055939924731       ,36
E8074BK/6,4,5055939924748       ,36
E8075BK/4,2,5055939924779       ,36
E8091BK/4,2,5055939948256       ,36
E8091BK/5,2,5055939948263       ,36
E8091BK/6,1,5055939948270       ,36
E9119BA/7,1,5055939943015       ,36
E9145YM/4,2,5055939961132       ,36
E9145YM/5,2,5055939961149       ,36
E8064BK/5,1,5055939915999       ,37
E3181NA/4,1,5055939958248       ,38
E3181NA/5,2,5055939958255       ,38
E3181NA/6,1,5055939958262       ,38
E8074BK/3,1,5055939924717       ,39
E0089BK/3,1,5055205343679       ,43
E0089BK/4,1,5055205343686       ,43
E1128BK/L-XL,3,5055205398617       ,43
E1135BK/0,2,5055205399249       ,43
E1505KH/S-M,1,5055939951294       ,43
E1505MB/S-M,1,5055939904498       ,43
E1518BK/M-L,2,5055939948898       ,43
E3123GF/6,1,5055939948522       ,43
E1518GF/L-XL,2,5055939948935       ,44
E1518GF/M-L,2,5055939948928       ,44
E1518GF/S-M,1,5055939948911       ,44
E3178BK/7,2,5055939957906       ,46
E3179BK/6,1,5055939957951       ,46
E9099CC/3,1,5055939960302       ,50
E9099CC/4,1,5055939960319       ,50
E9117YM/4,1,5055939960999       ,50
E9117YM/5,2,5055939961002       ,50
E9117YM/6,1,5055939961019       ,50
E9147GF/4,1,5055939959429       ,50
E9147GF/5,2,5055939959436       ,50
E9147GF/6,1,5055939959443       ,50
E9147NA/4,1,5055939959474       ,50
E9147NA/5,2,5055939959481       ,50
E9147NA/6,1,5055939959498       ,50
E9147RR/4,1,5055939959528       ,50
E9147RR/5,2,5055939959535       ,50
E9147RR/6,1,5055939959542       ,50
E9150CV/3,1,5055939960357       ,50
E9150CV/4,1,5055939960364       ,50
E9150GK/3,1,5055939960401       ,50
E9150GK/4,1,5055939960418       ,50
E3181BK/5,2,5055939958200       ,57
E3181BK/6,2,5055939958217       ,57
E3181BK/7,1,5055939958224       ,57
E3181RR/4,1,5055939958293       ,57
E3181RR/5,2,5055939958309       ,57
E3181RR/6,1,5055939958316       ,57
E8083BK/3,2,5055939942315       ,57
E8083BK/4,3,5055939942322       ,57
E8083BK/5,4,5055939942339       ,57
E9145BK/3,1,5055939959085       ,57
E9145BK/4,3,5055939959092       ,57
E9145BK/5,5,5055939959108       ,57
E9145BK/6,4,5055939959115       ,57
E9145BK/7,2,5055939959122       ,57
E0061/3,2,5055205323732       ,64
E0063/5,1,5055205323848       ,64
E3123BK/7,1,5055939915364       ,64
E3168BK/4,3,5055939954172       ,64
E3168BK/5,3,5055939954189       ,64
E3168BK/6,2,5055939954196       ,64
E3168BK/7,1,5055939954202       ,64
E3170BK/3,1,5055939954264       ,64
E3170BK/4,3,5055939954271       ,64
E3170BK/5,4,5055939954288       ,64
E3170BK/6,2,5055939954295       ,64
E8067NA/5,1,5055939949314       ,64
E8083BK/4,3,5055939942322       ,64
E8090AN/3,2,5055939944326       ,64
E8090AN/4,1,5055939944333       ,64
E8090AN/5,1,5055939944340       ,64
E8092BK/4,2,5055939948355       ,64
E9117BK/4,3,5055939942179       ,64
E9117GF/4,1,5055939948157       ,64
E9117GF/5,2,5055939948164       ,64
E9117GF/6,1,5055939948171       ,64
E9137RD/7,1,5055939946351       ,64
E9147GF/4,1,5055939959429       ,64
E0045,2,5055205315935       ,66
E0128BK/4,2,5055939904931       ,66
E0128BK/5,3,5055939904948       ,66
E1053BK/S-M,1,5055939958057       ,66
E1054BK/M-L,2,5055939958095       ,66
E1119BK/7,1,5055205390574       ,66
E1138BK/0,1,5055939901367       ,66
E1181BK/5,2,5055939942537       ,66
E1250CL,10,5055939955797       ,66
E3179BK/6,2,5055939957951       ,66
E8093BK/4,1,5055939948782       ,66
E9099CC/3,1,5055939960302       ,66
E9119GF/5,1,5055939949000       ,66
E1181BK/6,2,5055939942544       ,71
E1181BK/7,1,5055939942551       ,71
E1184BK/3,1,5055939944425       ,71
E1184BK/4,2,5055939944432       ,71
E1511BK/M-L,2,5055939930138       ,71
E8073BK/3,1,5055939924663       ,71
E9099BK/4,1,5055939942858       ,71
E9099BK/5,1,5055939942865       ,71
E9117BK/3,1,5055939942162       ,71
E9117OM/4,2,5055939942278       ,71
E9117OM/5,3,5055939942285       ,71
E9117OM/6,2,5055939942292       ,71
E9118PW/5,1,5055939942650       ,71
E9147NA/4,1,5055939959474       ,71
E9147NA/5,1,5055939959481       ,71
E8083BK/6,1,5055939942346       ,72
E1043BK/S-M,3,5055939923888       ,74
E1196BK/M-L,1,5055939956510       ,74
E1196BK/S-M,1,5055939948867       ,74
E8077BK/4,2,5055939924885       ,74
E8100BK/4,4,5055939959146       ,74
E1183BK/7,1,5055939944265       ,78
E8074BK/4,1,5055939924724       ,79
E0062/4,2,5055205323770       ,86
E0062/5,2,5055205323787       ,86
E0062/6,2,5055205323794       ,86
E0062/7,1,5055205323800       ,86
E1108BK/L-XL,2,5055205387987       ,86
E1109BK/L-XL,1,5055205388014       ,86
E1155BK/S-M,1,5055939928395       ,86
E1195BK/L-XL,1,5055939948836       ,86
E1196BK/L-XL,2,5055939948874       ,86
E1251CL,10,5055939955803       ,86
E1506GF/L-XL,1,5055939948973       ,86
E3168BK/4,2,5055939954172       ,86
E3169BK/3,2,5055939954226       ,86
E3169BK/4,2,5055939954233       ,86
E3169BK/5,1,5055939954240       ,86
E7120BK/4,1,5055939915500       ,86
E7120BK/6,1,5055939915524       ,86
E8073BK/7,2,5055939924700       ,86
E8074BK/4,3,5055939924724       ,86
E8074BK/6,2,5055939924748       ,86
E8077BK/2,1,5055939924861       ,86
E8077BK/5,1,5055939924892       ,86
E8092GF/3,1,5055939948393       ,86
E9099CC/4,1,5055939960319       ,86
E9117CC/3,1,5055939960920       ,86
E9117CC/4,1,5055939960937       ,86
E9117CC/5,2,5055939960944       ,86
E9117CC/6,1,5055939960951       ,86
E9117YM/6,1,5055939961019       ,86
E9120YV/7,1,5055939943299       ,86
E9147NA/5,1,5055939959481       ,86
E9117BK/6,2,5055939942193       ,88
E0128BK/5,2,5055939904948       ,92
E0154BK/L-XL,5,5055939965987       ,92
E1170BK/0,1,5055939929828       ,92
E1170YV/0,1,5055939929842       ,92
E1174PT/0,2,5055939929996       ,92
E1181BK/7,1,5055939942551       ,92
E1183BK/5,3,5055939944241       ,92
E1184BK/6,1,5055939944456       ,92
E1195BK/M-L,1,5055939956503       ,92
E1202BK/L-XL,2,5055939949918       ,92
E1227RR/S-M,2,5055939960609       ,92
E8073BK/6,1,5055939924694       ,92
E8083BK/4,3,5055939942322       ,92
E8083BK/5,2,5055939942339       ,92
E8083BK/6,2,5055939942346       ,92
E7120BK/4,1,5055939915500       ,94
E8074BK/4,1,5055939924724       ,94
E0045,2,5055205315935       ,102
E1117BK/7,3,5055205390154       ,102
E1170CL/0,1,5055939951331       ,102
E1171BK/0,1,5055939929859       ,102
E1174BK/0,2,5055939929972       ,102
E1225BK/XL-XXL,2,5055939966564       ,102
E1252CL,10,5055939955810       ,102
E4055BK/5,1,5055939953083       ,102
E4055BK/7,1,5055939953106       ,102
E7120BK/5,2,5055939915517       ,102
E7120BK/6,1,5055939915524       ,102
E7120BK/7,1,5055939915531       ,102
E8064BK/8,1,5055939916026       ,102
E8073BK/4,2,5055939924670       ,102
E8074BK/3,1,5055939924717       ,102
E8084CC/3,1,5055939961033       ,102
E8100BK/6,2,5055939959160       ,102
E9116CO/4,1,5055939942056       ,102
E9117GF/3,1,5055939948140       ,102
E9145YM/5,2,5055939961149       ,102
E9145YM/7,1,5055939961163       ,102
E1196BK/M-L,1,5055939956510       ,103
E0152BK/L-XL,2,5055939958125       ,109
E1505MB/L-XL,1,5055939904474       ,109
E1505MB/M-L,2,5055939904481       ,109
E1518GF/M-L,1,5055939948928       ,109
E8100BK/7,1,5055939959177       ,109
E9117OM/6,2,5055939942292       ,110
E1118BK/5,1,5055205389981       ,115
E1512WH/L-XL,1,5055939930244       ,115
E1052BK/L-XL,1,5055939958040       ,120
E1138BK/0,2,5055939901367       ,120
E1170CL/0,1,5055939951331       ,120
E1184BK/6,2,5055939944456       ,120
E1184GF/6,1,5055939959597       ,120
E1218BK/L-XL,1,5055939958521       ,120
E1219BK/S-M,1,5055939958538       ,120
E1225BK/XL-XXL,2,5055939966564       ,120
E1511RR/L-XL,1,5055939959634       ,120
E1511RR/M-L,1,5055939959627       ,120
E1511RR/S-M,1,5055939959610       ,120
E3168BK/5,3,5055939954189       ,120
E3169BK/2,1,5055939954219       ,120
E3169BK/5,2,5055939954240       ,120
E3170BK/3,1,5055939954264       ,120
E3170BK/7,2,5055939954301       ,120
E5049BK/5,2,5055939924540       ,120
E5049BK/7,1,5055939924564       ,120
E5050BK/5,1,5055939927725       ,120
E6040BK/4,1,5055939904993       ,120
E6067BK/5,1,5055205367675       ,120
E6067PV/2,1,5055205367606       ,120
E6067PV/5,1,5055205367637       ,120
E8090AN/4,1,5055939944333       ,120
E9117YM/6,1,5055939961019       ,120
E1181BK/3,1,5055939942513       ,122
E1181BK/5,2,5055939942537       ,122
E6040BK/5,1,5055939905006       ,122
E8084BK/5,1,5055939942384       ,124
E9145BK/7,1,5055939959122       ,124
E1223BK/L-XL,3,5055939958613       ,127
E3173GF/6,1,5055939949673       ,127
E6040BK/4,1,5055939904993       ,127
E6066BK/5,1,5055205363752       ,127
E9145YM/3,1,5055939961125       ,127
E9145YM/5,1,5055939961149       ,127
E9145YM/6,1,5055939961156       ,127
E1119BK/5,1,5055205390550       ,134
E8066BK/4,1,5055939916347       ,134
E9145YM/4,2,5055939961132       ,134
E0154BK/L-XL,5,5055939965987       ,144
E1053BK/L-XL,1,5055939958071       ,144
E1195BK/L-XL,1,5055939948836       ,144
E3142BK/6,1,5055939931388       ,144
E5050BK/5,1,5055939927725       ,144
E5050BK/6,1,5055939927732       ,144
E8084BK/5,1,5055939942384       ,144
E8093BK/6,2,5055939948805       ,144
E9117YM/6,1,5055939961019       ,144
E9145BK/3,1,5055939959085       ,144
E1117BK/6,2,5055205390147       ,165
E1118BK/6,2,5055205389998       ,165
E1145BK/3,1,5055939908182       ,165
E1145BK/4,2,5055939908199       ,165
E1181BK/6,1,5055939942544       ,165
E1181BK/7,1,5055939942551       ,165
E1183BK/6,2,5055939944258       ,165
E1227BK/S-M,1,5055939959405       ,165
E1227GK/L-XL,1,5055939966328       ,165
E1511BK/S-M,1,5055939930145       ,165
E3125RD/5,1,5055939919270       ,165
E3125RD/6,1,5055939919287       ,165
E4054BK/5,1,5055939953182       ,165
E4054BK/6,1,5055939953199       ,165
E6040BK/3,1,5055939904986       ,165
E8064BK/8,1,5055939916026       ,165
E9117BK/5,1,5055939942186       ,165
E1511BK/M-L,2,5055939930138       ,166
E1117BK/7,2,5055205390154       ,170
E6066BK/4,1,5055205363745       ,172
E8074BK/4,3,5055939924724       ,172
E8074BK/6,2,5055939924748       ,172
E1119BK/6,2,5055205390567       ,176
E1511BK/L-XL,2,5055939930121       ,176
E1511KH/L-XL,1,5055939950402       ,176
E8083BK/3,1,5055939942315       ,176
E8083BK/4,3,5055939942322       ,176
E8083BK/5,1,5055939942339       ,176
E8083BK/6,2,5055939942346       ,176
E1181BK/7,2,5055939942551       ,177
E1223BK/L-XL,3,5055939958613       ,177
E1226BK/0,5,5055939959399       ,177
E1505KH/M-L,1,5055939951300       ,177
E1511KH/L-XL,1,5055939950402       ,177
E1511KH/M-L,1,5055939950396       ,177
E1511KH/S-M,1,5055939950389       ,177
E1511RR/M-L,1,5055939959627       ,177
E7120BK/6,2,5055939915524       ,177
E8073BK/3,1,5055939924663       ,177
E8073BK/4,4,5055939924670       ,177
E8084CC/7,1,5055939961071       ,177
E1117BK/6,2,5055205390147       ,183
E1227GK/S-M,1,5055939960616       ,183
E1505KH/L-XL,1,5055939951317       ,183
E9102BK/6,1,5055939925547       ,183
E3168BK/5,5,5055939954189       ,192
E3168BK/7,2,5055939954202       ,192
E1195BK/L-XL,2,5055939948836       ,193
E1195BK/M-L,4,5055939956503       ,193
E1195BK/S-M,2,5055939948829       ,193
E1505KH/S-M,2,5055939951294       ,193
E1505MB/L-XL,2,5055939904474       ,193
E1505RD/M-L,2,5055939951270       ,193
E7131BK/K9,2,5055939949963       ,193
E7132BK/K11,2,5055939949994       ,193
E0062/5,5,5055205323787       ,201
E0128BK/7,2,5055939904962       ,205
E1192OR/0,3,5055939945354       ,205
E1256BK/L-XL,1,5055939971858       ,205
E1506WH/L-XL,1,5055939920092       ,205
E8090AN/7,1,5055939944364       ,205
E0041,1,5055205301938       ,212
E0045,1,5055205315935       ,212
E0048,1,5055205315966       ,212
E0066MB,1,5055939901312       ,212
E0132BK/3,1,5055939915005       ,212
E0132BK/4,2,5055939915012       ,212
E0132BK/6,2,5055939915036       ,212
E0132BK/7,1,5055939915043       ,212
E1052BK/L-XL,2,5055939958040       ,212
E1052BK/M-L,2,5055939958033       ,212
E1052BK/S-M,1,5055939958026       ,212
E1053BK/L-XL,1,5055939958071       ,212
E1053BK/M-L,2,5055939958064       ,212
E1053BK/S-M,1,5055939958057       ,212
E1054BK/L-XL,1,5055939958101       ,212
E1054BK/M-L,2,5055939958095       ,212
E1054BK/S-M,1,5055939958088       ,212
E1138BK/0,1,5055939901367       ,212
E1138RD/0,1,5055939901381       ,212
E1138WH/0,1,5055939901374       ,212
E1166BK/3,1,5055939929064       ,212
E1166BK/4,3,5055939929071       ,212
E1166BK/5,3,5055939929088       ,212
E1166BK/6,2,5055939929095       ,212
E1166BK/7,1,5055939929101       ,212
E1166NA/3,1,5055939952727       ,212
E1166NA/4,3,5055939952734       ,212
E1166NA/5,3,5055939952741       ,212
E1166NA/6,2,5055939952758       ,212
E1166NA/7,1,5055939952765       ,212
E1166RR/3,1,5055939974903       ,212
E1166RR/4,2,5055939974910       ,212
E1166RR/5,2,5055939974927       ,212
E1166RR/6,2,5055939974934       ,212
E1166RR/7,1,5055939974941       ,212
E1168BK/3,1,5055939929477       ,212
E1168BK/4,2,5055939929484       ,212
E1168BK/5,2,5055939929491       ,212
E1168BK/6,2,5055939929507       ,212
E1168BK/7,1,5055939929514       ,212
E1168NA/3,1,5055939929576       ,212
E1168NA/4,2,5055939929583       ,212
E1168NA/5,2,5055939929590       ,212
E1168NA/6,2,5055939929606       ,212
E1168NA/7,1,5055939929613       ,212
E1168OT/3,1,5055939971575       ,212
E1168OT/4,2,5055939971582       ,212
E1168OT/5,2,5055939971599       ,212
E1168OT/6,2,5055939971605       ,212
E1168OT/7,1,5055939971612       ,212
E1170BK/0,1,5055939929828       ,212
E1170CL/0,1,5055939951331       ,212
E1170YV/0,1,5055939929842       ,212
E1171BK/0,1,5055939929859       ,212
E1171WH/0,1,5055939929866       ,212
E1174BK/0,1,5055939929972       ,212
E1174GY/0,1,5055939929989       ,212
E1174PT/0,1,5055939929996       ,212
E1181BK/6,1,5055939942544       ,212
E1184BK/3,1,5055939944425       ,212
E1184BK/4,2,5055939944432       ,212
E1184GF/3,1,5055939959566       ,212
E1184GF/4,2,5055939959573       ,212
E1184GF/5,2,5055939959580       ,212
E1184GF/6,2,5055939959597       ,212
E1184GF/7,1,5055939959603       ,212
E1184NA/3,1,5055939944470       ,212
E1184NA/4,2,5055939944487       ,212
E1184NA/5,2,5055939944494       ,212
E1184NA/6,2,5055939944500       ,212
E1184NA/7,1,5055939944517       ,212
E1195BK/L-XL,2,5055939948836       ,212
E1195BK/M-L,2,5055939956503       ,212
E1196BK/L-XL,2,5055939948874       ,212
E1196BK/M-L,2,5055939956510       ,212
E1196BK/S-M,1,5055939948867       ,212
E1202BK/L-XL,3,5055939949918       ,212
E1202BK/S-M,2,5055939949901       ,212
E1202GF/L-XL,1,5055939949932       ,212
E1202GF/S-M,1,5055939949925       ,212
E1253WH/L-XL,3,5055939971704       ,212
E1253WH/M-L,2,5055939971698       ,212
E1253WH/S-M,1,5055939971681       ,212
E1254BK/L-XL,2,5055939971797       ,212
E1254BK/M-L,2,5055939971780       ,212
E1254BK/S-M,1,5055939971773       ,212
E1255BK/L-XL,2,5055939971827       ,212
E1255BK/M-L,2,5055939971810       ,212
E1255BK/S-M,1,5055939971803       ,212
E1256BK/L-XL,4,5055939971858       ,212
E1256BK/M-L,3,5055939971841       ,212
E1256BK/S-M,2,5055939971834       ,212
E1257BK/L-XL,3,5055939971940       ,212
E1257BK/M-L,2,5055939971933       ,212
E1257BK/S-M,1,5055939971926       ,212
E1258BK/3,1,5055939972602       ,212
E1258BK/4,3,5055939972619       ,212
E1258BK/5,3,5055939972626       ,212
E1258BK/6,2,5055939972633       ,212
E1258BK/7,1,5055939972640       ,212
E1259BK/3,1,5055939975597       ,212
E1259BK/4,3,5055939975603       ,212
E1259BK/5,4,5055939975610       ,212
E1259BK/6,2,5055939975627       ,212
E1259BK/7,2,5055939975634       ,212
E1259GK/3,1,5055939975658       ,212
E1259GK/4,3,5055939975665       ,212
E1259GK/5,3,5055939975672       ,212
E1259GK/6,2,5055939975689       ,212
E1259GK/7,2,5055939975696       ,212
E1263BK/L-XL,2,5055939977584       ,212
E1263BK/S-M,2,5055939977577       ,212
E1263WH/L-XL,2,5055939978444       ,212
E1263WH/S-M,2,5055939978437       ,212
E1264GK/L-XL,2,5055939977645       ,212
E1264GK/S-M,2,5055939977638       ,212
E1264RR/L-XL,2,5055939978420       ,212
E1264RR/S-M,2,5055939978413       ,212
E1505BA/L-XL,2,5055939978154       ,212
E1505BA/M-L,2,5055939978147       ,212
E1505BA/S-M,1,5055939978130       ,212
E1505MB/L-XL,4,5055939904474       ,212
E1505MB/M-L,3,5055939904481       ,212
E1505MB/S-M,2,5055939904498       ,212
E1505WH/L-XL,1,5055939904542       ,212
E1505WH/M-L,2,5055939904559       ,212
E1505WH/S-M,1,5055939904566       ,212
E1511BK/L-XL,3,5055939930121       ,212
E1511BK/M-L,4,5055939930138       ,212
E1511BK/S-M,2,5055939930145       ,212
E1511KH/L-XL,2,5055939950402       ,212
E1511KH/M-L,2,5055939950396       ,212
E1511KH/S-M,1,5055939950389       ,212
E1511RR/L-XL,2,5055939959634       ,212
E1511RR/M-L,2,5055939959627       ,212
E1511RR/S-M,1,5055939959610       ,212
E3181BK/3,1,5055939958187       ,212
E3181BK/4,2,5055939958194       ,212
E3181BK/5,2,5055939958200       ,212
E3181BK/6,2,5055939958217       ,212
E3181BK/7,1,5055939958224       ,212
E3181NA/3,1,5055939958231       ,212
E3181NA/4,2,5055939958248       ,212
E3181NA/5,2,5055939958255       ,212
E3181NA/6,1,5055939958262       ,212
E3181RR/3,1,5055939958286       ,212
E3181RR/4,2,5055939958293       ,212
E3181RR/5,2,5055939958309       ,212
E3181RR/6,1,5055939958316       ,212
E3182AN/4,2,5055939959030       ,212
E3182AN/5,2,5055939959047       ,212
E3182AN/6,1,5055939959054       ,212
E3184BK/3,1,5055939970370       ,212
E3184BK/4,2,5055939970387       ,212
E3184BK/5,3,5055939970394       ,212
E3184BK/6,2,5055939970400       ,212
E3184BK/7,1,5055939970417       ,212
E3184GF/3,1,5055939970424       ,212
E3184GF/4,2,5055939970431       ,212
E3184GF/5,2,5055939970448       ,212
E3184GF/6,1,5055939970455       ,212
E3184OT/3,1,5055939970479       ,212
E3184OT/4,2,5055939970486       ,212
E3184OT/5,2,5055939970493       ,212
E3184OT/6,1,5055939970509       ,212
E3189BK/3,1,5055939972398       ,212
E3189BK/4,2,5055939972404       ,212
E3189BK/5,2,5055939972411       ,212
E3189BK/6,2,5055939972428       ,212
E3189BK/7,1,5055939972435       ,212
E3189CC/4,2,5055939972459       ,212
E3189CC/5,2,5055939972466       ,212
E3189CC/6,1,5055939972473       ,212
E3192BK/3,1,5055939974682       ,212
E3192BK/4,2,5055939974699       ,212
E3192BK/5,2,5055939974705       ,212
E3192BK/6,1,5055939974712       ,212
E3192BK/7,1,5055939974729       ,212
E3192GK/3,1,5055939974637       ,212
E3192GK/4,2,5055939974644       ,212
E3192GK/5,2,5055939974651       ,212
E3192GK/6,1,5055939974668       ,212
E3192RR/3,1,5055939974736       ,212
E3192RR/4,2,5055939974743       ,212
E3192RR/5,2,5055939974750       ,212
E3192RR/6,1,5055939974767       ,212
E3192WH/3,1,5055939974781       ,212
E3192WH/4,2,5055939974798       ,212
E3192WH/5,2,5055939974804       ,212
E3192WH/6,1,5055939974811       ,212
E4055BK/3,1,5055939953069       ,212
E4055BK/4,3,5055939953076       ,212
E4055BK/5,4,5055939953083       ,212
E4055BK/6,2,5055939953090       ,212
E4068BV/3,1,5055939975474       ,212
E4068BV/4,2,5055939975481       ,212
E4068BV/5,2,5055939975498       ,212
E4068BV/6,2,5055939975504       ,212
E4068BV/7,1,5055939975511       ,212
E4068GY/3,1,5055939975412       ,212
E4068GY/4,2,5055939975429       ,212
E4068GY/5,3,5055939975436       ,212
E4068GY/6,2,5055939975443       ,212
E4068GY/7,1,5055939975450       ,212
E4070BK/M4,3,5055939979205       ,212
E4070BK/M5,2,5055939979212       ,212
E6106BK/2,1,5055939919485       ,212
E6106BK/3,2,5055939919492       ,212
E6106BK/4,2,5055939919508       ,212
E6106BK/5,1,5055939919515       ,212
E6106BK/6,1,5055939919522       ,212
E6124BK/3,2,5055939933009       ,212
E6124BK/4,1,5055939933016       ,212
E6124BK/5,2,5055939933023       ,212
E6153BK/3,1,5055939953281       ,212
E6153BK/4,2,5055939953298       ,212
E6153BK/5,2,5055939953304       ,212
E6153BK/6,1,5055939953311       ,212
E6164GK/3,1,5055939958873       ,212
E6164GK/4,2,5055939958880       ,212
E6164GK/5,1,5055939958897       ,212
E6164RR/3,1,5055939958927       ,212
E6164RR/4,2,5055939958934       ,212
E6164RR/5,1,5055939958941       ,212
E6169BP/2,1,5055939973258       ,212
E6169BP/3,2,5055939973265       ,212
E6169BP/4,2,5055939973272       ,212
E6169BP/5,1,5055939973289       ,212
E6169CC/2,1,5055939973203       ,212
E6169CC/3,2,5055939973210       ,212
E6169CC/4,2,5055939973227       ,212
E6169CC/5,1,5055939973234       ,212
E6172BK/2,1,5055939973715       ,212
E6172BK/3,2,5055939973722       ,212
E6172BK/4,2,5055939973739       ,212
E6172BK/5,1,5055939973746       ,212
E6174CV/2,1,5055939976105       ,212
E6174CV/3,2,5055939976112       ,212
E6174CV/4,2,5055939976129       ,212
E6174CV/5,1,5055939976136       ,212
E6174WH/2,1,5055939976150       ,212
E6174WH/3,2,5055939976167       ,212
E6174WH/4,2,5055939976174       ,212
E6174WH/5,1,5055939976181       ,212
E6177BK/2,1,5055939976327       ,212
E6177BK/3,2,5055939976334       ,212
E6177BK/4,2,5055939976341       ,212
E6177BK/5,1,5055939976358       ,212
E6177BP/3,2,5055939976389       ,212
E6177BP/4,2,5055939976396       ,212
E6177BP/5,1,5055939976402       ,212
E6177CV/2,1,5055939976426       ,212
E6177CV/3,2,5055939976433       ,212
E6177CV/4,2,5055939976440       ,212
E6177CV/5,1,5055939976457       ,212
E6186GY/2,1,5055939976488       ,212
E6186GY/3,2,5055939976495       ,212
E6186GY/4,2,5055939976501       ,212
E6186GY/5,1,5055939976518       ,212
E6186GY/6,1,5055939976525       ,212
E7117BK/3,1,5055939917016       ,212
E7117BK/4,2,5055939917023       ,212
E7117BK/5,3,5055939917030       ,212
E7117BK/7,1,5055939917054       ,212
E7117RD/3,1,5055939917887       ,212
E7117RD/4,2,5055939917894       ,212
E7117RD/5,2,5055939917900       ,212
E7117RD/6,1,5055939917917       ,212
E8066BK/3,1,5055939916330       ,212
E8066BK/4,4,5055939916347       ,212
E8066BK/5,5,5055939916354       ,212
E8066BK/6,2,5055939916361       ,212
E8066BK/7,1,5055939916378       ,212
E8075BK/3,1,5055939924762       ,212
E8075BK/4,2,5055939924779       ,212
E8075BK/5,3,5055939924786       ,212
E8075BK/6,2,5055939924793       ,212
E8075BK/7,1,5055939924809       ,212
E8084BK/4,2,5055939942377       ,212
E8084BK/5,2,5055939942384       ,212
E8084BK/6,2,5055939942391       ,212
E8084BK/7,1,5055939942407       ,212
E8084CC/3,1,5055939961033       ,212
E8084CC/4,2,5055939961040       ,212
E8084CC/5,2,5055939961057       ,212
E8084CC/6,1,5055939961064       ,212
E8091OT/3,1,5055939981550       ,212
E8091OT/6,1,5055939981581       ,212
E8092BK/3,1,5055939948348       ,212
E8092BK/4,3,5055939948355       ,212
E8092BK/5,3,5055939948362       ,212
E8092BK/6,2,5055939948379       ,212
E8092BK/7,1,5055939948386       ,212
E8092GF/4,2,5055939948409       ,212
E8092GF/5,2,5055939948416       ,212
E8092GF/6,1,5055939948423       ,212
E8093BK/3,1,5055939948775       ,212
E8093BK/5,1,5055939948799       ,212
E8093BK/7,1,5055939948812       ,212
E8101CC/3,1,5055939970776       ,212
E8101CC/4,2,5055939970783       ,212
E8101CC/5,3,5055939970790       ,212
E8101CC/6,2,5055939970806       ,212
