SKU,Name,Color,Size,Qty,Value,
E1505MB/L-XL,Hummvee Helmet,Matt Black,L-XL,5,100.50,
E1505RD/M-L,Hummvee Helmet,Red,M-L,2,40.21,
E1505WH/S-M,Hummvee Helmet,White,S-M,2,40.21,
E1505WH/L-XL,Hummvee Helmet,White,L-XL,2,40.20,
E1505WH/M-L,Hummvee Helmet,White,M-L,2,40.20,
E1505MB/M-L,Hummvee Helmet,Matt Black,M-L,2,40.20,
E1505MB/S-M,Hummvee Helmet,Matt Black,S-M,1,20.10,
E1505RD/L-XL,Hummvee Helmet,Red,L-XL,1,20.10,
E1505GV/M-L,Hummvee Helmet,Hi-Viz Green,M-L,1,20.10,
E1505GV/S-M,Hummvee Helmet,Hi-Viz Green,S-M,1,20.10,
E1505KH/L-XL,Hummvee Helmet,Khaki,L-XL,1,20.10,
