SKU,Maximum allowed,Barcode/EAN,Days left
E6106BK/3,1,5055939919492       ,11
E1197GC/0,1,5055939949031       ,23
E8066CM/7,1,5055939919133       ,23
E3138GY/6,1,5055939930916       ,41
E3173BK/7,1,5055939949635       ,60
E9103BK/7,1,5055939925653       ,60
E3158BK/7,1,5055939942452       ,110
E6130GY/5,1,5055939933627       ,110
E6130GK/5,1,5055939950198       ,145
E9137AN/7,1,5055939946306       ,145
E1150BK/0,2,5055939915227       ,178
EM0057BK/6,1,5055939925974       ,178
E1157BK/S-M,2,5055939928425       ,184
E9121NA/5,1,5055939943527       ,184
E1038BK/S-M,1,5055939906690       ,192
E7140BA/K9,1,5055939960630       ,192
E9121RD/5,1,5055939943473       ,192
E1038BK/L-XL,1,5055939906706       ,206
E1038BK/S-M,2,5055939906690       ,206
E8088BK/5,1,5055939943176       ,211
