SKU,Maximum allowed,Barcode/EAN,Days left
E1102,5,5055205353814       ,4
E3141BV/6,1,5055939951782       ,4
E6154WH/5,1,5055939952994       ,23
E1040BK/0,2,5055939916842       ,24
E1109BK/S-M,2,5055205387994       ,24
E1112BK/S-M,2,5055205384672       ,24
E1131BK/S-M,2,5055205398679       ,24
E8092BK/4,1,5055939948355       ,24
E1158BK/L-XL,1,5055939928432       ,51
E0128YV/4,1,5055939909622       ,139
E0128YV/5,2,5055939909639       ,139
E0128YV/6,2,5055939909646       ,139
E0130BK/7,1,5055939918037       ,139
E1186GV/4,1,5055939944685       ,139
E1218BK/L-XL,2,5055939958521       ,139
E1218BK/M-L,2,5055939958514       ,139
E1218BK/S-M,1,5055939958507       ,139
E1219BK/L-XL,2,5055939958545       ,139
E1219BK/S-M,1,5055939958538       ,139
E1220BK/L-XL,1,5055939958569       ,139
E1220BK/S-M,1,5055939958552       ,139
E1222BK/0,2,5055939958590       ,139
E1223BK/L-XL,2,5055939958613       ,139
E1223BK/S-M,1,5055939958606       ,139
E1226BK/0,1,5055939959399       ,139
E1226GK/0,1,5055939960593       ,139
E3158BK/4,1,5055939942421       ,139
E3158BK/5,1,5055939942438       ,139
E3158BK/6,1,5055939942445       ,139
E3183GK/4,1,5055939960456       ,139
E3183GK/5,1,5055939960463       ,139
E3183GK/6,1,5055939960470       ,139
E5049BK/3,1,5055939924526       ,139
E5049BK/4,2,5055939924533       ,139
E5049BK/5,2,5055939924540       ,139
E5049BK/6,1,5055939924557       ,139
E5049BK/7,1,5055939924564       ,139
E7125BK/6,1,5055939924649       ,139
E8088BK/4,1,5055939943169       ,139
E8088BK/5,1,5055939943176       ,139
E8088BK/6,1,5055939943183       ,139
E9120KH/4,1,5055939943312       ,139
E0128YV/7,1,5055939909653       ,140
E1117BK/4,1,5055205390123       ,140
E1117BK/5,2,5055205390130       ,140
E1117BK/6,2,5055205390147       ,140
E1117BK/7,1,5055205390154       ,140
E1186GV/5,2,5055939944692       ,140
E1186GV/6,2,5055939944708       ,140
E1186GV/7,1,5055939944715       ,140
E9120KH/5,1,5055939943329       ,154
E9120KH/6,1,5055939943336       ,154
E9120KH/7,1,5055939943343       ,154
E7125BK/5,1,5055939924632       ,161
E1181BK/3,1,5055939942513       ,163
E1181BK/4,1,5055939942520       ,163
E1181BK/5,1,5055939942537       ,163
E1181BK/6,1,5055939942544       ,163
E5057BK/4,1,5055939942124       ,168
E5057BK/5,1,5055939942131       ,168
E5057BK/6,1,5055939942148       ,168
E1196BK/S-M,1,5055939948867       ,169
E3158BK/7,1,5055939942452       ,169
E8100BK/6,1,5055939959160       ,202
E9145YM/7,1,5055939961163       ,202
E1188BK/4,1,5055939944821       ,211
E1188BK/6,1,5055939944845       ,211
E3125KH/4,1,5055939919324       ,211
E3125KH/5,1,5055939919331       ,211
E3174WH/3,1,5055939952857       ,211
E4028BK/3,1,5055939901060       ,211
E4028BK/4,1,5055939901077       ,211
E4028BK/5,2,5055939901084       ,211
E4029BK/4,2,5055939900971       ,211
E4029BK/5,1,5055939900988       ,211
E8064BK/5,1,5055939915999       ,211
E8064BK/6,1,5055939916002       ,211
E8064BK/7,1,5055939916019       ,211
E8093BK/4,1,5055939948782       ,211
E8094AN/7,1,5055939949437       ,211
E9103BK/4,1,5055939925622       ,211
E9106GV/7,1,5055939935348       ,211
E9134YV/4,1,5055939943367       ,211
E9134YV/5,1,5055939943374       ,211
