SKU,Maximum allowed,Barcode/EAN,Days left
E8070NA/3,1,5055939918679       ,32
E1506BK/M-L,2,5055939920054       ,48
E1023BK/4,5,5055205372402       ,81
E1023BK/5,5,5055205372419       ,81
E1024BK/5,4,5055205372600       ,81
E1119BK/5,2,5055205390550       ,81
