INVOICE,SIN541913
YOUR REF,SOR325615
DATE,30/05/2018
VALUE,84.93


SKU,Qty,Value,Name,Colour,Size
E1512BK/L-XL    ,1,74.93,Pro SL Helmet,Black,L-XL
DEL10           ,1,10.00,Delivery - Euro                    ,,
