INVOICE,SIN654818
YOUR REF,SOR390648
DATE,08/01/2020
VALUE,582.09


SKU,Qty,Value,Name,Colour,Size
E8091BK/4       ,1,194.03,MT500 Burner Pant II,Black,M
E8091BK/5       ,1,194.03,MT500 Burner Pant II,Black,L
E8091BK/6       ,1,194.03,MT500 Burner Pant II,Black,XL
