SKU,Maximum allowed,Barcode/EAN,Days left
E1160KH/3,1,5055939928555       ,0
E7117NA/4,2,5055939955056       ,0
E7117NA/5,2,5055939955063       ,0
E7117RD/5,1,5055939917900       ,0
E8097GY/6,1,5055939950440       ,0
E0099YV,1,5055205363356       ,4
E0132NA/4,1,5055939915074       ,4
E0132NA/5,1,5055939915081       ,4
E1040BK/0,2,5055939916842       ,4
E1128BK/S-M,2,5055205399164       ,4
E1131BK/L-XL,1,5055205398662       ,4
E1160BK/6,1,5055939928524       ,4
E1161BK/4,1,5055939928685       ,4
E1161BK/5,1,5055939928692       ,4
E1165BK/4,1,5055939928852       ,4
E1165BK/6,3,5055939928876       ,4
E1165RD/5,2,5055939929026       ,4
E1165RD/6,1,5055939929033       ,4
E1167BK/6,1,5055939929330       ,4
E1167RD/6,1,5055939929392       ,4
E1167WH/5,3,5055939929446       ,4
E1204GC/4,1,5055939950679       ,4
E1205BK/L-XL,2,5055939951812       ,4
E1205BK/S-M,1,5055939951805       ,4
E1205BV/S-M,3,5055939951829       ,4
E1205NA/S-M,1,5055939951843       ,4
E3123BK/4,1,5055939915333       ,4
E3125BK/5,1,5055939915401       ,4
E3142NA/4,1,5055939952673       ,4
E3142NA/5,2,5055939952680       ,4
E3142NA/6,2,5055939952697       ,4
E4054BK/3,1,5055939953168       ,4
E4054BK/4,1,5055939953175       ,4
E4054BK/7,1,5055939953205       ,4
E4055BK/3,1,5055939953069       ,4
E4055BK/6,1,5055939953090       ,4
E4055BK/7,1,5055939953106       ,4
E5066BK/5,1,5055939949260       ,4
E5067NA/5,1,5055939950785       ,4
E5067NA/6,1,5055939950792       ,4
E5068AN/5,1,5055939951362       ,4
E6151GK/5,1,5055939950310       ,4
E6152CO/5,1,5055939951058       ,4
E6153BK/4,1,5055939953298       ,4
E7113PV/K9,2,5055205391267       ,4
E7117NA/5,1,5055939955063       ,4
E7117RD/4,1,5055939917894       ,4
E7117RD/5,1,5055939917900       ,4
E7130AN/5,1,5055939953854       ,4
E0073,2,5055205338118       ,9
E0132NA/6,1,5055939915098       ,9
E1038BK/L-XL,2,5055939906706       ,9
E1038BK/S-M,2,5055939906690       ,9
E1039BK/L-XL,1,5055939906720       ,9
E1128BK/S-M,1,5055205399164       ,9
E1131BK/L-XL,2,5055205398662       ,9
E1131BK/S-M,1,5055205398679       ,9
E1160RD/4,1,5055939928623       ,9
E1161BK/5,2,5055939928692       ,9
E1161BK/6,1,5055939928708       ,9
E1161BK/7,1,5055939928715       ,9
E1165RD/4,1,5055939929019       ,9
E1165RD/5,1,5055939929026       ,9
E1165RD/6,1,5055939929033       ,9
E1167BK/4,1,5055939929316       ,9
E1167BK/6,1,5055939929330       ,9
E1167WH/4,1,5055939929439       ,9
E1167WH/5,2,5055939929446       ,9
E1188GV/4,1,5055939944876       ,9
E1204GC/4,1,5055939950679       ,9
E1204GC/5,1,5055939950686       ,9
E1204GC/6,1,5055939950693       ,9
E1204GC/7,1,5055939950709       ,9
E1205BV/L-XL,3,5055939951836       ,9
E3142BK/5,1,5055939931371       ,9
E4054BK/4,1,5055939953175       ,9
E4055BK/3,1,5055939953069       ,9
E4055BK/4,2,5055939953076       ,9
E6106BK/4,1,5055939919508       ,9
E6107BK/4,1,5055939915791       ,9
E6151BK/3,1,5055939950334       ,9
E6153BK/4,1,5055939953298       ,9
E6155BK/3,1,5055939951195       ,9
E7117BK/6,1,5055939917047       ,9
E7117RD/5,1,5055939917900       ,9
E7130AN/4,1,5055939953847       ,9
E7130AN/5,1,5055939953854       ,9
E7135BK/5,1,5055939953137       ,9
E8064BK/3,1,5055939915975       ,9
E8064BK/4,1,5055939915982       ,9
E9141BV/6,1,5055939951485       ,9
E9113BV/4,1,5055939941189       ,10
E1160KH/5,2,5055939928579       ,11
E1160KH/7,1,5055939928593       ,11
E1167RD/4,1,5055939929378       ,11
E3125KH/4,1,5055939919324       ,11
E6106BK/3,2,5055939919492       ,11
E6106BK/4,1,5055939919508       ,11
E6106BK/5,1,5055939919515       ,11
E0048,1,5055205315966       ,16
E1038BK/S-M,1,5055939906690       ,16
E1131BK/L-XL,1,5055205398662       ,16
E1158BK/L-XL,1,5055939928432       ,16
E1160KH/7,1,5055939928593       ,16
E1160RD/4,1,5055939928623       ,16
E1165RD/5,1,5055939929026       ,16
E1167BK/4,1,5055939929316       ,16
E1167BK/5,1,5055939929323       ,16
E1167WH/5,1,5055939929446       ,16
E1205BK/S-M,1,5055939951805       ,16
E1205BV/L-XL,1,5055939951836       ,16
E3173BK/5,1,5055939949611       ,16
E4055BK/3,1,5055939953069       ,16
E4055BK/6,1,5055939953090       ,16
E5069GK/4,1,5055939951645       ,16
E5073GF/4,1,5055939949154       ,16
E6095BK/2,1,5055939901114       ,16
E6153BK/5,1,5055939953304       ,16
E6155BK/4,1,5055939951201       ,16
E6155BK/5,1,5055939951218       ,16
E7117NA/5,1,5055939955063       ,16
E7118BK/5,1,5055939914893       ,16
E7118BK/6,1,5055939914909       ,16
E9095BK/4,1,5055939918068       ,16
E9113BV/5,1,5055939941196       ,16
E1040BK/0,1,5055939916842       ,24
E1131BK/S-M,2,5055205398679       ,24
E1160KH/4,1,5055939928562       ,24
E1160RD/3,1,5055939928616       ,24
E1160RD/4,1,5055939928623       ,24
E1160RD/5,2,5055939928630       ,24
E1160RD/6,1,5055939928647       ,24
E1160RD/7,1,5055939928654       ,24
E1161BK/4,1,5055939928685       ,24
E1161BK/6,1,5055939928708       ,24
E1165RD/4,1,5055939929019       ,24
E1167BK/5,1,5055939929323       ,24
E1167BK/6,1,5055939929330       ,24
E1167WH/4,2,5055939929439       ,24
E1184BK/4,2,5055939944432       ,24
E1195BK/L-XL,1,5055939948836       ,24
E1195BK/S-M,1,5055939948829       ,24
E1199RR/7,1,5055939949734       ,24
E1204BK/5,1,5055939950587       ,24
E1204BK/6,1,5055939950594       ,24
E1204GC/6,1,5055939950693       ,24
E1205BK/S-M,1,5055939951805       ,24
E3123BK/6,3,5055939915357       ,24
E3123GF/4,1,5055939948508       ,24
E3123GF/6,2,5055939948522       ,24
E4027BK/8,1,5055939901305       ,24
E4055BK/5,1,5055939953083       ,24
E4055BK/6,1,5055939953090       ,24
E6152CO/5,1,5055939951058       ,24
E6153BK/5,1,5055939953304       ,24
E7117BK/4,1,5055939917023       ,24
E7117RD/5,1,5055939917900       ,24
E7118BK/4,1,5055939914886       ,24
E7130AN/5,1,5055939953854       ,24
E9141BK/5,1,5055939951539       ,24
E0132NA/4,1,5055939915074       ,32
E1161BK/5,1,5055939928692       ,32
E1165BK/4,1,5055939928852       ,32
E1165BK/5,3,5055939928869       ,32
E1165RD/4,1,5055939929019       ,32
E1165RD/5,1,5055939929026       ,32
E1184BK/4,1,5055939944432       ,32
E1199NA/6,1,5055939949772       ,32
E1204BK/4,1,5055939950570       ,32
E1204BK/6,1,5055939950594       ,32
E1204GC/4,1,5055939950679       ,32
E1205BK/L-XL,2,5055939951812       ,32
E3123GF/6,1,5055939948522       ,32
E3173BK/3,1,5055939949598       ,32
E3173BK/4,1,5055939949604       ,32
E3173BK/5,1,5055939949611       ,32
E4034BK/4,1,5055939917665       ,32
E4054BK/3,1,5055939953168       ,32
E4054BK/4,1,5055939953175       ,32
E4054BK/5,2,5055939953182       ,32
E4055BK/4,1,5055939953076       ,32
E5067NA/5,1,5055939950785       ,32
E5073GF/4,1,5055939949154       ,32
E6106BK/5,1,5055939919515       ,32
E6107BK/5,1,5055939915807       ,32
E6152CO/3,1,5055939951034       ,32
E6153BK/4,1,5055939953298       ,32
E6155BK/2,1,5055939951188       ,32
E7117BK/6,1,5055939917047       ,32
E7117WH/5,1,5055939917085       ,32
E7135BK/5,1,5055939953137       ,32
E7135BK/6,1,5055939953144       ,32
E8064NA/4,3,5055939950907       ,32
E8064NA/5,1,5055939950914       ,32
E8070BK/4,1,5055939916729       ,32
E0132BK/4,1,5055939915012       ,38
E1131BK/L-XL,1,5055205398662       ,38
E1160RD/3,1,5055939928616       ,38
E1160RD/6,1,5055939928647       ,38
E1161BK/4,1,5055939928685       ,38
E1161BK/6,1,5055939928708       ,38
E1165BK/4,1,5055939928852       ,38
E1165BK/5,2,5055939928869       ,38
E1165BK/6,1,5055939928876       ,38
E1167BK/6,1,5055939929330       ,38
E1184BK/5,1,5055939944449       ,38
E1204BK/3,1,5055939950563       ,38
E1205BK/L-XL,1,5055939951812       ,38
E1205BK/S-M,2,5055939951805       ,38
E1205NA/L-XL,1,5055939951850       ,38
E3142NA/7,1,5055939952703       ,38
E3167BK/L-XL,1,5055939954127       ,38
E4032BK/5,1,5055939917559       ,38
E4055BK/6,1,5055939953090       ,38
E5067NA/6,1,5055939950792       ,38
E5073BA/6,1,5055939949123       ,38
E6095BK/4,1,5055939901138       ,38
E6152CO/4,1,5055939951041       ,38
E7117RD/6,1,5055939917917       ,38
E7130AN/4,1,5055939953847       ,38
E8064BK/4,3,5055939915982       ,38
E8064BK/5,3,5055939915999       ,38
E9141BK/5,1,5055939951539       ,38
E1165RD/6,1,5055939929033       ,39
E0073,1,5055205338118       ,45
E0132MB/5,1,5055939922034       ,45
E1038BK/L-XL,1,5055939906706       ,45
E1160KH/3,1,5055939928555       ,45
E1160RD/3,1,5055939928616       ,45
E1160RD/5,1,5055939928630       ,45
E1160RD/6,1,5055939928647       ,45
E1161BK/4,1,5055939928685       ,45
E1161BK/5,2,5055939928692       ,45
E1161BK/6,1,5055939928708       ,45
E1167BK/6,1,5055939929330       ,45
E1167WH/5,1,5055939929446       ,45
E1170GY/0,1,5055939929835       ,45
E1183BK/5,2,5055939944241       ,45
E1183BK/6,1,5055939944258       ,45
E1188BK/3,2,5055939944814       ,45
E1188BK/5,1,5055939944838       ,45
E1188GV/4,2,5055939944876       ,45
E1188GV/5,1,5055939944883       ,45
E1188GV/6,1,5055939944890       ,45
E1204BK/3,1,5055939950563       ,45
E1204BK/5,1,5055939950587       ,45
E1204BK/7,1,5055939950600       ,45
E1205BK/L-XL,2,5055939951812       ,45
E1205BV/S-M,1,5055939951829       ,45
E4054BK/4,1,5055939953175       ,45
E4054BK/5,2,5055939953182       ,45
E4055BK/3,1,5055939953069       ,45
E4055BK/4,1,5055939953076       ,45
E4055BK/5,1,5055939953083       ,45
E6040BK/2,1,5055939904979       ,45
E6147CE/2,1,5055939945460       ,45
E6147CE/3,1,5055939945477       ,45
E6147CE/4,1,5055939945484       ,45
E8064BK/5,1,5055939915999       ,45
E9095BK/4,1,5055939918068       ,45
E9114BK/4,2,5055939941738       ,45
E9114BK/5,1,5055939941745       ,45
E9114BK/6,2,5055939941752       ,45
E9114GV/5,1,5055939941691       ,45
E9140BK/4,1,5055939953489       ,45
E9140BK/5,1,5055939953496       ,45
E0043GK/0,15,5055939961385       ,47
E0127BK/3,3,5055939904818       ,47
E0127BK/4,3,5055939904825       ,47
E0127BK/5,3,5055939904832       ,47
E0127BK/6,3,5055939904849       ,47
E0127BK/7,3,5055939904856       ,47
E0151GF/0,15,5055939960708       ,47
E1039BK/L-XL,12,5055939906720       ,47
E1039BK/S-M,9,5055939906713       ,47
E1052BK/L-XL,3,5055939958040       ,47
E1052BK/M-L,3,5055939958033       ,47
E1052BK/S-M,3,5055939958026       ,47
E1053BK/L-XL,3,5055939958071       ,47
E1053BK/M-L,3,5055939958064       ,47
E1054BK/L-XL,2,5055939958101       ,47
E1054BK/S-M,3,5055939958088       ,47
E1120BK/3,3,5055205390215       ,47
E1120BK/4,3,5055205390222       ,47
E1120BK/5,3,5055205390239       ,47
E1120BK/6,6,5055205390246       ,47
E1120BK/7,3,5055205390253       ,47
E1184BK/3,3,5055939944425       ,47
E1184BK/4,3,5055939944432       ,47
E1184BK/5,3,5055939944449       ,47
E1184BK/6,3,5055939944456       ,47
E1184BK/7,3,5055939944463       ,47
E1184GF/3,3,5055939959566       ,47
E1184GF/4,3,5055939959573       ,47
E1184GF/5,3,5055939959580       ,47
E1184GF/6,3,5055939959597       ,47
E1184GF/7,3,5055939959603       ,47
E1186BK/3,3,5055939944623       ,47
E1186BK/4,3,5055939944630       ,47
E1186BK/5,3,5055939944647       ,47
E1186BK/6,3,5055939944654       ,47
E1186BK/7,3,5055939944661       ,47
E1187BK/4,3,5055939944777       ,47
E1187BK/6,3,5055939944791       ,47
E1187BK/7,3,5055939944807       ,47
E1216BK/3,3,5055939958347       ,47
E1216BK/4,3,5055939958354       ,47
E1216BK/5,3,5055939958361       ,47
E1216BK/6,3,5055939958378       ,47
E1216BK/7,3,5055939958385       ,47
E1216BV/3,3,5055939958408       ,47
E1216BV/4,3,5055939958415       ,47
E1216BV/5,3,5055939958422       ,47
E1216BV/6,3,5055939958439       ,47
E1216BV/7,3,5055939958446       ,47
E1218BK/L-XL,12,5055939958521       ,47
E1218BK/S-M,6,5055939958507       ,47
E1219BK/L-XL,12,5055939958545       ,47
E1219BK/S-M,6,5055939958538       ,47
E1220BK/L-XL,12,5055939958569       ,47
E1220BK/S-M,6,5055939958552       ,47
E1222BK/0,12,5055939958590       ,47
E1223BK/L-XL,6,5055939958613       ,47
E1223BK/S-M,6,5055939958606       ,47
E1224BK/3,3,5055939958804       ,47
E1224BK/4,3,5055939966274       ,47
E1224BK/5,3,5055939966281       ,47
E1224BK/6,3,5055939966298       ,47
E1224BK/7,3,5055939966304       ,47
E1225BK/L-XL,3,5055939959207       ,47
E1225BK/M-L,3,5055939959191       ,47
E1225BK/S-M,3,5055939959184       ,47
E1225BK/XL-XXL,3,5055939966564       ,47
E1234BK/L-XL,15,5055939966823       ,47
E1234BK/S-M,6,5055939966816       ,47
E1234GF/L-XL,15,5055939966847       ,47
E1234GF/S-M,6,5055939966830       ,47
E1234RD/L-XL,15,5055939966861       ,47
E1234RD/S-M,6,5055939966854       ,47
E3133GY/6,3,5055939924304       ,47
E3177BK/4,3,5055939957715       ,47
E3177BK/5,3,5055939957722       ,47
E3177BK/6,3,5055939957739       ,47
E3177BK/7,3,5055939957746       ,47
E3177GK/3,3,5055939957753       ,47
E3177GK/4,3,5055939957760       ,47
E3177GK/5,3,5055939957777       ,47
E3177GK/6,3,5055939957784       ,47
E3183BK/3,3,5055939959290       ,47
E3183BK/4,3,5055939959306       ,47
E3183BK/5,3,5055939959313       ,47
E3183BK/6,3,5055939959320       ,47
E3183BK/7,3,5055939959337       ,47
E3183GK/4,3,5055939960456       ,47
E3183GK/5,3,5055939960463       ,47
E3183GK/6,3,5055939960470       ,47
E6078BK/2,3,5055205386652       ,47
E6078BK/3,3,5055205386669       ,47
E6078BK/4,3,5055205386676       ,47
E6078BK/5,3,5055205386683       ,47
E6078BK/6,3,5055939922300       ,47
E6147BK/2,3,5055939944722       ,47
E6147BK/3,3,5055939944739       ,47
E6147BK/4,3,5055939944746       ,47
E6147BK/5,3,5055939944753       ,47
E6164GK/3,3,5055939958873       ,47
E6164GK/4,3,5055939958880       ,47
E8074BK/4,3,5055939924724       ,47
E8074BK/5,3,5055939924731       ,47
E8074BK/6,3,5055939924748       ,47
E9142BK/4,3,5055939957364       ,47
E9142BK/5,3,5055939957371       ,47
E9142BK/6,3,5055939957388       ,47
E9142BK/7,3,5055939957395       ,47
E9142GK/3,3,5055939957401       ,47
E9142GK/4,3,5055939957418       ,47
E9142GK/5,3,5055939957425       ,47
E9142GK/6,3,5055939957432       ,47
E9143GK/4,3,5055939957517       ,47
E9143GK/5,3,5055939957524       ,47
E9143GK/6,1,5055939957531       ,47
E0043GK/0,5,5055939961385       ,48
E0127BK/3,1,5055939904818       ,48
E0127BK/4,1,5055939904825       ,48
E0127BK/5,1,5055939904832       ,48
E0127BK/6,1,5055939904849       ,48
E0127BK/7,1,5055939904856       ,48
E0151GF/0,5,5055939960708       ,48
E1039BK/L-XL,2,5055939906720       ,48
E1039BK/S-M,2,5055939906713       ,48
E1052BK/L-XL,1,5055939958040       ,48
E1052BK/M-L,1,5055939958033       ,48
E1052BK/S-M,1,5055939958026       ,48
E1053BK/L-XL,1,5055939958071       ,48
E1053BK/M-L,1,5055939958064       ,48
E1054BK/S-M,1,5055939958088       ,48
E1118BK/3,1,5055205389967       ,48
E1118BK/4,1,5055205389974       ,48
E1118BK/5,1,5055205389981       ,48
E1118BK/6,1,5055205389998       ,48
E1118BK/7,1,5055205390000       ,48
E1120BK/3,1,5055205390215       ,48
E1120BK/4,2,5055205390222       ,48
E1120BK/5,3,5055205390239       ,48
E1120BK/6,3,5055205390246       ,48
E1120BK/7,1,5055205390253       ,48
E1184BK/3,1,5055939944425       ,48
E1184BK/4,1,5055939944432       ,48
E1184BK/5,1,5055939944449       ,48
E1184BK/6,1,5055939944456       ,48
E1184BK/7,1,5055939944463       ,48
E1184GF/3,1,5055939959566       ,48
E1184GF/4,1,5055939959573       ,48
E1184GF/5,1,5055939959580       ,48
E1184GF/6,1,5055939959597       ,48
E1184GF/7,1,5055939959603       ,48
E1186BK/3,1,5055939944623       ,48
E1186BK/4,1,5055939944630       ,48
E1186BK/5,1,5055939944647       ,48
E1186BK/6,1,5055939944654       ,48
E1186BK/7,1,5055939944661       ,48
E1187BK/4,1,5055939944777       ,48
E1187BK/6,1,5055939944791       ,48
E1187BK/7,1,5055939944807       ,48
E1216BK/3,1,5055939958347       ,48
E1216BK/4,1,5055939958354       ,48
E1216BK/5,1,5055939958361       ,48
E1216BK/6,1,5055939958378       ,48
E1216BK/7,1,5055939958385       ,48
E1216BV/3,1,5055939958408       ,48
E1216BV/4,1,5055939958415       ,48
E1216BV/5,1,5055939958422       ,48
E1216BV/6,1,5055939958439       ,48
E1216BV/7,1,5055939958446       ,48
E1218BK/L-XL,4,5055939958521       ,48
E1218BK/S-M,2,5055939958507       ,48
E1219BK/L-XL,4,5055939958545       ,48
E1219BK/S-M,2,5055939958538       ,48
E1220BK/L-XL,4,5055939958569       ,48
E1220BK/S-M,2,5055939958552       ,48
E1222BK/0,4,5055939958590       ,48
E1223BK/L-XL,2,5055939958613       ,48
E1223BK/S-M,2,5055939958606       ,48
E1224BK/3,1,5055939958804       ,48
E1224BK/4,1,5055939966274       ,48
E1224BK/5,1,5055939966281       ,48
E1224BK/6,1,5055939966298       ,48
E1224BK/7,1,5055939966304       ,48
E1234BK/L-XL,2,5055939966823       ,48
E1234BK/S-M,2,5055939966816       ,48
E1234GF/L-XL,2,5055939966847       ,48
E1234GF/S-M,2,5055939966830       ,48
E1234RD/L-XL,2,5055939966861       ,48
E1234RD/S-M,2,5055939966854       ,48
E3133GY/6,1,5055939924304       ,48
E3177BK/4,1,5055939957715       ,48
E3177BK/5,1,5055939957722       ,48
E3177BK/6,1,5055939957739       ,48
E3177BK/7,1,5055939957746       ,48
E3177GK/3,1,5055939957753       ,48
E3177GK/4,1,5055939957760       ,48
E3177GK/5,1,5055939957777       ,48
E3177GK/6,1,5055939957784       ,48
E3181NA/4,1,5055939958248       ,48
E3181NA/5,1,5055939958255       ,48
E3181NA/6,1,5055939958262       ,48
E3183BK/3,1,5055939959290       ,48
E3183BK/4,1,5055939959306       ,48
E3183BK/5,1,5055939959313       ,48
E3183BK/6,1,5055939959320       ,48
E3183BK/7,1,5055939959337       ,48
E3183GK/4,1,5055939960456       ,48
E3183GK/5,1,5055939960463       ,48
E3183GK/6,1,5055939960470       ,48
E6078BK/3,1,5055205386669       ,48
E6078BK/4,1,5055205386676       ,48
E6078BK/5,1,5055205386683       ,48
E6147BK/2,1,5055939944722       ,48
E6147BK/3,1,5055939944739       ,48
E6147BK/4,1,5055939944746       ,48
E6147BK/5,1,5055939944753       ,48
E6164GK/3,1,5055939958873       ,48
E6164GK/4,1,5055939958880       ,48
E8074BK/4,1,5055939924724       ,48
E8074BK/5,1,5055939924731       ,48
E8074BK/6,1,5055939924748       ,48
E9142BK/4,1,5055939957364       ,48
E9142BK/5,1,5055939957371       ,48
E9142BK/6,1,5055939957388       ,48
E9142BK/7,1,5055939957395       ,48
E9142GK/3,1,5055939957401       ,48
E9142GK/4,1,5055939957418       ,48
E9142GK/5,1,5055939957425       ,48
E9142GK/6,1,5055939957432       ,48
E9143BK/3,1,5055939957456       ,48
E9143BK/4,1,5055939957463       ,48
E9143BK/5,1,5055939957470       ,48
E9143BK/6,1,5055939957487       ,48
E9143GK/4,1,5055939957517       ,48
E9143GK/5,1,5055939957524       ,48
E1187BK/3,3,5055939944760       ,51
E1187BK/5,3,5055939944784       ,51
E9147NA/4,3,5055939959474       ,51
E9147NA/5,3,5055939959481       ,51
E9147NA/6,3,5055939959498       ,51
E9150CV/3,3,5055939960357       ,51
E9150CV/4,3,5055939960364       ,51
E9150CV/5,3,5055939960371       ,51
E9150CV/6,3,5055939960388       ,51
E1187BK/3,1,5055939944760       ,52
E1187BK/5,1,5055939944784       ,52
E9147GF/4,1,5055939959429       ,52
E9147GF/5,1,5055939959436       ,52
E9147GF/6,1,5055939959443       ,52
E9150CV/3,1,5055939960357       ,52
E9150CV/4,1,5055939960364       ,52
E9150CV/5,1,5055939960371       ,52
E9150CV/6,1,5055939960388       ,52
E0128BK/3,2,5055939904924       ,59
E0128BK/4,3,5055939904931       ,59
E0128BK/5,2,5055939904948       ,59
E0128BK/6,2,5055939904955       ,59
E1131BK/L-XL,1,5055205398662       ,59
E1160RD/4,1,5055939928623       ,59
E1165BK/4,2,5055939928852       ,59
E1167BK/6,1,5055939929330       ,59
E1204BK/5,1,5055939950587       ,59
E1205BK/S-M,1,5055939951805       ,59
E3181BK/3,4,5055939958187       ,59
E3181BK/4,4,5055939958194       ,59
E3181BK/5,4,5055939958200       ,59
E3181BK/6,4,5055939958217       ,59
E3181BK/7,4,5055939958224       ,59
E4055BK/4,1,5055939953076       ,59
E4055BK/6,1,5055939953090       ,59
E5049BK/7,2,5055939924564       ,59
E5056BK/7,1,5055939941868       ,59
E6067PV/2,1,5055205367606       ,59
E6067PV/3,1,5055205367613       ,59
E6067PV/5,2,5055205367637       ,59
E6164GK/5,4,5055939958897       ,59
E6164RR/3,4,5055939958927       ,59
E6164RR/4,4,5055939958934       ,59
E6164RR/5,4,5055939958941       ,59
E6164RR/6,4,5055939958958       ,59
E7125BK/6,2,5055939924649       ,59
E8064BK/5,1,5055939915999       ,59
E8064NA/4,1,5055939950907       ,59
E1215GF/0,4,5055939957173       ,61
E3125BK/7,1,5055939915425       ,61
E8097NA/6,1,5055939950495       ,61
E0060/3,1,5055205323671       ,66
E0073,1,5055205338118       ,66
E0083BK/4,1,5055205341491       ,66
E0083BK/5,2,5055205341507       ,66
E0083BK/6,1,5055205341514       ,66
E0083BK/7,2,5055205341521       ,66
E0110UM,1,5055205367248       ,66
E0128BK/3,5,5055939904924       ,66
E0128BK/4,5,5055939904931       ,66
E0128BK/5,1,5055939904948       ,66
E0128BK/6,4,5055939904955       ,66
E1040BK/0,1,5055939916842       ,66
E1041WH/0,1,5055939919881       ,66
E1042BK/L-XL,1,5055939923857       ,66
E1118BK/6,1,5055205389998       ,66
E1120BK/5,3,5055205390239       ,66
E1128BK/S-M,2,5055205399164       ,66
E1131BK/L-XL,1,5055205398662       ,66
E1160KH/3,1,5055939928555       ,66
E1160KH/4,2,5055939928562       ,66
E1160KH/5,1,5055939928579       ,66
E1160KH/6,2,5055939928586       ,66
E1160RD/4,1,5055939928623       ,66
E1160RD/6,1,5055939928647       ,66
E1181BK/4,4,5055939942520       ,66
E1181BK/5,4,5055939942537       ,66
E1181BK/6,4,5055939942544       ,66
E1181BK/7,4,5055939942551       ,66
E1183BK/6,1,5055939944258       ,66
E1185BK/4,1,5055939944531       ,66
E1185BK/6,1,5055939944555       ,66
E1188BK/4,1,5055939944821       ,66
E1188BK/5,1,5055939944838       ,66
E1188BK/6,1,5055939944845       ,66
E1205BV/L-XL,1,5055939951836       ,66
E3133GY/4,3,5055939924281       ,66
E3133GY/5,3,5055939924298       ,66
E4055BK/4,2,5055939953076       ,66
E4055BK/5,2,5055939953083       ,66
E4055BK/6,1,5055939953090       ,66
E5049BK/3,2,5055939924526       ,66
E5049BK/4,4,5055939924533       ,66
E5049BK/5,2,5055939924540       ,66
E5049BK/6,2,5055939924557       ,66
E6067PV/2,1,5055205367606       ,66
E6067PV/3,1,5055205367613       ,66
E6067PV/5,1,5055205367637       ,66
E7112BK/K7,1,5055205390659       ,66
E8092GF/5,1,5055939948416       ,66
E9102BK/5,1,5055939925530       ,66
E9102BK/6,1,5055939925547       ,66
E9102BK/7,1,5055939925554       ,66
E9102GV/4,1,5055939925578       ,66
E9102GV/6,1,5055939925592       ,66
E9117GF/4,3,5055939948157       ,66
E9117GF/5,3,5055939948164       ,66
E9117GF/6,3,5055939948171       ,66
E1053BK/S-M,1,5055939958057       ,67
E1054BK/M-L,1,5055939958095       ,67
E3133GY/4,1,5055939924281       ,67
E3133GY/5,1,5055939924298       ,67
E0128YV/3,1,5055939909615       ,68
E3134BK/4,4,5055939924380       ,68
E3134BK/5,4,5055939924397       ,68
E3134BK/6,4,5055939924403       ,68
E3134GV/4,4,5055939924434       ,68
E3134GV/5,4,5055939924441       ,68
E3134GV/6,4,5055939924458       ,68
E3134RD/4,4,5055939924335       ,68
E3134RD/5,4,5055939924342       ,68
E3134RD/6,4,5055939924359       ,68
E6146BK/4,1,5055939942094       ,68
E9117GF/3,1,5055939948140       ,68
E0083BK/4,1,5055205341491       ,72
E0083BK/5,1,5055205341507       ,72
E0083BK/6,1,5055205341514       ,72
E0083BK/7,1,5055205341521       ,72
E0128BK/5,2,5055939904948       ,72
E1038BK/S-M,1,5055939906690       ,72
E1117BK/5,1,5055205390130       ,72
E1120BK/6,1,5055205390246       ,72
E1131BK/L-XL,1,5055205398662       ,72
E1157BK/S-M,1,5055939928425       ,72
E1160RD/3,1,5055939928616       ,72
E1160RD/5,1,5055939928630       ,72
E1161BK/6,1,5055939928708       ,72
E1165BK/5,1,5055939928869       ,72
E1183BK/4,1,5055939944234       ,72
E1187BK/4,1,5055939944777       ,72
E1188GV/5,1,5055939944883       ,72
E1199NA/3,1,5055939949741       ,72
E1199NA/4,1,5055939949758       ,72
E1199NA/5,1,5055939949765       ,72
E1204GC/4,1,5055939950679       ,72
E1216BK/6,2,5055939958378       ,72
E1216BK/7,1,5055939958385       ,72
E1216BV/6,1,5055939958439       ,72
E1224BK/6,1,5055939966298       ,72
E3177GK/5,1,5055939957777       ,72
E5049BK/3,2,5055939924526       ,72
E5049BK/5,1,5055939924540       ,72
E6067PV/5,3,5055205367637       ,72
E6146BK/4,1,5055939942094       ,72
E6146BK/5,2,5055939942100       ,72
E6147BK/5,1,5055939944753       ,72
E6147CE/3,1,5055939945477       ,72
E6147CE/4,1,5055939945484       ,72
E6147CE/5,1,5055939945491       ,72
E6155BK/4,1,5055939951201       ,72
E7125BK/5,4,5055939924632       ,72
E7130AN/3,2,5055939953830       ,72
E8064NA/5,2,5055939950914       ,72
E9095BK/5,1,5055939918075       ,72
E9095BK/6,1,5055939918082       ,72
E9102BK/5,1,5055939925530       ,72
E9114BK/6,1,5055939941752       ,72
E9120BK/6,1,5055939943237       ,72
E9122BV/7,1,5055939945453       ,72
E9139BK/3,1,5055939953588       ,72
E9140BK/4,1,5055939953489       ,72
E9140BK/5,1,5055939953496       ,72
E9140BK/6,2,5055939953502       ,72
E9143GK/6,1,5055939957531       ,75
E8074BK/7,1,5055939924755       ,76
E9122BV/3,1,5055939945415       ,76
E9143GK/6,2,5055939957531       ,76
E0035/3,4,5055205301440       ,80
E0035/5,1,5055205301457       ,80
E0083BK/6,1,5055205341514       ,80
E0098YV/S-M,1,5055205359571       ,80
E0099YV,1,5055205363356       ,80
E0128BK/6,1,5055939904955       ,80
E1043BK/L-XL,1,5055939923871       ,80
E1043BK/S-M,1,5055939923888       ,80
E1052BK/S-M,1,5055939958026       ,80
E1053BK/S-M,3,5055939958057       ,80
E1054BK/L-XL,3,5055939958101       ,80
E1054BK/M-L,4,5055939958095       ,80
E1120BK/6,2,5055205390246       ,80
E1128BK/S-M,2,5055205399164       ,80
E1160KH/6,1,5055939928586       ,80
E1160KH/7,1,5055939928593       ,80
E1160RD/5,1,5055939928630       ,80
E1160RD/6,1,5055939928647       ,80
E1168NA/7,1,5055939929613       ,80
E1170BK/0,1,5055939929828       ,80
E1181BK/3,1,5055939942513       ,80
E1183BK/7,2,5055939944265       ,80
E1185BK/3,1,5055939944524       ,80
E1185BK/6,1,5055939944555       ,80
E1185BK/7,1,5055939944562       ,80
E1187BK/4,1,5055939944777       ,80
E1196BK/L-XL,3,5055939948874       ,80
E1196BK/S-M,4,5055939948867       ,80
E1216BK/6,1,5055939958378       ,80
E1216BK/7,1,5055939958385       ,80
E1225BK/L-XL,1,5055939959207       ,80
E1225BK/M-L,1,5055939959191       ,80
E1225BK/S-M,1,5055939959184       ,80
E1234RD/S-M,1,5055939966854       ,80
E3123BK/5,1,5055939915340       ,80
E3133GY/5,1,5055939924298       ,80
E3181BK/4,1,5055939958194       ,80
E3183BK/4,1,5055939959306       ,80
E5049BK/5,1,5055939924540       ,80
E5049BK/7,1,5055939924564       ,80
E5056BK/4,1,5055939941837       ,80
E5056BK/5,2,5055939941844       ,80
E6067PV/4,2,5055205367620       ,80
E6147CE/5,1,5055939945491       ,80
E7112BK/K9,1,5055205390635       ,80
E7125BK/3,2,5055939924618       ,80
E7125BK/4,3,5055939924625       ,80
E8074BK/5,1,5055939924731       ,80
E9098BK/4,1,5055939942889       ,80
E9102BK/5,2,5055939925530       ,80
E9114BK/4,1,5055939941738       ,80
E9114BK/5,1,5055939941745       ,80
E9114BK/6,1,5055939941752       ,80
E9114GV/3,1,5055939941677       ,80
E9114GV/4,1,5055939941684       ,80
E9114GV/5,1,5055939941691       ,80
E9114GV/7,1,5055939941714       ,80
E9121NA/4,2,5055939943510       ,80
E9121NA/5,2,5055939943527       ,80
E9121NA/6,1,5055939943534       ,80
E9121NA/7,2,5055939943541       ,80
E9121YV/3,1,5055939945811       ,80
E9121YV/4,1,5055939945828       ,80
E9121YV/5,2,5055939945835       ,80
E9121YV/7,1,5055939945859       ,80
E9122BV/7,1,5055939945453       ,80
E9139BK/3,3,5055939953588       ,80
E9139BK/4,4,5055939953595       ,80
E9139BK/5,4,5055939953601       ,80
E9140BK/4,1,5055939953489       ,80
E9140BK/5,1,5055939953496       ,80
E9140BV/4,2,5055939953533       ,80
E9140BV/5,2,5055939953540       ,80
E9140BV/6,2,5055939953557       ,80
E9141BV/3,1,5055939951454       ,80
E9141BV/4,1,5055939951461       ,80
E9141BV/5,1,5055939951478       ,80
E9141BV/6,1,5055939951485       ,80
E9142BK/7,1,5055939957395       ,80
E0099YV,1,5055205363356       ,87
E0128BK/4,2,5055939904931       ,87
E1038BK/L-XL,1,5055939906706       ,87
E1109BK/L-XL,1,5055205388014       ,87
E1109BK/S-M,1,5055205387994       ,87
E1160RD/7,1,5055939928654       ,87
E1184GF/5,1,5055939959580       ,87
E1187BK/3,1,5055939944760       ,87
E1188BK/5,1,5055939944838       ,87
E1188GV/6,1,5055939944890       ,87
E1195BK/L-XL,1,5055939948836       ,87
E1196BK/L-XL,1,5055939948874       ,87
E1205BV/L-XL,1,5055939951836       ,87
E1224BK/3,1,5055939958804       ,87
E5049BK/4,1,5055939924533       ,87
E5049BK/6,1,5055939924557       ,87
E5056BK/5,1,5055939941844       ,87
E6067PV/3,1,5055205367613       ,87
E6067PV/4,1,5055205367620       ,87
E6147BK/3,1,5055939944739       ,87
E6147CE/5,1,5055939945491       ,87
E6164GK/5,1,5055939958897       ,87
E7125BK/3,1,5055939924618       ,87
E7125BK/4,1,5055939924625       ,87
E7125BK/5,1,5055939924632       ,87
E7125BK/6,1,5055939924649       ,87
E8064GY/5,1,5055939916231       ,87
E8074BK/5,1,5055939924731       ,87
E9114BK/6,1,5055939941752       ,87
E9117CC/4,1,5055939960937       ,87
E9117CC/5,1,5055939960944       ,87
E9117CC/6,1,5055939960951       ,87
E9117GF/4,1,5055939948157       ,87
E9121YV/6,1,5055939945842       ,87
E9122BV/5,1,5055939945439       ,87
E9147NA/4,1,5055939959474       ,87
E0132MB/4,1,5055939922027       ,89
E0132MB/5,1,5055939922034       ,89
E0132MB/6,1,5055939922041       ,89
E1199NA/3,1,5055939949741       ,89
E1199NA/4,2,5055939949758       ,89
E1199NA/5,1,5055939949765       ,89
E1199RR/3,1,5055939949697       ,89
E1199RR/4,1,5055939949703       ,89
E1199RR/5,1,5055939949710       ,89
E1204BK/4,1,5055939950570       ,89
E1204BK/7,1,5055939950600       ,89
E1204GC/3,2,5055939950662       ,89
E1204GC/6,2,5055939950693       ,89
E3125BK/3,1,5055939915388       ,89
E3125BK/4,1,5055939915395       ,89
E3125BK/5,2,5055939915401       ,89
E3142BK/4,1,5055939931364       ,89
E3142BK/5,1,5055939931371       ,89
E3142NA/6,2,5055939952697       ,89
E3167BK/L-XL,1,5055939954127       ,89
E3167WH/L-XL,1,5055939954073       ,89
E3167WH/S-M,1,5055939954066       ,89
E3173GF/5,1,5055939949666       ,89
E5066BK/4,1,5055939949253       ,89
E5066BK/5,1,5055939949260       ,89
E5066BK/6,1,5055939949277       ,89
E5067NA/4,1,5055939950778       ,89
E5067NA/5,1,5055939950785       ,89
E5069BK/5,2,5055939951591       ,89
E5073BA/5,1,5055939949116       ,89
E5073BA/6,1,5055939949123       ,89
E6151BK/3,1,5055939950334       ,89
E6151BK/4,1,5055939950341       ,89
E6151BK/5,1,5055939950358       ,89
E6152CO/3,1,5055939951034       ,89
E6152CO/4,2,5055939951041       ,89
E6152CO/5,1,5055939951058       ,89
E6155BK/2,1,5055939951188       ,89
E6155BK/4,2,5055939951201       ,89
E7117BK/4,2,5055939917023       ,89
E7117BK/5,3,5055939917030       ,89
E7117BK/6,1,5055939917047       ,89
E7117NA/4,1,5055939955056       ,89
E7117NA/5,1,5055939955063       ,89
E7117NA/6,1,5055939955070       ,89
E7117RD/4,1,5055939917894       ,89
E7117RD/5,1,5055939917900       ,89
E7117RD/6,1,5055939917917       ,89
E7130AN/7,1,5055939953878       ,89
E7135BK/4,2,5055939953120       ,89
E7135BK/5,1,5055939953137       ,89
E7135BK/6,1,5055939953144       ,89
E8064NA/5,2,5055939950914       ,89
E8064NA/6,3,5055939950921       ,89
E8070GF/5,1,5055939948461       ,89
E8092BK/4,1,5055939948355       ,89
E8092BK/5,2,5055939948362       ,89
E8092BK/6,1,5055939948379       ,89
E8092GF/4,2,5055939948409       ,89
E8097GY/5,1,5055939950433       ,89
E8097NA/6,1,5055939950495       ,89
E9102RD/3,1,5055939925462       ,89
E9139BK/3,2,5055939953588       ,89
E9140BK/4,1,5055939953489       ,89
E9140BK/5,1,5055939953496       ,89
E9140BK/6,2,5055939953502       ,89
E9140BV/4,1,5055939953533       ,89
E9140BV/5,1,5055939953540       ,89
E9141BV/3,1,5055939951454       ,89
E9141BV/4,1,5055939951461       ,89
E9141BV/5,1,5055939951478       ,89
E0132MB/5,1,5055939922034       ,93
E1204GC/3,1,5055939950662       ,93
E3173BK/4,1,5055939949604       ,93
E3173BK/5,1,5055939949611       ,93
E3173BK/6,1,5055939949628       ,93
E0041,1,5055205301938       ,94
E0127BK/6,1,5055939904849       ,94
E0128BK/3,1,5055939904924       ,94
E1117BK/6,1,5055205390147       ,94
E1120BK/6,1,5055205390246       ,94
E1160KH/3,1,5055939928555       ,94
E1161BK/6,1,5055939928708       ,94
E1184GF/4,2,5055939959573       ,94
E1184GF/5,1,5055939959580       ,94
E1184GF/6,1,5055939959597       ,94
E1187BK/3,1,5055939944760       ,94
E1195BK/S-M,3,5055939948829       ,94
E1196BK/S-M,1,5055939948867       ,94
E1205NA/L-XL,2,5055939951850       ,94
E1216BK/3,1,5055939958347       ,94
E1216BK/4,2,5055939958354       ,94
E1216BK/7,1,5055939958385       ,94
E1216BV/4,1,5055939958415       ,94
E1216BV/5,1,5055939958422       ,94
E1224BK/4,1,5055939966274       ,94
E1234RD/S-M,3,5055939966854       ,94
E1250CL,1,5055939955797       ,94
E3123BK/4,1,5055939915333       ,94
E3133GY/4,1,5055939924281       ,94
E3133GY/5,1,5055939924298       ,94
E3134BK/4,1,5055939924380       ,94
E3177BK/6,1,5055939957739       ,94
E3177BK/7,1,5055939957746       ,94
E3178BK/4,1,5055939957876       ,94
E3181BK/6,1,5055939958217       ,94
E4054BK/5,1,5055939953182       ,94
E4054BK/6,1,5055939953199       ,94
E4055BK/3,1,5055939953069       ,94
E4055BK/7,1,5055939953106       ,94
E5069BK/4,1,5055939951584       ,94
E6095BK/4,1,5055939901138       ,94
E6147CE/4,1,5055939945484       ,94
E6153BK/4,1,5055939953298       ,94
E8064BK/4,1,5055939915982       ,94
E8064BK/5,2,5055939915999       ,94
E8074BK/4,1,5055939924724       ,94
E8074BK/6,2,5055939924748       ,94
E8076BK/5,1,5055939924830       ,94
E8097NA/5,1,5055939950488       ,94
E9095BK/5,1,5055939918075       ,94
E9113GK/6,1,5055939957333       ,94
E9122BV/5,1,5055939945439       ,94
E9141BK/6,1,5055939951546       ,94
E9142BK/5,1,5055939957371       ,94
E9142BK/6,1,5055939957388       ,94
E1054BK/L-XL,1,5055939958101       ,96
E0099YV,1,5055205363356       ,100
E0128BK/2,1,5055939904917       ,100
E0128BK/3,1,5055939904924       ,100
E0128BK/4,2,5055939904931       ,100
E0128BK/5,1,5055939904948       ,100
E0128BK/6,1,5055939904955       ,100
E1043BK/L-XL,2,5055939923871       ,100
E1117BK/4,1,5055205390123       ,100
E1120BK/4,1,5055205390222       ,100
E1183BK/3,1,5055939944227       ,100
E1196BK/L-XL,1,5055939948874       ,100
E1216BK/5,2,5055939958361       ,100
E1216BK/6,1,5055939958378       ,100
E1216BV/4,1,5055939958415       ,100
E1223BK/L-XL,1,5055939958613       ,100
E1225BK/L-XL,1,5055939959207       ,100
E1225BK/XL-XXL,1,5055939966564       ,100
E3173GF/4,1,5055939949659       ,100
E3181BK/5,1,5055939958200       ,100
E3181NA/6,1,5055939958262       ,100
E4055BK/3,1,5055939953069       ,100
E6153BK/3,1,5055939953281       ,100
E7112BK/K11,1,5055205390642       ,100
E8074BK/5,2,5055939924731       ,100
E9095BK/5,1,5055939918075       ,100
E9114GV/3,1,5055939941677       ,100
E9121YV/5,2,5055939945835       ,100
E9147NA/5,1,5055939959481       ,100
E0073,3,5055205338118       ,107
E0083BK/5,2,5055205341507       ,107
E0127BK/4,1,5055939904825       ,107
E0128BK/4,1,5055939904931       ,107
E0128BK/5,1,5055939904948       ,107
E0128BK/6,2,5055939904955       ,107
E1042BK/L-XL,4,5055939923857       ,107
E1042BK/S-M,4,5055939923864       ,107
E1043BK/L-XL,1,5055939923871       ,107
E1120BK/5,1,5055205390239       ,107
E1160BK/4,1,5055939928500       ,107
E1160BK/6,3,5055939928524       ,107
E1160BK/7,2,5055939928531       ,107
E1160KH/6,1,5055939928586       ,107
E1160RD/6,1,5055939928647       ,107
E1161BK/6,1,5055939928708       ,107
E1183BK/5,1,5055939944241       ,107
E1184GF/5,1,5055939959580       ,107
E1187BK/6,3,5055939944791       ,107
E1188BK/5,2,5055939944838       ,107
E1216BK/4,1,5055939958354       ,107
E1216BK/5,2,5055939958361       ,107
E1216BK/6,1,5055939958378       ,107
E1216BK/7,1,5055939958385       ,107
E1216BV/3,1,5055939958408       ,107
E1216BV/5,1,5055939958422       ,107
E1216BV/6,1,5055939958439       ,107
E1224BK/4,1,5055939966274       ,107
E3133GY/5,1,5055939924298       ,107
E3134RD/5,1,5055939924342       ,107
E3181BK/7,1,5055939958224       ,107
E3183GK/5,1,5055939960463       ,107
E5049BK/4,1,5055939924533       ,107
E6067PV/4,2,5055205367620       ,107
E6078BK/2,1,5055205386652       ,107
E6141BK/4,2,5055939934051       ,107
E6146BK/4,2,5055939942094       ,107
E6147CE/3,1,5055939945477       ,107
E6164RR/3,1,5055939958927       ,107
E6164RR/4,1,5055939958934       ,107
E6164RR/5,1,5055939958941       ,107
E7112BK/K11,2,5055205390642       ,107
E7112BK/K7,1,5055205390659       ,107
E8064BK/6,1,5055939916002       ,107
E8074BK/6,1,5055939924748       ,107
E9098BK/6,1,5055939942902       ,107
E9102RD/5,1,5055939925486       ,107
E9117GF/6,1,5055939948171       ,107
E9122BK/3,1,5055939945361       ,107
E9122BK/6,1,5055939945392       ,107
E9147NA/6,1,5055939959498       ,107
E0110PK,1,5055205367231       ,114
E0110UM,1,5055205367248       ,114
E0128BK/5,1,5055939904948       ,114
E0128BK/6,2,5055939904955       ,114
E0132BK/4,1,5055939915012       ,114
E1038BK/L-XL,1,5055939906706       ,114
E1042BK/S-M,1,5055939923864       ,114
E1043BK/L-XL,1,5055939923871       ,114
E1118BK/5,3,5055205389981       ,114
E1120BK/4,3,5055205390222       ,114
E1120BK/6,1,5055205390246       ,114
E1165BK/4,1,5055939928852       ,114
E1165BK/6,1,5055939928876       ,114
E1165RD/4,1,5055939929019       ,114
E1165RD/5,1,5055939929026       ,114
E1167BK/4,1,5055939929316       ,114
E1167RD/7,1,5055939929408       ,114
E1167WH/5,1,5055939929446       ,114
E1183BK/5,1,5055939944241       ,114
E1183BK/7,1,5055939944265       ,114
E1184GF/4,1,5055939959573       ,114
E1184GF/5,1,5055939959580       ,114
E1184GF/6,1,5055939959597       ,114
E1187BK/5,1,5055939944784       ,114
E1187BK/6,1,5055939944791       ,114
E1188BK/3,1,5055939944814       ,114
E1205BV/L-XL,1,5055939951836       ,114
E1205NA/L-XL,1,5055939951850       ,114
E1205NA/S-M,1,5055939951843       ,114
E1216BK/3,1,5055939958347       ,114
E1216BK/5,1,5055939958361       ,114
E1216BK/7,1,5055939958385       ,114
E1216BV/3,1,5055939958408       ,114
E1223BK/L-XL,3,5055939958613       ,114
E1223BK/S-M,1,5055939958606       ,114
E1224BK/3,1,5055939958804       ,114
E3133GY/5,2,5055939924298       ,114
E3134BK/5,1,5055939924397       ,114
E4054BK/3,1,5055939953168       ,114
E4055BK/5,1,5055939953083       ,114
E6040BK/2,1,5055939904979       ,114
E6067PV/3,1,5055205367613       ,114
E6106BK/4,1,5055939919508       ,114
E6163BK/3,1,5055939958828       ,114
E8064BK/3,1,5055939915975       ,114
E8064BK/4,3,5055939915982       ,114
E8070BK/4,1,5055939916729       ,114
E8086AN/6,1,5055939942810       ,114
E8098BK/3,1,5055939953342       ,114
E8098BK/4,2,5055939953359       ,114
E8098BK/5,3,5055939953366       ,114
E9104CR/2,1,5055939925714       ,114
E9104CR/3,1,5055939925721       ,114
E9104CR/4,1,5055939925738       ,114
E9121YV/6,1,5055939945842       ,114
E9122BV/4,1,5055939945422       ,114
E9122BV/6,1,5055939945446       ,114
E9142GK/5,1,5055939957425       ,114
E0043GK/0,1,5055939961385       ,121
E0083BK/5,1,5055205341507       ,121
E0099YV,1,5055205363356       ,121
E0110BK,3,5055205367224       ,121
E0128BK/4,1,5055939904931       ,121
E1038BK/L-XL,1,5055939906706       ,121
E1042BK/S-M,1,5055939923864       ,121
E1118BK/5,1,5055205389981       ,121
E1120BK/4,1,5055205390222       ,121
E1120BK/5,3,5055205390239       ,121
E1165BK/5,1,5055939928869       ,121
E1167BK/6,1,5055939929330       ,121
E1183BK/6,1,5055939944258       ,121
E1184GF/6,1,5055939959597       ,121
E1187BK/5,1,5055939944784       ,121
E1188BK/5,1,5055939944838       ,121
E1215GF/0,1,5055939957173       ,121
E1216BK/5,1,5055939958361       ,121
E1223BK/L-XL,1,5055939958613       ,121
E1223BK/S-M,1,5055939958606       ,121
E1224BK/3,1,5055939958804       ,121
E3133GY/7,1,5055939924311       ,121
E3177BK/6,1,5055939957739       ,121
E3183BK/6,1,5055939959320       ,121
E4054BK/6,1,5055939953199       ,121
E6032/3,1,5055205307268       ,121
E6067PV/4,1,5055205367620       ,121
E7118BK/4,1,5055939914886       ,121
E7118BK/5,1,5055939914893       ,121
E9095YV/4,1,5055939918129       ,121
E9120YV/5,2,5055939943275       ,121
E9120YV/6,2,5055939943282       ,121
E9122BK/4,1,5055939945378       ,121
E9126YV/4,2,5055939943923       ,121
E9126YV/5,2,5055939943930       ,121
E9127YV/4,2,5055939943985       ,121
E9127YV/5,2,5055939943992       ,121
E9147NA/5,1,5055939959481       ,121
E9095RD/7,1,5055939918211       ,122
E0043GK/0,1,5055939961385       ,128
E0099YV,1,5055205363356       ,128
E0110BK,1,5055205367224       ,128
E0110RR/0,1,5055939959719       ,128
E0128BK/4,4,5055939904931       ,128
E0132BK/5,1,5055939915029       ,128
E1038BK/L-XL,1,5055939906706       ,128
E1042BK/L-XL,1,5055939923857       ,128
E1042BK/S-M,1,5055939923864       ,128
E1053BK/M-L,1,5055939958064       ,128
E1109BK/M-L,1,5055205388007       ,128
E1118BK/5,1,5055205389981       ,128
E1160RD/5,2,5055939928630       ,128
E1161BK/6,1,5055939928708       ,128
E1167BK/6,1,5055939929330       ,128
E1181BK/3,2,5055939942513       ,128
E1181BK/5,1,5055939942537       ,128
E1181BK/6,2,5055939942544       ,128
E1183BK/6,1,5055939944258       ,128
E1184GF/6,1,5055939959597       ,128
E1216BK/3,2,5055939958347       ,128
E1216BK/5,1,5055939958361       ,128
E1216BK/6,1,5055939958378       ,128
E1223BK/L-XL,1,5055939958613       ,128
E1234RD/S-M,1,5055939966854       ,128
E3133GY/5,1,5055939924298       ,128
E3134RD/5,1,5055939924342       ,128
E5049BK/5,1,5055939924540       ,128
E5049BK/6,1,5055939924557       ,128
E5056BK/5,1,5055939941844       ,128
E6147CE/4,1,5055939945484       ,128
E6127BK/3,1,5055939933320       ,135
E7118BK/4,1,5055939914886       ,135
E9117BK/6,1,5055939942193       ,135
E0062/5,1,5055205323787       ,136
E1160RD/5,1,5055939928630       ,136
E1168NA/4,1,5055939929583       ,136
E1168NA/5,1,5055939929590       ,136
E1184BK/5,1,5055939944449       ,136
E1184GF/5,1,5055939959580       ,136
E1186BK/4,1,5055939944630       ,136
E1186BK/5,1,5055939944647       ,136
E1188BK/6,1,5055939944845       ,136
E1188GV/4,1,5055939944876       ,136
E1216BK/3,1,5055939958347       ,136
E1216BK/4,1,5055939958354       ,136
E1216BK/5,2,5055939958361       ,136
E1216BK/6,1,5055939958378       ,136
E1216BV/5,1,5055939958422       ,136
E1223BK/L-XL,3,5055939958613       ,136
E1223BK/S-M,1,5055939958606       ,136
E1224BK/4,1,5055939966274       ,136
E1225BK/XL-XXL,1,5055939966564       ,136
E3183BK/4,1,5055939959306       ,136
E5056BK/5,1,5055939941844       ,136
E6153BK/4,1,5055939953298       ,136
E7118BK/5,1,5055939914893       ,136
E8064BK/5,1,5055939915999       ,136
E8070BK/7,1,5055939916750       ,136
E9114GV/7,1,5055939941714       ,136
E0110PK,1,5055205367231       ,142
E0110UM,1,5055205367248       ,142
E1038BK/L-XL,1,5055939906706       ,142
E1042BK/S-M,1,5055939923864       ,142
E1120BK/3,1,5055205390215       ,142
E1138WH/0,1,5055939901374       ,142
E1160RD/3,1,5055939928616       ,142
E1160RD/5,1,5055939928630       ,142
E1161BK/6,1,5055939928708       ,142
E1165BK/5,1,5055939928869       ,142
E1184BK/5,2,5055939944449       ,142
E1188BK/4,1,5055939944821       ,142
E1188GV/6,1,5055939944890       ,142
E1205BK/L-XL,2,5055939951812       ,142
E1223BK/L-XL,2,5055939958613       ,142
E1223BK/S-M,1,5055939958606       ,142
E1224BK/3,1,5055939958804       ,142
E1224BK/6,1,5055939966298       ,142
E3133GY/4,1,5055939924281       ,142
E3133GY/5,1,5055939924298       ,142
E3134GV/5,1,5055939924441       ,142
E3181NA/4,1,5055939958248       ,142
E6140BK/3,1,5055939934006       ,142
E7118BK/5,1,5055939914893       ,142
E7130AN/4,1,5055939953847       ,142
E8064BK/5,1,5055939915999       ,142
E9114BK/4,1,5055939941738       ,142
E9121NA/4,1,5055939943510       ,142
E9121NA/5,1,5055939943527       ,142
E9147NA/4,1,5055939959474       ,142
E9147NA/5,1,5055939959481       ,142
E1181BK/5,1,5055939942537       ,144
E1181BK/6,1,5055939942544       ,144
E9121YV/5,1,5055939945835       ,144
E9129YV/2,1,5055939943640       ,144
E9142BK/6,1,5055939957388       ,144
E6146BK/5,1,5055939942100       ,157
E0060/4,2,5055205323688       ,164
E1038BK/L-XL,1,5055939906706       ,164
E1042BK/L-XL,1,5055939923857       ,164
E1042BK/S-M,3,5055939923864       ,164
E1043BK/S-M,1,5055939923888       ,164
E1120BK/4,3,5055205390222       ,164
E1120BK/5,2,5055205390239       ,164
E1120BK/6,2,5055205390246       ,164
E1160BK/4,2,5055939928500       ,164
E1160BK/5,1,5055939928517       ,164
E1160BK/7,2,5055939928531       ,164
E1160KH/7,1,5055939928593       ,164
E1160RD/3,1,5055939928616       ,164
E1183BK/5,1,5055939944241       ,164
E1188BK/5,1,5055939944838       ,164
E1188GV/4,1,5055939944876       ,164
E1195BK/S-M,1,5055939948829       ,164
E1196BK/L-XL,1,5055939948874       ,164
E1196BK/S-M,2,5055939948867       ,164
E1202BK/L-XL,1,5055939949918       ,164
E1216BK/5,1,5055939958361       ,164
E1223BK/L-XL,2,5055939958613       ,164
E1223BK/S-M,1,5055939958606       ,164
E3183GK/4,1,5055939960456       ,164
E4054BK/5,1,5055939953182       ,164
E5056BK/4,1,5055939941837       ,164
E6146BK/5,1,5055939942100       ,164
E6147CE/3,1,5055939945477       ,164
E6147CE/4,1,5055939945484       ,164
E7112BK/K7,3,5055205390659       ,164
E0099YV,3,5055205363356       ,171
E0110UM,1,5055205367248       ,171
E1042BK/L-XL,1,5055939923857       ,171
E1118BK/5,1,5055205389981       ,171
E1118BK/6,1,5055205389998       ,171
E1120BK/3,1,5055205390215       ,171
E1120BK/4,2,5055205390222       ,171
E1120BK/5,4,5055205390239       ,171
E1120BK/6,7,5055205390246       ,171
E1120BK/7,2,5055205390253       ,171
E1138WH/0,1,5055939901374       ,171
E1160KH/7,1,5055939928593       ,171
E1165BK/5,1,5055939928869       ,171
E1165BK/6,1,5055939928876       ,171
E1165RD/5,1,5055939929026       ,171
E1165RD/6,1,5055939929033       ,171
E1184BK/3,1,5055939944425       ,171
E1184BK/5,1,5055939944449       ,171
E1184GF/4,1,5055939959573       ,171
E1184GF/6,1,5055939959597       ,171
E1187BK/7,1,5055939944807       ,171
E1188BK/5,1,5055939944838       ,171
E1188BK/6,1,5055939944845       ,171
E1188GV/4,3,5055939944876       ,171
E1196BK/S-M,2,5055939948867       ,171
E1216BK/3,2,5055939958347       ,171
E1216BK/4,1,5055939958354       ,171
E1216BK/5,2,5055939958361       ,171
E1216BK/6,2,5055939958378       ,171
E1216BK/7,1,5055939958385       ,171
E1223BK/L-XL,1,5055939958613       ,171
E1224BK/3,2,5055939958804       ,171
E1224BK/4,1,5055939966274       ,171
E3133GY/6,1,5055939924304       ,171
E3134BK/6,1,5055939924403       ,171
E3134RD/4,1,5055939924335       ,171
E4054BK/4,2,5055939953175       ,171
E4054BK/5,1,5055939953182       ,171
E4054BK/7,2,5055939953205       ,171
E4055BK/4,1,5055939953076       ,171
E4055BK/5,1,5055939953083       ,171
E4055BK/6,1,5055939953090       ,171
E5056BK/4,1,5055939941837       ,171
E5056BK/6,1,5055939941851       ,171
E6067PV/3,1,5055205367613       ,171
E6146BK/4,2,5055939942094       ,171
E6146BK/5,1,5055939942100       ,171
E6147BK/5,1,5055939944753       ,171
E6147CE/3,2,5055939945477       ,171
E6147CE/4,1,5055939945484       ,171
E7112BK/K11,2,5055205390642       ,171
E9102BK/5,1,5055939925530       ,171
E9121NA/6,1,5055939943534       ,171
E8073BK/4,1,5055939924670       ,173
E8074BK/4,1,5055939924724       ,173
E8074BK/5,1,5055939924731       ,173
E0043GK/0,1,5055939961385       ,177
E0099YV,2,5055205363356       ,177
E1038BK/L-XL,1,5055939906706       ,177
E1038BK/S-M,1,5055939906690       ,177
E1118BK/6,1,5055205389998       ,177
E1120BK/4,1,5055205390222       ,177
E1160KH/3,1,5055939928555       ,177
E1160KH/7,1,5055939928593       ,177
E1161BK/6,1,5055939928708       ,177
E1184GF/4,2,5055939959573       ,177
E1184GF/6,1,5055939959597       ,177
E1187BK/4,4,5055939944777       ,177
E1187BK/5,1,5055939944784       ,177
E1216BK/3,1,5055939958347       ,177
E1216BK/5,1,5055939958361       ,177
E1223BK/L-XL,1,5055939958613       ,177
E1224BK/4,1,5055939966274       ,177
E1224BK/5,1,5055939966281       ,177
E1224BK/6,1,5055939966298       ,177
E3134BK/6,1,5055939924403       ,177
E3183BK/4,1,5055939959306       ,177
E3183BK/5,1,5055939959313       ,177
E5056BK/5,1,5055939941844       ,177
E6040BK/3,1,5055939904986       ,177
E6146BK/3,1,5055939942087       ,177
E8073BK/6,1,5055939924694       ,177
E0043GK/0,1,5055939961385       ,184
E0110PK,1,5055205367231       ,184
E0127BK/4,1,5055939904825       ,184
E0128BK/2,1,5055939904917       ,184
E1053BK/M-L,1,5055939958064       ,184
E1120BK/7,1,5055205390253       ,184
E1181BK/7,1,5055939942551       ,184
E1184BK/3,1,5055939944425       ,184
E1184GF/5,1,5055939959580       ,184
E1188BK/3,1,5055939944814       ,184
E1188BK/4,1,5055939944821       ,184
E1188BK/5,1,5055939944838       ,184
E1188BK/6,1,5055939944845       ,184
E1216BK/5,1,5055939958361       ,184
E1216BV/4,1,5055939958415       ,184
E1216BV/5,1,5055939958422       ,184
E1216BV/6,1,5055939958439       ,184
E1223BK/L-XL,1,5055939958613       ,184
E1224BK/4,1,5055939966274       ,184
E1224BK/6,1,5055939966298       ,184
E1234RD/L-XL,1,5055939966861       ,184
E3133GY/6,2,5055939924304       ,184
E3134GV/6,2,5055939924458       ,184
E3177BK/4,1,5055939957715       ,184
E3181BK/5,1,5055939958200       ,184
E3181BK/6,1,5055939958217       ,184
E3183BK/5,1,5055939959313       ,184
E5049BK/6,1,5055939924557       ,184
E6146BK/3,1,5055939942087       ,184
E6146BK/4,1,5055939942094       ,184
E6147BK/4,3,5055939944746       ,184
E6147CE/4,1,5055939945484       ,184
E6147CE/5,1,5055939945491       ,184
E7112BK/K7,1,5055205390659       ,184
E7130AN/5,1,5055939953854       ,184
E9115CE/6,1,5055939945095       ,184
E9117BK/7,1,5055939942209       ,184
E9122BK/5,1,5055939945385       ,184
E9142BK/7,1,5055939957395       ,184
E9142GK/4,1,5055939957418       ,184
E0035/3,1,5055205301440       ,192
E0043GK/0,1,5055939961385       ,192
E1038BK/L-XL,1,5055939906706       ,192
E1038BK/S-M,1,5055939906690       ,192
E1053BK/S-M,1,5055939958057       ,192
E1120BK/3,1,5055205390215       ,192
E1120BK/5,4,5055205390239       ,192
E1161BK/4,2,5055939928685       ,192
E1161BK/5,1,5055939928692       ,192
E1183BK/5,1,5055939944241       ,192
E1184GF/5,1,5055939959580       ,192
E1188BK/4,1,5055939944821       ,192
E1188BK/5,1,5055939944838       ,192
E1188GV/5,1,5055939944883       ,192
E1195BK/S-M,1,5055939948829       ,192
E1216BK/6,1,5055939958378       ,192
E1216BV/5,1,5055939958422       ,192
E1216BV/7,1,5055939958446       ,192
E1223BK/L-XL,1,5055939958613       ,192
E5056BK/5,1,5055939941844       ,192
E5056BK/6,1,5055939941851       ,192
E6147CE/3,1,5055939945477       ,192
E6147CE/4,1,5055939945484       ,192
E6147CE/5,1,5055939945491       ,192
E7130AN/5,1,5055939953854       ,192
E9122BV/6,2,5055939945446       ,192
E9122BV/7,1,5055939945453       ,192
E0043GK/0,1,5055939961385       ,199
E0073,1,5055205338118       ,199
E0110UM,1,5055205367248       ,199
E1187BK/3,1,5055939944760       ,199
E1216BK/5,1,5055939958361       ,199
E1216BV/5,1,5055939958422       ,199
E1216BV/6,1,5055939958439       ,199
E3134RD/4,2,5055939924335       ,199
E3177GK/5,1,5055939957777       ,199
E5056BK/5,1,5055939941844       ,199
E6146BK/3,1,5055939942087       ,199
E6147CE/3,1,5055939945477       ,199
E6163BK/4,1,5055939958835       ,199
E9104CR/2,1,5055939925714       ,199
E9106CG/5,1,5055939974989       ,199
E9122BV/7,1,5055939945453       ,199
E9126YV/4,1,5055939943923       ,199
E0110PK,1,5055205367231       ,205
E1120BK/7,1,5055205390253       ,205
E1160KH/3,1,5055939928555       ,205
E1183BK/5,1,5055939944241       ,205
E1188BK/4,2,5055939944821       ,205
E1234RD/S-M,1,5055939966854       ,205
E3134RD/4,1,5055939924335       ,205
E3183BK/3,1,5055939959290       ,205
E6146BK/4,1,5055939942094       ,205
E7112BK/K9,1,5055205390635       ,205
E9106WH/4,1,5055939935362       ,205
E0043GK/0,1,5055939961385       ,212
E0128BK/4,2,5055939904931       ,212
E1054BK/M-L,1,5055939958095       ,212
E1160KH/5,1,5055939928579       ,212
E1160RD/7,1,5055939928654       ,212
E1187BK/6,1,5055939944791       ,212
E1188BK/5,1,5055939944838       ,212
E1216BK/5,1,5055939958361       ,212
E1216BK/7,2,5055939958385       ,212
E1234GF/S-M,1,5055939966830       ,212
E3158BK/7,1,5055939942452       ,212
E6146BK/3,2,5055939942087       ,212
E6147BK/5,1,5055939944753       ,212
E7112BK/K7,1,5055205390659       ,212
E7112BK/K9,1,5055205390635       ,212
E8090AN/7,1,5055939944364       ,212
E9121NA/6,1,5055939943534       ,212
