Identifier,Qty
E8064BK/5,1
E8064BK/7,1
E9102BK/4,1
E9102GV/4,1
E1186BK/7,1
E6147BK/2,1
E6147BK/5,1
E9114GV/4,1
E9114GV/5,1
E9114GV/6,1
E8064BK/4,1
E8064BK/6,1
E3123OM/4,1
E8050BK/3,1
E3108RD/7,1
E9106GV/6,1
E1030BK/M-L,1
E6032/4,1
E6040YV/3,1
