Identifier,Qty
E9103GV/S,1
E1181BK/5,1
E1004BK/S-M,2
E1005BK/L-XL,2
E5022BK/6,1
E9102GV/4,1
E0095GV/5,1
E0095GV/6,1
E0095/5,1
E0095/6,1
E5049BK/5,1
E5049BK/6,1
E5049BK/7,1
E8077BK/3,1
E8077BK/4,1
E1181BK/4,1
E1181BK/5,1
E8074BK/5,1
E8064BK/5,1
E1038BK/L-XL,2
E0128BK/5,1
E3134BK/5,1
E3134BK/6,1
E9114GV/6,1
E4013BK/4,1
E0128BK/5,1
