Identifier,Qty
E0095/7,1
E3136PT/4,1
E8078BK/4,1
E3136PT/4,1
E3145NA/5,1
E3138GY/4,1
E1165GV/6,1
E6126CE/5,1
E1165RD/6,1
E1165RD/7,1
E8064BK/5,1
E8064BK/6,1
E3147WH/5,1
E4047WH/5,1
E3102GV/4,1
E3102GV/5,1
E4029BK/5,1
E4029BK/6,1
E4029BK/7,1
E7117BK/4,1
E7117BK/6,2
E7117BK/7,1
