Identifier,Qty
E6120BK/5,1
E1030BK/M-L,1
E7140GY/K9,1
E9117BK/6,1
E9150GK/6,1
E8074BK/3,1
E8074BK/4,1
E8074BK/5,1
E8077BK/5,1
E5049BK/5,1
E5049BK/6,2
E7110BK/K11,1
E6153BK/3,1
E6153BK/4,1
E6153BK/5,1
E6153BK/6,1
E3183GK/4,1
E6165BP/4,1
E6165BP/5,1
