Identifier,Qty
EM0055NA/4,1
EM0055NA/5,1
E7112BK/K7,1
E7112BK/K9,1
E6147BK/2,1
E0095/6,1
E0088BK/L-XL,1
E7124BK/4,1
E7124TL/5,1
E0128BK/5,1
E0128BK/6,1
E0128YV/6,1
E1145BK/7,1
E1160BK/6,1
E1168BK/6,1
E6040BK/4,1
E6040BK/5,1
E6040YV/4,1
EM0049BK/L-XL,1
