SKU,Maximum allowed,Barcode/EAN,Days left
E8081BK/4,1,5055939934969       ,17
E0006/3,3,5055205300184       ,28
E0006/5,3,5055205313610       ,28
E0043BC,3,5055205324494       ,28
E0110BK,6,5055205367224       ,28
E0150BK/0,3,5055939936925       ,28
E9098CM/6,1,5055939925189       ,28
E3119BV/7,1,5055939941318       ,37
E1506BK/M-L,4,5055939920054       ,38
E8077BK/2,2,5055939924861       ,49
E8077BK/3,1,5055939924878       ,49
E8077BK/4,1,5055939924885       ,49
E1118BK/5,1,5055205389981       ,58
E7121BK/K7,1,5055939914640       ,58
E7122BK/K7,1,5055939915937       ,58
E8074BK/7,1,5055939924755       ,58
E9117BK/4,1,5055939942179       ,58
E9117BK/5,1,5055939942186       ,58
E9117BK/6,1,5055939942193       ,58
E9117BK/7,1,5055939942209       ,58
E9125MY/1,1,5055939945231       ,58
E9125MY/2,1,5055939944142       ,58
E1160BK/4,1,5055939928500       ,74
E1160BK/5,2,5055939928517       ,74
E1160BK/6,2,5055939928524       ,74
E1160BK/7,1,5055939928531       ,74
E1168BK/4,1,5055939929484       ,74
E1168BK/5,2,5055939929491       ,74
E1168BK/6,2,5055939929507       ,74
E1168BK/7,1,5055939929514       ,74
E1168NA/5,2,5055939929590       ,74
E1168NA/6,2,5055939929606       ,74
E1195BK/L-XL,2,5055939948836       ,74
E1195BK/S-M,1,5055939948829       ,74
E1196BK/L-XL,3,5055939948874       ,74
E1196BK/S-M,2,5055939948867       ,74
E1199NA/4,1,5055939949758       ,74
E1199NA/5,2,5055939949765       ,74
E1199NA/6,2,5055939949772       ,74
E1199RR/5,2,5055939949710       ,74
E1199RR/6,2,5055939949727       ,74
E1199RR/7,1,5055939949734       ,74
E1505KH/L-XL,1,5055939951317       ,74
E1505KH/M-L,1,5055939951300       ,74
E1505MB/L-XL,1,5055939904474       ,74
E1505MB/M-L,1,5055939904481       ,74
E1505RD/L-XL,1,5055939951287       ,74
E1505RD/M-L,1,5055939951270       ,74
E3173BK/4,1,5055939949604       ,74
E3173BK/5,1,5055939949611       ,74
E3173BK/6,1,5055939949628       ,74
E3173GF/4,1,5055939949659       ,74
E3173GF/5,1,5055939949666       ,74
E3173GF/6,1,5055939949673       ,74
E5066BK/4,1,5055939949253       ,74
E5066BK/5,1,5055939949260       ,74
E5066BK/6,1,5055939949277       ,74
E7110BK/K11,1,5055205387895       ,74
E7110BK/K9,1,5055205387888       ,74
E7123RD/K11,1,5055939919959       ,74
E7123RD/K9,1,5055939919973       ,74
E7128KH/0,1,5055939951324       ,74
E7131BK/K11,1,5055939949970       ,74
E7131BK/K9,1,5055939949963       ,74
E7132BK/K11,1,5055939949994       ,74
E7132BK/K9,1,5055939949987       ,74
E8070GF/4,1,5055939948454       ,74
E8070GF/5,1,5055939948461       ,74
E8070GF/6,1,5055939948478       ,74
E8091BK/4,1,5055939948256       ,80
E8091BK/5,1,5055939948263       ,80
E8091BK/6,1,5055939948270       ,80
E8092BK/4,1,5055939948355       ,80
E8092BK/5,1,5055939948362       ,80
E8092BK/6,1,5055939948379       ,80
E8092GF/4,1,5055939948409       ,80
E8092GF/5,1,5055939948416       ,80
E8092GF/6,1,5055939948423       ,80
E8097GY/5,1,5055939950433       ,109
E8097GY/6,1,5055939950440       ,109
E0062/7,1,5055205323800       ,184
E1165BK/4,3,5055939928852       ,184
E1165BK/5,3,5055939928869       ,184
E1511PT/M-L,1,5055939930169       ,184
E3063W/4,2,5055205343631       ,184
E1513BK/L-XL,1,5055939930275       ,188
E3142RR/6,1,5055939952642       ,188
E4032BK/6,1,5055939917566       ,188
E7136WH/0,1,5055939948942       ,188
