SKU,Maximum allowed,Barcode/EAN,Days left
E0040CL,2,5055205301877       ,13
E0040SM,1,5055205301907       ,13
E0045,1,5055205315935       ,13
E0132MB/6,1,5055939922041       ,13
E1199NA/5,1,5055939949765       ,13
E1199RR/6,1,5055939949727       ,13
E1505GY/M-L,1,5055939930107       ,13
E1505MB/L-XL,2,5055939904474       ,13
E1505OR/M-L,1,5055939904511       ,13
E1505RD/L-XL,1,5055939951287       ,13
E1505RD/M-L,1,5055939951270       ,13
E0151GC/0,2,5055939960715       ,28
E0151RR/0,2,5055939960685       ,28
E1150BK/0,2,5055939915227       ,28
E6153BK/7,1,5055939953328       ,28
E7117BK/5,1,5055939917030       ,28
E7117BK/6,1,5055939917047       ,28
E7117RD/5,1,5055939917900       ,28
E7117WH/4,1,5055939917078       ,28
E8082KH/5,1,5055939935171       ,28
E0089BK/5,1,5055205343693       ,44
E1184BK/5,1,5055939944449       ,44
E1216BK/5,1,5055939958361       ,44
E1219BK/S-M,1,5055939958538       ,44
E1221BK/S-M,1,5055939958576       ,44
E7117WH/4,1,5055939917078       ,44
E7117BK/5,1,5055939917030       ,64
E1043BK/L-XL,2,5055939923871       ,72
E1188BK/4,1,5055939944821       ,72
E1216BK/4,1,5055939958354       ,72
E1216BK/5,1,5055939958361       ,72
E1216BK/6,1,5055939958378       ,72
E1217BK/4,1,5055939958460       ,72
E3181BK/4,1,5055939958194       ,72
E5049BK/4,1,5055939924533       ,72
E3158BK/6,1,5055939942445       ,76
E6140BK/5,1,5055939934020       ,76
E8074BK/5,1,5055939924731       ,76
E9102BK/6,1,5055939925547       ,76
E1121BK/0,1,5055205393278       ,79
E0110BK,1,5055205367224       ,80
E0152BK/L-XL,2,5055939958125       ,80
E1226BK/0,1,5055939959399       ,80
E1227BK/L-XL,1,5055939966311       ,80
E3072BK/5,1,5055205362168       ,80
E3072BK/6,1,5055205362175       ,80
E5049BK/4,1,5055939924533       ,80
E1168BK/6,2,5055939929507       ,97
E1227BK/S-M,4,5055939959405       ,113
E9116CE/5,1,5055939942025       ,113
E8073BK/3,1,5055939924663       ,140
E8074BK/4,2,5055939924724       ,170
E1160KH/5,1,5055939928579       ,212
E1160RD/4,1,5055939928623       ,212
E1168OT/4,1,5055939971582       ,212
E1168OT/5,1,5055939971599       ,212
E1199NA/5,1,5055939949765       ,212
