SKU,Maximum allowed,Barcode/EAN,Days left
E8094AN/5,1,5055939949413       ,171
E1225BK/M-L,1,5055939959191       ,172
E8083BK/5,1,5055939942339       ,172
E9117YM/5,1,5055939961002       ,172
E9144BK/7,1,5055939957593       ,172
E3170BK/4,1,5055939954271       ,180
E0154BK/L-XL,2,5055939965987       ,212
E1223BK/L-XL,4,5055939958613       ,212
E1225BK/XL-XXL,1,5055939966564       ,212
E9124NA/5,1,5055939944111       ,212
E9124NA/7,1,5055939944135       ,212
E9130AN/7,1,5055939945804       ,212
