SKU,Maximum allowed,Barcode/EAN,Days left
E1043BK/L-XL,3,5055939923871       ,33
E1043BK/S-M,3,5055939923888       ,33
E3143AN/4,1,5055939936109       ,33
E3143AN/5,1,5055939936116       ,33
E3143AN/6,1,5055939936123       ,33
E3177BK/5,1,5055939957722       ,33
E3177BK/6,1,5055939957739       ,33
E3177GK/4,1,5055939957760       ,33
E4055BK/3,1,5055939953069       ,33
E4055BK/4,4,5055939953076       ,33
E4055BK/5,3,5055939953083       ,33
E8091BK/4,1,5055939948256       ,33
E8091BK/5,2,5055939948263       ,33
E8091BK/6,2,5055939948270       ,33
E9140BV/4,1,5055939953533       ,33
E9140BV/5,1,5055939953540       ,33
E9140BV/6,1,5055939953557       ,33
E0089BK/3,1,5055205343679       ,46
E0089BK/4,1,5055205343686       ,46
E0089BK/5,1,5055205343693       ,46
E1042BK/L-XL,2,5055939923857       ,46
E1042BK/S-M,2,5055939923864       ,46
E1043BK/L-XL,3,5055939923871       ,46
E1043BK/S-M,3,5055939923888       ,46
E1188BK/3,1,5055939944814       ,46
E1188BK/4,1,5055939944821       ,46
E1188BK/5,1,5055939944838       ,46
E1188BK/6,1,5055939944845       ,46
E1218BK/L-XL,2,5055939958521       ,46
E1218BK/M-L,2,5055939958514       ,46
E1218BK/S-M,2,5055939958507       ,46
E1219BK/L-XL,2,5055939958545       ,46
E1219BK/S-M,2,5055939958538       ,46
E1220BK/L-XL,2,5055939958569       ,46
E1220BK/S-M,2,5055939958552       ,46
E1221BK/L-XL,1,5055939958583       ,46
E1221BK/S-M,1,5055939958576       ,46
E1224BK/2,1,5055939958798       ,46
E1224BK/3,1,5055939958804       ,46
E1224BK/4,1,5055939966274       ,46
E1224BK/5,1,5055939966281       ,46
E1224BK/6,1,5055939966298       ,46
E1518GF/M-L,1,5055939948928       ,46
E8073BK/4,1,5055939924670       ,46
E8073BK/6,1,5055939924694       ,46
E8073BK/7,1,5055939924700       ,46
E9103GV/4,1,5055939925677       ,46
E9134BK/4,1,5055939943411       ,46
E9134BK/5,2,5055939943428       ,46
E9134BK/6,1,5055939943435       ,46
E1188BK/3,1,5055939944814       ,67
E1188BK/4,1,5055939944821       ,67
E1188BK/5,1,5055939944838       ,67
E1188BK/6,1,5055939944845       ,67
E1216BK/3,1,5055939958347       ,67
E1216BK/4,1,5055939958354       ,67
E1216BK/5,1,5055939958361       ,67
E1216BK/6,1,5055939958378       ,67
E1216BK/7,1,5055939958385       ,67
E3143AN/5,1,5055939936116       ,67
E5049BK/4,1,5055939924533       ,67
E5049BK/5,1,5055939924540       ,67
E5049BK/6,1,5055939924557       ,67
E7125BK/4,1,5055939924625       ,67
E7125BK/5,1,5055939924632       ,67
E7125BK/6,1,5055939924649       ,67
E8092BK/4,1,5055939948355       ,67
E9102GV/4,1,5055939925578       ,67
E9102GV/5,1,5055939925585       ,67
E9102GV/6,1,5055939925592       ,67
E9134BK/7,1,5055939943442       ,67
E1218BK/M-L,2,5055939958514       ,69
E1218BK/S-M,2,5055939958507       ,69
E1219BK/S-M,2,5055939958538       ,69
E3158BK/5,1,5055939942438       ,69
E3158BK/6,1,5055939942445       ,69
E5050BK/5,1,5055939927725       ,69
E9121RD/3,1,5055939943459       ,69
E9121RD/5,1,5055939943473       ,69
E9121YV/4,1,5055939945828       ,69
E9121YV/6,1,5055939945842       ,69
E9134YV/3,1,5055939943350       ,69
E9144BK/4,1,5055939957562       ,69
E0089BK/6,1,5055205343709       ,83
E1223BK/L-XL,2,5055939958613       ,83
E1223BK/S-M,2,5055939958606       ,83
E3158BK/3,1,5055939942414       ,83
E3158BK/4,1,5055939942421       ,83
E3158BK/6,1,5055939942445       ,83
E3183BK/3,1,5055939959290       ,83
E3183BK/4,1,5055939959306       ,83
E3183BK/5,1,5055939959313       ,83
E3183BK/6,1,5055939959320       ,83
E3183BK/7,1,5055939959337       ,83
E9134YV/4,1,5055939943367       ,83
E9134YV/5,2,5055939943374       ,83
E9134YV/6,1,5055939943381       ,83
E9134YV/7,1,5055939943398       ,83
E1042BK/L-XL,5,5055939923857       ,165
E1042BK/S-M,2,5055939923864       ,165
E5049BK/6,1,5055939924557       ,165
E6106BK/2,1,5055939919485       ,165
E6106BK/3,1,5055939919492       ,165
E8091BK/3,1,5055939948249       ,165
E1257BK/S-M,1,5055939971926       ,174
E7120BK/3,1,5055939915494       ,174
E7120BK/4,1,5055939915500       ,174
E7120BK/5,1,5055939915517       ,174
