SKU,Maximum allowed,Barcode/EAN,Days left
E6108BK/3,1,5055939919591       ,2
E6108BK/4,1,5055939919607       ,2
E6108BK/5,1,5055939919614       ,2
E6108BK/6,1,5055939919621       ,2
E6108TL/4,1,5055939915838       ,2
E6108TL/5,1,5055939915845       ,2
E6108TL/6,1,5055939915753       ,2
E6111BK/4,1,5055939919812       ,2
E6111BK/5,1,5055939919829       ,2
E7118BK/6,1,5055939914909       ,2
EU3061BK/7,1,5055205387536       ,2
EU3061OC/6,1,5055205395395       ,2
EU3063BK/6,1,5055205395340       ,2
E0042/3,1,5055205311937       ,4
E0042/4,2,5055205311944       ,4
E0042/5,2,5055205311951       ,4
E0042/6,2,5055205311968       ,4
E0042/7,1,5055205311975       ,4
E0053,2,5055205317649       ,4
E0076BK/3,1,5055205338064       ,4
E0076BK/4,1,5055205338071       ,4
E0076BK/5,1,5055205338088       ,4
E0076BK/6,1,5055205338095       ,4
E0076BK/7,1,5055205338101       ,4
E0110BK,3,5055205367224       ,4
E0110PK,2,5055205367231       ,4
E0110UM,2,5055205367248       ,4
E0116PK,3,5055205381046       ,4
E0128BK/3,1,5055939904924       ,4
E0128BK/4,2,5055939904931       ,4
E0128BK/5,3,5055939904948       ,4
E0128BK/6,2,5055939904955       ,4
E0128BK/7,1,5055939904962       ,4
E1028AN/0,2,5055205389240       ,4
E1028BK/0,2,5055205385952       ,4
E1028PU/0,2,5055205388557       ,4
E1028UM/0,2,5055205385969       ,4
E1038BK/L-XL,4,5055939906706       ,4
E1038BK/S-M,2,5055939906690       ,4
E1145BK/3,1,5055939908182       ,4
E1145BK/4,2,5055939908199       ,4
E1145BK/5,3,5055939908205       ,4
E1145BK/6,2,5055939908212       ,4
E1145BK/7,1,5055939910659       ,4
E1146BK/L-XL,4,5055939909721       ,4
E1146BK/S-M,2,5055939909714       ,4
E3110BK/4,1,5055939908083       ,4
E3110BK/5,2,5055939908090       ,4
E3110BK/6,1,5055939908106       ,4
E3110BK/7,1,5055939908113       ,4
E3123BK/4,1,5055939915333       ,4
E3123BK/6,1,5055939915357       ,4
E3123BK/7,1,5055939915364       ,4
E6040BK/2,1,5055939904979       ,4
E6040BK/3,1,5055939904986       ,4
E6040BK/4,1,5055939904993       ,4
E6040BK/5,1,5055939905006       ,4
E6065BK/2,1,5055205362830       ,4
E6065BK/3,1,5055205362847       ,4
E6065BK/4,1,5055205362854       ,4
E6065BK/5,1,5055205362861       ,4
E7112BK/K11,1,5055205390642       ,4
E7112BK/K7,1,5055205390659       ,4
E7112BK/K9,2,5055205390635       ,4
E8070NA/4,1,5055939918686       ,4
E8070NA/5,2,5055939918693       ,4
E8070NA/6,1,5055939918709       ,4
E8074BK/4,1,5055939924724       ,4
E8074BK/5,2,5055939924731       ,4
E8074BK/6,1,5055939924748       ,4
E8074BK/7,1,5055939924755       ,4
E9071BK/3,1,5055205369372       ,4
E9071BK/4,1,5055205369389       ,4
E9071BK/5,1,5055205369396       ,4
E9071BK/6,1,5055205369402       ,4
E9071BK/7,1,5055205369419       ,4
E9098CM/7,1,5055939925196       ,18
E2013BK/5,2,5055205393193       ,23
E3015/3,1,5055205303628       ,23
E3015/4,1,5055205303635       ,23
E3015/5,2,5055205303642       ,23
E3015/7,1,5055205303666       ,23
E3110BK/4,1,5055939908083       ,23
E6108BK/4,1,5055939919607       ,23
E6108TL/4,1,5055939915838       ,23
E6111PU/3,1,5055939915906       ,23
E6111PU/4,1,5055939915913       ,23
E8064GY/6,1,5055939916248       ,23
E9063BK/4,1,5055205363387       ,23
E9063BK/5,1,5055205363394       ,23
E9063UM/5,1,5055205363448       ,23
E9098CM/4,1,5055939925165       ,23
E9098CM/6,1,5055939925189       ,23
E0040CL,5,5055205301877       ,25
E0040ST,1,5055205301914       ,25
E0040YL,1,5055205301921       ,25
E0132NA/4,2,5055939915074       ,25
E0132NA/5,2,5055939915081       ,25
E0132NA/6,2,5055939915098       ,25
E7122BK/K11,3,5055939915951       ,25
E9078OB/4,1,5055939924915       ,25
E9078OB/6,1,5055939924939       ,25
E1154BK/L-XL,6,5055939923949       ,27
E1154BK/M-L,6,5055939923956       ,27
E1154BK/S-M,2,5055939923963       ,27
E1507GY/M-L,15,5055939923215       ,27
E1505MB/S-M,1,5055939904498       ,30
E1505OR/M-L,1,5055939904511       ,30
E9063UM/3,1,5055205363424       ,30
E9063UM/4,1,5055205363431       ,30
E9063UM/5,1,5055205363448       ,30
E9063UM/6,1,5055205363455       ,30
E0040CL,1,5055205301877       ,47
E0040SM,1,5055205301907       ,47
E0040ST,1,5055205301914       ,47
E1505GV/M-L,1,5055939904450       ,47
E1505WH/M-L,1,5055939904559       ,47
E3029/3,1,5055205304229       ,47
E3029/5,1,5055205304243       ,47
E3029/6,1,5055205304250       ,47
E3029/7,1,5055205304267       ,47
E3029OR/4,1,5055205353678       ,47
E3029OR/5,1,5055205353685       ,47
E3029OR/6,1,5055205353692       ,47
E3029UM/4,1,5055205353838       ,47
E3029UM/5,1,5055205353845       ,47
E3029UM/6,1,5055205353852       ,47
E3110BK/5,1,5055939908090       ,47
E3110BK/6,1,5055939908106       ,47
E6108TL/3,1,5055939915821       ,47
E6108TL/4,1,5055939915838       ,47
E8070BK/5,1,5055939916736       ,47
E8070NA/7,1,5055939918716       ,47
E0132MB/3,1,5055939922010       ,59
E0132MB/4,1,5055939922027       ,59
E0132MB/5,1,5055939922034       ,59
E0132MB/6,1,5055939922041       ,59
E1505GV/L-XL,1,5055939904443       ,59
E1505GV/M-L,1,5055939904450       ,59
E1505GV/S-M,1,5055939904467       ,59
E1505MB/M-L,1,5055939904481       ,59
E1505MB/S-M,1,5055939904498       ,59
E1505OR/M-L,1,5055939904511       ,59
E1505OR/S-M,1,5055939904528       ,59
E3015/6,1,5055205303659       ,59
E7121BK/K11,2,5055939914633       ,59
E7121BK/K9,2,5055939914657       ,59
E8064CM/4,1,5055939916149       ,59
E8064CM/6,1,5055939916163       ,59
E8064GY/4,2,5055939916224       ,59
E8064GY/5,2,5055939916231       ,59
E8064GY/6,2,5055939916248       ,59
EP0063BK/3,1,5055205351872       ,59
EP0063BK/4,2,5055205351889       ,59
EP0063BK/5,2,5055205351896       ,59
EP0063BK/6,2,5055205351902       ,59
EP0063BK/7,1,5055205351919       ,59
E3029/4,2,5055205304236       ,67
E3029/5,1,5055205304243       ,67
E3123NA/4,1,5055939918488       ,67
E3123NA/5,1,5055939918495       ,67
E3123NA/6,1,5055939918501       ,67
E3123NA/7,1,5055939918518       ,67
E4013BK/4,2,5055205333878       ,67
E4013BK/5,2,5055205333885       ,67
E9078KH/4,1,5055939927763       ,67
E9078KH/5,2,5055939927770       ,67
E9078KH/6,1,5055939927787       ,67
E0040CL,5,5055205301877       ,75
E0040OR,2,5055205301884       ,75
E0040YL,3,5055205301921       ,75
E3110BK/3,1,5055939908076       ,75
E3110BK/6,1,5055939908106       ,75
E3110BK/7,1,5055939908113       ,75
EM0057BK/4,1,5055939925950       ,75
EM0057BK/5,1,5055939925967       ,75
EM0057BK/6,1,5055939925974       ,75
EM0057BK/7,1,5055939925981       ,75
E3123BK/5,4,5055939915340       ,81
E3123BK/6,1,5055939915357       ,81
E3123BK/7,1,5055939915364       ,81
E9098CT/4,1,5055939925219       ,81
E9098CT/5,1,5055939925226       ,81
E9098CT/6,1,5055939925233       ,81
E9098NA/4,1,5055939925264       ,81
E9098NA/5,1,5055939925271       ,81
E9098NA/6,1,5055939925288       ,81
E9098CM/4,1,5055939925165       ,82
E9098CM/5,3,5055939925172       ,82
E9098CM/6,1,5055939925189       ,82
E0003/L-XL,1,5055205300122       ,89
E0003/M-L,2,5055205300139       ,89
E0003/S-M,1,5055205300146       ,89
E0004/L-XL,2,5055205300153       ,89
E0004/S-M,1,5055205300160       ,89
E0005/L-XL,2,5055205341781       ,89
E0005/S-M,2,5055205341774       ,89
E1038BK/L-XL,2,5055939906706       ,89
E1038BK/S-M,1,5055939906690       ,89
E7112BK/K11,2,5055205390642       ,89
E7112BK/K9,2,5055205390635       ,89
E3123BK/4,2,5055939915333       ,101
E9063UM/3,1,5055205363424       ,101
E9063UM/5,2,5055205363448       ,101
E9078OB/5,2,5055939924922       ,101
E1505GV/L-XL,1,5055939904443       ,107
E1505GV/M-L,1,5055939904450       ,107
E1505MB/L-XL,1,5055939904474       ,107
E1505OR/M-L,1,5055939904511       ,107
E7121BK/K11,2,5055939914633       ,107
E7121BK/K9,1,5055939914657       ,107
E7122BK/K11,3,5055939915951       ,107
E9098CM/3,1,5055939925158       ,111
E3109BK/4,1,5055939908960       ,116
E3109BK/5,2,5055939908977       ,116
E3109BK/6,1,5055939908984       ,116
E9098CM/6,2,5055939925189       ,116
E1505MB/L-XL,2,5055939904474       ,131
E1505MB/M-L,2,5055939904481       ,131
E7112BK/K11,2,5055205390642       ,131
E7112BK/K9,2,5055205390635       ,131
E9078KH/4,2,5055939927763       ,131
E2013BK/3,1,5055205393179       ,149
E2013BK/4,1,5055205393186       ,149
E8064BK/5,2,5055939915999       ,149
E8064CM/5,2,5055939916156       ,149
E8064CM/6,2,5055939916163       ,149
E8064GY/2,1,5055939916200       ,149
E8070BK/5,1,5055939916736       ,149
E8070NA/4,2,5055939918686       ,149
E3029OR/7,1,5055205353708       ,158
E3029UM/7,1,5055205353869       ,158
E3109BK/3,1,5055939908953       ,158
E3109BK/4,1,5055939908960       ,158
E3109BK/5,1,5055939908977       ,158
E3109BK/6,1,5055939908984       ,158
E3109BK/7,1,5055939908991       ,158
E3109OC/4,1,5055939909110       ,158
E3109OC/5,1,5055939909127       ,158
E3029/3,1,5055205304229       ,166
E3029/4,1,5055205304236       ,166
E3110BK/4,1,5055939908083       ,166
E3110BK/5,1,5055939908090       ,166
E3110BK/6,1,5055939908106       ,166
E3110NA/7,1,5055939908168       ,166
E8070NA/7,2,5055939918716       ,166
E1505GV/L-XL,1,5055939904443       ,177
E1505GV/M-L,17,5055939904450       ,177
E1505GV/S-M,1,5055939904467       ,177
E1505GY/L-XL,1,5055939930091       ,177
E1505GY/M-L,4,5055939930107       ,177
E1505GY/S-M,1,5055939930114       ,177
E1506BK/L-XL,1,5055939920061       ,177
E1506BK/M-L,1,5055939920054       ,177
E1506BK/S-M,1,5055939920047       ,177
E1506OM/L-XL,1,5055939926070       ,177
E1506OM/M-L,1,5055939926063       ,177
E1511BK/L-XL,2,5055939930121       ,177
E1511BK/M-L,3,5055939930138       ,177
E1511BK/S-M,1,5055939930145       ,177
E1511PT/L-XL,2,5055939930152       ,177
E1511PT/M-L,3,5055939930169       ,177
E1511PT/S-M,1,5055939930176       ,177
E6104CO/4,1,5055939918334       ,177
E7128GY/0,7,5055939934426       ,177
E8064GY/2,3,5055939916200       ,177
E8064BK/4,3,5055939915982       ,189
E8064CM/3,1,5055939916132       ,189
E8064CM/4,2,5055939916149       ,189
E8064GY/4,3,5055939916224       ,189
E1505GY/L-XL,2,5055939930091       ,195
E1505OR/S-M,12,5055939904528       ,195
E1505WH/M-L,2,5055939904559       ,195
E0087BY/3,2,5055205343136       ,207
E0087BY/5,3,5055205343143       ,207
E0087UM/3,2,5055205343150       ,207
E0087UM/5,3,5055205343167       ,207
E1125BK/3,1,5055205397054       ,207
E1125BK/4,2,5055205397061       ,207
E1125BK/5,3,5055205397078       ,207
E1125BK/6,2,5055205397085       ,207
E1125BK/7,1,5055205397092       ,207
E1125CM/3,1,5055939923079       ,207
E1125CM/4,2,5055939923086       ,207
E1125CM/5,3,5055939923093       ,207
E1125CM/6,2,5055939923109       ,207
E1125CM/7,1,5055939923116       ,207
E1155BK/S-M,2,5055939928395       ,207
E1157BK/L-XL,3,5055939928418       ,207
E1157BK/S-M,2,5055939928425       ,207
E1158BK/L-XL,2,5055939928432       ,207
E1158BK/S-M,1,5055939928449       ,207
E1160KH/3,1,5055939928555       ,207
E1160KH/4,2,5055939928562       ,207
E1160KH/5,3,5055939928579       ,207
E1160KH/6,2,5055939928586       ,207
E1160KH/7,1,5055939928593       ,207
E1168BK/3,1,5055939929477       ,207
E1168BK/4,2,5055939929484       ,207
E1168BK/5,3,5055939929491       ,207
E1168BK/6,2,5055939929507       ,207
E1168BK/7,1,5055939929514       ,207
E1173CO/0,2,5055939929941       ,207
E1173MY/0,2,5055939929965       ,207
E3125KH/4,1,5055939919324       ,207
E3125KH/5,1,5055939919331       ,207
E3125KH/6,1,5055939919348       ,207
E3125KH/7,1,5055939919355       ,207
E3125RD/4,1,5055939919263       ,207
E3125RD/5,1,5055939919270       ,207
E3125RD/6,1,5055939919287       ,207
E3125RD/7,1,5055939919294       ,207
E3138GY/4,1,5055939930893       ,207
E3138GY/5,2,5055939930909       ,207
E3138GY/6,1,5055939930916       ,207
E3138GY/7,1,5055939930923       ,207
E3138PT/4,1,5055939930947       ,207
E3138PT/5,2,5055939930954       ,207
E3138PT/6,1,5055939930961       ,207
E3143AN/4,1,5055939936109       ,207
E3143AN/5,1,5055939936116       ,207
E3143AN/6,1,5055939936123       ,207
E3143AN/7,1,5055939936130       ,207
E6110CO/2,1,5055939919751       ,207
E6110CO/3,1,5055939919768       ,207
E6110CO/4,1,5055939919775       ,207
E6110CO/5,1,5055939919782       ,207
E6120PU/3,1,5055939932804       ,207
E6120PU/4,2,5055939932811       ,207
E6120PU/5,2,5055939932828       ,207
E6131BK/3,1,5055939933641       ,207
E6131BK/4,2,5055939933658       ,207
E6131BK/5,2,5055939933665       ,207
E6131CO/3,1,5055939933689       ,207
E6131CO/4,2,5055939933696       ,207
E6131CO/5,2,5055939933702       ,207
E7122BK/K11,1,5055939915951       ,207
E7122BK/K7,1,5055939915937       ,207
E7122BK/K9,1,5055939915944       ,207
E7123RD/K11,1,5055939919959       ,207
E7123RD/K7,1,5055939919966       ,207
E7123RD/K9,1,5055939919973       ,207
E7124BK/3,1,5055939923017       ,207
E7124BK/4,2,5055939923024       ,207
E7124BK/5,2,5055939923031       ,207
E7127BK/3,1,5055939934358       ,207
E7127BK/4,2,5055939934365       ,207
E7127BK/5,2,5055939934372       ,207
E7127RD/3,1,5055939934389       ,207
E7127RD/4,2,5055939934396       ,207
E7127RD/5,2,5055939934402       ,207
E8078OM/4,1,5055939934761       ,207
E8078OM/5,2,5055939934778       ,207
E8078OM/6,1,5055939934785       ,207
E8082KH/3,1,5055939935157       ,207
E8082KH/4,2,5055939935164       ,207
E8082KH/5,2,5055939935171       ,207
E8082KH/7,1,5055939935195       ,207
E3123OM/4,1,5055939930534       ,210
E3123OM/5,2,5055939930541       ,210
E3123OM/6,1,5055939930558       ,210
E3138PT/7,1,5055939930978       ,210
E6119CO/3,1,5055939932682       ,210
E6119CO/4,2,5055939932699       ,210
E6119CO/5,1,5055939932705       ,210
E6119MY/3,1,5055939932729       ,210
E6119MY/4,2,5055939932736       ,210
E6119MY/5,1,5055939932743       ,210
E6130GY/3,1,5055939933603       ,210
E6130GY/4,2,5055939933610       ,210
E6130GY/5,1,5055939933627       ,210
