SKU,Maximum allowed,Barcode/EAN,Days left
E1108BK/L-XL,3,5055205387987       ,4
E1109BK/L-XL,3,5055205388014       ,4
E1109BK/M-L,3,5055205388007       ,4
E7131BK/K11,2,5055939949970       ,4
E7131BK/K9,2,5055939949963       ,4
E4028BK/4,2,5055939901077       ,13
E4028BK/5,2,5055939901084       ,13
E4028BK/6,1,5055939901091       ,13
E6095BK/2,1,5055939901114       ,13
E6095BK/3,1,5055939901121       ,13
E6095BK/4,1,5055939901138       ,13
E6132BK/2,1,5055939933719       ,13
E6132BK/3,1,5055939933726       ,13
E6151GK/2,1,5055939950280       ,13
E6151GK/3,1,5055939950297       ,13
E6151GK/4,1,5055939950303       ,13
E7120BK/3,1,5055939915494       ,13
E7120BK/5,2,5055939915517       ,13
E7120BK/6,1,5055939915524       ,13
E8092GF/4,2,5055939948409       ,13
E1166BK/2,1,5055939929057       ,24
E1166BK/4,1,5055939929071       ,24
E1166BK/5,1,5055939929088       ,24
E1166BK/6,1,5055939929095       ,24
E1166BK/7,1,5055939929101       ,24
E1166GV/4,1,5055939929132       ,24
E1166GV/5,1,5055939929149       ,24
E1166GV/6,1,5055939929156       ,24
E1505KH/S-M,1,5055939951294       ,24
E1505MB/S-M,1,5055939904498       ,24
E1505WH/S-M,1,5055939904566       ,24
E6095BK/2,1,5055939901114       ,24
E6095BK/3,1,5055939901121       ,24
E6095BK/4,1,5055939901138       ,24
E6095BK/5,1,5055939901145       ,24
E6110CR/2,1,5055939915852       ,24
E3123GF/4,1,5055939948508       ,31
E3123GF/5,1,5055939948515       ,31
E1199NA/4,1,5055939949758       ,46
E1199NA/5,1,5055939949765       ,46
E1199RR/4,1,5055939949703       ,46
E1199RR/5,1,5055939949710       ,46
E1505KH/L-XL,1,5055939951317       ,46
E1505KH/M-L,1,5055939951300       ,46
E1505WH/M-L,1,5055939904559       ,46
E0035/3,2,5055205301440       ,51
E0035/5,2,5055205301457       ,51
E0043GK/0,1,5055939961385       ,51
E0110BK,2,5055205367224       ,51
E0110RR/0,2,5055939959719       ,51
E0110YM/0,2,5055939959702       ,51
E0151GC/0,1,5055939960715       ,51
E0151GF/0,1,5055939960708       ,51
E0151RR/0,1,5055939960685       ,51
E1182BK/L-XL,2,5055939942629       ,51
E1182BK/S-M,2,5055939942612       ,51
E1183BK/3,1,5055939944227       ,51
E1183BK/4,1,5055939944234       ,51
E1183BK/5,1,5055939944241       ,51
E1183BK/6,1,5055939944258       ,51
E1183BK/7,1,5055939944265       ,51
E1185BK/3,1,5055939944524       ,51
E1185BK/4,1,5055939944531       ,51
E1185BK/5,1,5055939944548       ,51
E1185BK/6,1,5055939944555       ,51
E1185BK/7,1,5055939944562       ,51
E1219BK/L-XL,1,5055939958545       ,51
E1219BK/S-M,1,5055939958538       ,51
E1226BK/0,2,5055939959399       ,51
E1226GK/0,2,5055939960593       ,51
E1505GY/M-L,1,5055939930107       ,51
E1505KH/L-XL,1,5055939951317       ,51
E1505KH/M-L,1,5055939951300       ,51
E1505MB/L-XL,1,5055939904474       ,51
E1505MB/M-L,1,5055939904481       ,51
E1505WH/M-L,1,5055939904559       ,51
E1511BK/L-XL,1,5055939930121       ,51
E1511BK/M-L,1,5055939930138       ,51
E1511RR/M-L,1,5055939959627       ,51
E1511WH/L-XL,1,5055939930183       ,51
E3133AN/3,1,5055939957067       ,51
E3133AN/4,1,5055939957074       ,51
E3133GF/2,1,5055939957111       ,51
E3133GF/3,1,5055939957128       ,51
E3133GF/4,1,5055939957135       ,51
E3133GF/5,1,5055939957142       ,51
E3133GF/6,1,5055939957159       ,51
E3134BK/4,1,5055939924380       ,51
E3158BK/4,1,5055939942421       ,51
E3158BK/5,1,5055939942438       ,51
E3158BK/6,1,5055939942445       ,51
E3167WH/L-XL,3,5055939954073       ,51
E3167WH/S-M,3,5055939954066       ,51
E3176NA/3,1,5055939957005       ,51
E3176NA/4,1,5055939957012       ,51
E3176NA/5,1,5055939957029       ,51
E4041BK/3,1,5055939924472       ,51
E4041BK/4,1,5055939924489       ,51
E4041BK/6,1,5055939924502       ,51
E5049BK/3,1,5055939924526       ,51
E5049BK/4,1,5055939924533       ,51
E5049BK/5,1,5055939924540       ,51
E5049BK/6,1,5055939924557       ,51
E5055BK/4,1,5055939941486       ,51
E5055BK/5,1,5055939941493       ,51
E6040BK/4,1,5055939904993       ,51
E6067PV/2,1,5055205367606       ,51
E6067PV/3,1,5055205367613       ,51
E6067PV/4,1,5055205367620       ,51
E6130GK/3,1,5055939950174       ,51
E6130GK/4,1,5055939950181       ,51
E6130GK/5,1,5055939950198       ,51
E6147CE/2,1,5055939945460       ,51
E6147CE/3,1,5055939945477       ,51
E6147CE/4,1,5055939945484       ,51
E6147CE/5,1,5055939945491       ,51
E7125BK/5,1,5055939924632       ,51
E7131BK/K11,1,5055939949970       ,51
E7131BK/K9,1,5055939949963       ,51
E7132BK/K11,1,5055939949994       ,51
E8070BK/5,1,5055939916736       ,51
E8070GF/4,1,5055939948454       ,51
E8070GF/5,1,5055939948461       ,51
E8070GF/6,1,5055939948478       ,51
E8073BK/3,1,5055939924663       ,51
E8073BK/4,1,5055939924670       ,51
E8073BK/5,1,5055939924687       ,51
E8074BK/4,1,5055939924724       ,51
E8077BK/3,1,5055939924878       ,51
E8077BK/4,1,5055939924885       ,51
E8087BK/3,1,5055939943107       ,51
E8087BK/6,1,5055939943138       ,51
E8088BK/4,1,5055939943169       ,51
E8100BK/3,1,5055939959139       ,51
E8100BK/4,1,5055939959146       ,51
E8100BK/5,1,5055939959153       ,51
E9102BK/5,1,5055939925530       ,51
E9102BK/6,1,5055939925547       ,51
E9102BK/7,1,5055939925554       ,51
E9102GV/4,1,5055939925578       ,51
E9102GV/5,1,5055939925585       ,51
E9102RD/4,1,5055939925479       ,51
E9104CR/2,1,5055939925714       ,51
E9104CR/3,1,5055939925721       ,51
E9104CR/4,1,5055939925738       ,51
E9106BK/3,1,5055939935256       ,51
E9106BK/4,1,5055939935263       ,51
E9106BK/5,1,5055939935270       ,51
E9106WH/3,1,5055939935355       ,51
E9106WH/4,1,5055939935362       ,51
E9106WH/5,1,5055939935379       ,51
E9106WH/6,1,5055939935386       ,51
E9113GK/3,1,5055939957302       ,51
E9113GK/4,1,5055939957319       ,51
E9113GK/5,1,5055939957326       ,51
E9122BK/3,2,5055939945361       ,51
E9122BK/4,2,5055939945378       ,51
E9122BK/5,2,5055939945385       ,51
E9138RR/3,1,5055939960241       ,51
E9138RR/4,1,5055939960258       ,51
E9138RR/5,1,5055939960265       ,51
E9143GK/4,1,5055939957517       ,51
E9143GK/5,1,5055939957524       ,51
E9144BK/2,1,5055939966250       ,51
E9144BK/3,1,5055939957555       ,51
E9144BK/4,1,5055939957562       ,51
E9144BK/5,1,5055939957579       ,51
E9144BK/6,1,5055939957586       ,51
E9148BK/2,1,5055939959986       ,51
E9148BK/4,1,5055939960005       ,51
E9148BK/5,1,5055939960012       ,51
EM0057BK/3,1,5055939925943       ,51
EM0057BK/4,1,5055939925950       ,51
EM0057BK/5,1,5055939925967       ,51
EM0057BK/6,1,5055939925974       ,51
E1511WH/M-L,1,5055939930190       ,52
E1511WH/S-M,1,5055939930206       ,52
E1518GF/M-L,1,5055939948928       ,52
E6163BK/3,1,5055939958828       ,52
E8070BK/3,1,5055939916712       ,52
E8070BK/4,1,5055939916729       ,52
E8074BK/3,1,5055939924717       ,52
E8074BK/5,1,5055939924731       ,52
E8074BK/6,1,5055939924748       ,52
E9148BK/3,1,5055939959993       ,52
E9117YM/5,1,5055939961002       ,60
E9147GF/5,1,5055939959436       ,60
E9147GF/6,1,5055939959443       ,60
E9147RR/3,1,5055939959511       ,60
E9147RR/4,1,5055939959528       ,60
E3181BK/5,1,5055939958200       ,65
E3181BK/6,1,5055939958217       ,65
E3181RR/3,1,5055939958286       ,65
E3181RR/4,1,5055939958293       ,65
E3181RR/5,1,5055939958309       ,65
E1108BK/L-XL,1,5055205387987       ,67
E1108BK/S-M,3,5055205387970       ,67
E1157BK/S-M,2,5055939928425       ,67
E0098YV/S-M,1,5055205359571       ,74
E1109BK/L-XL,2,5055205388014       ,74
E1109BK/M-L,1,5055205388007       ,74
E7125BK/4,1,5055939924625       ,74
E7132BK/K9,1,5055939949987       ,74
E1135BK/0,1,5055205399249       ,79
E7120BK/3,1,5055939915494       ,79
E8070BK/3,1,5055939916712       ,79
E8070BK/4,1,5055939916729       ,79
E8070GF/4,1,5055939948454       ,79
E8093BK/3,1,5055939948775       ,79
E9106BK/6,1,5055939935287       ,79
E9106BK/7,1,5055939935294       ,79
E9148BK/7,1,5055939960036       ,79
E8093BK/4,1,5055939948782       ,82
E9148BK/6,1,5055939960029       ,82
E8088BK/3,1,5055939943152       ,83
E9143GK/3,1,5055939957500       ,83
E1139WH/0,1,5055939904672       ,87
E9117CC/3,1,5055939960920       ,87
E9117CC/4,1,5055939960937       ,87
E9117BK/6,1,5055939942193       ,96
E9117BK/7,1,5055939942209       ,96
E0132BK/5,2,5055939915029       ,97
E0132MB/4,1,5055939922027       ,97
E0132MB/6,1,5055939922041       ,97
E8093BK/3,1,5055939948775       ,97
E8093BK/4,2,5055939948782       ,97
E8093BK/5,1,5055939948799       ,97
E7120BK/4,1,5055939915500       ,101
E8070GF/3,1,5055939948447       ,101
E0099YV,3,5055205363356       ,108
E1196BK/L-XL,2,5055939948874       ,108
E1196BK/M-L,2,5055939956510       ,115
E1158BK/L-XL,2,5055939928432       ,118
E8070BK/4,1,5055939916729       ,118
E8070GF/3,1,5055939948447       ,118
E8070GF/4,1,5055939948454       ,118
E9122BK/6,1,5055939945392       ,118
E9122BK/5,1,5055939945385       ,128
E8070BK/3,1,5055939916712       ,136
E9143BK/2,1,5055939966236       ,142
E9143BK/3,1,5055939957456       ,142
E9143BK/4,1,5055939957463       ,142
E9143BK/5,1,5055939957470       ,142
E9143BK/7,1,5055939957494       ,142
EM0057BK/6,1,5055939925974       ,142
EM0057BK/4,1,5055939925950       ,153
EM0057BU/4,1,5055939946085       ,153
EM0057BU/5,1,5055939946092       ,153
EM0057BU/6,1,5055939946108       ,153
EM0057BK/5,1,5055939925967       ,157
EM0057BK/6,1,5055939925974       ,157
E1257BK/L-XL,2,5055939971940       ,184
E1257BK/M-L,2,5055939971933       ,184
E8083BK/4,1,5055939942322       ,184
E1511BK/S-M,1,5055939930145       ,185
E1506WH/M-L,1,5055939920085       ,195
E1506WH/S-M,1,5055939920078       ,195
E8077BK/2,1,5055939924861       ,195
E8077BK/3,1,5055939924878       ,195
E1505BA/M-L,1,5055939978147       ,207
E1505GY/L-XL,1,5055939930091       ,207
E1505GY/M-L,1,5055939930107       ,207
E1505MB/L-XL,2,5055939904474       ,207
E1505MB/M-L,1,5055939904481       ,207
E1505MB/S-M,1,5055939904498       ,207
E1505RD/L-XL,1,5055939951287       ,207
E1505RD/M-L,1,5055939951270       ,207
E1505RD/S-M,1,5055939951263       ,207
E1505WH/L-XL,1,5055939904542       ,207
E1505WH/M-L,1,5055939904559       ,207
E1505WH/S-M,1,5055939904566       ,207
E1511BA/M-L,1,5055939971636       ,207
E1511BK/L-XL,1,5055939930121       ,207
E1511BK/M-L,1,5055939930138       ,207
E1511RR/M-L,1,5055939959627       ,207
E1511WH/M-L,1,5055939930190       ,207
E1511WH/S-M,1,5055939930206       ,207
E3133GY/2,1,5055939926049       ,207
E3133GY/3,1,5055939924274       ,207
E3133GY/4,1,5055939924281       ,207
E3189BK/4,1,5055939972404       ,207
E3189BK/5,1,5055939972411       ,207
E3189BK/6,1,5055939972428       ,207
E3189BK/7,1,5055939972435       ,207
E3189CC/3,1,5055939972442       ,207
E3189CC/4,1,5055939972459       ,207
E3189CC/5,1,5055939972466       ,207
E3189CC/6,1,5055939972473       ,207
E6130CC/2,1,5055939973500       ,207
E6130CC/3,1,5055939973517       ,207
E6130CC/4,1,5055939973524       ,207
E6130CC/5,1,5055939973531       ,207
E6169BP/2,1,5055939973258       ,207
E6169BP/3,1,5055939973265       ,207
E6169BP/4,1,5055939973272       ,207
E6169CC/3,1,5055939973210       ,207
E6169CC/4,1,5055939973227       ,207
E6169CC/5,1,5055939973234       ,207
E6170BK/3,1,5055939973319       ,207
E6170BK/4,1,5055939973326       ,207
E6170BK/5,1,5055939973333       ,207
E6171BP/2,1,5055939973609       ,207
E6171BP/3,1,5055939973616       ,207
E6171BP/4,1,5055939973623       ,207
E6171BP/5,1,5055939973630       ,207
E6175GY/3,1,5055939976228       ,207
E6175GY/4,2,5055939976235       ,207
E6175GY/5,1,5055939976242       ,207
E6176GY/2,2,5055939976273       ,207
E6176GY/3,2,5055939976280       ,207
E6176GY/4,2,5055939976297       ,207
E6176GY/5,2,5055939976303       ,207
E6176GY/6,1,5055939976310       ,207
E6184BP/3,1,5055939976877       ,207
E6184BP/4,1,5055939976884       ,207
E6185CV/2,1,5055939977010       ,207
E6185CV/3,1,5055939977027       ,207
E6185CV/4,1,5055939977034       ,207
E6187GK/2,1,5055939977522       ,207
E6187GK/3,1,5055939977539       ,207
E6187GK/4,1,5055939977546       ,207
E6187GK/5,1,5055939977553       ,207
E7110BK/K11,1,5055205387895       ,207
E7110BK/K7,1,5055205387871       ,207
E7110BK/K9,1,5055205387888       ,207
E7120BK/3,3,5055939915494       ,207
E7120BK/4,3,5055939915500       ,207
E7120BK/5,2,5055939915517       ,207
E7120BK/6,1,5055939915524       ,207
E7140GY/K11,1,5055939960678       ,207
E7143BC/K11,1,5055939981505       ,207
E7143BC/K7,1,5055939981482       ,207
E7143BC/K9,1,5055939981499       ,207
E7145BA/K11,1,5055939978123       ,207
E7145BA/K7,1,5055939978109       ,207
E7145BA/K9,1,5055939978116       ,207
E7145OT/K11,1,5055939978093       ,207
E7145OT/K7,1,5055939978079       ,207
E7145OT/K9,1,5055939978086       ,207
E8064CC/3,1,5055939972220       ,207
E8064CC/4,1,5055939972237       ,207
E8064CC/5,1,5055939972244       ,207
E8064GY/4,1,5055939916224       ,207
E8064GY/5,1,5055939916231       ,207
E8064GY/6,1,5055939916248       ,207
E8064GY/7,1,5055939916255       ,207
E8092GF/3,1,5055939948393       ,207
E8092GF/4,2,5055939948409       ,207
E8092GF/5,1,5055939948416       ,207
E8093BK/3,2,5055939948775       ,207
E8101CC/3,1,5055939970776       ,207
E8101CC/4,1,5055939970783       ,207
E8101CC/5,1,5055939970790       ,207
E9117BK/3,1,5055939942162       ,207
E9117BK/4,1,5055939942179       ,207
E9117BK/5,1,5055939942186       ,207
E9117CC/4,1,5055939960937       ,207
E9117CC/5,1,5055939960944       ,207
E9117YM/3,1,5055939960982       ,207
E9117YM/4,1,5055939960999       ,207
E9119PW/3,1,5055939942926       ,207
E9119PW/4,1,5055939942933       ,207
E9119PW/5,1,5055939942940       ,207
