SKU,Maximum allowed,Barcode/EAN,Days left
E3108BK/5,1,5055939909301       ,19
E3108BK/6,1,5055939909318       ,19
E4032BK/7,1,5055939917573       ,19
E4054BK/4,1,5055939953175       ,19
E4054BK/6,2,5055939953199       ,19
E7117BK/6,1,5055939917047       ,19
E8064BK/5,1,5055939915999       ,19
E8064BK/6,2,5055939916002       ,19
E8064BK/7,1,5055939916019       ,19
E8070BK/5,2,5055939916736       ,19
E8070BK/6,1,5055939916743       ,19
E0062/6,1,5055205323794       ,42
E4032BK/7,1,5055939917573       ,74
E4054BK/7,1,5055939953205       ,74
E8064BK/5,1,5055939915999       ,74
E4054BK/8,1,5055939955094       ,110
E4029BK/4,2,5055939900971       ,123
E4029BK/5,3,5055939900988       ,123
E4029BK/6,3,5055939900995       ,123
E4029BK/7,3,5055939901008       ,123
E7135BK/5,1,5055939953137       ,132
E7135BK/6,1,5055939953144       ,132
E0061/5,2,5055205323756       ,191
E8064BK/4,2,5055939915982       ,191
E8064BK/7,2,5055939916019       ,191
E8064GY/4,2,5055939916224       ,191
E8064GY/5,2,5055939916231       ,191
E8064GY/6,2,5055939916248       ,191
E8064GY/7,2,5055939916255       ,191
E8070BK/4,2,5055939916729       ,191
E8070BK/5,2,5055939916736       ,191
E8070BK/6,1,5055939916743       ,191
E8070BK/7,2,5055939916750       ,191
E8083BK/4,1,5055939942322       ,191
E8070BK/6,1,5055939916743       ,201
E8064BK/5,2,5055939915999       ,206
