E0005/L-XL,1
E1028BK/0,1
E1118BK/6,1
E2004/6,1
E2005/5,1
E2013BK/6,1
E3035/5,1
E3053R/4,1
E3059BK/4,1
E3065R/4,1
E3065Y/5,1
E3067R/5,1
E3068BU/3,1
E3068BU/5,1
E3092YL/6,1
E3092YL/7,1
E3094GV/5,1
E4014BK/4,1
E4014BK/5,1
E4014BK/7,1
E4020BK/4,1
E4023BK/5,1
E5017/7,1
E5017P/4,1
E5017P/6,1
E5019/4,1
E5019/5,1
E5025BK/6,1
E6032PU/3,1
E6060BK/5,1
E7010/4,2
E7010/5,1
E7012BK/5,1
E7012BU/5,1
E7013BK/7,1
E8014/5,1
E8025/5,2
E8025C/5,1
E8025C/7,1
E8056BK/7,1
E9023R/4,1
E9023R/6,1
E9023Y/3,1
E9023Y/4,1
E9023Y/6,1
E9026BK/3,1
E9026LG/5,1
E9026W/5,1
E9027W/6,1
E9027W/7,1
E9055MG/4,1
E9064BK/3,1
E9064BK/5,1
E9064R/5,1
E9064R/6,1
E9065BK/4,1
E9065BK/6,1
E9065R/5,1
E9066UM/5,1
E9070GN/3,1
E9070GN/4,1
E9070RD/4,1
E9083BK/4,1
E9083BU/4,1
E9083BU/7,1
E9083RD/5,1
E9085BK/6,1
EM0042/5,1
EQ0011BK/5,1
