E0028/6,1
E0035/3,1
E0040CL,1
E0040YL,1
E0042/3,1
E0042/4,1
E0052,1
E0075BU/6,1
E0076BK/5,2
E0076BK/6,1
E1028UM/0,1
E1102,1
E1118BK/6,1
E3092YL/4,1
E3092YL/7,1
E5019/4,1
E5021BK/4,1
E6040BK/3,1
E6047BK/3,1
E8024/4,1
E8060BK/4,1
E9070RD/3,1
E9086GV/5,1
