E0006/5,1
E0063/3,1
E0066,1
E0127BK/6,1
E1019RD/4,1
E1120BK/3,1
E1123RD/4,1
E1123RD/5,1
E1124BK/7,1
E1128BK/L-XL,5
E1128WH/S-M,2
E1131BK/L-XL,3
E1131BK/S-M,2
E3096BK/5,1
E3099BK/4,1
E3102GV/3,1
E3102GV/7,1
E3120WH/5,1
E4029BK/4,1
E4029BK/5,1
E4033BK/3,1
E6060BK/5,1
E6104BK/4,1
E7117BK/4,1
E7117BK/5,2
E7117BK/6,1
E7118BK/4,1
E7120BK/3,1
E9095YV/5,1
E9095YV/7,1
