E0003/L-XL,1
E0107BK/5,1
E1019BK/4,1
E1124RD/7,1
E1128BK/L-XL,3
E1128WH/S-M,1
E1131BK/S-M,2
E3043RD/3,1
E3086RD/5,1
E3099BK/3,1
E3099BK/6,1
E3109BK/7,1
E4031BK/4,1
E4034BK/4,1
E7120BK/5,1
E7120BK/7,1
E8039/7,1
E8064BK/5,1
E9078BK/7,1
