E0003/L-XL,1
E0003/M-L,1
E0035/3,1
E0035/5,1
E0038BK/5,1
E0040CL,1
E0052,1
E0072BK/4,1
E0105BK/L-XL,1
E1019BK/5,1
E1019BK/6,1
E1123BK/6,1
E1125BK/4,1
E1125BK/5,1
E1125RD/4,1
E1128BK/L-XL,2
E1128WH/S-M,1
E1131BK/L-XL,2
E1131BK/S-M,2
E3043BK/5,1
E3099BK/4,1
E3101BK/4,1
E3102GV/5,1
E3102RD/6,1
E3108RD/4,1
E3109YV/6,1
E3125BK/5,1
E4029BK/4,1
E4029BK/6,1
E4034BK/5,1
E6104BK/4,1
E6106BK/2,1
E6106BK/4,1
E8039/4,1
E8050BK/7,1
E8062BK/3,1
E8064GY/6,1
E9026LG/7,1
