E0063/3,1
E0075BK/3,1
E0075BK/4,1
E0075BK/5,2
E0075BK/6,1
E0076BK/4,1
E0127BK/5,1
E0127BK/6,1
E1124RD/4,1
E1128BK/L-XL,2
E1128WH/S-M,1
E3072BK/4,1
E3072BK/5,1
E3099BK/3,1
E3109RD/5,1
E3125RD/3,1
E6040BK/2,1
E6040YV/4,1
E6065BK/2,1
E6065BK/3,1
E6106BK/5,1
E7117BK/4,1
E7117BK/5,1
E7117RD/4,1
E8062BK/3,1
E8064GY/3,1
E8064GY/4,1
E9078BK/6,1
