E0004/L-XL,1
E0127BV/4,1
E1128BK/L-XL,3
E1160RD/5,1
E1166BK/3,1
E1167WH/5,1
E3108BK/3,1
E3108BK/4,1
E3108BK/5,1
E3108BK/6,1
E3108BK/7,1
E3125BK/4,1
E3125BK/5,1
E3142BK/6,1
E3142NA/6,1
E4031BK/5,2
E4032BK/5,1
E4034BK/4,1
E4035BK/6,1
E5069GK/5,1
E6125BK/4,1
E6125WH/5,1
E7117NA/4,1
E8092BK/3,1
E9115CO/6,1
E9120BK/4,1
