E0005/S-M,1
E0006/3,1
E0006/5,3
E0013TH/5,1
E0041,1
E0052,1
E0070/3,1
E0075BU/5,1
E0075R/5,1
E0084BK/L-XL,2
E0095/5,2
E0116PK,1
E1011W,1
E1028BK/0,1
E1028PU/0,1
E1102,1
E1118BK/6,2
E1120BK/5,1
E1124RD/5,1
E1128BK/L-XL,1
E1145BK/5,1
E3108BK/5,1
E3108RD/6,1
E4018BK/3,1
E5017P/6,1
E5019/6,1
E5022BK/5,1
E6020/3,1
E6040BK/3,1
E6065UM/3,1
E7012BK/5,1
E7013BK/4,1
E8014/4,1
E8014/5,1
E8024/5,1
E9026LG/4,1
E9058PK/4,1
E9075PK/5,1
