E0003/L-XL,1
E1128BK/S-M,2
E1128WH/S-M,1
E1160BK/5,1
E1166BK/5,1
E1166BK/6,1
E1167BK/6,1
E1167WH/6,1
E1168BK/4,1
E1171BK/0,1
E3125BK/4,1
E3125BK/7,1
E3142BK/5,1
E3142BK/6,1
E3142GV/5,1
E3142GV/6,1
E4031BK/4,1
E4031BK/5,1
E4032BK/7,1
E6104CE/4,1
E6104CE/5,1
E6106BK/2,1
E6106BK/5,1
E6132BK/6,1
E7120BK/4,1
