E1128BK/S-M,3
E1128WH/L-XL,1
E1161BK/4,1
E1166BK/5,1
E1166BK/6,1
E1166GV/5,1
E1167BK/4,1
E1167RD/5,1
E3119NA/5,1
E3123OM/7,1
E3125RD/6,1
E3142GV/4,1
E4029BK/4,1
E4031BK/4,1
E6104CE/5,1
E6106BK/3,1
E6125BK/5,1
E7117BK/4,2
E7117RD/4,1
E8062BK/2,1
E8064BK/4,1
E8064GY/4,1
E8064GY/5,1
E9086BK/7,1
E9106WH/4,1
EM0054BK/5,1
