E0045,1
E1128WH/L-XL,1
E1167BK/5,1
E1167RD/4,1
E1167WH/4,1
E3120BK/5,1
E3140RD/5,1
E3142RD/4,1
E3142RD/5,1
E4033BK/4,1
E6060BK/4,1
E6105CE/3,1
E6106BK/2,1
E6124BK/4,1
E6125CO/4,1
E7117BK/4,1
E7118BK/5,1
E8064BK/2,1
E9111BK/4,1
