E0045,1
E1111BK/S-M,1
E1120BK/5,1
E1160BK/4,1
E1170GY/0,1
E1182BK/L-XL,3
E1186BK/6,1
E1187BK/4,1
E1187BK/6,1
E3070WH/S-M,1
E3109BK/6,1
E3123OM/5,1
E3123OM/6,1
E3158OM/5,1
E4034BK/5,1
E5049BK/3,1
E5049BK/4,1
E5050BK/4,1
E5050BK/5,1
E5055BK/4,1
E5055BK/5,1
E6064BK/3,1
E6104BK/5,1
E6105CE/4,1
E6146BK/2,1
E6146BK/4,1
E7117BK/4,2
E7117BK/5,2
E7117BK/6,2
E7118BK/4,1
E8064BK/4,1
E8064BK/5,1
E8064BK/6,1
E8064BK/7,1
E8074BK/5,1
E8076BK/5,1
E8076BK/6,1
E8076BK/7,1
E8081BK/6,1
E8083BK/5,1
E9098CM/5,1
E9098NA/7,1
E9102BK/5,1
E9102BK/6,1
E9102RD/3,1
E9102RD/5,1
E9114BV/4,1
E9116CO/5,1
E9120BK/5,1
E9120BK/6,1
E9120BK/7,1
E9122BK/4,1
E9122BV/5,1
E9122BV/6,1
