E0001BK/S-M,1
E0002/3,2
E0004/S-M,1
E0010/5,1
E0010R/5,3
E0011R/5,1
E0031BK/2,1
E0031G/5,1
E0031OR/5,1
E0038R/5,1
E0040YL,1
E0042/3,1
E0042/5,1
E0043BS,1
E0043RP,1
E0063/3,1
E0069BK/7,1
E0072BK/5,1
E0075BK/3,1
E0075BU/4,1
E0075R/5,1
E0075R/6,1
E0091BK,1
E0091W,1
E0104BK/S-M,1
E1010SL,1
E1019BK/4,1
E1019BK/7,1
E1504YV/M-L,1
E3025/4,1
E3029/3,1
E3029/4,1
E3029/5,1
E3029/6,1
E3032/6,1
E3032R/4,1
E3035/4,1
E3036R/4,1
E3055G/5,1
E3057BK/4,1
E3057BU/5,1
E3057BU/6,1
E3065BK/5,1
E3065Y/6,1
E3068BK/5,1
E3068R/5,1
E3073BK/3,1
E3075WH/5,1
E3086RD/4,1
E3086UM/3,1
E3086UM/4,1
E4016BK/4,2
E4019BK/3,1
E4020BK/6,1
E4021BK/5,1
E4023BK/5,1
E5005/4,1
E5019/5,1
E6020/3,1
E6051R/4,1
E6051W/5,1
E6060BK/4,1
E6073BK/3,1
E7012BU/5,1
E7012R/5,1
E7014BK/3,1
E7014BK/4,1
E8004/2,1
E8006/3,1
E8024G/5,1
E8025/4,1
E8025C/4,1
E8025C/6,1
E8025G/6,1
E8050BK/5,1
E8052GN/4,1
E9023BK/4,1
E9026BK/7,1
E9026W/3,1
E9048Y/5,1
E9057PV/2,1
E9059BU/4,1
E9059R/6,1
E9062PV/3,1
E9064BK/3,1
E9064BK/5,1
E9064R/6,1
E9065BK/5,1
E9065BU/4,1
E9070BK/5,1
EM0041OR/5,1
EM0042/4,1
EM0045/6,1
EQ0002BK/5,1
EQ0009BK/M-L,1
EQ0072BK/6,1
EQ0085BK/6,1
EQ3042R/6,1
EQ3047LG/5,1
EQ9025BK/7,1
