E0003/S-M,1
E0004/L-XL,1
E0007,1
E0072BK/6,1
E0072MS/6,1
E0075BK/3,1
E0075BK/5,1
E0075R/4,1
E0075R/5,1
E0095GV/6,1
E1101GM,1
E1102,2
E1117BK/6,1
E1120BK/3,1
E1120BK/4,1
E3059YV/5,1
E3065R/4,1
E3067BK/5,1
E3068GV/6,1
E3068R/4,1
E3072BK/5,1
E4014BK/3,1
E5022BK/4,1
E8023/4,1
E8025/4,1
E9023R/4,1
E9023Y/6,1
E9026LG/3,1
E9065BU/7,1
E9066UM/4,1
E9078YL/6,1
