E0004/L-XL,1
E0004/S-M,1
E0005/L-XL,1
E0006/3,1
E0006/5,1
E0035/3,1
E0035/5,2
E0038R/5,1
E0040CL,1
E0040YL,1
E0041,1
E0043BC,1
E0043BS,1
E0063/5,1
E0070/5,2
E0075BK/5,1
E0075R/5,1
E0076BK/5,1
E0116PK,1
E1016BK,1
E1019BK/6,1
E1101GM,1
E1102,5
E1123BK/2,1
E1123BK/3,1
E1123BK/4,1
E1123BK/5,1
E1123BK/6,1
E1123RD/5,1
E1124BK/7,1
E1124KG/5,1
E1128BK/L-XL,3
E1128WH/L-XL,2
E1131BK/L-XL,2
E1131BK/S-M,2
E3059BK/5,1
E3059R/7,1
E3086UM/5,1
E3100GV/5,2
E3102RD/3,1
E4014BK/5,1
E4019BK/5,1
E4020BK/5,1
E4024BK/5,1
E6047BK/4,1
E6090CE/5,1
E6093BK/4,1
E7010/7,1
E7012BK/4,1
E7012BK/7,1
E8014/7,1
E8039/5,1
E8062BK/4,1
E9026BK/6,1
E9061YV/7,1
E9086GV/4,1
EM0045/5,1
EM0045NA/3,1
EM0045NA/7,1
