E0004/L-XL,1
E0006/3,2
E0006/5,2
E0007,1
E0013TH/5,5
E0039/4,1
E0072BK/4,1
E0072BK/5,2
E0075BK/4,1
E0075BK/6,1
E0076BK/2,1
E0076BK/3,1
E0076BK/6,1
E0089BK/5,1
E0107BK/4,2
E0107BK/5,1
E0107BK/6,1
E1012BK,1
E1019BK/5,1
E1102,5
E1123BK/2,1
E1123BK/4,1
E1123BK/5,1
E1124RD/4,1
E1128BK/L-XL,3
E1128BK/S-M,2
E1128WH/L-XL,2
E1128WH/S-M,3
E1131BK/L-XL,2
E1131BK/S-M,3
E3025/4,1
E3035/6,1
E3057BK/4,1
E3059W/7,1
E3059YV/5,1
E3068BU/6,1
E3068BU/7,1
E3068W/3,1
E3068W/5,1
E3068W/6,1
E3072BK/4,1
E3072BK/6,1
E3086BK/4,1
E3086UM/4,1
E3096BK/4,1
E3099BK/4,1
E3099BK/6,1
E3099KG/4,1
E3101BK/3,1
E3101BK/5,1
E3102RD/4,1
E3107RD/5,1
E4019BK/4,3
E4019BK/5,1
E4021BK/4,1
E4022BK/4,1
E4024BK/7,1
E4029BK/5,2
E4029RD/3,1
E6003/3,1
E6032BU/3,1
E6047BK/5,2
E6093BK/3,1
E7012BK/4,1
E7012BK/5,1
E7012R/3,1
E7013BK/3,1
E7013BK/4,1
E7013BK/5,1
E7014BK/5,1
E8024/3,1
E8024/5,1
E8025/6,2
E8025/7,1
E8025C/6,1
E8062BK/4,1
E9026BK/4,1
E9026BK/7,1
E9027W/4,1
E9055MG/4,1
E9061R/5,1
E9086BK/6,1
E9086BK/7,1
