E0001BK/L-XL,1
E0001W/S-M,1
E0004/L-XL,1
E0035/3,1
E0038BK/7,1
E0039/5,1
E0041,1
E0045,1
E0052,1
E0072BK/3,1
E0072BK/5,1
E0076BK/5,1
E0120PV/M-L,1
E1010W,1
E1014BU,1
E1015GM,1
E1016BK,1
E1019BK/4,1
E1019RD/5,1
E1019WH/5,1
E1028BK/0,1
E1102,3
E1123BK/4,1
E1123BK/6,1
E1123RD/4,1
E1124BK/3,1
E1124BK/5,1
E1124BK/6,1
E1124KG/5,1
E1125BK/4,1
E1125BK/5,1
E1125BU/3,1
E1128BK/L-XL,2
E1128WH/S-M,2
E3029OR/5,1
E3032/5,1
E3036W/4,1
E3085BK/7,1
E3086BK/7,1
E3086RD/5,1
E3086UM/5,1
E3099KG/3,1
E3099NA/5,1
E3100RD/4,1
E3100RD/6,1
E3101RD/7,1
E3102OC/6,1
E3107BK/5,1
E4002/6,1
E4002/7,1
E4014BK/4,1
E4018BK/5,1
E4020BK/6,1
E4023BK/7,1
E4024BK/5,1
E4024BK/6,1
E5005/5,1
E6047BK/2,1
E6060BK/2,1
E6084BK/5,1
E6090CE/3,1
E6090WH/4,1
E7012BK/4,1
E7012R/3,1
E7012W/5,1
E8024C/6,1
E8025/5,1
E9023BK/6,1
E9026BK/5,1
E9026W/4,1
E9026W/5,1
E9058PU/4,1
E9064BK/6,1
