E0003/S-M,1
E0006/5,1
E0013TH/3,5
E0031BK/2,1
E0035/3,1
E0038BK/5,1
E0038R/7,1
E0045,1
E0073,1
E0091BK,1
E0095/5,1
E1010W,1
E1012BK,1
E1016BK,1
E1019BK/5,1
E1019BK/6,1
E1019WH/6,1
E1102,1
E1123BK/5,1
E1123RD/5,1
E1124RD/5,1
E1125BK/4,1
E1128BK/L-XL,2
E1131BK/L-XL,4
E3032/5,1
E3065Y/5,1
E3089BK/5,1
E3101OC/6,1
E3102OC/6,1
E3102RD/3,1
E4002/6,1
E4002/7,1
E4014BK/4,1
E6032BU/3,1
E7012BK/6,1
E7012R/3,1
E7012W/6,1
E8025/5,2
E8025/8,1
E8062BK/3,1
E9023R/6,1
E9058PU/4,1
E9066UM/4,1
