E3092YL/6,1
E3092YL/7,1
E3094GV/3,1
E3094GV/4,1
E3094GV/5,1
E3094GV/6,1
E3094GV/7,1
E4001/6,1
E4002/3,1
E4002/4,1
E4002/5,1
E4002/6,1
E4002/7,1
E4003SP/7,1
E4004SP/3,1
E4004SP/4,1
E4014BK/3,1
E4014BK/4,1
E4014BK/5,1
E4014BK/6,1
E4014BK/7,1
E4016BK/3,1
E4016BK/4,1
E4016BK/5,1
E4016BK/6,1
E4016BK/7,1
E4018BK/2,1
E4018BK/3,1
E4018BK/4,1
E4018BK/5,1
E4018BK/6,1
E4019BK/2,1
E4019BK/3,1
E4019BK/4,1
E4019BK/5,1
E4019BK/6,1
E4020BK/2,1
E4020BK/3,2
E4020BK/4,1
E4020BK/5,1
E4020BK/6,2
E4021BK/2,1
E4021BK/3,1
E4021BK/4,1
E4021BK/5,1
E4021BK/6,1
E4022BK/4,1
E4022BK/5,1
E4022BK/6,1
E4022BK/7,1
E4023BK/2,1
E4023BK/3,2
E4023BK/4,1
E4023BK/5,1
E4023BK/6,1
E4024BK/2,1
E4024BK/3,2
E4024BK/4,1
E4024BK/5,1
E4024BK/6,1
E4024BK/7,1
E5005/3,2
E5005/4,1
E5005/5,1
E5005/6,1
E5005/7,2
E5012/3,1
E5012/5,1
E5012/6,2
E5012/7,1
E5017/3,1
E5017/4,2
E5017/5,1
E5017/6,2
E5017/7,1
E5017P/3,1
E5017P/4,1
E5017P/5,1
E5017P/6,1
E5017P/7,3
E5019/3,1
E5019/4,1
E5019/5,1
E5019/6,1
E5019/7,1
E5021BK/3,1
E5021BK/4,1
E5021BK/5,2
E5021BK/6,1
E5021BK/7,1
E5022BK/3,2
E5022BK/4,2
E5022BK/6,2
E5022BK/7,1
E5025BK/3,1
E5025BK/4,1
E5025BK/5,1
E5025BK/6,1
E5025BK/7,1
E6003/2,1
E6003/3,1
E6003/5,1
E6003/6,1
E6018B/2,1
E6019W/5,1
E6020/3,1
E6020/4,1
E6020/5,1
E6020P/4,1
E6020P/5,1
E6028/2,1
E6031PK/2,1
E6031PK/4,2
E6031PK/5,1
E6032/2,2
E6032/3,1
E6032/4,1
E6032/5,1
E6032BU/2,1
E6032BU/3,1
E6032BU/4,1
E6032BU/5,2
E6032PU/3,1
E6032PU/4,1
E6032PU/5,1
E6035/2,2
E6035/3,3
E6035/4,1
E6035/5,1
E6035BU/2,1
E6035BU/3,2
E6035BU/5,1
E6039/2,1
E6039/3,1
E6039/4,1
E6039/5,1
E6039PU/2,2
E6039PU/3,1
E6039PU/4,1
E6039PU/5,1
E6039W/2,1
E6039W/3,1
E6039W/4,1
E6039W/5,1
E6041BU/2,2
E6041BU/5,1
E6046BU/2,1
E6046BU/3,1
E6047BK/2,1
E6047BK/3,1
E6047BK/4,1
E6047BK/5,1
E6049BK/3,1
E6051BK/2,1
E6051BK/3,1
E6051R/2,1
E6051R/6,2
E6051W/2,1
E6060BK/2,1
E6060BK/3,1
E6060BK/4,1
E6060BK/5,1
E6061BK/2,1
E6064BK/2,1
E6064BK/3,1
E6064BK/4,1
E6064BK/5,1
E6067PV/2,1
E6069BK/2,1
E6069PU/2,1
E6070PK/2,1
E6070PK/3,1
E6070WH/3,1
E6070WH/4,1
E6071WH/2,1
E6073BK/2,1
E6073BK/5,1
E6073WH/2,1
E6073WH/3,1
E6073WH/5,1
E6084BK/2,1
E6084BK/3,1
E6084BK/4,1
E6084BK/5,1
E7010/3,1
E7010/4,2
E7010/5,2
E7010/6,2
E7012BK/3,1
E7012BK/4,1
E7012BK/5,1
E7012BK/6,1
E7012BK/7,1
E7012BU/3,1
E7012BU/4,1
E7012BU/6,1
E7012BU/7,1
E7012R/3,1
E7012R/4,1
E7012R/5,1
E7012R/6,1
E7012R/7,1
E7012W/3,1
E7012W/4,1
E7012W/5,1
E7012W/6,1
E7012W/7,1
E7013BK/3,1
E7013BK/4,1
E7013BK/5,1
E7013BK/6,1
E7013BK/7,1
E7014BK/3,1
E7014BK/5,1
E7014BK/6,1
E7014BK/7,1
E8004/2,1
E8004/3,1
E8004/4,1
E8004/5,1
E8005/4,1
E8005/7,1
E8006/2,1
E8006/3,1
E8006/5,1
E8011/5,1
E8011/7,1
E8014/3,1
E8014/4,1
E8014/5,1
E8014/6,1
E8014/7,1
E8019/7,1
E8023/3,1
E8023/4,2
E8023/5,1
E8023/6,1
E8023/7,1
E8024/3,1
E8024/4,1
E8024/5,1
E8024/6,1
E8024/7,1
E8024C/3,1
E8024C/4,1
E8024C/5,1
E8024C/6,1
E8024C/7,1
E8024G/6,1
E8024G/7,1
E8025/3,1
E8025/4,2
E8025/5,2
E8025/6,2
E8025/7,1
E8025/8,1
E8025C/3,1
E8025C/4,1
E8025C/5,1
E8025C/6,1
E8025G/3,1
E8028/4,1
E8037BK/3,1
E8039/3,1
E8039/4,1
E8039/5,1
E8039/6,1
E8039/7,1
E8050BK/3,1
E8050BK/4,1
E8050BK/5,1
E8050BK/6,1
E8050BK/7,1
E8051BK/4,1
E8052BK/3,1
E8052GN/3,1
E8052GN/5,1
E8052GN/6,1
E8052UM/3,1
E8052UM/6,1
E8055BK/3,2
E8055BK/7,2
E8056BK/3,1
E8056BK/4,1
E8056BK/5,1
E8056BK/6,1
E8056BK/7,1
E8060BK/3,1
E8060BK/4,1
E8060BK/5,1
E8060BK/6,1
E8060BK/7,1
E8900BK/L-XL,1
E8900BK/S-M,1
E8901BK/L-XL,9
E8901BK/S-M,3
E9013/3,1
E9013/4,1
E9013/5,1
E9023BK/3,1
E9023BK/4,1
E9023BK/5,1
E9023BK/6,1
E9023BK/7,1
E9023R/3,1
E9023R/4,1
E9023R/5,1
E9023R/6,1
E9023R/7,1
E9023Y/3,1
E9023Y/4,1
E9023Y/5,1
E9023Y/6,1
E9026BK/3,1
E9026BK/4,1
E9026BK/5,1
E9026BK/7,1
E9026LG/2,1
E9026LG/3,1
E9026LG/4,1
E9026LG/5,1
E9026LG/6,1
E9026LG/7,1
E9026W/2,2
E9026W/3,1
E9026W/4,1
E9026W/5,1
E9026W/6,1
E9027W/3,2
E9027W/4,1
E9027W/5,1
E9027W/7,1
E9033/2,1
E9033/3,1
E9033/4,1
E9033/5,1
E9035/2,1
E9035/3,1
E9035/4,1
E9036/2,1
E9036/3,1
E9036/5,1
E9048/3,1
E9048/7,1
E9055BK/3,1
E9055BK/4,1
E9055BK/5,2
E9055MG/2,1
E9055MG/3,1
E9055MG/4,1
E9055MG/5,1
E9056W/3,1
E9057BK/2,1
E9057BK/3,1
E9057BK/4,1
E9057BK/5,1
E9057PV/2,1
E9057PV/3,1
E9057PV/4,1
E9057PV/5,1
E9057UM/2,1
E9057UM/3,1
E9058BK/2,1
E9058BK/3,1
E9058BK/4,1
E9058BK/5,1
E9058BU/2,1
E9058BU/3,1
E9058BU/4,1
E9058BU/5,1
E9058PK/2,1
E9058PK/4,1
E9058PK/5,1
E9058PU/2,1
E9058PU/3,1
E9058PU/4,1
E9058PU/5,1
E9058W/2,1
E9058W/3,1
E9059BK/3,1
E9059R/6,2
E9061BK/3,1
E9061BK/4,1
E9061BK/5,1
E9061BK/6,1
E9061BK/7,1
E9061R/3,2
E9061R/4,1
E9061R/5,1
E9061R/6,1
E9061R/7,1
E9061W/3,2
E9061W/4,1
E9061W/5,1
E9061W/6,1
E9061W/7,1
E9061YV/3,1
E9061YV/4,1
E9061YV/5,1
E9061YV/7,1
E9062BK/2,1
E9062BK/3,1
E9062BK/4,1
E9062BK/5,1
E9062BK/6,1
E9062PV/2,2
E9062PV/3,1
E9062PV/4,1
E9062PV/5,2
E9062PV/6,2
E9062W/2,2
E9062W/3,1
E9062W/4,1
E9062W/5,2
E9062W/6,2
E9064BK/3,1
E9064BK/4,1
E9064BK/5,1
E9064BK/6,1
E9064BK/7,1
E9064R/3,1
E9064R/4,1
E9064R/5,1
E9064R/6,1
E9064R/7,1
E9065BK/3,1
E9065BK/4,1
E9065BK/5,1
E9065BK/6,1
E9065BK/7,1
E9065R/3,1
E9065R/4,1
E9065R/5,1
E9065R/6,1
E9065R/7,1
E9066BK/2,1
E9066BK/3,1
E9066BK/4,1
E9066UM/3,1
E9066UM/4,1
E9066UM/5,1
E9070GN/3,1
E9070GN/4,1
E9070GN/5,1
E9070GN/6,1
E9070GN/7,1
E9070RD/3,1
E9070RD/4,1
E9070RD/5,1
E9070RD/6,1
E9070RD/7,1
E9075PK/2,1
E9075PK/3,1
E9075PK/5,1
E9078BK/3,1
E9078BK/5,1
E9078BK/6,1
E9078BK/7,1
E9083BK/4,1
E9083BK/6,1
E9083BK/7,1
E9083BU/3,2
E9083BU/4,1
E9083BU/6,1
E9083BU/7,1
E9083RD/4,1
E9083RD/6,1
E9083RD/7,1
E9085BK/3,1
E9085BK/4,1
E9085BK/5,1
E9085BK/6,1
E9085BK/7,1
E9085GV/3,1
E9085GV/4,1
E9085GV/5,1
E9085GV/6,1
E9085GV/7,1
E9085RD/3,1
E9085RD/4,1
E9085RD/5,1
E9085RD/6,1
E9085RD/7,1
EM0040BK/3,1
EM0040BK/4,4
EM0040BK/5,3
EM0040BK/6,1
EM0040BK/7,2
EM0041OR/4,1
EM0041OR/5,1
EM0041OR/6,1
EM0041OR/7,1
EM0042/3,1
EM0042/4,1
EM0042/5,1
EM0042/6,1
EM0042/7,1
EM0043/3,1
EM0043OR/3,1
EM0043OR/4,1
EM0044BK/3,1
EM0044BK/4,1
EM0044BK/5,1
EM0044BK/6,1
EM0045/3,1
EM0045/4,1
EM0045/5,1
EM0045/6,1
EM0045/7,1
EM0046/3,3
EM0046/4,1
EM0046/5,1
EM0046/6,1
EM0046/7,3
EQ0002BK/3,1
EQ0003BK/S-M,2
EQ0008BK/M-L,2
EQ0008BK/S-M,1
EQ0009BK/M-L,1
EQ0009BK/S-M,3
EQ0011BK/5,1
EQ0017/3,1
EQ0058/2,2
EQ0058/3,3
EQ0058/4,1
EQ0058/5,3
EQ0058/6,1
EQ0058/7,1
EQ0058R/2,2
EQ0058R/3,3
EQ0058R/4,3
EQ0058R/5,3
EQ0058R/6,3
EQ0058R/7,4
EQ0059W/3,3
EQ0059W/4,1
EQ0071BK/3,1
EQ0071BK/4,3
EQ0071BK/6,1
EQ0071R/6,1
EQ0072BK/3,1
EQ0085BK/3,1
EQ0085BK/4,1
EQ0085W/3,1
EQ3042BK/4,1
EQ3042BK/5,1
EQ3042BK/6,1
EQ3042BK/7,1
EQ3042R/4,1
EQ3042R/7,1
EQ4007/7,1
EQ4013BK/3,2
EQ4013BK/5,2
EQ4013BK/6,2
EQ4013BK/7,1
EQ9025BK/3,1
EQ9025BK/6,1
EQ9025R/3,1
EQ9025R/6,1
EQ9056BK/4,1
EQ9056BK/7,1
EQ9057BK/4,1
