E0043,1
E0043BP,1
E0043BS,1
E0043BU,1
E0043BC,1
E0043WC,1
E1218BK/M-L,1
E8076BK/4,1
E8070BK/4,1
E8074BK/6,1
E8074BK/5,1
E8074BK/4,1
E1224BK/3,1
E1224BK/4,1
E3165GF/5,1
E3158BK/4,1
E1181BK/3,1
E1186BK/5,1
E5049BK/3,1
E5049BK/4,1
E5055BK/4,1
E3165BK/4,1
E3165BK/5,1
E3165GF/3,1
E8074BK/3,1
E3158BK/5,1
E3158BK/6,1
E0127BK/4,1
E0127BK/5,1
E1187BK/7,1
E3177BK/4,1
E9142GK/3,1
E9140BK/5,1
E9140BK/6,1
E9140BK/7,1
E9140BV/4,1
E9140BV/5,1
E9140BV/6,1
E8070GF/3,1
E3165GF/4,1
E1054BK/L-XL,1
E1054BK/S-M,1
