E4034BK/6,1
E0003/S-M,1
E1131BK/S-M,2
E3123BK/6,1
E1166RD/5,1
E1166RD/6,1
E1167RD/6,1
E1166BK/3,1
E1167WH/5,1
E3142BK/6,1
E3123BK/4,1
E0073,1
E3108RD/4,1
E4030BK/5,1
E4031BK/5,1
E8064BK/3,1
E1166NA/6,1
