SKU,Maximum allowed,Barcode/EAN,Days left
E1042BK/L-XL,2,5055939923857       ,0
E1128BK/L-XL,5,5055205398617       ,0
E1160BK/3,1,5055939928494       ,0
E1160BK/4,2,5055939928500       ,0
E1160BK/5,2,5055939928517       ,0
E1160BK/6,2,5055939928524       ,0
E1160BK/7,1,5055939928531       ,0
E1165BK/3,1,5055939928845       ,0
E1165BK/4,3,5055939928852       ,0
E1165BK/5,4,5055939928869       ,0
E1165BK/6,3,5055939928876       ,0
E1165BK/7,1,5055939928883       ,0
E1166BK/3,1,5055939929064       ,0
E1166BK/4,2,5055939929071       ,0
E1166BK/5,2,5055939929088       ,0
E1166BK/6,2,5055939929095       ,0
E1166BK/7,1,5055939929101       ,0
E1167BK/3,1,5055939929309       ,0
E1167BK/4,2,5055939929316       ,0
E1167BK/5,3,5055939929323       ,0
E1167BK/6,2,5055939929330       ,0
E1167BK/7,1,5055939929347       ,0
E1168BK/3,1,5055939929477       ,0
E1168BK/4,1,5055939929484       ,0
E1168BK/5,1,5055939929491       ,0
E1168BK/6,1,5055939929507       ,0
E1168BK/7,1,5055939929514       ,0
E4027BK/3,1,5055205398259       ,0
E4027BK/4,1,5055205398266       ,0
E4027BK/5,1,5055205398273       ,0
E4027BK/6,1,5055205398280       ,0
E4027BK/7,1,5055205398297       ,0
E4054BK/6,2,5055939953199       ,0
E4054BK/7,1,5055939953205       ,0
E7127BK/3,1,5055939934358       ,0
E7127BK/4,1,5055939934365       ,0
E7127BK/5,1,5055939934372       ,0
E7127RD/3,1,5055939934389       ,0
E7127RD/4,1,5055939934396       ,0
E7127RD/5,1,5055939934402       ,0
E8064BK/4,1,5055939915982       ,0
E8064BK/5,2,5055939915999       ,0
E8064BK/6,2,5055939916002       ,0
E8064BK/7,1,5055939916019       ,0
E1165BK/5,1,5055939928869       ,201
E1165BK/6,1,5055939928876       ,201
E8064BK/4,1,5055939915982       ,201
