E8066BK/4,1
E1132BK/S-M,1
E1131BK/S-M,1
E1128WH/L-XL,1
E3140BK/4,1
E3140RD/6,1
E3142RD/6,1
E3125BK/7,1
E6095BK/4,1
E3125RD/4,1
E8064GY/4,3
E3125RD/5,1
E7117RD/4,1
E4013BK/4,1
E4027BK/7,1
E4014BK/3,1
E6106PU/3,1
E8064GY/5,2
E3144NA/4,1
E8064GY/3,1
E1040BK/0,1
E8064BK/4,2
E6110BK/3,1
