E0132MB/6,1
E1128BK/S-M,1
E6106BK/3,1
E1160BK/7,1
E1161RD/5,1
E6120BK/2,1
E1165BK/3,1
E1165BK/5,1
E1168BK/4,1
E8064BK/4,1
E9120BK/5,3
E1161BK/6,1
E1160RD/5,1
E8064GC/3,1
E8064GC/4,1
E8064GC/5,1
E4054BK/6,1
E6153BK/3,1
E6149MY/3,1
E1201GF/L-XL,1
E3165BK/4,1
E3165BK/5,1
E3165BK/6,1
E8091BK/3,1
E8091BK/6,1
E9140BK/5,1
E1204GC/5,1
E1204GC/7,1
E7117NA/5,1
E1166NA/5,1
E9098CM/3,1
E9098CM/4,2
E9098CM/5,2
E9098CM/6,1
E9120BK/3,1
E9120BK/4,2
E9120BK/6,1
