Proposal for: ,GISL01
,Gisler Sport GmbH
Proposal name: ,SS19.2
Created by: ,Edith Niessen
To be delivered: ,2019-03-14


SKU,Qty,Each,RRP,Product Name,Code,Variant,Color,Size,Product Type,Barcode
E9117BK/4,1,135,270,MT500 Waterproof Jacket,E9117,E9117BK,Black,M,Hardshell Jackets,5055939942179,
E9117BK/5,1,135,270,MT500 Waterproof Jacket,E9117,E9117BK,Black,L,Hardshell Jackets,5055939942186,
E9117BK/6,1,135,270,MT500 Waterproof Jacket,E9117,E9117BK,Black,XL,Hardshell Jackets,5055939942193,
E9118PW/4,1,80,160,MTR Spray Pullover,E9118,E9118PW,Pewter Grey,M,Hardshell Jackets,5055939942643,
E9118PW/5,1,80,160,MTR Spray Pullover,E9118,E9118PW,Pewter Grey,L,Hardshell Jackets,5055939942650,
E9118PW/6,1,80,160,MTR Spray Pullover,E9118,E9118PW,Pewter Grey,XL,Hardshell Jackets,5055939942667,
E3123GF/3,2,35,70,MT500 Burner L/S Jersey,E3123,E3123GF,Forest Green,S,L/S Shirts & Jerseys,5055939948492,
E3123GF/4,2,35,70,MT500 Burner L/S Jersey,E3123,E3123GF,Forest Green,M,L/S Shirts & Jerseys,5055939948508,
E3123GF/5,2,35,70,MT500 Burner L/S Jersey,E3123,E3123GF,Forest Green,L,L/S Shirts & Jerseys,5055939948515,
E3123GF/6,2,35,70,MT500 Burner L/S Jersey,E3123,E3123GF,Forest Green,XL,L/S Shirts & Jerseys,5055939948522,
E3165BK/3,2,27,60,MT500 L/S Print T - LTD,E3165,E3165BK,Black,S,L/S Shirts & Jerseys,5055939948591,
E3165BK/4,2,27,60,MT500 L/S Print T - LTD,E3165,E3165BK,Black,M,L/S Shirts & Jerseys,5055939948607,
E3165BK/5,2,27,60,MT500 L/S Print T - LTD,E3165,E3165BK,Black,L,L/S Shirts & Jerseys,5055939948614,
E3165BK/6,2,27,60,MT500 L/S Print T - LTD,E3165,E3165BK,Black,XL,L/S Shirts & Jerseys,5055939948621,
E3165GF/3,1,27,60,MT500 L/S Print T - LTD,E3165,E3165GF,Forest Green,S,L/S Shirts & Jerseys,5055939948546,
E3165GF/4,1,27,60,MT500 L/S Print T - LTD,E3165,E3165GF,Forest Green,M,L/S Shirts & Jerseys,5055939948553,
E3165GF/5,1,27,60,MT500 L/S Print T - LTD,E3165,E3165GF,Forest Green,L,L/S Shirts & Jerseys,5055939948560,
E3165GF/6,1,27,60,MT500 L/S Print T - LTD,E3165,E3165GF,Forest Green,XL,L/S Shirts & Jerseys,5055939948577,
E6149BK/3,1,27,60,Wms MT500 L/S Print T II - LTD,E6149,E6149BK,Black,S,L/S Shirts & Jerseys,5055939948706,
E6149BK/4,1,27,60,Wms MT500 L/S Print T II - LTD,E6149,E6149BK,Black,M,L/S Shirts & Jerseys,5055939948713,
E6149BK/5,1,27,60,Wms MT500 L/S Print T II - LTD,E6149,E6149BK,Black,L,L/S Shirts & Jerseys,5055939948720,
E6149MY/3,1,27,60,Wms MT500 L/S Print T II - LTD,E6149,E6149MY,Mulberry,S,L/S Shirts & Jerseys,5055939948744,
E6149MY/4,1,27,60,Wms MT500 L/S Print T II - LTD,E6149,E6149MY,Mulberry,M,L/S Shirts & Jerseys,5055939948751,
E6149MY/5,1,27,60,Wms MT500 L/S Print T II - LTD,E6149,E6149MY,Mulberry,L,L/S Shirts & Jerseys,5055939948768,
E7120BK/3,5,32.5,65,SingleTrack Liner Short,E7120,E7120BK,Black,S,Boxers/Liners,5055939915494,
E7120BK/4,5,32.5,65,SingleTrack Liner Short,E7120,E7120BK,Black,M,Boxers/Liners,5055939915500,
E7120BK/5,5,32.5,65,SingleTrack Liner Short,E7120,E7120BK,Black,L,Boxers/Liners,5055939915517,
E7120BK/6,5,32.5,65,SingleTrack Liner Short,E7120,E7120BK,Black,XL,Boxers/Liners,5055939915524,
E7120BK/7,2,32.5,65,SingleTrack Liner Short,E7120,E7120BK,Black,XXL,Boxers/Liners,5055939915531,
E6110BK/2,1,50,100,Wms SingleTrack Lite Short II,E6110,E6110BK,Black,XS,Baggy Shorts,5055939914664,
E6110BK/3,2,50,100,Wms SingleTrack Lite Short II,E6110,E6110BK,Black,S,Baggy Shorts,5055939914671,
E6110BK/4,2,50,100,Wms SingleTrack Lite Short II,E6110,E6110BK,Black,M,Baggy Shorts,5055939914688,
E6110BK/5,2,50,100,Wms SingleTrack Lite Short II,E6110,E6110BK,Black,L,Baggy Shorts,5055939914695,
E6110BK/6,1,50,100,Wms SingleTrack Lite Short II,E6110,E6110BK,Black,XL,Baggy Shorts,5055939922331,
E8070BK/4,1,60,120,MT500 Spray Baggy Short II,E8070,E8070BK,Black,M,Baggy Shorts,5055939916729,
E8070BK/5,1,60,120,MT500 Spray Baggy Short II,E8070,E8070BK,Black,L,Baggy Shorts,5055939916736,
E8070GF/3,1,60,120,MT500 Spray Baggy Short II,E8070,E8070GF,Forest Green,S,Baggy Shorts,5055939948447,
E8070GF/4,1,60,120,MT500 Spray Baggy Short II,E8070,E8070GF,Forest Green,M,Baggy Shorts,5055939948454,
E8070GF/5,1,60,120,MT500 Spray Baggy Short II,E8070,E8070GF,Forest Green,L,Baggy Shorts,5055939948461,
E8070GF/6,1,60,120,MT500 Spray Baggy Short II,E8070,E8070GF,Forest Green,XL,Baggy Shorts,5055939948478,
E1506GF/S-M,3,95,190,MT500 Helmet,E1506,E1506GF,Forest Green,S-M,Helmets,5055939948959,
E1506GF/M-L,3,95,190,MT500 Helmet,E1506,E1506GF,Forest Green,M-L,Helmets,5055939948966,
E1506GF/L-XL,2,95,190,MT500 Helmet,E1506,E1506GF,Forest Green,L-XL,Helmets,5055939948973,
E1506WH/S-M,5,95,190,MT500 Helmet,E1506,E1506WH,White,S-M,Helmets,5055939920078,
E1506WH/M-L,5,95,190,MT500 Helmet,E1506,E1506WH,White,M-L,Helmets,5055939920085,
E1506WH/L-XL,3,95,190,MT500 Helmet,E1506,E1506WH,White,L-XL,Helmets,5055939920092,
E1506BK/S-M,5,95,190,MT500 Helmet,E1506,E1506BK,Black,S-M,Helmets,5055939920047,
E1506BK/M-L,5,95,190,MT500 Helmet,E1506,E1506BK,Black,M-L,Helmets,5055939920054,
E1506BK/L-XL,3,95,190,MT500 Helmet,E1506,E1506BK,Black,L-XL,Helmets,5055939920061,
E1511BK/S-M,5,50,100,SingleTrack Helmet II,E1511,E1511BK,Black,S-M,Helmets,5055939930145,
E1511BK/M-L,5,50,100,SingleTrack Helmet II,E1511,E1511BK,Black,M-L,Helmets,5055939930138,
E1511BK/L-XL,5,50,100,SingleTrack Helmet II,E1511,E1511BK,Black,L-XL,Helmets,5055939930121,
E1511PT/S-M,5,50,100,SingleTrack Helmet II,E1511,E1511PT,Petrol,S-M,Helmets,5055939930176,
E1511PT/M-L,5,50,100,SingleTrack Helmet II,E1511,E1511PT,Petrol,M-L,Helmets,5055939930169,
E1511PT/L-XL,3,50,100,SingleTrack Helmet II,E1511,E1511PT,Petrol,L-XL,Helmets,5055939930152,
E1511WH/S-M,7,50,100,SingleTrack Helmet II,E1511,E1511WH,White,S-M,Helmets,5055939930206,
E1511WH/M-L,7,50,100,SingleTrack Helmet II,E1511,E1511WH,White,M-L,Helmets,5055939930190,
E1511WH/L-XL,5,50,100,SingleTrack Helmet II,E1511,E1511WH,White,L-XL,Helmets,5055939930183,
E7136WH/0,5,50,100,MT500JR Youth Helmet,E7136,E7136WH,White,One size,Helmets,5055939948942,
E1199NA/3,2,22.5,45,SingleTrack LiteKnit Glove,E1199,E1199NA,Navy,S,Long finger gloves,5055939949741,
E1199NA/4,2,22.5,45,SingleTrack LiteKnit Glove,E1199,E1199NA,Navy,M,Long finger gloves,5055939949758,
E1199NA/5,2,22.5,45,SingleTrack LiteKnit Glove,E1199,E1199NA,Navy,L,Long finger gloves,5055939949765,
E1199NA/6,2,22.5,45,SingleTrack LiteKnit Glove,E1199,E1199NA,Navy,XL,Long finger gloves,5055939949772,
E1199RR/3,2,22.5,45,SingleTrack LiteKnit Glove,E1199,E1199RR,Rust Red,S,Long finger gloves,5055939949697,
E1199RR/4,2,22.5,45,SingleTrack LiteKnit Glove,E1199,E1199RR,Rust Red,M,Long finger gloves,5055939949703,
E1199RR/5,2,22.5,45,SingleTrack LiteKnit Glove,E1199,E1199RR,Rust Red,L,Long finger gloves,5055939949710,
E1199RR/6,2,22.5,45,SingleTrack LiteKnit Glove,E1199,E1199RR,Rust Red,XL,Long finger gloves,5055939949727,
E1204GC/3,3,15,30,Hummvee Lite Glove II,E1204,E1204GC,Grey Camo,S,Long finger gloves,5055939950662,
E1204GC/4,4,15,30,Hummvee Lite Glove II,E1204,E1204GC,Grey Camo,M,Long finger gloves,5055939950679,
E1204GC/5,4,15,30,Hummvee Lite Glove II,E1204,E1204GC,Grey Camo,L,Long finger gloves,5055939950686,
E1204GC/6,4,15,30,Hummvee Lite Glove II,E1204,E1204GC,Grey Camo,XL,Long finger gloves,5055939950693,
E1204GC/7,2,15,30,Hummvee Lite Glove II,E1204,E1204GC,Grey Camo,XXL,Long finger gloves,5055939950709,
E1204NA/3,2,13,30,Hummvee Lite Glove II,E1204,E1204NA,Navy,S,Long finger gloves,5055939950518,
E1204NA/4,3,13,30,Hummvee Lite Glove II,E1204,E1204NA,Navy,M,Long finger gloves,5055939950525,
E1204NA/5,3,13,30,Hummvee Lite Glove II,E1204,E1204NA,Navy,L,Long finger gloves,5055939950532,
E1204NA/6,2,13,30,Hummvee Lite Glove II,E1204,E1204NA,Navy,XL,Long finger gloves,5055939950549,
E6155BK/2,2,15,30,Wms Hummvee Lite Glove II,E6155,E6155BK,Black,XS,Long finger gloves,5055939951188,
E6155BK/3,2,15,30,Wms Hummvee Lite Glove II,E6155,E6155BK,Black,S,Long finger gloves,5055939951195,
E6155BK/4,2,15,30,Wms Hummvee Lite Glove II,E6155,E6155BK,Black,M,Long finger gloves,5055939951201,
E6155BK/5,1,15,30,Wms Hummvee Lite Glove II,E6155,E6155BK,Black,L,Long finger gloves,5055939951218,
E7124GF/3,3,10.9,25,Kids Hummvee Glove II,E7124,E7124GF,Forest Green,S,Long finger gloves,5055939953809,
E7124GF/4,3,10.9,25,Kids Hummvee Glove II,E7124,E7124GF,Forest Green,M,Long finger gloves,5055939953816,
E7124GF/5,3,10.9,25,Kids Hummvee Glove II,E7124,E7124GF,Forest Green,L,Long finger gloves,5055939953823,
E1165BK/2,3,15,30,Xtract Mitt II,E1165,E1165BK,Black,XS,Mitts,5055939936352,
E1165BK/3,3,15,30,Xtract Mitt II,E1165,E1165BK,Black,S,Mitts,5055939928845,
E1165BK/4,4,15,30,Xtract Mitt II,E1165,E1165BK,Black,M,Mitts,5055939928852,
E1165BK/5,4,15,30,Xtract Mitt II,E1165,E1165BK,Black,L,Mitts,5055939928869,
E1165BK/6,2,15,30,Xtract Mitt II,E1165,E1165BK,Black,XL,Mitts,5055939928876,
E1165BK/7,1,15,30,Xtract Mitt II,E1165,E1165BK,Black,XXL,Mitts,5055939928883,
E6126CE/2,1,15,30,Women's Xtract Cycling Mitt II,E6126,E6126CE,Cerise,XS,Mitts,5055939933191,
E6126CE/3,2,15,30,Women's Xtract Cycling Mitt II,E6126,E6126CE,Cerise,S,Mitts,5055939933207,
E6126CE/4,2,15,30,Women's Xtract Cycling Mitt II,E6126,E6126CE,Cerise,M,Mitts,5055939933214,
E1157BK/S-M,20,35,70,SingleTrack Lite Knee Protector,E1157,E1157BK,Black,S-M,Body Protectors,5055939928425,
E1157BK/L-XL,20,35,70,SingleTrack Lite Knee Protector,E1157,E1157BK,Black,L-XL,Body Protectors,5055939928418,
E1158BK/S-M,15,30,60,SingleTrack Lite Elbow Protector,E1158,E1158BK,Black,S-M,Body Protectors,5055939928449,
E1158BK/L-XL,15,30,60,SingleTrack Lite Elbow Protector,E1158,E1158BK,Black,L-XL,Body Protectors,5055939928432,
E1196BK/S-M,3,50,100,MT500 Lite Knee Pad,E1196,E1196BK,Black,S-M,Body Protectors,5055939948867,
E1196BK/L-XL,3,50,100,MT500 Lite Knee Pad,E1196,E1196BK,Black,L-XL,Body Protectors,5055939948874,
E1202BK/S-M,5,22.5,45,SingleTrack Shin Guard Sock,E1202,E1202BK,Black,S-M,Body Protectors,5055939949901,
E1202BK/L-XL,5,22.5,45,SingleTrack Shin Guard Sock,E1202,E1202BK,Black,L-XL,Body Protectors,5055939949918,
E1202GF/S-M,3,22.5,45,SingleTrack Shin Guard Sock,E1202,E1202GF,Forest Green,S-M,Body Protectors,5055939949925,
E1202GF/L-XL,3,22.5,45,SingleTrack Shin Guard Sock,E1202,E1202GF,Forest Green,L-XL,Body Protectors,5055939949932,
E7131BK/K9,3,35,70,SingleTrack Youth Knee Protector,E7131,E7131BK,Black,9-10yrs,Body Protectors,5055939949963,
E7131BK/K11,3,35,70,SingleTrack Youth Knee Protector,E7131,E7131BK,Black,11-12yrs,Body Protectors,5055939949970,
