SKU,Maximum allowed,Barcode/EAN,Days left
E0151GC/0,5,5055939960715       ,192
E1223BK/L-XL,2,5055939958613       ,192
E1223BK/S-M,2,5055939958606       ,192
E1250CL,1,5055939955797       ,192
E1251CL,1,5055939955803       ,192
E3183BK/7,1,5055939959337       ,192
E5049BK/5,2,5055939924540       ,192
E5049BK/6,2,5055939924557       ,192
E5049BK/7,2,5055939924564       ,192
E5056BK/3,2,5055939941820       ,192
E5056BK/4,2,5055939941837       ,192
E5056BK/5,2,5055939941844       ,192
E5056BK/6,2,5055939941851       ,192
E5056BK/7,2,5055939941868       ,192
E8064BK/8,1,5055939916026       ,192
E9120BK/4,1,5055939943213       ,192
E9120BK/7,1,5055939943244       ,192
