Proposal for: ,bik180
,BIKE JUMP VERONA di Begnoni Nicola
Proposal name: ,JUMP AW19 NOV
Created by: ,Emiliano Serotti
To be delivered: ,2019-11-15


SKU,Qty,Each,RRP,Product Name,Code,Variant,Color,Size,Product Type,Barcode
E9102RD/4,1,56.1,114.99,Windchill Jacket,E9102,E9102RD,Red,M,Softshell Jackets,5055939925479,
E9102RD/5,1,56.1,114.99,Windchill Jacket,E9102,E9102RD,Red,L,Softshell Jackets,5055939925486,
E9102BK/4,1,56.1,114.99,Windchill Jacket,E9102,E9102BK,Black,M,Softshell Jackets,5055939925523,
E9102BK/6,1,56.1,114.99,Windchill Jacket,E9102,E9102BK,Black,XL,Softshell Jackets,5055939925547,
E9122BK/5,1,85.4,174.99,Pro SL Thermal Windproof Jacket II,E9122,E9122BK,Black,L,Softshell Jackets,5055939945385,
E9145BK/4,1,85.4,,MT500 Freezing Point Jacket,E9145,E9145BK,Black,M,Softshell Jackets,5055939959092,
E8073BK/4,1,46.3,94.99,SingleTrack Trouser,E8073,E8073BK,Black,M,Baggy Trousers,5055939924670,
E8074BK/5,1,68.3,139.99,MT500 Spray Trouser II,E8074,E8074BK,Black,L,Baggy Trousers,5055939924731,
E0154BK/S-M,1,13.7,,Pro SL Skull Cap,E0154,E0154BK,Black,S-M,Head warmer,5055939958149,
E0154BK/L-XL,1,13.7,,Pro SL Skull Cap,E0154,E0154BK,Black,L-XL,Head warmer,5055939965987,
E1223BK/S-M,1,9.8,,FS260-Pro Skull Cap,E1223,E1223BK,Black,S-M,Head warmer,5055939958606,
E1223BK/L-XL,1,9.8,,FS260-Pro Skull Cap,E1223,E1223BK,Black,L-XL,Head warmer,5055939958613,
E1186BK/3,1,19.5,39.99,Windchill Glove,E1186,E1186BK,Black,S,Long finger gloves,5055939944623,
E1186BK/4,1,19.5,39.99,Windchill Glove,E1186,E1186BK,Black,M,Long finger gloves,5055939944630,
E1186BK/5,1,19.5,39.99,Windchill Glove,E1186,E1186BK,Black,L,Long finger gloves,5055939944647,
E1186BK/6,1,19.5,39.99,Windchill Glove,E1186,E1186BK,Black,XL,Long finger gloves,5055939944654,
E1186BK/7,1,19.5,39.99,Windchill Glove,E1186,E1186BK,Black,XXL,Long finger gloves,5055939944661,
E1186GV/4,1,19.5,39.99,Windchill Glove,E1186,E1186GV,Hi-Viz Green,M,Long finger gloves,5055939944685,
E1186GV/5,1,19.5,39.99,Windchill Glove,E1186,E1186GV,Hi-Viz Green,L,Long finger gloves,5055939944692,
E1186GV/6,1,19.5,39.99,Windchill Glove,E1186,E1186GV,Hi-Viz Green,XL,Long finger gloves,5055939944708,
E1043BK/S-M,1,20.9,42.99,Hummvee Waterproof Mid Length Sock,E1043,E1043BK,Black,S-M,Lightweight,5055939923888,
E1043BK/L-XL,2,20.9,42.99,Hummvee Waterproof Mid Length Sock,E1043,E1043BK,Black,L-XL,Lightweight,5055939923871,
E1182BK/S-M,1,12.2,24.99,MTR Winter Sock,E1182,E1182BK,Black,S-M,Lightweight,5055939942612,
E1182BK/L-XL,2,12.2,24.99,MTR Winter Sock,E1182,E1182BK,Black,L-XL,Lightweight,5055939942629,
E1038BK/S-M,1,16.1,32.99,THERMOLITEŽ II Sock (Twin pack),E1038,E1038BK,Black,S-M,Thermal,5055939906690,
E1038BK/L-XL,3,16.1,32.99,THERMOLITEŽ II Sock (Twin pack),E1038,E1038BK,Black,L-XL,Thermal,5055939906706,
E1227BK/S-M,2,8.8,,BaaBaa Merino Winter Sock (Single),E1227,E1227BK,Black,S-M,Thermal,5055939959405,
E1227BK/L-XL,3,8.8,,BaaBaa Merino Winter Sock (Single),E1227,E1227BK,Black,L-XL,Thermal,5055939966311,
E1185BK/4,1,18.5,37.99,Windchill Overshoe,E1185,E1185BK,Black,M,Lightweight,5055939944531,
E1185BK/5,1,18.5,37.99,Windchill Overshoe,E1185,E1185BK,Black,L,Lightweight,5055939944548,
E1185BK/6,1,18.5,37.99,Windchill Overshoe,E1185,E1185BK,Black,XL,Lightweight,5055939944555,
E1118BK/5,1,19.5,39.99,MT500 Overshoe II,E1118,E1118BK,Black,L,Neoprene,5055205389981,
E1118BK/6,1,19.5,39.99,MT500 Overshoe II,E1118,E1118BK,Black,XL,Neoprene,5055205389998,
E1120BK/5,1,17.1,34.99,Road II Overshoe,E1120,E1120BK,Black,L,Neoprene,5055205390239,
E1120BK/6,1,17.1,34.99,Road II Overshoe,E1120,E1120BK,Black,XL,Neoprene,5055205390246,
