Proposal for: ,BIK180
,BIKE JUMP VERONA di Begnoni Nicola
Proposal name: ,JUMP AW19 SETT
Created by: ,Emiliano Serotti
To be delivered: ,2019-09-20


SKU,Qty,Each,RRP,Product Name,Code,Variant,Color,Size,Product Type,Barcode
E1250CL,4,5.8,11.99,Apparel Re-Proofer,E1250,E1250CL,Clear,One size,Hardshell Jackets,5055939955797,
E9138RR/4,1,43.9,,SingleTrack DuraJak,E9138,E9138RR,Rust Red,M,Hardshell Jackets,5055939960258,
E9138RR/5,1,43.9,,SingleTrack DuraJak,E9138,E9138RR,Rust Red,L,Hardshell Jackets,5055939960265,
E9147GF/4,1,68.3,,SingleTrack Jacket,E9147,E9147GF,Forest Green,M,Hardshell Jackets,5055939959429,
E9147GF/5,1,68.3,,SingleTrack Jacket,E9147,E9147GF,Forest Green,L,Hardshell Jackets,5055939959436,
E9147GF/6,1,68.3,,SingleTrack Jacket,E9147,E9147GF,Forest Green,XL,Hardshell Jackets,5055939959443,
E9147RR/4,1,68.3,,SingleTrack Jacket,E9147,E9147RR,Rust Red,M,Hardshell Jackets,5055939959528,
E9147RR/5,1,68.3,,SingleTrack Jacket,E9147,E9147RR,Rust Red,L,Hardshell Jackets,5055939959535,
E9147RR/6,1,68.3,,SingleTrack Jacket,E9147,E9147RR,Rust Red,XL,Hardshell Jackets,5055939959542,
E3133AN/5,1,36.6,,Hummvee Hoodie,E3133,E3133AN,Anthracite,L,L/S Shirts & Jerseys,5055939957081,
E3151GF/5,1,11.9,,One Clan Raglan L/S,E3151,E3151GF,Forest Green,L,L/S Shirts & Jerseys,5055939957210,
E3151GY/5,1,0,27.99,One Clan Raglan L/S,E3151,E3151GY,Grey,L,L/S Shirts & Jerseys,5055939938844,
E3181BK/4,1,48.8,,FS260-Pro Jetstream L/S Jersey II,E3181,E3181BK,Black,M,L/S Shirts & Jerseys,5055939958194,
E3181BK/5,1,48.8,,FS260-Pro Jetstream L/S Jersey II,E3181,E3181BK,Black,L,L/S Shirts & Jerseys,5055939958200,
E3181BK/6,1,48.8,,FS260-Pro Jetstream L/S Jersey II,E3181,E3181BK,Black,XL,L/S Shirts & Jerseys,5055939958217,
E3181RR/5,1,48.8,,FS260-Pro Jetstream L/S Jersey II,E3181,E3181RR,Rust Red,L,L/S Shirts & Jerseys,5055939958309,
E3153GK/5,1,10.6,,One Clan Carbon T,E3153,E3153GK,Kingfisher,L,S/S Shirts & Jerseys,5055939956602,
E3159GY/5,1,10.6,,One Clan Carbon Icon T,E3159,E3159GY,Grey,L,S/S Shirts & Jerseys,5055939956664,
E3161BK/4,1,25.8,52.99,Engineered Baselayer,E3161,E3161BK,Black,M,L/S Baselayers,5055939944968,
E3161BK/5,1,25.8,52.99,Engineered Baselayer,E3161,E3161BK,Black,L,L/S Baselayers,5055939944975,
E3161BK/6,1,25.8,52.99,Engineered Baselayer,E3161,E3161BK,Black,XL,L/S Baselayers,5055939944982,
E3183BK/3,1,24.4,,BaaBaa Blend L/S Baselayer,E3183,E3183BK,Black,S,L/S Baselayers,5055939959290,
E3183BK/4,1,24.4,,BaaBaa Blend L/S Baselayer,E3183,E3183BK,Black,M,L/S Baselayers,5055939959306,
E3183BK/5,1,24.4,,BaaBaa Blend L/S Baselayer,E3183,E3183BK,Black,L,L/S Baselayers,5055939959313,
E8064BK/3,1,31.8,64.99,Hummvee Short II with liner,E8064,E8064BK,Black,S,Baggy Shorts,5055939915975,
E8064BK/4,1,31.8,64.99,Hummvee Short II with liner,E8064,E8064BK,Black,M,Baggy Shorts,5055939915982,
E8064BK/5,1,31.8,64.99,Hummvee Short II with liner,E8064,E8064BK,Black,L,Baggy Shorts,5055939915999,
E8064BK/6,1,31.8,64.99,Hummvee Short II with liner,E8064,E8064BK,Black,XL,Baggy Shorts,5055939916002,
E8064KH/4,1,31.8,64.99,Hummvee Short II with liner,E8064,E8064KH,Khaki,M,Baggy Shorts,5055939916064,
E8064KH/5,1,31.8,64.99,Hummvee Short II with liner,E8064,E8064KH,Khaki,L,Baggy Shorts,5055939916071,
E8089BK/4,1,28.3,57.99,SingleTrack Sport Pant,E8089,E8089BK,Black,M,Tights,5055939944388,
E1505GY/S-M,1,20.1,49.99,Hummvee Helmet,E1505,E1505GY,Grey,S-M,Helmets,5055939930114,
E1505GY/M-L,1,20.1,49.99,Hummvee Helmet,E1505,E1505GY,Grey,M-L,Helmets,5055939930107,
E1505KH/S-M,1,20.1,49.99,Hummvee Helmet,E1505,E1505KH,Khaki,S-M,Helmets,5055939951294,
E1505KH/M-L,1,20.1,49.99,Hummvee Helmet,E1505,E1505KH,Khaki,M-L,Helmets,5055939951300,
E1505MB/M-L,1,20.1,49.99,Hummvee Helmet,E1505,E1505MB,Matt Black,M-L,Helmets,5055939904481,
E1511BK/S-M,1,39,79.99,SingleTrack Helmet II,E1511,E1511BK,Black,S-M,Helmets,5055939930145,
E1511BK/M-L,1,39,79.99,SingleTrack Helmet II,E1511,E1511BK,Black,M-L,Helmets,5055939930138,
E1511KH/S-M,1,39,79.99,SingleTrack Helmet II,E1511,E1511KH,Khaki,S-M,Helmets,5055939950389,
E1511KH/M-L,1,39,79.99,SingleTrack Helmet II,E1511,E1511KH,Khaki,M-L,Helmets,5055939950396,
E1226BK/0,2,12.2,,BaaBaa Merino Skullcap II,E1226,E1226BK,Black,One size,Head warmer,5055939959399,
E1224BK/4,1,13.7,,FS260-Pro Thermo Glove,E1224,E1224BK,Black,M,Long finger gloves,5055939966274,
E1224BK/5,1,13.7,,FS260-Pro Thermo Glove,E1224,E1224BK,Black,L,Long finger gloves,5055939966281,
E1224BK/6,1,13.7,,FS260-Pro Thermo Glove,E1224,E1224BK,Black,XL,Long finger gloves,5055939966298,
E1234BK/S-M,1,5.8,,BaaBaa Merino Stripe Sock,E1234,E1234BK,Black,S-M,Lightweight,5055939966816,
E1234BK/L-XL,1,5.8,,BaaBaa Merino Stripe Sock,E1234,E1234BK,Black,L-XL,Lightweight,5055939966823,
E1234GF/S-M,1,5.8,,BaaBaa Merino Stripe Sock,E1234,E1234GF,Forest Green,S-M,Lightweight,5055939966830,
E1234GF/L-XL,1,5.8,,BaaBaa Merino Stripe Sock,E1234,E1234GF,Forest Green,L-XL,Lightweight,5055939966847,
E1234RD/S-M,1,5.8,,BaaBaa Merino Stripe Sock,E1234,E1234RD,Red,S-M,Lightweight,5055939966854,
E1234RD/L-XL,1,5.8,,BaaBaa Merino Stripe Sock,E1234,E1234RD,Red,L-XL,Lightweight,5055939966861,
