SKU,Maximum allowed,Barcode/EAN,Days left
E0110BK,5,5055205367224       ,8
E0110BP/0,5,5055939959726       ,8
E0110PK,5,5055205367231       ,8
E0110RR/0,5,5055939959719       ,8
E0110UM,5,5055205367248       ,8
E0110YM/0,5,5055939959702       ,8
E0128BK/3,1,5055939904924       ,8
E0128BK/4,2,5055939904931       ,8
E0128BK/5,3,5055939904948       ,8
E0128BK/6,2,5055939904955       ,8
E0128BK/7,1,5055939904962       ,8
E0128YV/3,1,5055939909615       ,8
E0128YV/4,2,5055939909622       ,8
E0128YV/5,3,5055939909639       ,8
E0128YV/6,2,5055939909646       ,8
E1184BK/4,1,5055939944432       ,8
E1184BK/5,2,5055939944449       ,8
E1184BK/6,2,5055939944456       ,8
E1184BK/7,1,5055939944463       ,8
E1184GF/4,1,5055939959573       ,8
E1184GF/5,2,5055939959580       ,8
E1184GF/6,2,5055939959597       ,8
E1184GF/7,1,5055939959603       ,8
E1185BK/4,1,5055939944531       ,8
E1185BK/5,2,5055939944548       ,8
E1185BK/6,2,5055939944555       ,8
E1185BK/7,1,5055939944562       ,8
E1185GV/4,1,5055939944586       ,8
E1185GV/5,2,5055939944593       ,8
E1185GV/6,2,5055939944609       ,8
E1185GV/7,1,5055939944616       ,8
E1186BK/2,1,5055939945248       ,8
E1186BK/3,2,5055939944623       ,8
E1186BK/4,3,5055939944630       ,8
E1186BK/5,3,5055939944647       ,8
E1186GV/3,1,5055939944678       ,8
E1186GV/4,2,5055939944685       ,8
E1186GV/5,2,5055939944692       ,8
E1224BK/2,1,5055939958798       ,8
E1224BK/3,1,5055939958804       ,8
E1224BK/4,2,5055939966274       ,8
E1224BK/5,2,5055939966281       ,8
E1227GK/L-XL,4,5055939966328       ,8
E1227GK/S-M,3,5055939960616       ,8
E1227RR/L-XL,4,5055939966335       ,8
E1227RR/S-M,3,5055939960609       ,8
E1234BK/L-XL,4,5055939966823       ,8
E1234BK/S-M,3,5055939966816       ,8
E1234GF/L-XL,4,5055939966847       ,8
E1234GF/S-M,3,5055939966830       ,8
E1234RD/L-XL,4,5055939966861       ,8
E1234RD/S-M,3,5055939966854       ,8
E3158BK/3,1,5055939942414       ,8
E3158BK/4,2,5055939942421       ,8
E3158BK/5,1,5055939942438       ,8
E3158BK/6,1,5055939942445       ,8
E5049BK/3,1,5055939924526       ,8
E5049BK/4,2,5055939924533       ,8
E5049BK/5,2,5055939924540       ,8
E5049BK/6,1,5055939924557       ,8
E5055BK/4,1,5055939941486       ,8
E5055BK/5,2,5055939941493       ,8
E5055BK/6,2,5055939941509       ,8
E5055BK/7,1,5055939941516       ,8
E5056BK/3,1,5055939941820       ,8
E5056BK/4,2,5055939941837       ,8
E5056BK/5,3,5055939941844       ,8
E5056BK/6,2,5055939941851       ,8
E5056BK/7,1,5055939941868       ,8
E8073BK/4,1,5055939924670       ,8
E8073BK/5,2,5055939924687       ,8
E8073BK/6,2,5055939924694       ,8
E8073BK/7,1,5055939924700       ,8
E8074BK/4,2,5055939924724       ,8
E8100BK/4,1,5055939959146       ,8
E8100BK/5,2,5055939959153       ,8
E8100BK/6,1,5055939959160       ,8
E9102GV/3,1,5055939925561       ,8
E9102GV/4,2,5055939925578       ,8
E9102GV/5,2,5055939925585       ,8
E9102GV/6,1,5055939925592       ,8
E9102RD/4,1,5055939925479       ,8
E9102RD/5,2,5055939925486       ,8
E9102RD/6,1,5055939925493       ,8
E9144BK/6,1,5055939957586       ,8
EM0057BK/3,1,5055939925943       ,8
EM0057BK/4,2,5055939925950       ,8
EM0057BK/5,2,5055939925967       ,8
EM0057BK/6,1,5055939925974       ,8
EM0057BK/7,1,5055939925981       ,8
EM0057BU/4,1,5055939946085       ,8
EM0057BU/5,2,5055939946092       ,8
EM0057BU/6,1,5055939946108       ,8
E3123GF/5,2,5055939948515       ,34
E0128YV/7,1,5055939909653       ,41
E0152BK/L-XL,3,5055939958125       ,41
E0152BK/S-M,3,5055939958118       ,41
E0154BK/L-XL,3,5055939965987       ,41
E0154BK/S-M,3,5055939958149       ,41
E1186BK/6,2,5055939944654       ,41
E1186BK/7,1,5055939944661       ,41
E1186GV/6,1,5055939944708       ,41
E1223BK/L-XL,3,5055939958613       ,41
E1223BK/S-M,3,5055939958606       ,41
E1224BK/6,1,5055939966298       ,41
E1224BK/7,1,5055939966304       ,41
E1518GF/M-L,1,5055939948928       ,41
E3123GF/5,2,5055939948515       ,41
E3123GF/6,2,5055939948522       ,41
E3177BK/3,1,5055939957708       ,41
E3177BK/4,2,5055939957715       ,41
E3177BK/5,2,5055939957722       ,41
E3177BK/6,1,5055939957739       ,41
E3181NA/3,1,5055939958231       ,41
E3181NA/4,2,5055939958248       ,41
E3181NA/5,1,5055939958255       ,41
E3181NA/6,1,5055939958262       ,41
E8074BK/3,1,5055939924717       ,41
E8074BK/5,2,5055939924731       ,41
E8074BK/6,1,5055939924748       ,41
E9122BK/4,1,5055939945378       ,41
E9122BK/5,2,5055939945385       ,41
E9122BK/6,1,5055939945392       ,41
E9143BK/3,1,5055939957456       ,41
E9143BK/4,2,5055939957463       ,41
E9143BK/5,2,5055939957470       ,41
E9143BK/6,1,5055939957487       ,41
E9143GK/4,2,5055939957517       ,41
E9143GK/5,1,5055939957524       ,41
E9144BK/3,1,5055939957555       ,41
E9144BK/4,2,5055939957562       ,41
E9144BK/5,1,5055939957579       ,41
E9149BP/2,1,5055939960043       ,41
E9149BP/3,2,5055939960050       ,41
E9149BP/4,1,5055939960067       ,41
E1042BK/L-XL,6,5055939923857       ,48
E1042BK/S-M,3,5055939923864       ,48
E1043BK/L-XL,6,5055939923871       ,48
E1043BK/S-M,3,5055939923888       ,48
E1506BK/L-XL,1,5055939920061       ,48
E3168BK/7,1,5055939954202       ,48
E9106BK/7,1,5055939935294       ,48
E9117OM/5,1,5055939942285       ,48
E9117OM/6,1,5055939942292       ,48
E9138GC/3,4,5055939949048       ,48
E9138GC/4,2,5055939949055       ,48
E9138GC/5,2,5055939949062       ,48
E9138GC/6,4,5055939949079       ,48
E9138GC/7,4,5055939949086       ,48
E1195BK/M-L,4,5055939956503       ,82
E1507GY/M-L,2,5055939923215       ,82
E3123GF/4,1,5055939948508       ,82
E3123GF/7,1,5055939948539       ,82
E8093BK/4,1,5055939948782       ,82
E8093BK/5,2,5055939948799       ,82
E8093BK/6,1,5055939948805       ,82
E9117CC/4,1,5055939960937       ,82
E9117CC/5,1,5055939960944       ,82
E9117CC/6,1,5055939960951       ,82
E9117YM/3,1,5055939960982       ,82
E9117YM/4,1,5055939960999       ,82
E9117YM/5,1,5055939961002       ,82
E9122BK/7,1,5055939945408       ,82
E9143GK/3,1,5055939957500       ,82
E9145BK/3,1,5055939959085       ,82
E9145BK/4,2,5055939959092       ,82
E9145BK/5,1,5055939959108       ,82
E9145BK/6,1,5055939959115       ,82
E9147GF/3,1,5055939959412       ,82
E9147GF/4,2,5055939959429       ,82
E9147GF/5,2,5055939959436       ,82
E9147GF/6,1,5055939959443       ,82
E9150GK/2,1,5055939960395       ,82
E9150GK/3,2,5055939960401       ,82
E9150GK/4,1,5055939960418       ,82
E0061/3,3,5055205323732       ,110
E0061/4,4,5055205323749       ,110
E0061/5,4,5055205323756       ,110
E0062/3,3,5055205323763       ,110
E0062/4,4,5055205323770       ,110
E0062/5,4,5055205323787       ,110
E0062/6,3,5055205323794       ,110
E1157BK/L-XL,5,5055939928418       ,110
E1157BK/S-M,5,5055939928425       ,110
E1158BK/L-XL,5,5055939928432       ,110
E1196BK/L-XL,2,5055939948874       ,110
E1196BK/S-M,2,5055939948867       ,110
E1506BK/S-M,1,5055939920047       ,110
E3123GF/4,1,5055939948508       ,110
E7132BK/K11,2,5055939949994       ,110
E7132BK/K9,2,5055939949987       ,110
E1157BK/L-XL,5,5055939928418       ,112
E1158BK/L-XL,5,5055939928432       ,112
E1196BK/S-M,4,5055939948867       ,112
E1505WH/M-L,1,5055939904559       ,112
E7132BK/K11,5,5055939949994       ,112
E7132BK/K9,5,5055939949987       ,112
E1196BK/S-M,1,5055939948867       ,156
E1506BK/L-XL,1,5055939920061       ,156
E1506BK/S-M,1,5055939920047       ,156
E0060/4,2,5055205323688       ,166
E0060/5,3,5055205323695       ,166
E0060/6,2,5055205323701       ,166
E0060/7,2,5055205323718       ,166
E1155BK/L-XL,5,5055939928388       ,166
E1155BK/S-M,5,5055939928395       ,166
E9102BK/5,1,5055939925530       ,166
E9102BK/6,1,5055939925547       ,166
E9102BK/7,2,5055939925554       ,166
E9122BK/5,1,5055939945385       ,166
E9122BK/6,2,5055939945392       ,166
E9122BK/7,2,5055939945408       ,166
EM0057BU/6,2,5055939946108       ,166
E0060/3,2,5055205323671       ,187
E0060/4,3,5055205323688       ,187
E0060/5,4,5055205323695       ,187
E0060/6,3,5055205323701       ,187
E0060/7,2,5055205323718       ,187
E0061/2,1,5055205323725       ,187
E0061/3,2,5055205323732       ,187
E0061/4,3,5055205323749       ,187
E0061/5,2,5055205323756       ,187
E0062/3,1,5055205323763       ,187
E0062/4,1,5055205323770       ,187
E0062/5,2,5055205323787       ,187
E0062/6,1,5055205323794       ,187
E0063/2,1,5055205323817       ,187
E0063/3,2,5055205323824       ,187
E0063/4,3,5055205323831       ,187
E0063/5,2,5055205323848       ,187
E0063/6,1,5055205370842       ,187
E1160BK/3,1,5055939928494       ,187
E1160BK/4,2,5055939928500       ,187
E1160BK/5,3,5055939928517       ,187
E1160BK/6,2,5055939928524       ,187
E1160BK/7,1,5055939928531       ,187
E1160KH/3,1,5055939928555       ,187
E1160KH/7,1,5055939928593       ,187
E1160RD/3,1,5055939928616       ,187
E1160RD/5,3,5055939928630       ,187
E1160RD/6,2,5055939928647       ,187
E1165BK/3,1,5055939928845       ,187
E1165BK/4,2,5055939928852       ,187
E1165BK/5,3,5055939928869       ,187
E1165BK/6,2,5055939928876       ,187
E1165BK/7,1,5055939928883       ,187
E1165GV/3,1,5055939928890       ,187
E1165GV/4,2,5055939928906       ,187
E1165GV/5,3,5055939928913       ,187
E1165GV/6,2,5055939928920       ,187
E1165GV/7,1,5055939928937       ,187
E1165OC/3,1,5055939928944       ,187
E1165OC/4,2,5055939928951       ,187
E1165OC/5,3,5055939928968       ,187
E1165OC/6,2,5055939928975       ,187
E1165OC/7,1,5055939928982       ,187
E1165RD/3,1,5055939929002       ,187
E1165RD/4,2,5055939929019       ,187
E1165RD/5,3,5055939929026       ,187
E1165RD/6,2,5055939929033       ,187
E1165RD/7,1,5055939929040       ,187
E1166NA/4,1,5055939952734       ,187
E1166NA/5,2,5055939952741       ,187
E1166NA/6,2,5055939952758       ,187
E1166NA/7,1,5055939952765       ,187
E1166RR/4,1,5055939974910       ,187
E1166RR/5,2,5055939974927       ,187
E1166RR/6,2,5055939974934       ,187
E1166RR/7,1,5055939974941       ,187
E1168BK/4,1,5055939929484       ,187
E1168BK/5,2,5055939929491       ,187
E1168BK/6,2,5055939929507       ,187
E1168BK/7,1,5055939929514       ,187
E1168NA/4,1,5055939929583       ,187
E1168NA/5,2,5055939929590       ,187
E1168OT/4,1,5055939971582       ,187
E1168OT/5,2,5055939971599       ,187
E1168OT/6,2,5055939971605       ,187
E1168OT/7,1,5055939971612       ,187
E1202BK/L-XL,2,5055939949918       ,187
E1202BK/S-M,2,5055939949901       ,187
E1202GF/L-XL,2,5055939949932       ,187
E1202GF/S-M,2,5055939949925       ,187
E1254BK/L-XL,1,5055939971797       ,187
E1254BK/M-L,2,5055939971780       ,187
E1254BK/S-M,1,5055939971773       ,187
E1258BK/4,1,5055939972619       ,187
E1258BK/5,2,5055939972626       ,187
E1258BK/6,2,5055939972633       ,187
E1258BK/7,1,5055939972640       ,187
E1259BK/4,1,5055939975603       ,187
E1259BK/5,2,5055939975610       ,187
E1259BK/6,2,5055939975627       ,187
E1259BK/7,1,5055939975634       ,187
E1259GK/4,1,5055939975665       ,187
E1259GK/5,2,5055939975672       ,187
E1259GK/6,2,5055939975689       ,187
E1259GK/7,1,5055939975696       ,187
E1263BK/L-XL,3,5055939977584       ,187
E1263BK/S-M,3,5055939977577       ,187
E1263WH/L-XL,3,5055939978444       ,187
E1263WH/S-M,3,5055939978437       ,187
E1264GK/L-XL,4,5055939977645       ,187
E1264GK/S-M,4,5055939977638       ,187
E1264RR/L-XL,4,5055939978420       ,187
E1264RR/S-M,4,5055939978413       ,187
E1505BA/L-XL,1,5055939978154       ,187
E1505BA/M-L,2,5055939978147       ,187
E1505BA/S-M,1,5055939978130       ,187
E1505GY/L-XL,1,5055939930091       ,187
E1505GY/M-L,2,5055939930107       ,187
E1505GY/S-M,1,5055939930114       ,187
E1505KH/L-XL,1,5055939951317       ,187
E1505KH/M-L,2,5055939951300       ,187
E1505KH/S-M,1,5055939951294       ,187
E1505MB/L-XL,1,5055939904474       ,187
E1505MB/M-L,2,5055939904481       ,187
E1505MB/S-M,1,5055939904498       ,187
E1505OR/L-XL,1,5055939904504       ,187
E1505OR/M-L,2,5055939904511       ,187
E1505OR/S-M,1,5055939904528       ,187
E1505RD/L-XL,1,5055939951287       ,187
E1505RD/M-L,2,5055939951270       ,187
E1505RD/S-M,1,5055939951263       ,187
E1505WH/L-XL,1,5055939904542       ,187
E1505WH/M-L,2,5055939904559       ,187
E1505WH/S-M,1,5055939904566       ,187
E1511BA/M-L,1,5055939971636       ,187
E1511BA/S-M,1,5055939971629       ,187
E1511BK/L-XL,1,5055939930121       ,187
E1511BK/M-L,1,5055939930138       ,187
E1511BK/S-M,1,5055939930145       ,187
E1511KH/M-L,1,5055939950396       ,187
E1511KH/S-M,1,5055939950389       ,187
E1511RR/M-L,1,5055939959627       ,187
E1511RR/S-M,1,5055939959610       ,187
E1511WH/M-L,1,5055939930190       ,187
E1511WH/S-M,1,5055939930206       ,187
E1518GF/M-L,1,5055939948928       ,187
E3061W/3,1,5055205342467       ,187
E3061W/4,2,5055205342474       ,187
E3061W/5,2,5055205342481       ,187
E3061W/6,1,5055205342498       ,187
E3154BV/3,1,5055939956763       ,187
E3154BV/4,2,5055939956770       ,187
E3154BV/5,2,5055939956787       ,187
E3154BV/6,1,5055939956794       ,187
E3154GF/3,1,5055939956824       ,187
E3154GF/4,2,5055939956831       ,187
E3154GF/5,2,5055939956848       ,187
E3154GF/6,1,5055939956855       ,187
E3167BK/L-XL,3,5055939954127       ,187
E3167BK/S-M,3,5055939954110       ,187
E3167WH/L-XL,3,5055939954073       ,187
E3167WH/S-M,3,5055939954066       ,187
E3168BK/3,2,5055939954165       ,187
E3168BK/5,4,5055939954189       ,187
E3168BK/6,3,5055939954196       ,187
E3168BK/7,2,5055939954202       ,187
E3169BK/2,1,5055939954219       ,187
E3169BK/3,2,5055939954226       ,187
E3169BK/5,1,5055939954240       ,187
E3189BA/3,1,5055939972343       ,187
E3189BA/4,2,5055939972350       ,187
E3189BA/5,2,5055939972367       ,187
E3189BA/6,1,5055939972374       ,187
E3189CC/3,1,5055939972442       ,187
E3189CC/4,2,5055939972459       ,187
E3189CC/5,2,5055939972466       ,187
E3189CC/6,1,5055939972473       ,187
E3190PS/4,1,5055939974309       ,187
E3190PS/5,2,5055939974316       ,187
E3190PS/6,1,5055939974323       ,187
E3191PS/4,1,5055939974484       ,187
E3191PS/5,2,5055939974491       ,187
E3191PS/6,1,5055939974507       ,187
E3192WH/3,1,5055939974781       ,187
E3192WH/4,2,5055939974798       ,187
E3192WH/5,2,5055939974804       ,187
E3192WH/6,1,5055939974811       ,187
E3193BK/3,1,5055939975771       ,187
E3193BK/4,2,5055939975788       ,187
E3193BK/5,2,5055939975795       ,187
E3193BK/6,1,5055939975801       ,187
E3193BK/7,1,5055939975818       ,187
E3193YV/3,1,5055939975832       ,187
E3193YV/4,2,5055939975849       ,187
E3193YV/5,2,5055939975856       ,187
E3193YV/6,1,5055939975863       ,187
E3193YV/7,1,5055939975870       ,187
E4054BK/3,1,5055939953168       ,187
E4054BK/4,2,5055939953175       ,187
E4054BK/5,3,5055939953182       ,187
E4054BK/6,2,5055939953199       ,187
E4054BK/7,1,5055939953205       ,187
E4055BK/3,1,5055939953069       ,187
E4055BK/4,2,5055939953076       ,187
E4055BK/5,3,5055939953083       ,187
E4055BK/6,2,5055939953090       ,187
E4055BK/7,1,5055939953106       ,187
E4068BV/3,1,5055939975474       ,187
E4068BV/4,2,5055939975481       ,187
E4068BV/5,2,5055939975498       ,187
E4068BV/6,1,5055939975504       ,187
E5069GK/4,1,5055939951645       ,187
E5069GK/5,2,5055939951652       ,187
E5069GK/6,1,5055939951669       ,187
E6106GK/2,1,5055939973661       ,187
E6106GK/3,2,5055939973678       ,187
E6106GK/4,2,5055939973685       ,187
E6106GK/5,1,5055939973692       ,187
E6132BK/2,1,5055939933719       ,187
E6132BK/3,2,5055939933726       ,187
E6132BK/4,2,5055939933733       ,187
E6132BK/5,1,5055939933740       ,187
E6153BK/2,1,5055939953274       ,187
E6153BK/3,2,5055939953281       ,187
E6153BK/4,3,5055939953298       ,187
E6153BK/5,2,5055939953304       ,187
E6153BK/6,1,5055939953311       ,187
E6171BK/2,1,5055939973555       ,187
E6171BK/3,2,5055939973562       ,187
E6171BK/4,2,5055939973579       ,187
E6171BK/5,1,5055939973586       ,187
E6174CV/3,1,5055939976112       ,187
E6174CV/4,1,5055939976129       ,187
E6174CV/5,1,5055939976136       ,187
E6174WH/5,1,5055939976181       ,187
E6187GK/3,1,5055939977539       ,187
E6187GK/4,2,5055939977546       ,187
E6187GK/5,1,5055939977553       ,187
E7117NA/3,1,5055939955049       ,187
E7117NA/4,2,5055939955056       ,187
E7117NA/5,2,5055939955063       ,187
E7117NA/6,1,5055939955070       ,187
E7117RD/3,1,5055939917887       ,187
E7117RD/4,2,5055939917894       ,187
E7117RD/5,2,5055939917900       ,187
E7117RD/6,1,5055939917917       ,187
E7117WH/3,1,5055939917061       ,187
E7117WH/4,2,5055939917078       ,187
E7117WH/5,2,5055939917085       ,187
E7117WH/6,1,5055939917092       ,187
E7118BK/4,1,5055939914886       ,187
E7118BK/5,2,5055939914893       ,187
E7118BK/6,2,5055939914909       ,187
E7118BK/7,1,5055939914916       ,187
E7120BK/3,1,5055939915494       ,187
E7120BK/4,2,5055939915500       ,187
E7120BK/5,3,5055939915517       ,187
E7120BK/6,2,5055939915524       ,187
E7120BK/7,1,5055939915531       ,187
E7127BK/4,1,5055939934365       ,187
E7127BK/5,1,5055939934372       ,187
E7127RD/4,2,5055939934396       ,187
E7128BK/0,5,5055939934419       ,187
E7128GY/0,5,5055939934426       ,187
E7128KH/0,5,5055939951324       ,187
E7128OT/0,5,5055939977461       ,187
E7140BA/K11,2,5055939960647       ,187
E7140GY/K11,2,5055939960678       ,187
E8064BC/3,1,5055939936772       ,187
E8064BC/4,2,5055939936789       ,187
E8064BC/5,3,5055939936796       ,187
E8064BC/6,2,5055939936802       ,187
E8064BC/7,1,5055939936819       ,187
E8064GC/3,1,5055939950969       ,187
E8064GC/4,2,5055939950976       ,187
E8064GC/5,3,5055939950983       ,187
E8064GC/6,2,5055939950990       ,187
E8064GC/7,1,5055939951003       ,187
E8064GY/3,1,5055939916217       ,187
E8064GY/4,2,5055939916224       ,187
E8064GY/5,3,5055939916231       ,187
E8064GY/6,2,5055939916248       ,187
E8064GY/7,1,5055939916255       ,187
E8091BK/4,1,5055939948256       ,187
E8091BK/5,1,5055939948263       ,187
E8091BK/6,1,5055939948270       ,187
E8092GF/3,1,5055939948393       ,187
E8092GF/4,2,5055939948409       ,187
E8092GF/5,1,5055939948416       ,187
E8093BK/3,1,5055939948775       ,187
E8093BK/4,2,5055939948782       ,187
E8093BK/5,2,5055939948799       ,187
E8093BK/6,1,5055939948805       ,187
E8101CC/3,1,5055939970776       ,187
E8101CC/4,2,5055939970783       ,187
E8101CC/5,2,5055939970790       ,187
E8101CC/6,1,5055939970806       ,187
E8103BA/S4,1,5055939978932       ,187
E8104BA/3,1,5055939972015       ,187
E8104BA/4,2,5055939972022       ,187
E8104BA/5,2,5055939972039       ,187
E8104BA/6,1,5055939972046       ,187
E8104BK/3,1,5055939972060       ,187
E8104BK/4,2,5055939972077       ,187
E8104BK/5,2,5055939972084       ,187
E8104BK/6,1,5055939972091       ,187
E9117CC/3,1,5055939960920       ,187
E9117CC/4,1,5055939960937       ,187
E9117CC/5,1,5055939960944       ,187
E9147NA/3,1,5055939959467       ,187
E9147NA/4,2,5055939959474       ,187
E9147NA/5,2,5055939959481       ,187
E9147NA/6,1,5055939959498       ,187
E9147RR/3,1,5055939959511       ,187
E9147RR/4,2,5055939959528       ,187
E9147RR/5,2,5055939959535       ,187
E9147RR/6,1,5055939959542       ,187
E9151YV/3,1,5055939975955       ,187
E9151YV/4,2,5055939975962       ,187
E9151YV/5,2,5055939975979       ,187
E9151YV/6,1,5055939975986       ,187
E9151YV/7,1,5055939975993       ,187
E6174WH/3,1,5055939976167       ,188
E6174WH/4,2,5055939976174       ,188
E3168BK/4,3,5055939954172       ,189
E3169BK/4,2,5055939954233       ,189
E7127RD/3,1,5055939934389       ,190
E7127RD/5,1,5055939934402       ,190
