SKU,Maximum allowed,Barcode/EAN,Days left
E8064BC/3,1,5055939936772       ,15
E8064BC/4,2,5055939936789       ,15
E0128BK/4,1,5055939904931       ,95
E0128BK/5,1,5055939904948       ,95
E0128BK/6,1,5055939904955       ,95
E1112BK/L-XL,2,5055205384689       ,95
E1112BK/S-M,1,5055205384672       ,95
E1187BK/5,1,5055939944784       ,95
E1187BK/6,1,5055939944791       ,95
E9098BK/5,1,5055939942896       ,95
E9098BK/6,1,5055939942902       ,95
E9106BK/3,1,5055939935256       ,95
E9106BK/4,1,5055939935263       ,95
E9106BK/5,1,5055939935270       ,95
E9106BK/6,1,5055939935287       ,95
E9106BK/7,1,5055939935294       ,95
EM0053NA/4,1,5055939907932       ,95
EM0053NA/5,1,5055939907949       ,95
E9113BK/4,1,5055939941134       ,111
E0066BK,1,5055205340234       ,129
E0091BK,1,5055205344072       ,129
E1112BK/L-XL,2,5055205384689       ,129
E1112BK/S-M,1,5055205384672       ,129
E1138WH/0,1,5055939901374       ,129
E8088BK/5,1,5055939943176       ,129
E8088BK/6,1,5055939943183       ,129
E1181BK/4,1,5055939942520       ,164
E1181BK/5,1,5055939942537       ,164
E1181BK/6,1,5055939942544       ,164
E1118BK/5,2,5055205389981       ,174
E1118BK/6,2,5055205389998       ,174
