E7110BK/K11,1
E0095/6,1
E0095/5,1
E1120BK/5,1
E8073BK/5,1
E9102RD/5,1
E9102RD/6,1
E1160BK/4,1
E0006/5,1
E1146BK/S-M,1
E8073BK/3,1
E9120KH/7,1
E8089BK/4,1
E8088BK/4,1
E5056BK/4,1
E7112BK/K7,1
E1154BK/L-XL,1
E8084BK/6,1
E1154BK/XL-XXL,1
