SKU,Maximum allowed,Barcode/EAN,Days left
E0003/M-L,2,5055205300139       ,3
E0003/S-M,1,5055205300146       ,3
E0095/4,1,5055205344331       ,3
E0095/5,1,5055205344348       ,3
E0095/6,1,5055205344355       ,3
E0095GV/4,1,5055205376639       ,3
E0095GV/5,1,5055205376646       ,3
E0127BK/4,1,5055939904825       ,3
E0127BK/5,1,5055939904832       ,3
E0127BK/6,1,5055939904849       ,3
E1145BK/3,1,5055939908182       ,3
E1145BK/4,1,5055939908199       ,3
E1145BK/5,1,5055939908205       ,3
E1145BK/6,1,5055939908212       ,3
E1186BK/4,1,5055939944630       ,3
E1186BK/5,1,5055939944647       ,3
E1186BK/6,1,5055939944654       ,3
E6105CE/3,1,5055939918402       ,3
E6105CE/4,1,5055939918419       ,3
E6105WH/3,1,5055939918440       ,3
E9095BK/3,1,5055939918051       ,3
E9095BK/4,1,5055939918068       ,3
E9098BK/3,1,5055939942872       ,3
E9098BK/4,1,5055939942889       ,3
E9105BK/3,1,5055939925790       ,3
E9105BK/4,1,5055939925806       ,3
E9106BV/3,1,5055939941370       ,3
E9106BV/4,1,5055939941387       ,3
E9108CE/3,1,5055939935553       ,3
E1186GV/4,1,5055939944685       ,12
E1186GV/5,1,5055939944692       ,12
E1186GV/6,1,5055939944708       ,12
E6147CE/3,2,5055939945477       ,12
E6147CE/4,1,5055939945484       ,12
E6147CE/5,1,5055939945491       ,12
E9118PW/3,1,5055939942636       ,47
E9118PW/4,1,5055939942643       ,47
E9113BK/3,1,5055939941127       ,59
E9113BK/4,1,5055939941134       ,59
E9113BV/4,1,5055939941189       ,59
