E0045,1
E0110BK,1
E0128BK/3,1
E1038BK/S-M,2
E1166RD/4,1
E1188BK/6,1
E1216BV/5,2
E1223BK/L-XL,1
E1223BK/S-M,1
E1224BK/4,1
E3142BK/4,1
E3142RR/4,2
E6066BK/4,1
E7118BK/4,2
E8076BK/3,1
E8076BK/5,1
E8077BK/5,1
E8092GF/3,1
E9114BV/5,1
E9138GC/4,1
