E0045,2
E0098YV/S-M,1
E1160BK/4,2
E1160BK/5,1
E1160KH/4,1
E1165BK/4,2
E1165BK/5,1
E1165OC/4,1
E1165OC/6,1
E1165OC/7,1
E1166RD/5,1
E1186BK/3,1
E1186BK/5,1
E1196BK/M-L,1
E1204GC/6,1
E3173BK/4,1
E3173GF/4,1
E3174NA/6,1
E4055BK/5,2
E6108BK/3,1
E6120BK/3,1
E6127BP/3,1
E8064BK/3,1
E8092GF/4,1
EM0053OM/4,1
