E0048,1
E0098YV/L-XL,1
E1160KH/4,1
E1160KH/7,2
E1165BK/5,1
E1165BK/6,1
E1165GV/4,1
E1165OC/4,1
E1165OC/6,2
E1166BK/4,1
E1166BK/5,1
E1166RD/5,1
E1166RD/6,1
E1186BK/5,1
E1205BV/L-XL,1
E1205RD/S-M,1
E3142NA/4,1
E3142NA/5,1
E4031BK/4,1
E4054BK/4,2
E4055BK/4,1
E4055BK/5,4
E5073BA/5,1
E6120BK/2,1
E6120BK/3,1
E6132BK/4,1
E7117BK/5,1
E7117BK/6,1
E8064BC/5,1
E8064BK/5,2
E8064BK/7,1
E8064BK/9,1
E8064NA/4,1
E8064NA/5,2
E8064NA/7,1
E9106BK/5,1
