INVOICE,SIN591422
YOUR REF,SS2019
DATE,28/02/2019
VALUE,2615.82


SKU,Qty,Value,Name,Colour,Size
E9114GV/3       ,1,36.66,Xtract Jacket II,Hi-Viz Green,S
E9114GV/4       ,1,36.66,Xtract Jacket II,Hi-Viz Green,M
E9114GV/5       ,1,36.66,Xtract Jacket II,Hi-Viz Green,L
E9114GV/6       ,1,36.66,Xtract Jacket II,Hi-Viz Green,XL
E9114GV/7       ,1,36.66,Xtract Jacket II,Hi-Viz Green,XXL
E3125NA/3       ,1,20.59,Hummvee S/S Jersey,Navy,S
E3125NA/4       ,1,20.59,Hummvee S/S Jersey,Navy,M
E3125NA/5       ,1,20.59,Hummvee S/S Jersey,Navy,L
E3125NA/6       ,1,20.59,Hummvee S/S Jersey,Navy,XL
E3172NA/3       ,1,15.98,SingleTrack Print T - LTD,Navy,S
E3172NA/4       ,2,31.96,SingleTrack Print T - LTD,Navy,M
E3172NA/5       ,2,31.96,SingleTrack Print T - LTD,Navy,L
E3172NA/6       ,2,31.96,SingleTrack Print T - LTD,Navy,XL
E3172NA/7       ,1,15.98,SingleTrack Print T - LTD,Navy,XXL
E3173BK/3       ,1,18.33,SingleTrack Core Print T ,Black,S
E3173BK/4       ,2,36.66,SingleTrack Core Print T ,Black,M
E3173BK/5       ,2,36.66,SingleTrack Core Print T ,Black,L
E3173BK/6       ,2,36.66,SingleTrack Core Print T ,Black,XL
E3173BK/7       ,1,18.33,SingleTrack Core Print T ,Black,XXL
E3174WH/2       ,1,31.21,Hyperon S/S Jersey II,White,XS
E3174WH/3       ,1,31.21,Hyperon S/S Jersey II,White,S
E3174WH/4       ,2,62.42,Hyperon S/S Jersey II,White,M
E3174WH/5       ,2,62.42,Hyperon S/S Jersey II,White,L
E3174WH/6       ,1,31.21,Hyperon S/S Jersey II,White,XL
E6154WH/2       ,1,31.21,Wms Hyperon S/S Jersey II,White,XS
E6154WH/3       ,1,31.21,Wms Hyperon S/S Jersey II,White,S
E6154WH/4       ,1,31.21,Wms Hyperon S/S Jersey II,White,M
E6154WH/5       ,1,31.21,Wms Hyperon S/S Jersey II,White,L
E6154WH/6       ,1,31.21,Wms Hyperon S/S Jersey II,White,XL
E3171BK/2       ,1,15.13,Women's Engineered Padded Boxer with Clickfast,Black,XS
E3171BK/3       ,2,30.27,Women's Engineered Padded Boxer with Clickfast,Black,S
E3171BK/4       ,3,45.40,Women's Engineered Padded Boxer with Clickfast,Black,M
E3171BK/5       ,3,45.40,Women's Engineered Padded Boxer with Clickfast,Black,L
E3171BK/6       ,2,30.27,Women's Engineered Padded Boxer with Clickfast,Black,XL
E8064NA/3       ,1,29.89,Hummvee Short II with liner,Navy,S
E8064NA/4       ,1,29.89,Hummvee Short II with liner,Navy,M
E8064NA/5       ,1,29.89,Hummvee Short II with liner,Navy,L
E8064NA/6       ,1,29.89,Hummvee Short II with liner,Navy,XL
E8064NA/7       ,1,29.89,Hummvee Short II with liner,Navy,XXL
E8065GY/3       ,1,32.15,Hummvee Lite Short II with liner,Grey,S
E8065GY/4       ,1,32.15,Hummvee Lite Short II with liner,Grey,M
E8065GY/5       ,1,32.15,Hummvee Lite Short II with liner,Grey,L
E8065GY/6       ,1,32.15,Hummvee Lite Short II with liner,Grey,XL
E8065GY/7       ,1,32.15,Hummvee Lite Short II with liner,Grey,XXL
E4029BK/2       ,1,36.66,Hyperon II Bibshort,Black,XS
E4029BK/3       ,1,36.66,Hyperon II Bibshort,Black,S
E4029BK/4       ,2,73.32,Hyperon II Bibshort,Black,M
E4029BK/5       ,2,73.32,Hyperon II Bibshort,Black,L
E4029BK/6       ,1,36.66,Hyperon II Bibshort,Black,XL
E4054BK/3       ,1,29.89,Xtract Bibshort II,Black,S
E4054BK/4       ,2,59.78,Xtract Bibshort II,Black,M
E4054BK/5       ,3,89.68,Xtract Bibshort II,Black,L
E4054BK/6       ,2,59.78,Xtract Bibshort II,Black,XL
E4054BK/7       ,1,29.89,Xtract Bibshort II,Black,XXL
E6153BK/1       ,1,22.94,Women's Xtract Short,Black,XXS
E6153BK/2       ,1,22.94,Women's Xtract Short,Black,XS
E6153BK/3       ,1,22.94,Women's Xtract Short,Black,S
E6153BK/4       ,1,22.94,Women's Xtract Short,Black,M
E6153BK/5       ,1,22.94,Women's Xtract Short,Black,L
E6153BK/6       ,1,22.94,Women's Xtract Short,Black,XL
E1505MB/S-M     ,1,18.89,Hummvee Helmet,Matt Black,S-M
E1505MB/M-L     ,2,37.79,Hummvee Helmet,Matt Black,M-L
E1505MB/L-XL    ,1,18.89,Hummvee Helmet,Matt Black,L-XL
E1505RD/S-M     ,1,18.89,Hummvee Helmet,Red,S-M
E1505RD/M-L     ,2,37.79,Hummvee Helmet,Red,M-L
E1505RD/L-XL    ,1,18.89,Hummvee Helmet,Red,L-XL
E1160BK/2       ,1,13.72,Hummvee Plus Glove II,Black,XS
E1160BK/3       ,1,13.72,Hummvee Plus Glove II,Black,S
E1160BK/4       ,2,27.45,Hummvee Plus Glove II,Black,M
E1160BK/5       ,2,27.45,Hummvee Plus Glove II,Black,L
E1160BK/6       ,2,27.45,Hummvee Plus Glove II,Black,XL
E1160BK/7       ,1,13.72,Hummvee Plus Glove II,Black,XXL
E1161BK/3       ,1,12.88,Hummvee Plus Mitt II,Black,S
E1161BK/4       ,2,25.76,Hummvee Plus Mitt II,Black,M
E1161BK/5       ,2,25.76,Hummvee Plus Mitt II,Black,L
E1161BK/6       ,2,25.76,Hummvee Plus Mitt II,Black,XL
E1161BK/7       ,1,12.88,Hummvee Plus Mitt II,Black,XXL
E1165BK/3       ,1,11.47,Xtract Mitt II,Black,S
E1165BK/4       ,2,22.94,Xtract Mitt II,Black,M
E1165BK/5       ,2,22.94,Xtract Mitt II,Black,L
E1165BK/6       ,2,22.94,Xtract Mitt II,Black,XL
E1165BK/7       ,1,11.47,Xtract Mitt II,Black,XXL
E1165RD/3       ,1,11.47,Xtract Mitt II,Red,S
E1165RD/4       ,2,22.94,Xtract Mitt II,Red,M
E1165RD/5       ,2,22.94,Xtract Mitt II,Red,L
E1165RD/6       ,2,22.94,Xtract Mitt II,Red,XL
E1165RD/7       ,1,11.47,Xtract Mitt II,Red,XXL
