SKU,Maximum allowed,Barcode/EAN,Days left
E0110BK,3,5055205367224       ,192
E0110RR/0,3,5055939959719       ,192
E0110YM/0,3,5055939959702       ,192
E0128BK/3,1,5055939904924       ,192
E0128BK/4,2,5055939904931       ,192
E0128BK/5,2,5055939904948       ,192
E0128BK/6,1,5055939904955       ,192
E0128BK/7,1,5055939904962       ,192
E1024BK/4,2,5055205372594       ,211
E1185BK/4,2,5055939944531       ,192
E1185BK/5,2,5055939944548       ,192
E1185BK/6,2,5055939944555       ,192
E1186BK/3,1,5055939944623       ,192
E1186BK/4,2,5055939944630       ,192
E1186BK/5,2,5055939944647       ,192
E1186BK/6,2,5055939944654       ,192
E1186BK/7,1,5055939944661       ,192
E1186GV/3,1,5055939944678       ,192
E1186GV/4,2,5055939944685       ,192
E1186GV/5,2,5055939944692       ,192
E1186GV/6,2,5055939944708       ,192
E1186GV/7,1,5055939944715       ,192
E1188BK/4,2,5055939944821       ,192
E1188BK/5,2,5055939944838       ,192
E1188BK/6,2,5055939944845       ,192
E1224BK/3,1,5055939958804       ,192
E1224BK/4,2,5055939966274       ,192
E1224BK/5,2,5055939966281       ,192
E1224BK/6,2,5055939966298       ,192
E1224BK/7,1,5055939966304       ,192
E1505KH/L-XL,1,5055939951317       ,192
E1505KH/M-L,2,5055939951300       ,192
E1505KH/S-M,1,5055939951294       ,192
E1505MB/L-XL,1,5055939904474       ,192
E1505MB/M-L,1,5055939904481       ,192
E1505MB/S-M,1,5055939904498       ,192
E1505RD/L-XL,1,5055939951287       ,192
E1505RD/M-L,2,5055939951270       ,192
E1505RD/S-M,1,5055939951263       ,192
E5049BK/3,1,5055939924526       ,192
E5049BK/4,1,5055939924533       ,192
E5049BK/5,1,5055939924540       ,192
E5049BK/6,1,5055939924557       ,192
E5056BK/3,1,5055939941820       ,192
E5056BK/4,2,5055939941837       ,192
E5056BK/5,2,5055939941844       ,192
E5056BK/6,1,5055939941851       ,192
E8098BK/3,1,5055939953342       ,211
E8098BK/4,1,5055939953359       ,211
E8098BK/5,1,5055939953366       ,211
E9102BK/4,1,5055939925523       ,192
E9102BK/5,2,5055939925530       ,192
E9102BK/6,1,5055939925547       ,192
E9102GV/4,1,5055939925578       ,192
E9102GV/5,2,5055939925585       ,192
E9102GV/6,1,5055939925592       ,192
E9104CR/2,1,5055939925714       ,192
E9104CR/3,1,5055939925721       ,192
E9104CR/4,1,5055939925738       ,192
E9104CR/5,1,5055939925745       ,192
E9114GV/3,1,5055939941677       ,192
E9114GV/4,2,5055939941684       ,192
E9114GV/5,2,5055939941691       ,192
E9114GV/6,1,5055939941707       ,192
E9120BK/4,2,5055939943213       ,192
E9120BK/5,2,5055939943220       ,192
E9120BK/6,2,5055939943237       ,192
