SKU,Maximum allowed,Barcode/EAN,Days left
E1505KH/M-L,1,5055939951300       ,38
E1505OR/M-L,1,5055939904511       ,38
E1505WH/M-L,1,5055939904559       ,38
E3174WH/7,1,5055939952895       ,38
E4054BK/3,1,5055939953168       ,38
E4054BK/4,1,5055939953175       ,38
E7117BK/5,1,5055939917030       ,38
E7117BK/6,1,5055939917047       ,38
E4054BK/5,1,5055939953182       ,87
E4054BK/6,1,5055939953199       ,87
E4055BK/3,1,5055939953069       ,87
E4055BK/4,2,5055939953076       ,87
E4055BK/5,1,5055939953083       ,87
E7117BK/5,1,5055939917030       ,87
E1505GV/M-L,1,5055939904450       ,167
E1505GY/M-L,1,5055939930107       ,167
E1505KH/M-L,1,5055939951300       ,167
E1505KH/S-M,1,5055939951294       ,167
E1505MB/M-L,2,5055939904481       ,167
E1505OR/M-L,1,5055939904511       ,167
E1505OR/S-M,1,5055939904528       ,167
E1505RD/M-L,1,5055939951270       ,167
E1505RD/S-M,1,5055939951263       ,167
E1505WH/M-L,1,5055939904559       ,167
E1505WH/S-M,1,5055939904566       ,167
E4055BK/5,1,5055939953083       ,167
E4055BK/6,1,5055939953090       ,167
E1048BK/L-XL,1,5055939928197       ,210
E1048BK/S-M,1,5055939928203       ,210
E1050BK/L-XL,2,5055939928210       ,210
E1050BK/S-M,1,5055939928227       ,210
E1120BK/5,1,5055205390239       ,210
E1120BK/6,1,5055205390246       ,210
E1186BK/4,2,5055939944630       ,210
E1186BK/5,2,5055939944647       ,210
E1188BK/5,1,5055939944838       ,210
E1188BK/6,1,5055939944845       ,210
E1216BK/4,1,5055939958354       ,210
E1216BK/5,1,5055939958361       ,210
E1216BV/4,1,5055939958415       ,210
E1216BV/5,1,5055939958422       ,210
E1218BK/L-XL,1,5055939958521       ,210
E1218BK/M-L,2,5055939958514       ,210
E1220BK/L-XL,1,5055939958569       ,210
E1220BK/S-M,1,5055939958552       ,210
E1223BK/L-XL,2,5055939958613       ,210
E1223BK/S-M,3,5055939958606       ,210
E1224BK/2,2,5055939958798       ,210
E1224BK/3,1,5055939958804       ,210
E1224BK/4,2,5055939966274       ,210
E1224BK/5,1,5055939966281       ,210
E3072BK/4,1,5055205362151       ,210
E3072BK/5,1,5055205362168       ,210
E3134GV/3,1,5055939924427       ,210
E3134RD/3,1,5055939924328       ,210
E3161BK/3,1,5055939944951       ,210
E3161BK/4,2,5055939944968       ,210
E3161BK/5,1,5055939944975       ,210
E3181BK/3,1,5055939958187       ,210
E3181NA/4,1,5055939958248       ,210
E7125BK/4,1,5055939924625       ,210
E7125BK/5,1,5055939924632       ,210
