SKU,Maximum allowed,Barcode/EAN,Days left
E0004/L-XL,4,5055205300153       ,35
E0004/S-M,4,5055205300160       ,35
E0127BK/4,1,5055939904825       ,35
E0127BK/5,1,5055939904832       ,35
E0128BK/3,5,5055939904924       ,35
E0128BK/4,5,5055939904931       ,35
E0128BK/5,10,5055939904948       ,35
E0128BK/6,5,5055939904955       ,35
E1017BK/5,2,5055205370620       ,35
E1120BK/4,10,5055205390222       ,35
E1120BK/5,10,5055205390239       ,35
E1120BK/6,10,5055205390246       ,35
E1145BK/4,1,5055939908199       ,35
E1145BK/5,1,5055939908205       ,35
E3078BK/4,3,5055205369747       ,35
E3078BK/5,3,5055205369754       ,35
E6067PV/2,2,5055205367606       ,35
E6067PV/3,2,5055205367613       ,35
E8061BK/3,2,5055205396668       ,35
E8061BK/4,2,5055205396675       ,35
E8061KH/4,2,5055939919058       ,35
E8061KH/5,1,5055939919065       ,35
E3078BK/3,3,5055205369730       ,37
E3078BK/6,1,5055205369761       ,37
E1038BK/S-M,4,5055939906690       ,84
E1133BK/S-M,2,5055205398716       ,84
E0046BK,1,5055205338484       ,91
E6067BK/3,1,5055205367651       ,119
E3072BK/4,1,5055205362151       ,128
E6086BK/3,1,5055205389561       ,128
E9095RD/5,1,5055939918198       ,128
E1038BK/L-XL,4,5055939906706       ,138
E3072BK/3,2,5055205362144       ,138
