SKU,Maximum allowed,Barcode/EAN,Days left
E0004/L-XL,6,5055205300153       ,31
E0004/S-M,3,5055205300160       ,31
E0006/3,3,5055205300184       ,31
E0006/5,6,5055205313610       ,31
E0042/3,1,5055205311937       ,31
E0042/4,2,5055205311944       ,31
E0042/5,3,5055205311951       ,31
E0042/6,2,5055205311968       ,31
E0042/7,1,5055205311975       ,31
E0076BK/3,1,5055205338064       ,31
E0076BK/4,2,5055205338071       ,31
E0076BK/5,4,5055205338088       ,31
E0076BK/6,2,5055205338095       ,31
E0076BK/7,1,5055205338101       ,31
E0095/3,1,5055205344324       ,31
E0095/4,2,5055205344331       ,31
E0095/5,4,5055205344348       ,31
E0095/6,3,5055205344355       ,31
E0095/7,1,5055205375977       ,31
E0128BK/3,1,5055939904924       ,31
E0128BK/4,2,5055939904931       ,31
E0128BK/5,3,5055939904948       ,31
E0128BK/6,2,5055939904955       ,31
E0128BK/7,1,5055939904962       ,31
E1120BK/4,2,5055205390222       ,31
E1120BK/5,4,5055205390239       ,31
E1120BK/6,3,5055205390246       ,31
E1120BK/7,1,5055205390253       ,31
E1134BK/0,4,5055939902470       ,31
E1134KG/0,2,5055205399232       ,31
E1146BK/L-XL,4,5055939909721       ,31
E1146BK/S-M,2,5055939909714       ,31
E1505MB/L-XL,1,5055939904474       ,31
E1505MB/M-L,3,5055939904481       ,31
E1505MB/S-M,1,5055939904498       ,31
E1511BK/L-XL,1,5055939930121       ,31
E1511BK/M-L,3,5055939930138       ,31
E1511BK/S-M,1,5055939930145       ,31
E1511WH/M-L,2,5055939930190       ,31
E1511WH/S-M,1,5055939930206       ,31
E3029/3,4,5055205304229       ,31
E3029/4,4,5055205304236       ,31
E3029/5,4,5055205304243       ,31
E3029/6,2,5055205304250       ,31
E3069BK/3,1,5055939904733       ,31
E3069BK/4,2,5055939904740       ,31
E3069BK/5,3,5055939904757       ,31
E3069BK/6,2,5055939904764       ,31
E3069BK/7,1,5055939904771       ,31
E3069BV/3,1,5055939941325       ,31
E3069BV/4,2,5055939941332       ,31
E3069BV/5,2,5055939941349       ,31
E3069BV/6,1,5055939941356       ,31
E3108BK/4,2,5055939909295       ,31
E3108BK/5,2,5055939909301       ,31
E3108BK/6,1,5055939909318       ,31
E3108BK/7,1,5055939909325       ,31
E3161BK/3,1,5055939944951       ,31
E3161BK/5,2,5055939944975       ,31
E3161BK/6,1,5055939944982       ,31
E3161BK/7,1,5055939944999       ,31
E5049BK/3,1,5055939924526       ,31
E5049BK/4,2,5055939924533       ,31
E5049BK/5,3,5055939924540       ,31
E5049BK/6,2,5055939924557       ,31
E5049BK/7,1,5055939924564       ,31
E5056BK/4,2,5055939941837       ,31
E5056BK/5,2,5055939941844       ,31
E5056BK/6,1,5055939941851       ,31
E5056BK/7,1,5055939941868       ,31
E7125BK/4,1,5055939924625       ,31
E7125BK/5,2,5055939924632       ,31
E7125BK/6,2,5055939924649       ,31
E7125BK/7,1,5055939924656       ,31
E7128BK/0,3,5055939934419       ,31
E9105BK/4,1,5055939925806       ,31
E9105BK/5,2,5055939925813       ,31
E9105BK/6,2,5055939925820       ,31
E9105BK/7,1,5055939925837       ,31
E9105BV/4,1,5055939946399       ,31
E9105BV/5,2,5055939946405       ,31
E9105BV/6,1,5055939946412       ,31
E9105BV/7,1,5055939946429       ,31
E3108BK/3,1,5055939909288       ,32
E9122BV/4,1,5055939945422       ,54
E9122BV/5,2,5055939945439       ,54
E9122BV/6,1,5055939945446       ,54
E9122BV/7,1,5055939945453       ,54
E3161BK/4,2,5055939944968       ,60
E4028BK/5,1,5055939901084       ,80
E6126CE/3,1,5055939933207       ,80
E6126CE/4,2,5055939933214       ,80
E6126CE/5,2,5055939933221       ,80
E9095BK/7,1,5055939918099       ,80
E1118BK/4,1,5055205389974       ,108
E1118BK/5,3,5055205389981       ,108
E1118BK/6,2,5055205389998       ,108
E1188BK/4,2,5055939944821       ,109
E1188BK/5,3,5055939944838       ,109
E1188BK/6,2,5055939944845       ,109
E9122BK/4,2,5055939945378       ,117
E9122BK/5,3,5055939945385       ,117
E9122BK/6,2,5055939945392       ,117
E9122BK/7,1,5055939945408       ,158
E0043BC,3,5055205324494       ,188
E0151KH/0,3,5055939936963       ,188
E1160BK/4,1,5055939928500       ,188
E1160BK/5,4,5055939928517       ,188
E1160BK/6,2,5055939928524       ,188
E1160BK/7,1,5055939928531       ,188
E1165BK/4,2,5055939928852       ,188
E1165BK/5,4,5055939928869       ,188
E1165BK/6,4,5055939928876       ,188
E1165BK/7,2,5055939928883       ,188
E1165GV/4,2,5055939928906       ,188
E1165GV/5,4,5055939928913       ,188
E1165GV/6,4,5055939928920       ,188
E1165GV/7,2,5055939928937       ,188
E1165RD/4,2,5055939929019       ,188
E1165RD/5,4,5055939929026       ,188
E1165RD/6,4,5055939929033       ,188
E1165RD/7,2,5055939929040       ,188
E1168BK/4,1,5055939929484       ,188
E1168BK/5,4,5055939929491       ,188
E1168BK/6,2,5055939929507       ,188
E1168BK/7,1,5055939929514       ,188
E1205BV/L-XL,2,5055939951836       ,188
E1205BV/S-M,1,5055939951829       ,188
E1205RD/L-XL,2,5055939951874       ,188
E1205RD/S-M,1,5055939951867       ,188
E1505GV/L-XL,1,5055939904443       ,188
E1505GV/M-L,3,5055939904450       ,188
E1505GV/S-M,1,5055939904467       ,188
E1505KH/L-XL,1,5055939951317       ,188
E1505KH/M-L,3,5055939951300       ,188
E1505KH/S-M,1,5055939951294       ,188
E1505MB/L-XL,1,5055939904474       ,188
E1505MB/M-L,3,5055939904481       ,188
E1505MB/S-M,1,5055939904498       ,188
E1505RD/L-XL,1,5055939951287       ,188
E1505RD/M-L,3,5055939951270       ,188
E1505RD/S-M,1,5055939951263       ,188
E1505WH/L-XL,1,5055939904542       ,188
E1505WH/M-L,3,5055939904559       ,188
E1511BK/L-XL,2,5055939930121       ,188
E1511BK/M-L,2,5055939930138       ,188
E1511BK/S-M,1,5055939930145       ,188
E1511KH/L-XL,1,5055939950402       ,188
E1511KH/M-L,2,5055939950396       ,188
E1511KH/S-M,1,5055939950389       ,188
E1513BK/L-XL,1,5055939930275       ,188
E1513BK/M-L,1,5055939930282       ,188
E1513BK/S-M,1,5055939930299       ,188
E1513RD/L-XL,1,5055939952833       ,188
E1513RD/M-L,1,5055939955025       ,188
E1513RD/S-M,1,5055939952826       ,188
E1513WH/L-XL,1,5055939930336       ,188
E1513WH/M-L,1,5055939930343       ,188
E1513WH/S-M,1,5055939930350       ,188
E1517BK/L-XL,1,5055939953403       ,188
E1517BK/M-L,2,5055939953397       ,188
E1517BK/S-M,1,5055939953380       ,188
E1517WH/L-XL,1,5055939953465       ,188
E1517WH/M-L,2,5055939953458       ,188
E1517WH/S-M,1,5055939953441       ,188
E3125KH/4,2,5055939919324       ,188
E3125KH/5,2,5055939919331       ,188
E3125KH/6,1,5055939919348       ,188
E3125RD/3,1,5055939919256       ,188
E3125RD/4,1,5055939919263       ,188
E3125RD/5,1,5055939919270       ,188
E3125RD/6,1,5055939919287       ,188
E3168BK/3,1,5055939954165       ,188
E3168BK/4,3,5055939954172       ,188
E3168BK/5,3,5055939954189       ,188
E3168BK/6,2,5055939954196       ,188
E3168BK/7,1,5055939954202       ,188
E3173BK/3,1,5055939949598       ,188
E3173BK/4,2,5055939949604       ,188
E3173BK/5,1,5055939949611       ,188
E3173BK/6,1,5055939949628       ,188
E3173GF/3,1,5055939949642       ,188
E3173GF/4,2,5055939949659       ,188
E3173GF/5,1,5055939949666       ,188
E3173GF/6,1,5055939949673       ,188
E4055BK/3,1,5055939953069       ,188
E4055BK/4,3,5055939953076       ,188
E4055BK/5,3,5055939953083       ,188
E4055BK/6,2,5055939953090       ,188
E4055BK/7,1,5055939953106       ,188
E5067BK/3,1,5055939950716       ,188
E5067BK/4,2,5055939950723       ,188
E5067BK/5,2,5055939950730       ,188
E5067BK/6,1,5055939950747       ,188
E6097BK/2,1,5055939901206       ,188
E6097BK/3,2,5055939901213       ,188
E6097BK/4,2,5055939901220       ,188
E6097BK/5,1,5055939901237       ,188
E6105CE/2,1,5055939918396       ,188
E6105CE/3,2,5055939918402       ,188
E6105CE/4,1,5055939918419       ,188
E6105CE/5,1,5055939918426       ,188
E6108BK/2,1,5055939919584       ,188
E6108BK/3,2,5055939919591       ,188
E6108BK/4,2,5055939919607       ,188
E6108BK/5,1,5055939919614       ,188
E6126BK/3,1,5055939933160       ,188
E6126BK/4,2,5055939933177       ,188
E6126BK/5,2,5055939933184       ,188
E6126BK/6,1,5055939936383       ,188
E6126WH/3,1,5055939933283       ,188
E6126WH/4,2,5055939933290       ,188
E6126WH/5,2,5055939933306       ,188
E6126WH/6,1,5055939936413       ,188
E6152CO/2,1,5055939951027       ,188
E6152CO/3,1,5055939951034       ,188
E6152CO/4,1,5055939951041       ,188
E6153BK/2,1,5055939953274       ,188
E6153BK/3,3,5055939953281       ,188
E6153BK/4,3,5055939953298       ,188
E6153BK/5,1,5055939953304       ,188
E6153BK/6,1,5055939953311       ,188
E6154RD/3,2,5055939953021       ,188
E6154RD/4,1,5055939953038       ,188
E6154WH/3,2,5055939952970       ,188
E6154WH/4,1,5055939952987       ,188
E7128BK/0,6,5055939934419       ,188
E7128KH/0,6,5055939951324       ,188
E8064BC/3,1,5055939936772       ,188
E8064BC/4,2,5055939936789       ,188
E8064BC/5,2,5055939936796       ,188
E8064BC/6,1,5055939936802       ,188
E8064BC/7,1,5055939936819       ,188
E8064GC/3,1,5055939950969       ,188
E8064GC/4,3,5055939950976       ,188
E8064GC/5,2,5055939950983       ,188
E8064GC/6,1,5055939950990       ,188
E8064GY/3,1,5055939916217       ,188
E8064GY/4,2,5055939916224       ,188
E8064GY/5,2,5055939916231       ,188
E8064GY/6,2,5055939916248       ,188
E8070GF/4,2,5055939948454       ,188
E8070GF/5,2,5055939948461       ,188
E8070GF/6,1,5055939948478       ,188
E8094AN/3,2,5055939949390       ,188
E8094AN/4,3,5055939949406       ,188
E8094AN/5,3,5055939949413       ,188
E8094AN/6,2,5055939949420       ,188
E8094AN/7,1,5055939949437       ,188
E9095BK/3,2,5055939918051       ,188
E9095BK/4,2,5055939918068       ,188
E9095BK/5,2,5055939918075       ,188
E9095BK/6,1,5055939918082       ,188
E9095YV/3,2,5055939918112       ,188
E9095YV/4,2,5055939918129       ,188
E9095YV/5,2,5055939918136       ,188
E9095YV/6,1,5055939918143       ,188
E9138GC/3,1,5055939949048       ,188
E9138GC/4,2,5055939949055       ,188
E9138GC/5,1,5055939949062       ,188
E9138GC/6,1,5055939949079       ,188
E9140BK/3,1,5055939953472       ,188
E9140BK/4,1,5055939953489       ,188
E9140BK/5,1,5055939953496       ,188
E9140BK/6,1,5055939953502       ,188
