SKU,Maximum allowed,Barcode/EAN,Days left
E0128BK/3,1,5055939904924       ,57
E0128BK/4,1,5055939904931       ,57
E0128BK/5,1,5055939904948       ,57
E0128YV/5,1,5055939909639       ,57
E0128YV/6,1,5055939909646       ,57
E0151GC/0,1,5055939960715       ,57
E0151GF/0,1,5055939960708       ,57
E0151RR/0,1,5055939960685       ,57
E0152BK/L-XL,1,5055939958125       ,57
E0152BK/S-M,1,5055939958118       ,57
E0154BK/L-XL,2,5055939965987       ,57
E0154BK/S-M,1,5055939958149       ,57
E1038BK/L-XL,1,5055939906706       ,57
E1038BK/S-M,1,5055939906690       ,57
E1042BK/L-XL,1,5055939923857       ,57
E1042BK/S-M,1,5055939923864       ,57
E1043BK/L-XL,1,5055939923871       ,57
E1043BK/S-M,1,5055939923888       ,57
E1117BK/4,1,5055205390123       ,57
E1117BK/5,1,5055205390130       ,57
E1117BK/6,2,5055205390147       ,57
E1118BK/4,1,5055205389974       ,57
E1118BK/5,2,5055205389981       ,57
E1118BK/6,2,5055205389998       ,57
E1145BK/4,1,5055939908199       ,57
E1145BK/5,1,5055939908205       ,57
E1145BK/6,1,5055939908212       ,57
E1185BK/4,1,5055939944531       ,57
E1185BK/5,2,5055939944548       ,57
E1185BK/6,1,5055939944555       ,57
E1186BK/3,1,5055939944623       ,57
E1186BK/4,1,5055939944630       ,57
E1186BK/5,1,5055939944647       ,57
E1186BK/6,1,5055939944654       ,57
E1188BK/4,1,5055939944821       ,57
E1188BK/5,1,5055939944838       ,57
E1188BK/6,1,5055939944845       ,57
E1188RD/4,1,5055939958750       ,57
E1188RD/5,1,5055939958767       ,57
E1216BK/3,1,5055939958347       ,57
E1216BK/4,1,5055939958354       ,57
E1216BV/5,1,5055939958422       ,57
E1216BV/6,1,5055939958439       ,57
E1223BK/L-XL,2,5055939958613       ,57
E1223BK/S-M,1,5055939958606       ,57
E1250CL,1,5055939955797       ,57
E3161BK/3,1,5055939944951       ,57
E3161BK/4,1,5055939944968       ,57
E3161BK/5,1,5055939944975       ,57
E3161BK/6,1,5055939944982       ,57
E3178BK/5,1,5055939957883       ,57
E3181NA/4,1,5055939958248       ,57
E3181RR/5,1,5055939958309       ,57
E5049BK/3,1,5055939924526       ,57
E5049BK/4,2,5055939924533       ,57
E5049BK/5,2,5055939924540       ,57
E5049BK/6,1,5055939924557       ,57
E5056BK/3,1,5055939941820       ,57
E5056BK/4,2,5055939941837       ,57
E5056BK/5,2,5055939941844       ,57
E5056BK/6,1,5055939941851       ,57
E6146BK/3,1,5055939942087       ,57
E6146BK/4,1,5055939942094       ,57
E6146BK/5,1,5055939942100       ,57
E6164RR/4,1,5055939958934       ,57
E9106RD/4,1,5055939958644       ,57
E9106RD/5,1,5055939958651       ,57
E9106RD/6,1,5055939958668       ,57
E9116CE/4,1,5055939942018       ,57
E9116CO/5,1,5055939942063       ,57
E9120YV/5,1,5055939943275       ,57
E9134YV/4,1,5055939943367       ,57
E9134YV/5,1,5055939943374       ,57
E9134YV/6,1,5055939943381       ,57
E9142GK/5,1,5055939957425       ,57
E9148BK/4,1,5055939960005       ,57
E9148BK/5,1,5055939960012       ,57
E3178BK/4,1,5055939957876       ,61
E0153BK/L-XL,2,5055939965970       ,72
E0153BK/S-M,2,5055939958132       ,72
E3178BK/6,1,5055939957890       ,72
E4031BK/5,1,5055939916989       ,115
E3178BK/6,1,5055939957890       ,173
E9120YV/7,1,5055939943299       ,173
