INVOICE,SIN544251
YOUR REF,SS18
DATE,13/06/2018
VALUE,1572.75


SKU,Qty,Value,Name,Colour,Size
E1504BK/L-XL    ,1,33.66,Luminite Helmet,Black,L-XL
E1504BK/M-L     ,1,33.66,Luminite Helmet,Black,M-L
E1504BK/S-M     ,1,33.66,Luminite Helmet,Black,S-M
E1504YV/M-L     ,1,33.66,Luminite Helmet,Hi-Viz Yellow,M-L
E1504YV/S-M     ,1,33.66,Luminite Helmet,Hi-Viz Yellow,S-M
E1505GV/L-XL    ,1,22.41,Hummvee Helmet,Hi-Viz Green,L-XL
E1505GV/M-L     ,2,44.82,Hummvee Helmet,Hi-Viz Green,M-L
E1505GV/S-M     ,2,44.82,Hummvee Helmet,Hi-Viz Green,S-M
E1505GY/L-XL    ,1,22.41,Hummvee Helmet,Grey,L-XL
E1505GY/M-L     ,2,44.82,Hummvee Helmet,Grey,M-L
E1505GY/S-M     ,2,44.82,Hummvee Helmet,Grey,S-M
E1505MB/L-XL    ,1,22.41,Hummvee Helmet,Matt Black,L-XL
E1505MB/M-L     ,2,44.82,Hummvee Helmet,Matt Black,M-L
E1505MB/S-M     ,2,44.82,Hummvee Helmet,Matt Black,S-M
E1505OR/L-XL    ,1,22.41,Hummvee Helmet,Orange,L-XL
E1505OR/M-L     ,1,22.41,Hummvee Helmet,Orange,M-L
E1505OR/S-M     ,1,22.41,Hummvee Helmet,Orange,S-M
E1505WH/L-XL    ,1,22.41,Hummvee Helmet,White,L-XL
E1505WH/M-L     ,1,22.41,Hummvee Helmet,White,M-L
E1505WH/S-M     ,1,22.41,Hummvee Helmet,White,S-M
E1506BK/M-L     ,1,71.91,MT500 Helmet,Black,M-L
E1506BK/S-M     ,1,71.91,MT500 Helmet,Black,S-M
E1506WH/M-L     ,1,71.91,MT500 Helmet,White,M-L
E1506WH/S-M     ,1,71.91,MT500 Helmet,White,S-M
E1511BK/L-XL    ,2,71.82,SingleTrack Helmet II,Black,L-XL
E1511BK/M-L     ,2,71.82,SingleTrack Helmet II,Black,M-L
E1511BK/S-M     ,2,71.82,SingleTrack Helmet II,Black,S-M
E1511PT/L-XL    ,1,35.91,SingleTrack Helmet II,Petrol,L-XL
E1511PT/M-L     ,2,71.82,SingleTrack Helmet II,Petrol,M-L
E1511PT/S-M     ,2,71.82,SingleTrack Helmet II,Petrol,S-M
E1511WH/L-XL    ,1,35.91,SingleTrack Helmet II,White,L-XL
E1511WH/M-L     ,2,71.82,SingleTrack Helmet II,White,M-L
E1511WH/S-M     ,2,71.82,SingleTrack Helmet II,White,S-M
E7128BK/0       ,2,35.82,Hummvee Youth Helmet,Black,One size
E7128GY/0       ,2,35.82,Hummvee Youth Helmet,Grey,One size
