SKU,Maximum allowed,Barcode/EAN,Days left
E1168BK/3,1,5055939929477       ,121
E1168BK/4,1,5055939929484       ,121
E1168BK/5,1,5055939929491       ,121
E1168BK/6,1,5055939929507       ,121
E1168BK/7,1,5055939929514       ,121
E9102GV/5,1,5055939925585       ,121
E3161BK/4,3,5055939944968       ,146
E3161BK/5,3,5055939944975       ,146
E3161BK/6,2,5055939944982       ,155
E3161BK/3,2,5055939944951       ,189
E3161BK/5,2,5055939944975       ,189
