SKU,Maximum allowed,Barcode/EAN,Days left
E3109OC/4,1,5055939909110       ,0
E3109OC/5,1,5055939909127       ,0
E3109RD/4,1,5055939909066       ,0
E3168BK/5,2,5055939954189       ,0
E3168BK/6,2,5055939954196       ,0
E3169BK/3,1,5055939954226       ,0
E3169BK/4,1,5055939954233       ,0
E3169BK/5,2,5055939954240       ,0
E3169BK/6,1,5055939954257       ,0
E4028BK/4,1,5055939901077       ,0
E4028BK/5,2,5055939901084       ,0
E4029BK/5,1,5055939900988       ,0
E6095BK/4,2,5055939901138       ,0
E6095BK/5,1,5055939901145       ,0
E6104CE/3,1,5055939915708       ,0
E6104CE/5,1,5055939915722       ,0
E6108BK/4,1,5055939919607       ,0
E6108BK/6,1,5055939919621       ,0
E6110BK/3,1,5055939914671       ,0
E6110BK/4,2,5055939914688       ,0
E6110BK/5,2,5055939914695       ,0
E6110BK/6,1,5055939922331       ,0
E7110BK/K11,1,5055205387895       ,0
E7110BK/K7,1,5055205387871       ,0
E7110BK/K9,1,5055205387888       ,0
E7123PU/K7,1,5055939919997       ,0
E7123PU/K9,1,5055939920009       ,0
E7123RD/K11,1,5055939919959       ,0
E7123RD/K7,1,5055939919966       ,0
E7123RD/K9,1,5055939919973       ,0
E7137BK/K11,1,5055939953762       ,0
E7137BK/K7,1,5055939953748       ,0
E7137BK/K9,1,5055939953755       ,0
E8065BK/4,1,5055939919157       ,0
E8065BK/5,1,5055939919164       ,0
E8065BK/7,1,5055939919188       ,0
E8064NA/5,1,5055939950914       ,2
E5067NA/3,1,5055939950761       ,4
E5067NA/5,1,5055939950785       ,4
E6154RD/4,1,5055939953038       ,4
E8094AN/4,1,5055939949406       ,17
E8094AN/5,2,5055939949413       ,17
E8094AN/6,2,5055939949420       ,17
E8094AN/7,1,5055939949437       ,17
E0098YV/L-XL,2,5055205363349       ,28
E0110BK,1,5055205367224       ,28
E0150NA/0,1,5055939936932       ,28
E1028BK/0,1,5055205385952       ,28
E3168BK/4,1,5055939954172       ,117
E3168BK/5,1,5055939954189       ,117
E3168BK/7,1,5055939954202       ,117
E3169BK/3,1,5055939954226       ,117
E3169BK/4,1,5055939954233       ,117
E4029BK/4,1,5055939900971       ,117
E4029BK/5,1,5055939900988       ,117
E4029BK/6,1,5055939900995       ,117
E6095BK/2,1,5055939901114       ,117
E6095BK/3,1,5055939901121       ,117
E6095BK/4,2,5055939901138       ,117
E6110BK/3,1,5055939914671       ,117
E7110BK/K7,1,5055205387871       ,117
E8064NA/7,1,5055939950938       ,117
E8084BK/3,1,5055939942360       ,117
E8084BK/7,1,5055939942407       ,117
E8094AN/3,1,5055939949390       ,117
E8094AN/4,1,5055939949406       ,117
E1121BK/0,1,5055205393278       ,185
E8065BK/7,1,5055939919188       ,185
E6095BK/4,2,5055939901138       ,204
E6095BK/5,2,5055939901145       ,204
E8065BK/7,1,5055939919188       ,204
