INVOICE,SIN522569
YOUR REF,VIBI01 (SS18)
DATE,26/02/2018
VALUE,2736.92


SKU,Qty,Value,Name,Colour,Size
E3109BK/3       ,1,22.94,Pakajak II,Black,S
E3109BK/4       ,2,45.87,Pakajak II,Black,M
E3109BK/5       ,1,22.94,Pakajak II,Black,L
E3109OC/3       ,1,22.94,Pakajak II,Ocean,S
E3109OC/4       ,1,22.94,Pakajak II,Ocean,M
E3109OC/5       ,1,22.94,Pakajak II,Ocean,L
E3109RD/3       ,1,22.94,Pakajak II,Red,S
E3109RD/4       ,1,22.94,Pakajak II,Red,M
E3109RD/5       ,1,22.94,Pakajak II,Red,L
E3109YV/3       ,1,22.94,Pakajak II,Hi-Viz Yellow,S
E3109YV/4       ,2,45.87,Pakajak II,Hi-Viz Yellow,M
E3109YV/5       ,1,22.94,Pakajak II,Hi-Viz Yellow,L
E6104CE/3       ,1,22.94,Wms Pakajak II,Cerise,S
E6104CE/4       ,1,22.94,Wms Pakajak II,Cerise,M
E6104CO/2       ,1,22.94,Wms Pakajak II,Cobalt Blue,XS
E6104CO/3       ,1,22.94,Wms Pakajak II,Cobalt Blue,S
E6104CO/4       ,1,22.94,Wms Pakajak II,Cobalt Blue,M
E9106BK/3       ,2,82.53,FS260-Pro Adrenaline Race Cape II,Black,S
E9106BK/4       ,3,123.80,FS260-Pro Adrenaline Race Cape II,Black,M
E9106BK/5       ,2,82.53,FS260-Pro Adrenaline Race Cape II,Black,L
E9106BK/6       ,1,41.27,FS260-Pro Adrenaline Race Cape II,Black,XL
E9106GV/3       ,1,41.27,FS260-Pro Adrenaline Race Cape II,Hi-Viz Green,S
E9106GV/4       ,1,41.27,FS260-Pro Adrenaline Race Cape II,Hi-Viz Green,M
E9106GV/5       ,1,41.27,FS260-Pro Adrenaline Race Cape II,Hi-Viz Green,L
E9095BK/3       ,1,18.33,Pakagilet II,Black,S
E9095BK/4       ,2,36.66,Pakagilet II,Black,M
E9095BK/5       ,1,18.33,Pakagilet II,Black,L
E9095YV/3       ,1,18.33,Pakagilet II,Hi-Viz Yellow,S
E9095YV/4       ,1,18.33,Pakagilet II,Hi-Viz Yellow,M
E9095YV/5       ,1,18.33,Pakagilet II,Hi-Viz Yellow,L
E3136PT/4       ,1,18.05,MT500 L/S Print T II,Petrol,M
E3136PT/5       ,1,18.05,MT500 L/S Print T II,Petrol,L
E3141BK/4       ,1,39.01,Pro SL Lite Jersey II,Black,M
E3141BK/5       ,1,39.01,Pro SL Lite Jersey II,Black,L
E3141MY/4       ,1,39.01,Pro SL Lite Jersey II,Mulberry,M
E3141MY/5       ,1,39.01,Pro SL Lite Jersey II,Mulberry,L
E8064KH/4       ,1,29.89,Hummvee Short II with liner,Khaki,M
E8064KH/5       ,1,29.89,Hummvee Short II with liner,Khaki,L
E8065GY/4       ,2,64.30,Hummvee Lite Short II with liner,Grey,M
E8065GY/5       ,1,32.15,Hummvee Lite Short II with liner,Grey,L
E8080BK/4       ,1,57.34,SingleTrack Lite Short II with Liner,Black,M
E8080BK/5       ,1,57.34,SingleTrack Lite Short II with Liner,Black,L
E8080OC/4       ,1,57.34,SingleTrack Lite Short II with Liner,Ocean,M
E8080OC/5       ,1,57.34,SingleTrack Lite Short II with Liner,Ocean,L
E8064BK/3       ,1,29.89,Hummvee Short II with liner,Black,S
E8064BK/4       ,2,59.78,Hummvee Short II with liner,Black,M
E8064BK/5       ,2,59.78,Hummvee Short II with liner,Black,L
E8065BK/3       ,1,32.15,Hummvee Lite Short II with liner,Black,S
E8065BK/4       ,1,32.15,Hummvee Lite Short II with liner,Black,M
E8065BK/5       ,1,32.15,Hummvee Lite Short II with liner,Black,L
E4043BK/4       ,1,64.20,Pro SL Lite Bibshort (medium-pad),Black,M
E4043BK/5       ,1,64.20,Pro SL Lite Bibshort (medium-pad),Black,L
E7117BK/3       ,1,45.87,FS260-Pro Bibshort,Black,S
E7117BK/4       ,1,45.87,FS260-Pro Bibshort,Black,M
E7117BK/5       ,1,45.87,FS260-Pro Bibshort,Black,L
E0003/S-M       ,3,34.40,Thermo Arm Warmer,Black/None,S-M
E0003/M-L       ,3,34.40,Thermo Arm Warmer,Black/None,M-L
E0003/L-XL      ,1,11.47,Thermo Arm Warmer,Black/None,L-XL
E0005/S-M       ,2,22.00,Thermo Knee Warmer,Black/None,S-M
E0005/L-XL      ,2,22.00,Thermo Knee Warmer,Black/None,L-XL
E0132MB/5       ,1,18.62,MT500 Glove II ,Matt Black,L
E1026BK/3       ,1,16.58,SingleTrack Plus Glove,Black,S
E1026BK/4       ,4,66.30,SingleTrack Plus Glove,Black,M
E1026BK/5       ,4,66.30,SingleTrack Plus Glove,Black,L
E1026BK/6       ,1,16.58,SingleTrack Plus Glove,Black,XL
E1125MB/3       ,1,10.37,Hummvee Lite Glove,Matt Black,S
E1125MB/4       ,2,20.74,Hummvee Lite Glove,Matt Black,M
E1125MB/5       ,2,20.74,Hummvee Lite Glove,Matt Black,L
E1125MB/6       ,1,10.37,Hummvee Lite Glove,Matt Black,XL
EM0055BK/5      ,1,18.62,MTR Glove II,Black,L
E1162BK/5       ,1,19.89,Pro SL Mitt,Black,L
E1165BK/3       ,2,20.74,Xtract Mitt II,Black,S
E1165BK/4       ,6,62.22,Xtract Mitt II,Black,M
E1165BK/5       ,6,62.22,Xtract Mitt II,Black,L
E1165BK/6       ,2,20.74,Xtract Mitt II,Black,XL
E1165RD/4       ,2,20.74,Xtract Mitt II,Red,M
E1165RD/5       ,2,20.74,Xtract Mitt II,Red,L
E6125BK/4       ,1,12.41,Wms Hyperon Mitt II,Black,M
