SKU,Maximum allowed,Barcode/EAN,Days left
E3108BK/4,1,5055939909295       ,62
E3108BK/5,1,5055939909301       ,62
E3108BK/6,1,5055939909318       ,62
E8064KH/3,1,5055939916057       ,62
E8064KH/4,1,5055939916064       ,62
E8064KH/5,1,5055939916071       ,62
E8064KH/6,1,5055939916088       ,62
E9102RD/4,1,5055939925479       ,62
E9102RD/5,1,5055939925486       ,62
E9102RD/6,1,5055939925493       ,62
E0053,1,5055205317649       ,125
E0110BK,2,5055205367224       ,125
E0110UM,2,5055205367248       ,125
E5049BK/4,1,5055939924533       ,125
E5049BK/5,1,5055939924540       ,125
E8064BK/4,1,5055939915982       ,125
E8064BK/5,1,5055939915999       ,125
E8064BK/6,1,5055939916002       ,125
