SKU,Maximum allowed,Barcode/EAN,Days left
E1048BK/L-XL,2,5055939928197       ,15
E1048BK/S-M,2,5055939928203       ,15
E1050BK/L-XL,2,5055939928210       ,15
E1050BK/S-M,2,5055939928227       ,15
E1108BK/L-XL,2,5055205387987       ,15
E1108BK/S-M,2,5055205387970       ,15
E1109BK/L-XL,2,5055205388014       ,15
E1109BK/M-L,2,5055205388007       ,15
E1109BK/S-M,1,5055205387994       ,15
E1112BK/L-XL,1,5055205384689       ,15
E1112BK/S-M,1,5055205384672       ,15
E1134BK/0,2,5055939902470       ,15
E1134BU/0,2,5055205399225       ,15
E1135BK/0,1,5055205399249       ,15
E1505KH/L-XL,1,5055939951317       ,15
E1505KH/M-L,1,5055939951300       ,15
E1505KH/S-M,1,5055939951294       ,15
E1505MB/L-XL,1,5055939904474       ,15
E1505MB/M-L,1,5055939904481       ,15
E1505MB/S-M,1,5055939904498       ,15
E1505RD/L-XL,1,5055939951287       ,15
E1505RD/M-L,2,5055939951270       ,15
E1505RD/S-M,1,5055939951263       ,15
E1505WH/L-XL,1,5055939904542       ,15
E1505WH/M-L,1,5055939904559       ,15
E1506GF/L-XL,1,5055939948973       ,15
E1506GF/M-L,2,5055939948966       ,15
E1506GF/S-M,1,5055939948959       ,15
E1506NA/L-XL,1,5055939922850       ,15
E1506NA/M-L,2,5055939922843       ,15
E1506NA/S-M,1,5055939922836       ,15
E1506WH/L-XL,1,5055939920092       ,15
E1506WH/M-L,1,5055939920085       ,15
E1506WH/S-M,1,5055939920078       ,15
E1511BK/L-XL,1,5055939930121       ,15
E1511BK/M-L,2,5055939930138       ,15
E1511BK/S-M,1,5055939930145       ,15
E1511KH/L-XL,1,5055939950402       ,15
E1511KH/M-L,2,5055939950396       ,15
E1511KH/S-M,1,5055939950389       ,15
E1511PT/L-XL,1,5055939930152       ,15
E1511PT/M-L,2,5055939930169       ,15
E1511PT/S-M,1,5055939930176       ,15
E3109BK/3,1,5055939908953       ,15
E3109BK/4,1,5055939908960       ,15
E3109BK/5,1,5055939908977       ,15
E3109BK/6,1,5055939908984       ,15
E3109RD/3,1,5055939909059       ,15
E3109RD/4,1,5055939909066       ,15
E3109RD/5,1,5055939909073       ,15
E3109RD/6,1,5055939909080       ,15
E3109YV/3,1,5055939909004       ,15
E3109YV/4,1,5055939909011       ,15
E3109YV/5,1,5055939909028       ,15
E3109YV/6,1,5055939909035       ,15
E3142RR/4,1,5055939952628       ,15
E3142RR/5,1,5055939952635       ,15
E3168BK/3,1,5055939954165       ,15
E3168BK/4,2,5055939954172       ,15
E3168BK/5,2,5055939954189       ,15
E3168BK/6,1,5055939954196       ,15
E3168BK/7,1,5055939954202       ,15
E3169BK/2,1,5055939954219       ,15
E3169BK/3,2,5055939954226       ,15
E3169BK/4,2,5055939954233       ,15
E3169BK/5,1,5055939954240       ,15
E3169BK/6,1,5055939954257       ,15
E3174NA/3,1,5055939952918       ,15
E3174NA/4,1,5055939952925       ,15
E3174NA/5,1,5055939952932       ,15
E3174NA/6,1,5055939952949       ,15
E3174NA/7,1,5055939952956       ,15
E4028BK/3,1,5055939901060       ,15
E4028BK/4,1,5055939901077       ,15
E4028BK/5,1,5055939901084       ,15
E4028BK/6,1,5055939901091       ,15
E4028BK/7,1,5055939901107       ,15
E4030BK/3,1,5055939917474       ,15
E4030BK/4,1,5055939917481       ,15
E4031BK/3,1,5055939916965       ,15
E4031BK/4,1,5055939916972       ,15
E4031BK/5,1,5055939916989       ,15
E4031BK/6,1,5055939916996       ,15
E4032BK/5,1,5055939917559       ,15
E4032BK/6,1,5055939917566       ,15
E4032BK/7,1,5055939917573       ,15
E5054BK/4,1,5055939940342       ,15
E5054BK/5,1,5055939940359       ,15
E5067NA/3,1,5055939950761       ,15
E5067NA/4,1,5055939950778       ,15
E5067NA/5,1,5055939950785       ,15
E6078BK/3,1,5055205386669       ,15
E6078BK/4,1,5055205386676       ,15
E6078BK/5,1,5055205386683       ,15
E6095BK/3,1,5055939901121       ,15
E6095BK/4,1,5055939901138       ,15
E6095BK/5,1,5055939901145       ,15
E6095BK/6,1,5055939901152       ,15
E6097BK/2,1,5055939901206       ,15
E6097BK/3,1,5055939901213       ,15
E6097BK/4,1,5055939901220       ,15
E6104CE/2,1,5055939915692       ,15
E6104CE/3,1,5055939915708       ,15
E6104CE/4,1,5055939915715       ,15
E6104CE/5,1,5055939915722       ,15
E6104CO/3,1,5055939918327       ,15
E6104CO/4,1,5055939918334       ,15
E6104CO/5,1,5055939918341       ,15
E6104CO/6,1,5055939920948       ,15
E6105WH/2,1,5055939918433       ,15
E6105WH/3,1,5055939918440       ,15
E6105WH/4,1,5055939918457       ,15
E6108TL/2,1,5055939915814       ,15
E6108TL/3,1,5055939915821       ,15
E6108TL/4,1,5055939915838       ,15
E6108TL/5,1,5055939915845       ,15
E6122BP/3,1,5055939951928       ,15
E6122BP/4,1,5055939951935       ,15
E6139BK/2,1,5055939932835       ,15
E6140BK/3,1,5055939934006       ,15
E6140BK/4,1,5055939934013       ,15
E6140BK/5,1,5055939934020       ,15
E6141BK/5,1,5055939934068       ,15
E6154RD/3,1,5055939953021       ,15
E6154RD/4,1,5055939953038       ,15
E6154RD/5,1,5055939953045       ,15
E6154WH/3,1,5055939952970       ,15
E6154WH/4,1,5055939952987       ,15
E6154WH/5,1,5055939952994       ,15
E7110BK/K11,1,5055205387895       ,15
E7110BK/K7,1,5055205387871       ,15
E7110BK/K9,1,5055205387888       ,15
E7123RD/K11,1,5055939919959       ,15
E7123RD/K7,1,5055939919966       ,15
E7123RD/K9,1,5055939919973       ,15
E7128BK/0,3,5055939934419       ,15
E7128KH/0,3,5055939951324       ,15
E8064GY/4,1,5055939916224       ,15
E8064GY/5,1,5055939916231       ,15
E8064GY/6,1,5055939916248       ,15
E8087BK/3,1,5055939943107       ,15
E8087BK/4,1,5055939943114       ,15
E8087BK/5,1,5055939943121       ,15
E8087BK/6,1,5055939943138       ,15
E8088BK/3,1,5055939943152       ,15
E8088BK/4,1,5055939943169       ,15
E8088BK/5,1,5055939943176       ,15
E8088BK/6,1,5055939943183       ,15
E8094AN/3,1,5055939949390       ,15
E8094AN/4,1,5055939949406       ,15
E8094AN/5,1,5055939949413       ,15
E8094AN/6,1,5055939949420       ,15
E9100MY/3,1,5055939943039       ,15
E9100MY/4,1,5055939943046       ,15
E9100MY/5,1,5055939943053       ,15
E9106BK/2,1,5055939936239       ,15
E9106BK/3,1,5055939935256       ,15
E9106BK/4,1,5055939935263       ,15
E9106BK/5,1,5055939935270       ,15
E9106BK/6,1,5055939935287       ,15
E9106BK/7,1,5055939935294       ,15
E9106BV/2,1,5055939945712       ,15
E9106BV/3,1,5055939941370       ,15
E9106BV/4,1,5055939941387       ,15
E9106BV/5,1,5055939941394       ,15
E9106BV/6,1,5055939941400       ,15
E9107BK/4,1,5055939935416       ,15
E9107BK/5,1,5055939935423       ,15
E9107BK/6,1,5055939935430       ,15
E9117BK/4,1,5055939942179       ,15
E9117BK/5,1,5055939942186       ,15
E9117BK/6,1,5055939942193       ,15
E1144BK/0,1,5055939905372       ,29
E1505WH/S-M,1,5055939904566       ,29
E6097BK/1,1,5055939910086       ,29
E6154RD/6,1,5055939953052       ,29
E1512BK/S-M,1,5055939930237       ,73
E0004/L-XL,3,5055205300153       ,87
E0004/S-M,2,5055205300160       ,87
E1130WH/L-XL,5,5055205398655       ,87
E1130WH/S-M,5,5055205399621       ,87
E1188BK/4,2,5055939944821       ,87
E1188BK/5,2,5055939944838       ,87
E1188BK/6,1,5055939944845       ,87
E6154WH/2,1,5055939952963       ,87
E6105WH/3,1,5055939918440       ,88
E6105WH/5,1,5055939918464       ,88
E6105WH/6,1,5055939922324       ,88
E9100MY/3,1,5055939943039       ,88
E9117BK/3,1,5055939942162       ,88
E9117BK/5,1,5055939942186       ,88
E1102,5,5055205353814       ,102
E4030BK/5,1,5055939917498       ,102
E4030BK/6,1,5055939917504       ,102
E4031BK/5,1,5055939916989       ,102
E4031BK/6,1,5055939916996       ,102
E7136WH/0,4,5055939948942       ,102
E1506NA/L-XL,1,5055939922850       ,128
E1506NA/M-L,2,5055939922843       ,128
E1506NA/S-M,2,5055939922836       ,128
E1506WH/M-L,3,5055939920085       ,128
E1506WH/S-M,2,5055939920078       ,128
E1511WH/M-L,1,5055939930190       ,128
E7131BK/K11,1,5055939949970       ,128
E7131BK/K9,1,5055939949963       ,128
E7132BK/K11,1,5055939949994       ,128
E1108BK/L-XL,1,5055205387987       ,151
E1108BK/S-M,2,5055205387970       ,151
E1506BK/M-L,1,5055939920054       ,151
E1518BK/M-L,1,5055939948898       ,151
E3168BK/5,1,5055939954189       ,151
E7132BK/K9,1,5055939949987       ,151
E8094AN/4,1,5055939949406       ,151
E1506GF/S-M,1,5055939948959       ,183
E1518GF/S-M,1,5055939948911       ,197
