SKU,Maximum allowed,Barcode/EAN,Days left
E1157BK/L-XL,1,5055939928418       ,0
E1160BK/2,1,5055939928487       ,0
E1160BK/3,1,5055939928494       ,0
E1166BK/6,1,5055939929095       ,0
E1167BK/6,1,5055939929330       ,0
E1199RR/7,1,5055939949734       ,0
E1511BK/M-L,2,5055939930138       ,0
E9095BK/5,1,5055939918075       ,0
E9106BK/5,1,5055939935270       ,0
E9108BK/3,1,5055939935515       ,0
E3177BK/6,1,5055939957739       ,2
E3183GK/3,1,5055939960449       ,2
E3183GK/4,1,5055939960456       ,2
E1511BK/M-L,2,5055939930138       ,5
E1511KH/L-XL,2,5055939950402       ,5
E8070BK/4,1,5055939916729       ,6
E1511WH/M-L,2,5055939930190       ,7
E1506NA/S-M,1,5055939922836       ,19
E8074BK/5,1,5055939924731       ,19
E1048BK/L-XL,3,5055939928197       ,21
E1157BK/S-M,1,5055939928425       ,21
E1158BK/L-XL,1,5055939928432       ,21
E1160KH/4,1,5055939928562       ,21
E1160KH/5,1,5055939928579       ,21
E1182BK/L-XL,2,5055939942629       ,21
E1199NA/5,1,5055939949765       ,21
E1202BK/S-M,1,5055939949901       ,21
E1205BK/L-XL,5,5055939951812       ,21
E1205GK/L-XL,2,5055939956565       ,21
E1205GK/S-M,1,5055939956558       ,21
E1205NA/L-XL,2,5055939951850       ,21
E1205RD/L-XL,1,5055939951874       ,21
E1234GF/L-XL,2,5055939966847       ,21
E3181NA/4,1,5055939958248       ,21
E3181NA/5,1,5055939958255       ,21
E3181NA/6,1,5055939958262       ,21
E3183GK/4,1,5055939960456       ,21
E8094AN/3,1,5055939949390       ,21
E8094AN/4,1,5055939949406       ,21
E9106BK/5,1,5055939935270       ,21
E9106BK/6,1,5055939935287       ,21
E9106BV/5,1,5055939941394       ,21
E8074BK/6,1,5055939924748       ,22
E3157BK/4,2,5055939941431       ,27
E3169BK/3,1,5055939954226       ,27
E3181NA/4,4,5055939958248       ,27
E6110BK/3,2,5055939914671       ,34
E9147GF/5,1,5055939959436       ,34
E9147GF/6,1,5055939959443       ,34
E9147NA/4,1,5055939959474       ,34
E9147NA/5,1,5055939959481       ,34
E9150CV/3,1,5055939960357       ,34
E9150CV/4,1,5055939960364       ,34
E9150GK/3,1,5055939960401       ,34
E9150GK/4,1,5055939960418       ,34
E9150GK/5,1,5055939960425       ,34
E6164GK/5,1,5055939958897       ,42
E6164RR/3,1,5055939958927       ,42
E6164RR/4,1,5055939958934       ,42
E8083BK/5,1,5055939942339       ,42
E1182BK/S-M,2,5055939942612       ,48
E1199NA/4,1,5055939949758       ,48
E1199NA/5,1,5055939949765       ,48
E1199NA/6,2,5055939949772       ,48
E1199NA/7,2,5055939949789       ,48
E1218BK/L-XL,2,5055939958521       ,48
E1219BK/L-XL,1,5055939958545       ,48
E1219BK/S-M,1,5055939958538       ,48
E3182AN/5,1,5055939959047       ,48
E3183BK/4,2,5055939959306       ,48
E3183GK/4,2,5055939960456       ,48
E3183RR/4,2,5055939960500       ,48
E7125BK/4,1,5055939924625       ,48
E7125BK/5,1,5055939924632       ,48
E8070BK/3,1,5055939916712       ,48
E8077BK/4,1,5055939924885       ,48
E9106BV/5,1,5055939941394       ,48
E9117GF/4,1,5055939948157       ,48
E9117GF/5,1,5055939948164       ,48
E9147GF/5,1,5055939959436       ,48
E1109BK/L-XL,1,5055205388014       ,49
E3182AN/6,1,5055939959054       ,49
E7131BK/K9,1,5055939949963       ,49
E0128YV/6,1,5055939909646       ,51
E1109BK/M-L,1,5055205388007       ,51
E1112BK/L-XL,1,5055205384689       ,51
E1135BK/0,3,5055205399249       ,51
E1157BK/L-XL,1,5055939928418       ,51
E1157BK/S-M,3,5055939928425       ,51
E1158BK/L-XL,2,5055939928432       ,51
E1227BK/L-XL,2,5055939966311       ,51
E1227GK/L-XL,2,5055939966328       ,51
E1227RR/L-XL,2,5055939966335       ,51
E1234GF/L-XL,3,5055939966847       ,51
E9117YM/6,1,5055939961019       ,51
E5057BK/4,1,5055939942124       ,55
E7125BK/5,3,5055939924632       ,55
E0098YV/S-M,1,5055205359571       ,61
E0128YV/5,1,5055939909639       ,61
E0153BK/L-XL,2,5055939965970       ,61
E0153BK/S-M,1,5055939958132       ,61
E0154BK/L-XL,1,5055939965987       ,61
E0154BK/S-M,1,5055939958149       ,61
E1050BK/L-XL,2,5055939928210       ,61
E1050BK/S-M,1,5055939928227       ,61
E1109BK/L-XL,1,5055205388014       ,61
E1160KH/6,1,5055939928586       ,61
E1227GK/L-XL,2,5055939966328       ,61
E1227RR/L-XL,2,5055939966335       ,61
E1234BK/L-XL,4,5055939966823       ,61
E1234GF/L-XL,1,5055939966847       ,61
E1234RD/L-XL,2,5055939966861       ,61
E3169BK/3,1,5055939954226       ,61
E3183BK/5,2,5055939959313       ,61
E3183BK/6,1,5055939959320       ,61
E8074BK/5,2,5055939924731       ,61
E8074BK/6,1,5055939924748       ,61
E8098BK/5,1,5055939953366       ,61
E9147GF/6,1,5055939959443       ,61
EM0053GF/5,1,5055939951416       ,61
E8084BK/4,2,5055939942377       ,64
E8084BK/5,1,5055939942384       ,64
E9117CC/4,1,5055939960937       ,64
E1219BK/L-XL,2,5055939958545       ,70
E1223BK/L-XL,1,5055939958613       ,70
E1223BK/S-M,1,5055939958606       ,70
E1224BK/3,1,5055939958804       ,70
E1224BK/4,1,5055939966274       ,70
E1224BK/5,1,5055939966281       ,70
E3183BK/5,2,5055939959313       ,70
E3183GK/6,1,5055939960470       ,70
E3183RR/6,1,5055939960524       ,70
E6164GK/3,1,5055939958873       ,70
E9117BK/6,1,5055939942193       ,71
E0128BK/6,1,5055939904955       ,84
E1188BK/5,1,5055939944838       ,84
E6164GK/4,1,5055939958880       ,84
E0128BK/3,1,5055939904924       ,96
E0128BK/4,1,5055939904931       ,96
E0128BK/5,1,5055939904948       ,96
E0128BK/6,1,5055939904955       ,96
E1227BK/L-XL,2,5055939966311       ,96
E1227BK/S-M,2,5055939959405       ,96
E1227GK/L-XL,2,5055939966328       ,96
E1227GK/S-M,2,5055939960616       ,96
E1227RR/L-XL,2,5055939966335       ,96
E1227RR/S-M,2,5055939960609       ,96
E3182AN/4,1,5055939959030       ,96
E3182AN/5,1,5055939959047       ,96
E3182AN/6,1,5055939959054       ,96
E3183BK/3,1,5055939959290       ,96
E3183BK/4,1,5055939959306       ,96
E3183BK/6,1,5055939959320       ,96
E3183GK/5,1,5055939960463       ,96
E3183GK/6,1,5055939960470       ,96
E3183RR/6,1,5055939960524       ,96
E7125BK/6,1,5055939924649       ,96
E7135BK/4,1,5055939953120       ,96
E7135BK/6,1,5055939953144       ,96
E8098BK/3,1,5055939953342       ,96
E9119BA/4,1,5055939942988       ,96
E9119BA/5,1,5055939942995       ,96
E9119BA/6,1,5055939943008       ,96
E9119GF/5,1,5055939949000       ,96
E9119GF/6,1,5055939949017       ,96
E9119PW/4,1,5055939942933       ,96
E9143GK/4,1,5055939957517       ,96
E9143GK/5,1,5055939957524       ,96
E9143GK/6,1,5055939957531       ,96
E1139WH/0,3,5055939904672       ,99
E1512BK/S-M,1,5055939930237       ,104
E1512WH/M-L,1,5055939930251       ,104
E1512WH/S-M,1,5055939930268       ,104
E6110BK/5,1,5055939914695       ,110
E9106BK/5,1,5055939935270       ,117
E9144BV/6,1,5055939957630       ,117
E5057BK/5,1,5055939942131       ,124
E9143BK/4,1,5055939957463       ,124
E0048,2,5055205315966       ,167
E1160BK/2,1,5055939928487       ,167
E1160BK/3,1,5055939928494       ,167
E1160BK/4,1,5055939928500       ,167
E1160BK/5,1,5055939928517       ,167
E1160BK/6,1,5055939928524       ,167
E1160BK/7,1,5055939928531       ,167
E1160KH/3,1,5055939928555       ,167
E1160KH/6,1,5055939928586       ,167
E1160KH/7,1,5055939928593       ,167
E1160RD/3,1,5055939928616       ,167
E1160RD/5,1,5055939928630       ,167
E1160RD/6,1,5055939928647       ,167
E1166BK/3,1,5055939929064       ,167
E1166BK/4,1,5055939929071       ,167
E1166BK/5,1,5055939929088       ,167
E1166BK/6,1,5055939929095       ,167
E1166BK/7,1,5055939929101       ,167
E1166NA/3,1,5055939952727       ,167
E1166NA/4,1,5055939952734       ,167
E1166NA/5,1,5055939952741       ,167
E1166NA/6,1,5055939952758       ,167
E1166NA/7,1,5055939952765       ,167
E1166RR/3,1,5055939974903       ,167
E1166RR/4,1,5055939974910       ,167
E1166RR/5,1,5055939974927       ,167
E1166RR/6,1,5055939974934       ,167
E1166RR/7,1,5055939974941       ,167
E1166WH/3,1,5055939929248       ,167
E1166WH/4,1,5055939929255       ,167
E1166WH/5,1,5055939929262       ,167
E1166WH/6,1,5055939929279       ,167
E1166WH/7,1,5055939929286       ,167
E1168BK/3,1,5055939929477       ,167
E1168BK/4,1,5055939929484       ,167
E1168BK/5,1,5055939929491       ,167
E1168BK/6,1,5055939929507       ,167
E1168BK/7,1,5055939929514       ,167
E1168NA/3,1,5055939929576       ,167
E1168NA/6,1,5055939929606       ,167
E1168OT/3,1,5055939971575       ,167
E1168OT/4,1,5055939971582       ,167
E1168OT/5,1,5055939971599       ,167
E1168OT/6,1,5055939971605       ,167
E1168OT/7,1,5055939971612       ,167
E1170GY/0,1,5055939929835       ,167
E1170YV/0,1,5055939929842       ,167
E1171BK/0,1,5055939929859       ,167
E1171WH/0,1,5055939929866       ,167
E1174BK/0,1,5055939929972       ,167
E1174GY/0,1,5055939929989       ,167
E1174PT/0,1,5055939929996       ,167
E1196BK/L-XL,1,5055939948874       ,167
E1196BK/M-L,1,5055939956510       ,167
E1196BK/S-M,1,5055939948867       ,167
E1205BK/L-XL,4,5055939951812       ,167
E1205BK/S-M,4,5055939951805       ,167
E1205BV/L-XL,4,5055939951836       ,167
E1205BV/S-M,4,5055939951829       ,167
E1205GK/L-XL,4,5055939956565       ,167
E1205GK/S-M,4,5055939956558       ,167
E1205NA/L-XL,4,5055939951850       ,167
E1205NA/S-M,4,5055939951843       ,167
E1205PS/L-XL,4,5055939974590       ,167
E1205PS/S-M,4,5055939974583       ,167
E1205RD/L-XL,4,5055939951874       ,167
E1205RD/S-M,4,5055939951867       ,167
E1251CL,6,5055939955803       ,167
E1254BK/L-XL,1,5055939971797       ,167
E1254BK/M-L,1,5055939971780       ,167
E1254BK/S-M,1,5055939971773       ,167
E1256BK/L-XL,1,5055939971858       ,167
E1256BK/M-L,1,5055939971841       ,167
E1256BK/S-M,1,5055939971834       ,167
E1257BK/L-XL,1,5055939971940       ,167
E1257BK/M-L,1,5055939971933       ,167
E1257BK/S-M,1,5055939971926       ,167
E1258BK/4,1,5055939972619       ,167
E1258BK/5,1,5055939972626       ,167
E1258BK/6,1,5055939972633       ,167
E1258BK/7,1,5055939972640       ,167
E1259BK/3,1,5055939975597       ,167
E1259BK/4,1,5055939975603       ,167
E1259BK/5,1,5055939975610       ,167
E1259BK/6,1,5055939975627       ,167
E1259BK/7,1,5055939975634       ,167
E1259GK/3,1,5055939975658       ,167
E1259GK/4,1,5055939975665       ,167
E1259GK/5,1,5055939975672       ,167
E1259GK/6,1,5055939975689       ,167
E1259GK/7,1,5055939975696       ,167
E1259PS/3,1,5055939975719       ,167
E1259PS/4,1,5055939975726       ,167
E1259PS/5,1,5055939975733       ,167
E1259PS/6,1,5055939975740       ,167
E1259PS/7,1,5055939975757       ,167
E1263BK/L-XL,4,5055939977584       ,167
E1263BK/S-M,4,5055939977577       ,167
E1265BP/0,6,5055939977669       ,167
E1506GF/L-XL,1,5055939948973       ,167
E1506GF/M-L,1,5055939948966       ,167
E1506GF/S-M,1,5055939948959       ,167
E1506NA/L-XL,1,5055939922850       ,167
E1506NA/M-L,1,5055939922843       ,167
E1506NA/S-M,1,5055939922836       ,167
E1511BA/L-XL,1,5055939971643       ,167
E1511BA/M-L,1,5055939971636       ,167
E1511BA/S-M,1,5055939971629       ,167
E1511BK/L-XL,1,5055939930121       ,167
E1511BK/M-L,1,5055939930138       ,167
E1511BK/S-M,1,5055939930145       ,167
E1511KH/L-XL,1,5055939950402       ,167
E1511KH/M-L,1,5055939950396       ,167
E1511KH/S-M,1,5055939950389       ,167
E1511RR/L-XL,1,5055939959634       ,167
E1511RR/M-L,1,5055939959627       ,167
E1511RR/S-M,1,5055939959610       ,167
E1511WH/L-XL,1,5055939930183       ,167
E1511WH/M-L,1,5055939930190       ,167
E1511WH/S-M,1,5055939930206       ,167
E1512BV/M-L,1,5055939945019       ,167
E1512WH/L-XL,1,5055939930244       ,167
E1513BK/L-XL,1,5055939930275       ,167
E1513BK/M-L,1,5055939930282       ,167
E1513BK/S-M,1,5055939930299       ,167
E1513BV/L-XL,1,5055939966595       ,167
E1513BV/M-L,1,5055939966588       ,167
E1513BV/S-M,1,5055939966571       ,167
E1513RD/L-XL,1,5055939952833       ,167
E1513RD/M-L,1,5055939955025       ,167
E1513RD/S-M,1,5055939952826       ,167
E1513WH/L-XL,1,5055939930336       ,167
E1513WH/M-L,1,5055939930343       ,167
E1513WH/S-M,1,5055939930350       ,167
E3061W/2,1,5055205358024       ,167
E3061W/3,1,5055205342467       ,167
E3061W/4,1,5055205342474       ,167
E3061W/5,1,5055205342481       ,167
E3061W/6,1,5055205342498       ,167
E3061W/7,1,5055205342504       ,167
E3168BK/3,3,5055939954165       ,167
E3168BK/4,4,5055939954172       ,167
E3168BK/5,4,5055939954189       ,167
E3168BK/6,3,5055939954196       ,167
E3168BK/7,1,5055939954202       ,167
E3169BK/2,1,5055939954219       ,167
E3189BA/3,1,5055939972343       ,167
E3189BA/4,1,5055939972350       ,167
E3189BA/5,1,5055939972367       ,167
E3189BA/6,1,5055939972374       ,167
E3189BK/3,1,5055939972398       ,167
E3189BK/4,1,5055939972404       ,167
E3189BK/5,1,5055939972411       ,167
E3189BK/6,1,5055939972428       ,167
E3189BK/7,1,5055939972435       ,167
E3189CC/3,1,5055939972442       ,167
E3189CC/4,1,5055939972459       ,167
E3189CC/5,1,5055939972466       ,167
E3189CC/6,1,5055939972473       ,167
E3190CG/4,1,5055939974248       ,167
E3190CG/5,1,5055939974255       ,167
E3190PS/5,1,5055939974316       ,167
E3190PS/6,1,5055939974323       ,167
E3192GK/W4,1,5055939978734       ,167
E3192GK/W7,1,5055939978765       ,167
E3192RR/W3,1,5055939978826       ,167
E3192WH/W4,1,5055939978888       ,167
E3192WH/W5,1,5055939978895       ,167
E3192WH/W6,1,5055939978901       ,167
E3193BK/3,1,5055939975771       ,167
E3193BK/4,1,5055939975788       ,167
E3193BK/5,1,5055939975795       ,167
E3193BK/6,1,5055939975801       ,167
E3193BK/7,1,5055939975818       ,167
E3193YV/4,1,5055939975849       ,167
E3193YV/5,1,5055939975856       ,167
E3193YV/6,1,5055939975863       ,167
E4070BK/M7,1,5055939979236       ,167
E5069BK/4,1,5055939951584       ,167
E5069BK/5,1,5055939951591       ,167
E5069BK/6,1,5055939951607       ,167
E5069GK/4,1,5055939951645       ,167
E5069GK/5,1,5055939951652       ,167
E5069GK/6,1,5055939951669       ,167
E5069PS/5,1,5055939974552       ,167
E5069PS/6,1,5055939974569       ,167
E5073GF/3,1,5055939949147       ,167
E5073GF/4,1,5055939949154       ,167
E5073GF/5,1,5055939949161       ,167
E5073GF/6,1,5055939949178       ,167
E5073RR/3,1,5055939949192       ,167
E5073RR/4,1,5055939949208       ,167
E5073RR/5,1,5055939949215       ,167
E5073YM/4,1,5055939977744       ,167
E5073YM/5,1,5055939977751       ,167
E6120BK/2,1,5055939932750       ,167
E6124BK/3,1,5055939933009       ,167
E6124BK/4,1,5055939933016       ,167
E6124BK/5,1,5055939933023       ,167
E6127BK/3,1,5055939933320       ,167
E6127BK/4,1,5055939933337       ,167
E6127BK/5,1,5055939933344       ,167
E6127BK/6,1,5055939936338       ,167
E6127WH/2,1,5055939933351       ,167
E6127WH/3,1,5055939933368       ,167
E6127WH/4,1,5055939933375       ,167
E6127WH/5,1,5055939933382       ,167
E6127WH/6,1,5055939936345       ,167
E6169BP/2,1,5055939973258       ,167
E6169BP/3,1,5055939973265       ,167
E6169BP/4,1,5055939973272       ,167
E6169BP/5,1,5055939973289       ,167
E6169BP/6,1,5055939973296       ,167
E6169CC/2,1,5055939973203       ,167
E6169CC/3,1,5055939973210       ,167
E6169CC/4,1,5055939973227       ,167
E6169CC/5,1,5055939973234       ,167
E6169CC/6,1,5055939973241       ,167
E6171BK/2,1,5055939973555       ,167
E6171BK/3,1,5055939973562       ,167
E6171BK/4,1,5055939973579       ,167
E6171BK/5,1,5055939973586       ,167
E6171BK/6,1,5055939973593       ,167
E6171BP/2,1,5055939973609       ,167
E6171BP/3,1,5055939973616       ,167
E6171BP/4,1,5055939973623       ,167
E6171BP/5,1,5055939973630       ,167
E6171BP/6,1,5055939973647       ,167
E6172BK/2,1,5055939973715       ,167
E6172BK/3,1,5055939973722       ,167
E6172BK/4,1,5055939973739       ,167
E6172BK/5,1,5055939973746       ,167
E6172BK/6,1,5055939973753       ,167
E6174CV/3,1,5055939976112       ,167
E6174CV/4,1,5055939976129       ,167
E6174CV/5,1,5055939976136       ,167
E6174WH/5,1,5055939976181       ,167
E6174WH/6,1,5055939976198       ,167
E6175GY/1,1,5055939976204       ,167
E6175GY/2,1,5055939976211       ,167
E6175GY/3,1,5055939976228       ,167
E6175GY/4,1,5055939976235       ,167
E6175GY/5,1,5055939976242       ,167
E6175GY/6,1,5055939976259       ,167
E6177BK/2,1,5055939976327       ,167
E6177BK/3,1,5055939976334       ,167
E6177BK/4,1,5055939976341       ,167
E6177BK/5,1,5055939976358       ,167
E6177BK/6,1,5055939976365       ,167
E6177BP/2,1,5055939976372       ,167
E6177BP/3,1,5055939976389       ,167
E6177BP/4,1,5055939976396       ,167
E6177BP/5,1,5055939976402       ,167
E6177BP/6,1,5055939976419       ,167
E6177CV/2,1,5055939976426       ,167
E6177CV/3,1,5055939976433       ,167
E6177CV/4,1,5055939976440       ,167
E6177CV/5,1,5055939976457       ,167
E6177CV/6,1,5055939976464       ,167
E6184BP/2,1,5055939976860       ,167
E6184BP/3,1,5055939976877       ,167
E6184BP/4,1,5055939976884       ,167
E6184BP/5,1,5055939976891       ,167
E6184BP/6,1,5055939976907       ,167
E6184CV/2,1,5055939976914       ,167
E6184CV/3,1,5055939976921       ,167
E6184CV/4,1,5055939976938       ,167
E6184CV/5,1,5055939976945       ,167
E6184CV/6,1,5055939976952       ,167
E6185BP/2,1,5055939976969       ,167
E6185BP/3,1,5055939976976       ,167
E6185BP/4,1,5055939976983       ,167
E6185BP/5,1,5055939976990       ,167
E6185BP/6,1,5055939977003       ,167
E6185CV/2,1,5055939977010       ,167
E6185CV/3,1,5055939977027       ,167
E6185CV/4,1,5055939977034       ,167
E6185CV/5,1,5055939977041       ,167
E6185CV/6,1,5055939977058       ,167
E6187CC/2,1,5055939977478       ,167
E6187CC/3,1,5055939977485       ,167
E6187CC/4,1,5055939977492       ,167
E6187CC/5,1,5055939977508       ,167
E6187CC/6,1,5055939977515       ,167
E6187GK/2,1,5055939977522       ,167
E6187GK/3,1,5055939977539       ,167
E6187GK/4,1,5055939977546       ,167
E6187GK/5,1,5055939977553       ,167
E6187GK/6,1,5055939977560       ,167
E7110BK/K11,1,5055205387895       ,167
E7110BK/K7,1,5055205387871       ,167
E7110BK/K9,1,5055205387888       ,167
E7127BK/4,1,5055939934365       ,167
E7127BK/5,1,5055939934372       ,167
E7127RD/3,1,5055939934389       ,167
E7127RD/4,1,5055939934396       ,167
E7127RD/5,1,5055939934402       ,167
E7128KH/0,1,5055939951324       ,167
E7128OT/0,1,5055939977461       ,167
E7131BK/K11,1,5055939949970       ,167
E7132BK/K11,1,5055939949994       ,167
E7136BA/0,1,5055939977393       ,167
E7136WH/0,1,5055939948942       ,167
E7145BA/K11,1,5055939978123       ,167
E7145BA/K7,1,5055939978109       ,167
E7145BA/K9,1,5055939978116       ,167
E7145OT/K11,1,5055939978093       ,167
E7145OT/K7,1,5055939978079       ,167
E7145OT/K9,1,5055939978086       ,167
E8084CC/4,1,5055939961040       ,167
E8084CC/5,1,5055939961057       ,167
E8102GF/4,1,5055939971285       ,167
E8102GF/6,1,5055939971308       ,167
E8103BA/3,1,5055939971377       ,167
E8103BA/5,1,5055939971391       ,167
E8103BA/7,1,5055939971414       ,167
E8103BA/S3,1,5055939978925       ,167
E8103BA/S4,1,5055939978932       ,167
E8103GF/3,1,5055939971520       ,167
E9106BV/2,1,5055939945712       ,167
E9106BV/3,1,5055939941370       ,167
E9106BV/4,1,5055939941387       ,167
E9106BV/5,1,5055939941394       ,167
E9106BV/6,1,5055939941400       ,167
E9106BV/7,1,5055939941417       ,167
E9106CG/2,1,5055939974958       ,167
E9106CG/3,1,5055939974965       ,167
E9106CG/4,1,5055939974972       ,167
E9106CG/5,1,5055939974989       ,167
E9106CG/6,1,5055939974996       ,167
E9106CG/7,1,5055939975009       ,167
E9106RD/2,1,5055939958620       ,167
E9106RD/3,1,5055939958637       ,167
E9106RD/4,1,5055939958644       ,167
E9106RD/5,1,5055939958651       ,167
E9106RD/6,1,5055939958668       ,167
E9106RD/7,1,5055939958675       ,167
E9108CE/2,1,5055939935546       ,167
E9108CE/3,1,5055939935553       ,167
E9108CE/4,1,5055939935560       ,167
E9108CE/5,1,5055939935577       ,167
E9147NA/4,1,5055939959474       ,167
E9147NA/5,1,5055939959481       ,167
E9147RR/3,1,5055939959511       ,167
E9147RR/4,1,5055939959528       ,167
E9150CV/4,1,5055939960364       ,167
E9150CV/5,1,5055939960371       ,167
E9150CV/6,1,5055939960388       ,167
E9150GK/3,1,5055939960401       ,167
E9150GK/4,1,5055939960418       ,167
E9150GK/5,1,5055939960425       ,167
E9151BK/3,1,5055939975894       ,167
E9151BK/4,1,5055939975900       ,167
E9151BK/5,1,5055939975917       ,167
E9151BK/6,1,5055939975924       ,167
E9151BK/7,1,5055939975931       ,167
E9151YV/4,1,5055939975962       ,167
E9151YV/5,1,5055939975979       ,167
E9151YV/6,1,5055939975986       ,167
E4070BK/M3,1,5055939979199       ,168
E4070BK/M4,2,5055939979205       ,168
E4070BK/M5,2,5055939979212       ,168
E4070BK/M6,2,5055939979229       ,168
E6170BK/3,1,5055939973319       ,170
E6170BK/4,1,5055939973326       ,170
E6170BK/5,1,5055939973333       ,170
E6170BK/6,1,5055939973340       ,170
E6170GK/2,1,5055939973357       ,170
E6170GK/3,1,5055939973364       ,170
E6170GK/4,1,5055939973371       ,170
E6170GK/5,1,5055939973388       ,170
E6170GK/6,1,5055939973395       ,170
E8101CC/4,1,5055939970783       ,170
E8101CC/5,1,5055939970790       ,170
E8101CC/6,1,5055939970806       ,170
E4069GY/3,1,5055939975535       ,174
E4069GY/4,1,5055939975542       ,174
E4069GY/5,1,5055939975559       ,174
E4069GY/6,1,5055939975566       ,174
E6174WH/4,1,5055939976174       ,174
E7143BC/K11,1,5055939981505       ,174
E7143BC/K7,1,5055939981482       ,174
E7143BC/K9,1,5055939981499       ,174
E3169BK/3,2,5055939954226       ,175
E3169BK/4,2,5055939954233       ,175
E3169BK/5,2,5055939954240       ,175
E3169BK/6,1,5055939954257       ,175
E3192GK/W5,1,5055939978741       ,175
E3192GK/W6,1,5055939978758       ,175
E3192RR/W4,1,5055939978833       ,175
E3192RR/W5,1,5055939978840       ,175
E3192RR/W6,1,5055939978857       ,175
E3192WH/W3,1,5055939978871       ,175
E3184GF/4,1,5055939970431       ,183
E3184GF/5,1,5055939970448       ,183
E3184GF/6,1,5055939970455       ,183
E3184OT/3,1,5055939970479       ,183
E3184OT/4,1,5055939970486       ,183
E3184OT/5,1,5055939970493       ,183
E0128BK/7,2,5055939904962       ,189
E1160KH/4,1,5055939928562       ,189
E1160KH/5,1,5055939928579       ,189
E1160RD/4,1,5055939928623       ,189
E1160RD/7,1,5055939928654       ,189
E1168NA/4,1,5055939929583       ,189
E1168NA/5,1,5055939929590       ,189
E1168NA/7,1,5055939929613       ,189
E6120BK/3,2,5055939932767       ,189
E6120BK/4,2,5055939932774       ,189
E6120BK/5,2,5055939932781       ,189
E7127BK/3,1,5055939934358       ,189
E9107WH/3,1,5055939935454       ,190
E9107WH/4,1,5055939935461       ,190
E9107WH/5,1,5055939935478       ,190
E1250CL,5,5055939955797       ,202
E6172BP/3,1,5055939973777       ,202
E6172BP/4,1,5055939973784       ,202
E6172BP/5,1,5055939973791       ,202
E6172CC/3,1,5055939973821       ,202
E6172CC/4,1,5055939973838       ,202
E6172CC/5,1,5055939973845       ,202
E1511BA/M-L,1,5055939971636       ,203
E1511BK/M-L,1,5055939930138       ,203
E1511RR/M-L,1,5055939959627       ,203
E1511WH/M-L,1,5055939930190       ,203
E3061W/3,1,5055205342467       ,203
E3061W/4,1,5055205342474       ,203
E3061W/5,1,5055205342481       ,203
E3061W/7,1,5055205342504       ,203
E3168BK/3,5,5055939954165       ,203
E3168BK/4,6,5055939954172       ,203
E3168BK/5,6,5055939954189       ,203
E3168BK/6,5,5055939954196       ,203
E3168BK/7,1,5055939954202       ,203
E3169BK/2,1,5055939954219       ,203
E3169BK/3,1,5055939954226       ,203
E3169BK/4,8,5055939954233       ,203
E3169BK/5,3,5055939954240       ,203
E3169BK/6,2,5055939954257       ,203
E4070BK/M4,1,5055939979205       ,203
E4070BK/M5,1,5055939979212       ,203
E4070BK/M6,1,5055939979229       ,203
E4070BK/M7,1,5055939979236       ,203
E6170BK/3,1,5055939973319       ,203
E6170BK/4,1,5055939973326       ,203
E6170BK/5,1,5055939973333       ,203
E6170GK/3,1,5055939973364       ,203
E6170GK/4,1,5055939973371       ,203
E6170GK/5,1,5055939973388       ,203
E6171BK/4,1,5055939973579       ,203
E6171BK/5,1,5055939973586       ,203
E6171BP/4,1,5055939973623       ,203
E6171BP/5,1,5055939973630       ,203
E6175GY/3,1,5055939976228       ,203
E6175GY/4,2,5055939976235       ,203
E6175GY/5,2,5055939976242       ,203
E6175GY/6,1,5055939976259       ,203
E6187CC/2,1,5055939977478       ,203
E6187CC/3,1,5055939977485       ,203
E6187GK/2,1,5055939977522       ,203
E6187GK/3,1,5055939977539       ,203
E7128KH/0,1,5055939951324       ,203
E7128OT/0,1,5055939977461       ,203
E7136BA/0,1,5055939977393       ,203
E7136WH/0,1,5055939948942       ,203
E9106BK/3,1,5055939935256       ,203
E9106BK/4,1,5055939935263       ,203
E9106BK/5,1,5055939935270       ,203
E9106BK/6,1,5055939935287       ,203
E9106BK/7,1,5055939935294       ,203
E9106BV/4,1,5055939941387       ,203
E9106BV/5,1,5055939941394       ,203
E9106BV/6,1,5055939941400       ,203
E9106CG/4,1,5055939974972       ,203
E9106CG/5,1,5055939974989       ,203
E9106CG/6,1,5055939974996       ,203
E3157BK/4,2,5055939941431       ,209
E3157BK/5,2,5055939941448       ,209
E3185BK/4,1,5055939970530       ,209
E3185BK/5,1,5055939970547       ,209
E3185BK/6,1,5055939970554       ,209
E3188BK/3,2,5055939971070       ,209
E3188BK/4,3,5055939971087       ,209
E3188BK/5,3,5055939971094       ,209
E3188BK/6,2,5055939971100       ,209
E3188BK/7,1,5055939971117       ,209
E3188LG/3,2,5055939971124       ,209
E3188LG/4,3,5055939971131       ,209
E3188LG/5,3,5055939971148       ,209
E3188LG/6,2,5055939971155       ,209
E3188NA/3,2,5055939971179       ,209
E3188NA/4,3,5055939971186       ,209
E3188NA/5,3,5055939971193       ,209
E3188NA/6,2,5055939971209       ,209
E3188NA/7,1,5055939971216       ,209
E3188OT/3,2,5055939978161       ,209
E3188OT/4,3,5055939978178       ,209
E3188OT/5,3,5055939978185       ,209
E3188OT/6,2,5055939978192       ,209
E6166CC/5,1,5055939972886       ,209
E6166CC/6,1,5055939972893       ,209
E6166WH/4,1,5055939978581       ,209
E6166WH/5,1,5055939978598       ,209
E6168CV/2,1,5055939973159       ,209
E6168CV/3,1,5055939973166       ,209
E6168CV/4,2,5055939973173       ,209
E6168CV/5,2,5055939973180       ,209
E6168CV/6,1,5055939973197       ,209
E6168GK/2,1,5055939978369       ,209
E6168GK/3,1,5055939978376       ,209
E6168GK/4,2,5055939978383       ,209
E6168GK/5,2,5055939978390       ,209
E6168GK/6,1,5055939978406       ,209
E7142BA/K11,1,5055939977294       ,209
E7142BA/K7,1,5055939977270       ,209
E7142BA/K9,1,5055939977287       ,209
E7142OT/K11,1,5055939977324       ,209
E7142OT/K7,1,5055939977300       ,209
E7142OT/K9,1,5055939977317       ,209
E9108BK/4,1,5055939935522       ,209
E3061W/6,1,5055205342498       ,211
E6170BK/2,1,5055939973302       ,211
E6170CR/2,1,5055939979601       ,211
E6170CR/3,2,5055939979618       ,211
E6170CR/4,2,5055939979625       ,211
E6170CR/5,2,5055939979632       ,211
E6170CR/6,1,5055939979649       ,211
E7144BA/K11,1,5055939977423       ,211
E7144BA/K7,1,5055939977409       ,211
E7144BA/K9,1,5055939977416       ,211
E7144OT/K11,1,5055939977454       ,211
E7144OT/K7,1,5055939977430       ,211
E7144OT/K9,1,5055939977447       ,211
E8102GF/3,1,5055939971278       ,211
E8102GF/5,1,5055939971292       ,211
E8103BA/3,1,5055939971377       ,211
E8103BA/4,2,5055939971384       ,211
E8103BA/5,1,5055939971391       ,211
E8103BA/6,1,5055939971407       ,211
E8103BA/S4,1,5055939978932       ,211
E8103BA/S5,2,5055939978949       ,211
E8103BA/S6,2,5055939978956       ,211
E8103BA/S7,1,5055939978963       ,211
E8103BK/3,2,5055939971421       ,211
E8103BK/4,2,5055939971438       ,211
E8103BK/5,2,5055939971445       ,211
E8103BK/6,1,5055939971452       ,211
E8103BK/7,1,5055939971469       ,211
E8103BK/S3,1,5055939978970       ,211
E8103BK/S4,2,5055939978987       ,211
E8103BK/S5,2,5055939978994       ,211
E8103BK/S6,2,5055939979007       ,211
E8103BK/S7,1,5055939979014       ,211
E8103GF/3,1,5055939971520       ,211
E8103GF/4,2,5055939971537       ,211
E8103GF/5,2,5055939971544       ,211
E8103GF/6,1,5055939971551       ,211
E8103GF/S3,1,5055939979076       ,211
E8103GF/S4,2,5055939979083       ,211
E8103GF/S5,2,5055939979090       ,211
E8103GF/S6,2,5055939979106       ,211
E8103OT/3,2,5055939971476       ,211
E8103OT/4,2,5055939971483       ,211
E8103OT/5,2,5055939971490       ,211
E8103OT/6,1,5055939971506       ,211
E8103OT/S3,1,5055939979021       ,211
E8103OT/S4,2,5055939979038       ,211
E8103OT/S5,2,5055939979045       ,211
E8103OT/S6,2,5055939979052       ,211
E9147BK/5,2,5055939977805       ,211
E9147BK/6,1,5055939977812       ,211
E1250CL,2,5055939955797       ,213
