SKU,Maximum allowed,Barcode/EAN,Days left
E0152BK/L-XL,1,5055939958125       ,42
E0152BK/S-M,1,5055939958118       ,42
E1042BK/L-XL,2,5055939923857       ,42
E1042BK/S-M,2,5055939923864       ,42
E1118BK/4,1,5055205389974       ,42
E1118BK/5,1,5055205389981       ,42
E1118BK/6,1,5055205389998       ,42
E1118BK/7,1,5055205390000       ,42
E1183BK/4,2,5055939944234       ,42
E1183BK/5,2,5055939944241       ,42
E1183BK/6,1,5055939944258       ,42
E1185BK/4,2,5055939944531       ,42
E1185BK/5,2,5055939944548       ,42
E1185BK/6,2,5055939944555       ,42
E1186BK/3,1,5055939944623       ,42
E1186BK/4,1,5055939944630       ,42
E1186BK/5,2,5055939944647       ,42
E1186BK/6,2,5055939944654       ,42
E1187BK/4,2,5055939944777       ,42
E1187BK/5,2,5055939944784       ,42
E1187BK/6,1,5055939944791       ,42
E1223BK/L-XL,2,5055939958613       ,42
E1223BK/S-M,2,5055939958606       ,42
E1224BK/4,2,5055939966274       ,42
E1224BK/5,2,5055939966281       ,42
E1224BK/6,2,5055939966298       ,42
E1227BK/L-XL,3,5055939966311       ,42
E1227BK/S-M,2,5055939959405       ,42
E5049BK/3,1,5055939924526       ,42
E5049BK/4,1,5055939924533       ,42
E5049BK/5,1,5055939924540       ,42
E5049BK/6,1,5055939924557       ,42
E5049BK/7,1,5055939924564       ,42
E5056BK/3,1,5055939941820       ,42
E5056BK/4,1,5055939941837       ,42
E5056BK/5,1,5055939941844       ,42
E5056BK/6,1,5055939941851       ,42
E5056BK/7,1,5055939941868       ,42
E6146BK/3,1,5055939942087       ,42
E6146BK/4,1,5055939942094       ,42
E6146BK/5,1,5055939942100       ,42
E8088BK/4,1,5055939943169       ,42
E9114BK/4,1,5055939941738       ,42
E9114BK/5,1,5055939941745       ,42
E9114GV/5,1,5055939941691       ,42
E9114GV/6,1,5055939941707       ,42
E9142BK/4,1,5055939957364       ,42
E9142BK/5,1,5055939957371       ,42
E9142BK/6,1,5055939957388       ,42
E9148BK/4,1,5055939960005       ,42
E9148BK/5,1,5055939960012       ,44
E9148BK/6,1,5055939960029       ,44
E7117WH/5,1,5055939917085       ,64
E3168BK/4,1,5055939954172       ,210
E3168BK/5,1,5055939954189       ,210
E3168BK/6,1,5055939954196       ,210
E3192GK/3,1,5055939974637       ,210
E3192GK/4,1,5055939974644       ,210
E3192GK/5,1,5055939974651       ,210
E3192WH/4,1,5055939974798       ,210
E3192WH/5,1,5055939974804       ,210
E3192WH/6,1,5055939974811       ,210
E4068GY/4,1,5055939975429       ,210
E4068GY/5,1,5055939975436       ,210
E4068GY/6,1,5055939975443       ,210
E4068GY/7,1,5055939975450       ,210
E4070BK/M6,1,5055939979229       ,210
E6132BK/3,1,5055939933726       ,210
E6132BK/4,1,5055939933733       ,210
E6132BK/5,1,5055939933740       ,210
E6174WH/3,1,5055939976167       ,210
E6174WH/4,1,5055939976174       ,210
E6174WH/5,1,5055939976181       ,210
E7117BK/3,1,5055939917016       ,210
