SKU,Maximum allowed,Barcode/EAN,Days left
E1505GV/M-L,1,5055939904450       ,30
E1505OR/M-L,1,5055939904511       ,30
E1505RD/M-L,1,5055939951270       ,30
E1506WH/M-L,1,5055939920085       ,30
E4055BK/3,1,5055939953069       ,30
E4055BK/5,1,5055939953083       ,30
E7128BK/0,1,5055939934419       ,30
E7128GY/0,1,5055939934426       ,30
E7128KH/0,1,5055939951324       ,30
E9130NA/4,1,5055939943695       ,30
E0035/3,2,5055205301440       ,42
E0105BK/S-M,1,5055205359816       ,42
E0110BK,1,5055205367224       ,42
E0110RR/0,1,5055939959719       ,42
E0110UM,1,5055205367248       ,42
E0128BK/4,2,5055939904931       ,42
E0128BK/5,2,5055939904948       ,42
E1234BK/S-M,1,5055939966816       ,42
E1234RD/S-M,1,5055939966854       ,42
E1251CL,4,5055939955803       ,42
E1518GF/L-XL,1,5055939948935       ,42
E3133GF/4,1,5055939957135       ,42
E3153GK/4,1,5055939956596       ,42
E3176NA/4,1,5055939957012       ,42
E3181NA/4,1,5055939958248       ,42
E3181NA/5,1,5055939958255       ,42
E3183BK/3,1,5055939959290       ,42
E3183BK/4,1,5055939959306       ,42
E3183BK/5,1,5055939959313       ,42
E3183BK/6,1,5055939959320       ,42
E3183GK/4,1,5055939960456       ,42
E3183RR/4,1,5055939960500       ,42
E5049BK/3,1,5055939924526       ,42
E5049BK/4,1,5055939924533       ,42
E5049BK/5,1,5055939924540       ,42
E6146BK/3,1,5055939942087       ,42
E7139BK/K11,1,5055939959238       ,42
E7139BK/K7,1,5055939959214       ,42
E7139BK/K9,1,5055939959221       ,42
E8100BK/4,1,5055939959146       ,42
E9117BK/4,1,5055939942179       ,42
E9117BK/5,1,5055939942186       ,42
E9119GF/4,1,5055939948997       ,42
E9143BK/3,1,5055939957456       ,42
E9143BK/4,1,5055939957463       ,42
E9143BK/5,1,5055939957470       ,42
E9143BK/6,1,5055939957487       ,42
E9144BK/3,1,5055939957555       ,42
E9144BK/4,1,5055939957562       ,42
E9144BK/5,1,5055939957579       ,42
E9144BK/6,1,5055939957586       ,42
E3181BK/4,1,5055939958194       ,50
E3181BK/5,1,5055939958200       ,50
E3181BK/6,1,5055939958217       ,50
E7120BK/3,1,5055939915494       ,50
E9145BK/3,1,5055939959085       ,50
E9145BK/4,1,5055939959092       ,50
E9145BK/5,1,5055939959108       ,50
E9145BK/6,1,5055939959115       ,50
E1187BK/5,1,5055939944784       ,58
E1196BK/M-L,1,5055939956510       ,58
E9117GF/4,1,5055939948157       ,58
E1184BK/4,1,5055939944432       ,66
E1184BK/5,1,5055939944449       ,66
E1184BK/6,1,5055939944456       ,66
E1204BK/4,1,5055939950570       ,66
E1204BK/5,1,5055939950587       ,66
E1204BK/6,1,5055939950594       ,66
E1204GC/4,1,5055939950679       ,66
E1204GC/5,1,5055939950686       ,66
E1204GC/6,1,5055939950693       ,66
E1234BK/L-XL,1,5055939966823       ,66
E1234GF/L-XL,1,5055939966847       ,66
E1234RD/L-XL,1,5055939966861       ,66
E3182AN/3,1,5055939959023       ,66
E3182AN/4,1,5055939959030       ,66
E3182AN/5,1,5055939959047       ,66
E7120BK/3,1,5055939915494       ,66
E9130NA/5,2,5055939943701       ,66
E9138GC/4,1,5055939949055       ,66
E9148BK/4,1,5055939960005       ,66
E9148BK/5,1,5055939960012       ,66
E7117BK/4,1,5055939917023       ,77
E7117BK/5,1,5055939917030       ,77
E8070BK/5,1,5055939916736       ,77
E8074BK/3,1,5055939924717       ,77
E8074BK/4,1,5055939924724       ,77
E8074BK/5,1,5055939924731       ,77
E9148BK/5,1,5055939960012       ,77
E0110BK,2,5055205367224       ,112
E0110UM,1,5055205367248       ,112
E0128BK/4,1,5055939904931       ,112
E3183BK/3,1,5055939959290       ,112
E5049BK/3,1,5055939924526       ,112
E5049BK/6,2,5055939924557       ,112
E9119GF/4,1,5055939948997       ,115
E9119GF/5,2,5055939949000       ,115
E9130NA/6,1,5055939943718       ,126
