CBR0005GY/4,1
CBR0005GY/5,1
CBR0005GY/6,1
CBR0005GY/7,1
E0060/3,1
E0060/5,1
E0083BK/3,1
E0083BK/4,1
E0083BK/5,1
E0083BK/6,1
E0095/4,1
E0095/5,1
E0095/6,1
E0128BK/3,1
E0128BK/4,1
E0128BK/5,1
E0128BK/7,1
E0151MY/0,1
E0151PT/0,1
E1028AN/0,1
E1043BK/L-XL,1
E1043BK/S-M,1
E1183BK/5,1
E1183BK/6,1
E1188BK/4,1
E1188BK/5,1
E1188BK/6,1
E1224BK/3,1
E1224BK/4,1
E1224BK/5,1
E1224BK/6,1
E1224BK/7,1
E1301BK/4,1
E1301BK/6,1
