CBR0005GY/4,2
CBR0005GY/5,2
CBR0005GY/6,1
E0052,1
E0053,1
E0083BK/4,1
E0083BK/5,1
E0083BK/6,1
E0105BK/L-XL,1
E0128BK/6,1
E0151MY/0,1
E0151PT/0,1
E1043BK/L-XL,1
E1102,1
E1128WH/L-XL,1
E1160BK/4,2
E1160BK/5,2
E1160BK/6,1
E1183BK/3,1
E1183BK/6,1
E1188BK/7,1
E1216BK/6,1
E1216BK/7,1
E1224BK/4,1
E1224BK/5,1
E1224BK/6,2
E3069BK/7,1
E8070GF/4,1
E8070GF/5,1
E8070GF/6,1
E8088BK/4,1
E8088BK/5,1
