E0060/4,1
E0110BK,1
E1145BK/3,1
E1145BK/7,1
E1183BK/6,1
E1216BK/3,1
E3029/4,1
E3029/5,1
E3029/6,1
E3181NA/4,1
E3181NA/5,1
E3181NA/6,1
E3181RR/4,1
E3181RR/5,1
E3181RR/6,1
E5049BK/3,1
E5049BK/7,1
E9120YV/5,1
