SKU,Maximum allowed,Barcode/EAN,Days left
E4030BK/3,1,5055939917474       ,2
E0062/5,2,5055205323787       ,15
E0063/2,1,5055205323817       ,15
E0063/3,1,5055205323824       ,15
E0063/4,1,5055205323831       ,15
E6066BK/3,1,5055205363738       ,15
E6066BK/4,1,5055205363745       ,15
E8088BK/3,1,5055939943152       ,15
E9120YV/6,1,5055939943282       ,15
E8070BK/4,1,5055939916729       ,201
E0062/3,1,5055205323763       ,206
E0062/4,2,5055205323770       ,206
E0062/5,2,5055205323787       ,206
E0062/6,2,5055205323794       ,206
E0063/2,1,5055205323817       ,206
E0063/3,1,5055205323824       ,206
E0063/4,1,5055205323831       ,206
E0063/5,1,5055205323848       ,206
E0063/6,1,5055205370842       ,206
E1108BK/L-XL,1,5055205387987       ,206
E1108BK/S-M,1,5055205387970       ,206
E1109BK/L-XL,1,5055205388014       ,206
E1109BK/M-L,1,5055205388007       ,206
E3123KH/4,1,5055939930480       ,206
E3123KH/5,1,5055939930497       ,206
E3123OM/4,1,5055939930534       ,206
E3123OM/5,1,5055939930541       ,206
E3123OM/6,1,5055939930558       ,206
E4031BK/3,1,5055939916965       ,206
E4031BK/4,1,5055939916972       ,206
E4031BK/5,1,5055939916989       ,206
E4031BK/6,1,5055939916996       ,206
E6124BK/2,1,5055939932996       ,206
E6124BK/3,1,5055939933009       ,206
E6124BK/4,1,5055939933016       ,206
E6124BK/5,1,5055939933023       ,206
E8064KH/3,1,5055939916057       ,206
E8064KH/4,2,5055939916064       ,206
E8064KH/5,2,5055939916071       ,206
E8064KH/6,1,5055939916088       ,206
E8067NA/3,1,5055939949291       ,206
E8067NA/4,1,5055939949307       ,206
E8067NA/5,1,5055939949314       ,206
E8067NA/6,1,5055939949321       ,206
E8076BK/3,1,5055939924816       ,206
E8076BK/5,1,5055939924830       ,206
E8076BK/6,1,5055939924847       ,206
E8077BK/3,1,5055939924878       ,206
E8077BK/4,1,5055939924885       ,206
E8076BK/4,1,5055939924823       ,208
