INVOICE,SIN534134
YOUR REF,SOR320482
DATE,23/04/2018
VALUE,2206.64


SKU,Qty,Value,Name,Colour,Size
E8070BK/4       ,3,136.23,MT500 Spray Baggy Short II,Black,M
E8064BK/4       ,2,63.52,Hummvee Short II with liner,Black,M
E8064BK/5       ,2,63.52,Hummvee Short II with liner,Black,L
E8064BK/6       ,2,63.52,Hummvee Short II with liner,Black,XL
E8064BK/7       ,1,31.76,Hummvee Short II with liner,Black,XXL
E8064BK/8       ,1,31.76,Hummvee Short II with liner,Black,XXXL
E8064GY/3       ,1,31.76,Hummvee Short II with liner,Grey,S
E8064GY/4       ,1,31.76,Hummvee Short II with liner,Grey,M
E8064GY/5       ,1,31.76,Hummvee Short II with liner,Grey,L
E8064GY/6       ,1,31.76,Hummvee Short II with liner,Grey,XL
E3125BK/3       ,1,22.66,Hummvee S/S Jersey,Black,S
E3125BK/4       ,1,22.66,Hummvee S/S Jersey,Black,M
E3125BK/5       ,1,22.66,Hummvee S/S Jersey,Black,L
E3125BK/6       ,1,22.66,Hummvee S/S Jersey,Black,XL
E3125BK/7       ,1,22.66,Hummvee S/S Jersey,Black,XXL
E3125BK/8       ,1,22.66,Hummvee S/S Jersey,Black,XXXL
E3125KH/4       ,1,22.66,Hummvee S/S Jersey,Khaki,M
E3125KH/5       ,1,22.66,Hummvee S/S Jersey,Khaki,L
E3125KH/6       ,1,22.66,Hummvee S/S Jersey,Khaki,XL
E4014BK/3       ,1,31.76,Xtract Gel Bib Short,Black,S
E4014BK/4       ,2,63.52,Xtract Gel Bib Short,Black,M
E4014BK/5       ,2,63.52,Xtract Gel Bib Short,Black,L
E4014BK/6       ,2,63.52,Xtract Gel Bib Short,Black,XL
E4014BK/7       ,1,31.76,Xtract Gel Bib Short,Black,XXL
E4014BK/8       ,1,31.76,Xtract Gel Bib Short,Black,XXXL
E3140BK/3       ,1,22.66,Xtract II Jersey ,Black,S
E3140BK/4       ,1,22.66,Xtract II Jersey ,Black,M
E3140BK/5       ,1,22.66,Xtract II Jersey ,Black,L
E3140BK/6       ,1,22.66,Xtract II Jersey ,Black,XL
E3140BK/7       ,1,22.66,Xtract II Jersey ,Black,XXL
E3140OC/4       ,1,22.66,Xtract II Jersey ,Ocean,M
E3140OC/5       ,1,22.66,Xtract II Jersey ,Ocean,L
E3140OC/6       ,1,22.66,Xtract II Jersey ,Ocean,XL
E3134BK/4       ,1,31.76,Xtract Roubaix L/S Jersey,Black,M
E3134BK/5       ,1,31.76,Xtract Roubaix L/S Jersey,Black,L
E3134BK/6       ,1,31.76,Xtract Roubaix L/S Jersey,Black,XL
E3134GV/5       ,1,31.76,Xtract Roubaix L/S Jersey,Hi-Viz Green,L
E3134GV/6       ,1,31.76,Xtract Roubaix L/S Jersey,Hi-Viz Green,XL
E9071BK/4       ,1,36.31,Xtract Jacket,Black,M
E9071BK/5       ,1,36.31,Xtract Jacket,Black,L
E9071BK/6       ,1,36.31,Xtract Jacket,Black,XL
E9071YV/5       ,1,36.31,Xtract Jacket,Hi-Viz Yellow,L
E9071YV/6       ,1,36.31,Xtract Jacket,Hi-Viz Yellow,XL
E9095BK/3       ,1,18.11,Pakagilet II,Black,S
E9095BK/4       ,1,18.11,Pakagilet II,Black,M
E9095BK/5       ,1,18.11,Pakagilet II,Black,L
E9095BK/6       ,1,18.11,Pakagilet II,Black,XL
E9095YV/4       ,1,18.11,Pakagilet II,Hi-Viz Yellow,M
E9095YV/5       ,1,18.11,Pakagilet II,Hi-Viz Yellow,L
E9095YV/6       ,1,18.11,Pakagilet II,Hi-Viz Yellow,XL
E6106BK/4       ,1,31.76,Women's Hummvee Short II,Black,M
E6106BK/5       ,1,31.76,Women's Hummvee Short II,Black,L
E6091BK/2       ,1,22.66,Wms Xtract Short II,Black,XS
E6091BK/3       ,2,45.32,Wms Xtract Short II,Black,S
E6091BK/4       ,2,45.32,Wms Xtract Short II,Black,M
E6091BK/5       ,2,45.32,Wms Xtract Short II,Black,L
E6091BK/6       ,1,22.66,Wms Xtract Short II,Black,XL
E6091BK/7       ,1,22.66,Wms Xtract Short II,Black,XXL
E6061MG/3       ,1,13.01,Wms Xtract Jersey,Mint Green,S
E6061MG/4       ,1,13.01,Wms Xtract Jersey,Mint Green,M
E6061MG/5       ,1,13.01,Wms Xtract Jersey,Mint Green,L
E6039/3         ,1,19.18,Wms Hummvee Jersey,Black/None,S
E6039/4         ,1,19.18,Wms Hummvee Jersey,Black/None,M
E6039/5         ,1,19.18,Wms Hummvee Jersey,Black/None,L
E6039/6         ,1,19.18,Wms Hummvee Jersey,Black/None,XL
E9104CO/3       ,1,31.76,Women's Xtract Roubaix L/S Jersey,Cobalt Blue,S
E9104CO/4       ,1,31.76,Women's Xtract Roubaix L/S Jersey,Cobalt Blue,M
E9104CO/5       ,1,31.76,Women's Xtract Roubaix L/S Jersey,Cobalt Blue,L
E9104CR/4       ,1,31.76,Women's Xtract Roubaix L/S Jersey,Coral,M
E9069PV/3       ,1,40.86,Wms Gridlock II Jacket,Hi-Viz Pink,S
