INVOICE,SIN656583
YOUR REF,SOR404220
DATE,16/01/2020
VALUE,94.08


SKU,Qty,Value,Name,Colour,Size
E8088BK/4       ,1,39.20,Hummvee Waterproof Trouser,Black,M
E8088BK/5       ,1,39.20,Hummvee Waterproof Trouser,Black,L
