INVOICE,SIN556307
YOUR REF,AW18
DATE,30/08/2018
VALUE,1151.24


SKU,Qty,Value,Name,Colour,Size
E9117BK/5       ,2,211.76,MT500 Waterproof Jacket,Black,L
E9117BK/6       ,2,211.76,MT500 Waterproof Jacket,Black,XL
E9117BK/7       ,1,105.88,MT500 Waterproof Jacket,Black,XXL
E9119PW/5       ,1,59.81,SingleTrack Softshell II,Pewter Grey,L
E9119PW/6       ,1,59.81,SingleTrack Softshell II,Pewter Grey,XL
E8083BK/5       ,2,200.89,MT500 Waterproof Trouser,Black,L
E8083BK/6       ,2,200.89,MT500 Waterproof Trouser,Black,XL
E8083BK/7       ,1,100.44,MT500 Waterproof Trouser,Black,XXL
