SKU,Maximum allowed,Barcode/EAN,Days left
E1048BK/L-XL,1,5055939928197       ,25
E9106BK/4,1,5055939935263       ,25
E9107BK/4,1,5055939935416       ,25
E9108BK/2,2,5055939935508       ,25
E9109BK/2,2,5055939935584       ,25
E9140BV/6,1,5055939953557       ,25
E0110BK,2,5055205367224       ,40
E0110BP/0,2,5055939959726       ,40
E0110RR/0,2,5055939959719       ,40
E0110UM,2,5055205367248       ,40
E0110YM/0,2,5055939959702       ,40
E0116PK,2,5055205381046       ,40
E0128BK/3,1,5055939904924       ,40
E0128BK/4,1,5055939904931       ,40
E0128BK/5,1,5055939904948       ,40
E0128BK/6,1,5055939904955       ,40
E0128BK/7,1,5055939904962       ,40
E0152BK/L-XL,2,5055939958125       ,40
E0152BK/S-M,1,5055939958118       ,40
E1038BK/L-XL,2,5055939906706       ,40
E1038BK/S-M,1,5055939906690       ,40
E1039BK/L-XL,2,5055939906720       ,40
E1039BK/S-M,1,5055939906713       ,40
E1120BK/3,1,5055205390215       ,40
E1120BK/4,1,5055205390222       ,40
E1120BK/5,1,5055205390239       ,40
E1120BK/6,1,5055205390246       ,40
E1120BK/7,1,5055205390253       ,40
E1184BK/3,1,5055939944425       ,40
E1184BK/4,1,5055939944432       ,40
E1184BK/5,1,5055939944449       ,40
E1184BK/6,1,5055939944456       ,40
E1184BK/7,1,5055939944463       ,40
E1184GF/3,1,5055939959566       ,40
E1184GF/4,1,5055939959573       ,40
E1184GF/5,1,5055939959580       ,40
E1184GF/6,1,5055939959597       ,40
E1184GF/7,1,5055939959603       ,40
E1185BK/3,1,5055939944524       ,40
E1185BK/4,1,5055939944531       ,40
E1185BK/5,1,5055939944548       ,40
E1185BK/6,1,5055939944555       ,40
E1185BK/7,1,5055939944562       ,40
E1186BK/3,1,5055939944623       ,40
E1186BK/4,1,5055939944630       ,40
E1186BK/5,1,5055939944647       ,40
E1186BK/6,1,5055939944654       ,40
E1186BK/7,1,5055939944661       ,40
E1187BK/6,1,5055939944791       ,40
E1187BK/7,1,5055939944807       ,40
E1218BK/L-XL,1,5055939958521       ,40
E1218BK/M-L,1,5055939958514       ,40
E1218BK/S-M,1,5055939958507       ,40
E1219BK/L-XL,2,5055939958545       ,40
E1219BK/S-M,1,5055939958538       ,40
E1220BK/L-XL,2,5055939958569       ,40
E1220BK/S-M,1,5055939958552       ,40
E1222BK/0,2,5055939958590       ,40
E1223BK/L-XL,2,5055939958613       ,40
E1223BK/S-M,1,5055939958606       ,40
E1224BK/3,1,5055939958804       ,40
E1224BK/4,1,5055939966274       ,40
E1224BK/5,1,5055939966281       ,40
E1224BK/6,1,5055939966298       ,40
E1224BK/7,1,5055939966304       ,40
E1226BK/0,2,5055939959399       ,40
E1226GK/0,2,5055939960593       ,40
E1227BK/L-XL,2,5055939966311       ,40
E1227BK/S-M,1,5055939959405       ,40
E1227GK/L-XL,2,5055939966328       ,40
E1227GK/S-M,1,5055939960616       ,40
E1227RR/L-XL,2,5055939966335       ,40
E1227RR/S-M,1,5055939960609       ,40
E3134BK/3,1,5055939924373       ,40
E3134BK/4,1,5055939924380       ,40
E3134BK/5,1,5055939924397       ,40
E3134BK/6,1,5055939924403       ,40
E3134BK/7,1,5055939924410       ,40
E3134RD/3,1,5055939924328       ,40
E3134RD/4,1,5055939924335       ,40
E3134RD/5,1,5055939924342       ,40
E3134RD/6,1,5055939924359       ,40
E3178BK/3,1,5055939957869       ,40
E3178BK/4,1,5055939957876       ,40
E3178BK/5,1,5055939957883       ,40
E3178BK/6,1,5055939957890       ,40
E3183BK/3,1,5055939959290       ,40
E3183BK/4,1,5055939959306       ,40
E3183BK/5,1,5055939959313       ,40
E3183BK/6,1,5055939959320       ,40
E3183BK/7,1,5055939959337       ,40
E3183GK/4,1,5055939960456       ,40
E3183GK/5,1,5055939960463       ,40
E3183GK/6,1,5055939960470       ,40
E3183RR/4,1,5055939960500       ,40
E3183RR/5,1,5055939960517       ,40
E3183RR/6,1,5055939960524       ,40
E5049BK/3,1,5055939924526       ,40
E5049BK/4,1,5055939924533       ,40
E5049BK/5,1,5055939924540       ,40
E5049BK/6,1,5055939924557       ,40
E5049BK/7,1,5055939924564       ,40
E5056BK/3,1,5055939941820       ,40
E5056BK/4,1,5055939941837       ,40
E5056BK/5,1,5055939941844       ,40
E5056BK/6,1,5055939941851       ,40
E5056BK/7,1,5055939941868       ,40
E6040BK/2,1,5055939904979       ,40
E6040BK/3,1,5055939904986       ,40
E6040BK/4,1,5055939904993       ,40
E6040BK/5,1,5055939905006       ,40
E6147BK/2,1,5055939944722       ,40
E6147BK/3,1,5055939944739       ,40
E6147BK/4,1,5055939944746       ,40
E6147BK/5,1,5055939944753       ,40
E6163BK/3,1,5055939958828       ,40
E6163BK/4,1,5055939958835       ,40
E6163BK/5,1,5055939958842       ,40
E6164GK/3,1,5055939958873       ,40
E6164GK/4,1,5055939958880       ,40
E6165BK/3,1,5055939959351       ,40
E6165BK/4,1,5055939959368       ,40
E6165BK/5,1,5055939959375       ,40
E6165BK/6,1,5055939959382       ,40
E6165BP/3,1,5055939960555       ,40
E6165BP/4,1,5055939960562       ,40
E6165BP/5,1,5055939960579       ,40
E9102BK/3,1,5055939925516       ,40
E9102BK/4,1,5055939925523       ,40
E9102BK/5,1,5055939925530       ,40
E9102BK/6,1,5055939925547       ,40
E9102BK/7,1,5055939925554       ,40
E9102RD/3,1,5055939925462       ,40
E9102RD/4,1,5055939925479       ,40
E9102RD/5,1,5055939925486       ,40
E9102RD/6,1,5055939925493       ,40
E9120KH/3,1,5055939943305       ,40
E9120KH/4,1,5055939943312       ,40
E9120KH/5,1,5055939943329       ,40
E9122BK/5,1,5055939945385       ,40
E9122BK/6,1,5055939945392       ,40
E9122BV/4,1,5055939945422       ,40
E9122BV/5,1,5055939945439       ,40
E9129BP/2,1,5055939943602       ,40
E9129BP/3,1,5055939943619       ,40
E9129BP/4,1,5055939943626       ,40
E9129BP/5,1,5055939943633       ,40
E9138RR/3,1,5055939960241       ,40
E9138RR/4,1,5055939960258       ,40
E9138RR/5,1,5055939960265       ,40
E9138RR/6,1,5055939960272       ,40
E9142GK/4,1,5055939957418       ,40
E9142GK/5,1,5055939957425       ,40
E9143GK/4,1,5055939957517       ,40
E9143GK/5,1,5055939957524       ,40
E9144BV/4,1,5055939957616       ,40
E9144BV/5,1,5055939957623       ,40
E9149BP/4,1,5055939960067       ,40
E9149BP/5,1,5055939960074       ,40
E1187BK/3,1,5055939944760       ,45
E1187BK/4,1,5055939944777       ,45
E1187BK/5,1,5055939944784       ,45
E9117YM/4,1,5055939960999       ,45
E9117YM/5,1,5055939961002       ,45
E9147RR/3,1,5055939959511       ,45
E9147RR/4,1,5055939959528       ,45
E9147RR/5,1,5055939959535       ,45
E9147RR/6,1,5055939959542       ,45
E9150GK/3,1,5055939960401       ,45
E9150GK/4,1,5055939960418       ,45
E9150GK/5,1,5055939960425       ,45
E3181BK/3,1,5055939958187       ,51
E3181BK/4,1,5055939958194       ,51
E3181BK/5,1,5055939958200       ,51
E3181BK/6,1,5055939958217       ,51
E3181BK/7,1,5055939958224       ,51
E3181RR/3,1,5055939958286       ,51
E3181RR/4,1,5055939958293       ,51
E3181RR/5,1,5055939958309       ,51
E3181RR/6,1,5055939958316       ,51
E6164GK/5,1,5055939958897       ,51
E9120KH/6,1,5055939943336       ,51
E9120KH/7,1,5055939943343       ,51
E9147GF/3,1,5055939959412       ,51
E9147GF/4,1,5055939959429       ,51
E9147GF/5,1,5055939959436       ,51
E9147GF/6,1,5055939959443       ,51
E4041BK/4,1,5055939924489       ,75
E5055BK/6,1,5055939941509       ,75
E9113BV/7,1,5055939941219       ,75
E9142BK/5,1,5055939957371       ,75
E6124BK/6,1,5055939938233       ,95
E5055BK/4,1,5055939941486       ,96
E8088BK/5,1,5055939943176       ,96
E0128BK/2,1,5055939904917       ,102
E0128BK/4,1,5055939904931       ,102
E0128BK/5,1,5055939904948       ,102
E0128BK/6,1,5055939904955       ,102
E1187BK/4,1,5055939944777       ,102
E1187BK/5,1,5055939944784       ,102
E1187BK/6,1,5055939944791       ,102
E3109BK/7,1,5055939908991       ,102
E5055BK/6,1,5055939941509       ,115
E1219BK/L-XL,1,5055939958545       ,178
E1220BK/L-XL,1,5055939958569       ,178
E4041BK/5,1,5055939924496       ,178
E9149CV/2,1,5055939960098       ,178
E1186BK/2,1,5055939945248       ,192
E9144BK/7,1,5055939957593       ,192
E0128BK/5,1,5055939904948       ,199
E1186BK/5,1,5055939944647       ,199
E1186BK/6,1,5055939944654       ,199
E1186BK/7,1,5055939944661       ,199
E0151RR/0,2,5055939960685       ,202
E1165BK/3,1,5055939928845       ,202
E1165BK/4,1,5055939928852       ,202
E1165BK/5,1,5055939928869       ,202
E1165BK/6,1,5055939928876       ,202
E1165BK/7,1,5055939928883       ,202
E1165OC/3,1,5055939928944       ,202
E1165OC/5,1,5055939928968       ,202
E1165OC/6,1,5055939928975       ,202
E1165OC/7,1,5055939928982       ,202
E1165RD/3,1,5055939929002       ,202
E1165RD/4,1,5055939929019       ,202
E1165RD/5,1,5055939929026       ,202
E1165RD/6,1,5055939929033       ,202
E1165RD/7,1,5055939929040       ,202
E1166BK/3,1,5055939929064       ,202
E1166BK/4,1,5055939929071       ,202
E1166BK/5,1,5055939929088       ,202
E1166BK/6,1,5055939929095       ,202
E1166BK/7,1,5055939929101       ,202
E1166NA/3,1,5055939952727       ,202
E1166NA/4,1,5055939952734       ,202
E1166NA/5,1,5055939952741       ,202
E1166NA/6,1,5055939952758       ,202
E1166NA/7,1,5055939952765       ,202
E1166RR/3,1,5055939974903       ,202
E1166RR/4,1,5055939974910       ,202
E1166RR/5,1,5055939974927       ,202
E1166RR/6,1,5055939974934       ,202
E1166RR/7,1,5055939974941       ,202
E1258BK/4,1,5055939972619       ,202
E1258BK/5,1,5055939972626       ,202
E1258BK/7,1,5055939972640       ,202
E1259BK/2,1,5055939975580       ,202
E1259BK/3,1,5055939975597       ,202
E1259BK/4,1,5055939975603       ,202
E1259BK/5,1,5055939975610       ,202
E1259BK/6,1,5055939975627       ,202
E1259BK/7,1,5055939975634       ,202
E1259GK/2,1,5055939975641       ,202
E1259GK/3,1,5055939975658       ,202
E1259GK/4,1,5055939975665       ,202
E1259GK/5,1,5055939975672       ,202
E1259GK/6,1,5055939975689       ,202
E1259GK/7,1,5055939975696       ,202
E1263WH/L-XL,1,5055939978444       ,202
E1263WH/S-M,1,5055939978437       ,202
E1264GK/L-XL,1,5055939977645       ,202
E1264RR/L-XL,1,5055939978420       ,202
E1264RR/S-M,1,5055939978413       ,202
E1265BP/0,1,5055939977669       ,202
E3061W/3,1,5055205342467       ,202
E3061W/4,1,5055205342474       ,202
E3061W/5,1,5055205342481       ,202
E3063W/3,1,5055205343624       ,202
E3063W/4,1,5055205343631       ,202
E3063W/5,1,5055205343648       ,202
E3063W/6,1,5055205343655       ,202
E3063W/7,1,5055205343662       ,202
E3125CC/3,1,5055939972503       ,202
E3125CC/4,1,5055939972510       ,202
E3125CC/5,1,5055939972527       ,202
E3125CC/7,1,5055939972541       ,202
E3125NA/3,1,5055939950822       ,202
E3125NA/4,1,5055939950839       ,202
E3125NA/5,1,5055939950846       ,202
E3125NA/6,1,5055939950853       ,202
E3125NA/7,1,5055939950860       ,202
E3125NA/8,1,5055939950877       ,202
E3184BK/4,1,5055939970387       ,202
E3184BK/5,1,5055939970394       ,202
E3184OT/4,1,5055939970486       ,202
E3184OT/5,1,5055939970493       ,202
E3189BA/4,1,5055939972350       ,202
E3189BA/5,1,5055939972367       ,202
E3189BA/6,1,5055939972374       ,202
E3189CC/4,1,5055939972459       ,202
E3189CC/5,1,5055939972466       ,202
E3192GK/W3,1,5055939978727       ,202
E3192GK/W4,1,5055939978734       ,202
E3192GK/W5,1,5055939978741       ,202
E3192GK/W6,1,5055939978758       ,202
E3192GK/W7,1,5055939978765       ,202
E3192RR/W3,1,5055939978826       ,202
E3192RR/W4,1,5055939978833       ,202
E3192RR/W5,1,5055939978840       ,202
E3192RR/W6,1,5055939978857       ,202
E3192RR/W7,1,5055939978864       ,202
E3193BK/3,1,5055939975771       ,202
E3193BK/4,1,5055939975788       ,202
E3193BK/5,1,5055939975795       ,202
E3193BK/6,1,5055939975801       ,202
E3193YV/3,1,5055939975832       ,202
E3193YV/4,1,5055939975849       ,202
E3193YV/5,1,5055939975856       ,202
E3193YV/6,1,5055939975863       ,202
E4054BK/3,1,5055939953168       ,202
E4054BK/8,1,5055939955094       ,202
E4070BK/M4,1,5055939979205       ,202
E4070BK/M5,1,5055939979212       ,202
E4070BK/M6,1,5055939979229       ,202
E6124BK/3,1,5055939933009       ,202
E6124BK/4,1,5055939933016       ,202
E6124BK/5,1,5055939933023       ,202
E6124BK/6,1,5055939938233       ,202
E6126BK/2,1,5055939933153       ,202
E6126BK/3,1,5055939933160       ,202
E6126BK/4,1,5055939933177       ,202
E6126BK/5,1,5055939933184       ,202
E6126BK/6,1,5055939936383       ,202
E6126CE/2,1,5055939933191       ,202
E6126CE/3,1,5055939933207       ,202
E6126CE/4,1,5055939933214       ,202
E6126CE/5,1,5055939933221       ,202
E6126CE/6,1,5055939936390       ,202
E6127BP/3,1,5055939952789       ,202
E6127BP/4,1,5055939952796       ,202
E6127BP/5,1,5055939952802       ,202
E6132BK/2,1,5055939933719       ,202
E6132BK/3,1,5055939933726       ,202
E6132BK/4,1,5055939933733       ,202
E6132BK/5,1,5055939933740       ,202
E6132BK/6,1,5055939936314       ,202
E6153BK/3,1,5055939953281       ,202
E6153BK/4,1,5055939953298       ,202
E6153BK/5,1,5055939953304       ,202
E6153BK/6,1,5055939953311       ,202
E6153BK/7,1,5055939953328       ,202
E6171BK/3,1,5055939973562       ,202
E6171BK/4,1,5055939973579       ,202
E6171BK/5,1,5055939973586       ,202
E6171BK/6,1,5055939973593       ,202
E6171BP/2,1,5055939973609       ,202
E6171BP/4,1,5055939973623       ,202
E6171BP/6,1,5055939973647       ,202
E6172BK/2,1,5055939973715       ,202
E6172BK/3,1,5055939973722       ,202
E6172BK/4,1,5055939973739       ,202
E6172BK/5,1,5055939973746       ,202
E6177BK/2,1,5055939976327       ,202
E6177BK/3,1,5055939976334       ,202
E6177BK/4,1,5055939976341       ,202
E6177BK/5,1,5055939976358       ,202
E6177BP/2,1,5055939976372       ,202
E6177BP/3,1,5055939976389       ,202
E6177BP/4,1,5055939976396       ,202
E6177BP/5,1,5055939976402       ,202
E6177BP/6,1,5055939976419       ,202
E6187CC/3,1,5055939977485       ,202
E6187CC/4,1,5055939977492       ,202
E6187CC/5,1,5055939977508       ,202
E6187CC/6,1,5055939977515       ,202
E7117BK/3,1,5055939917016       ,202
E7117BK/6,1,5055939917047       ,202
E7118BK/3,1,5055939914879       ,202
E8064CC/3,1,5055939972220       ,202
E8064CC/4,1,5055939972237       ,202
E8064CC/5,1,5055939972244       ,202
E8064CC/6,1,5055939972251       ,202
E8064GY/3,1,5055939916217       ,202
E8064GY/4,1,5055939916224       ,202
E8064GY/5,1,5055939916231       ,202
E8064GY/6,1,5055939916248       ,202
E8064GY/7,1,5055939916255       ,202
E8064GY/8,1,5055939916262       ,202
E8064GY/9,1,5055939916279       ,202
E8064NA/3,1,5055939950891       ,202
E8064NA/4,1,5055939950907       ,202
E8064NA/5,1,5055939950914       ,202
E8064NA/6,1,5055939950921       ,202
E8101CC/4,1,5055939970783       ,202
E8101CC/5,1,5055939970790       ,202
E8101CC/6,1,5055939970806       ,202
E9106BV/4,1,5055939941387       ,202
E9106BV/5,1,5055939941394       ,202
E9106BV/6,1,5055939941400       ,202
E9106BV/7,1,5055939941417       ,202
E9106CG/3,1,5055939974965       ,202
E9106CG/4,1,5055939974972       ,202
E9106CG/5,1,5055939974989       ,202
E9106CG/6,1,5055939974996       ,202
E9106CG/7,1,5055939975009       ,202
E9106RD/3,1,5055939958637       ,202
E9106RD/4,1,5055939958644       ,202
E9106RD/5,1,5055939958651       ,202
E9106RD/6,1,5055939958668       ,202
E9106RD/7,1,5055939958675       ,202
E1165OC/4,1,5055939928951       ,207
E1258BK/3,1,5055939972602       ,207
E1264GK/S-M,1,5055939977638       ,207
E1266BP/0,1,5055939977676       ,207
E3061W/6,1,5055205342498       ,207
E3125CC/6,1,5055939972534       ,207
E3189CC/6,1,5055939972473       ,207
E4054BK/6,1,5055939953199       ,207
E4054RD/3,1,5055939953212       ,207
E4054RD/4,1,5055939953229       ,207
E4054RD/5,1,5055939953236       ,207
E4054RD/6,1,5055939953243       ,207
E4054RD/7,1,5055939953250       ,207
E4055BK/4,1,5055939953076       ,207
E6127BK/3,1,5055939933320       ,207
E6127BK/4,1,5055939933337       ,207
E6127BK/5,1,5055939933344       ,207
E6127BK/6,1,5055939936338       ,207
E6171BK/2,1,5055939973555       ,207
E6171BP/3,1,5055939973616       ,207
E6171BP/5,1,5055939973630       ,207
E6187GK/3,1,5055939977539       ,207
E6187GK/4,1,5055939977546       ,207
E6187GK/5,1,5055939977553       ,207
E7117BK/4,1,5055939917023       ,207
E7117BK/5,1,5055939917030       ,207
E7117BK/7,1,5055939917054       ,207
E7118BK/4,1,5055939914886       ,207
E7118BK/5,1,5055939914893       ,207
E7118BK/6,1,5055939914909       ,207
E7118BK/7,1,5055939914916       ,207
E7135BK/5,1,5055939953137       ,207
E9126BV/7,1,5055939943909       ,207
E9127BV/4,1,5055939944029       ,207
E1223BK/L-XL,1,5055939958613       ,213
E1258BA/3,1,5055939972558       ,213
E1258BA/4,1,5055939972565       ,213
E1258BA/5,1,5055939972572       ,213
E1258BA/6,1,5055939972589       ,213
E1258BA/7,1,5055939972596       ,213
E1258BK/6,1,5055939972633       ,213
E1258OT/3,1,5055939972701       ,213
E1258OT/4,1,5055939972718       ,213
E1258OT/5,1,5055939972725       ,213
E1258OT/6,1,5055939972732       ,213
E1258OT/7,1,5055939972749       ,213
E6172BK/6,1,5055939973753       ,213
E6172BP/2,1,5055939973760       ,213
E6172BP/3,1,5055939973777       ,213
E6172BP/4,1,5055939973784       ,213
E6172CC/4,1,5055939973838       ,213
E6172CC/5,1,5055939973845       ,213
E6172CC/6,1,5055939973852       ,213
