SKU,Maximum allowed,Barcode/EAN,Days left
E0132NA/4,1,5055939915074       ,0
E0132NA/5,1,5055939915081       ,0
E0132NA/6,1,5055939915098       ,0
E1168NA/3,1,5055939929576       ,0
E1168NA/4,1,5055939929583       ,0
E1168NA/5,1,5055939929590       ,0
E1168NA/6,1,5055939929606       ,0
E1204GC/3,1,5055939950662       ,0
E3109YV/5,1,5055939909028       ,0
E3168BK/3,1,5055939954165       ,0
E3168BK/4,1,5055939954172       ,0
E3168BK/5,1,5055939954189       ,0
E3168BK/6,1,5055939954196       ,0
E3169BK/2,1,5055939954219       ,0
E3169BK/3,1,5055939954226       ,0
E3169BK/4,1,5055939954233       ,0
E3169BK/5,1,5055939954240       ,0
E3169BK/6,1,5055939954257       ,0
E3174NA/4,1,5055939952925       ,0
E3174NA/5,1,5055939952932       ,0
E6110BK/5,1,5055939914695       ,0
E6119MY/4,1,5055939932736       ,0
E6155BK/2,1,5055939951188       ,0
E6155BK/3,1,5055939951195       ,0
E6155BK/4,1,5055939951201       ,0
E6155BK/5,1,5055939951218       ,0
E8065BK/5,2,5055939919164       ,0
E9095YV/4,1,5055939918129       ,0
E9095YV/5,1,5055939918136       ,0
E9108CE/4,1,5055939935560       ,0
E9108CE/5,1,5055939935577       ,0
E9134BK/4,1,5055939943411       ,0
E9134BK/5,1,5055939943428       ,0
E9134BK/6,1,5055939943435       ,0
E9139BK/3,1,5055939953588       ,0
E9139BK/4,1,5055939953595       ,0
E9139BK/5,1,5055939953601       ,0
E9140BK/4,1,5055939953489       ,0
E9140BK/5,1,5055939953496       ,0
E1204GC/4,1,5055939950679       ,11
E1204GC/5,1,5055939950686       ,11
E1204GC/6,1,5055939950693       ,11
E8094AN/3,1,5055939949390       ,11
E8094AN/4,1,5055939949406       ,11
E8094AN/5,1,5055939949413       ,11
E9140BK/3,1,5055939953472       ,30
E9106GV/5,1,5055939935324       ,47
E9106GV/4,1,5055939935317       ,147
E9106GV/5,1,5055939935324       ,147
E9106GV/6,1,5055939935331       ,147
E9106GV/7,1,5055939935348       ,147
E1226BK/0,3,5055939959399       ,193
E8090AN/4,1,5055939944333       ,193
E8090AN/5,1,5055939944340       ,193
E8090AN/6,1,5055939944357       ,193
E9126BV/4,1,5055939943879       ,193
E9126BV/5,1,5055939943886       ,193
E9126BV/6,1,5055939943893       ,193
E9106GV/5,1,5055939935324       ,198
