SKU,Maximum allowed,Barcode/EAN,Days left
E0073,2,5055205338118       ,23
E0098YV/L-XL,1,5055205363349       ,23
E0098YV/S-M,1,5055205359571       ,23
E0128BK/2,1,5055939904917       ,23
E0128BK/3,1,5055939904924       ,23
E0128BK/4,2,5055939904931       ,23
E0128BK/5,2,5055939904948       ,23
E0128YV/4,1,5055939909622       ,23
E0128YV/5,1,5055939909639       ,23
E0128YV/6,1,5055939909646       ,23
E0154BK/L-XL,1,5055939965987       ,23
E0154BK/S-M,2,5055939958149       ,23
E1039BK/L-XL,3,5055939906720       ,23
E1039BK/S-M,3,5055939906713       ,23
E1157BK/L-XL,1,5055939928418       ,23
E1157BK/S-M,1,5055939928425       ,23
E1158BK/L-XL,1,5055939928432       ,23
E1158BK/S-M,1,5055939928449       ,23
E1183BK/4,1,5055939944234       ,23
E1183BK/5,2,5055939944241       ,23
E1183BK/6,2,5055939944258       ,23
E1185BK/4,1,5055939944531       ,23
E1185BK/5,2,5055939944548       ,23
E1185BK/6,2,5055939944555       ,23
E1187BK/3,2,5055939944760       ,23
E1187BK/4,2,5055939944777       ,23
E1187BK/5,2,5055939944784       ,23
E1202BK/L-XL,2,5055939949918       ,23
E1202BK/S-M,1,5055939949901       ,23
E1225BK/L-XL,1,5055939959207       ,23
E1225BK/M-L,1,5055939959191       ,23
E1225BK/S-M,1,5055939959184       ,23
E1225BK/XL-XXL,1,5055939966564       ,23
E2010BK/2,2,5055205358062       ,23
E2010BK/3,2,5055205358079       ,23
E2010BK/4,1,5055205358086       ,23
E3109BK/2,1,5055939909790       ,23
E3109BK/3,1,5055939908953       ,23
E3109BK/4,1,5055939908960       ,23
E3109BK/5,1,5055939908977       ,23
E3109BK/6,1,5055939908984       ,23
E3109BK/7,1,5055939908991       ,23
E3109RD/4,1,5055939909066       ,23
E3109RD/5,1,5055939909073       ,23
E3109RD/6,1,5055939909080       ,23
E3109YV/4,1,5055939909011       ,23
E3109YV/5,1,5055939909028       ,23
E3109YV/6,1,5055939909035       ,23
E3109YV/7,1,5055939909042       ,23
E3134BK/4,1,5055939924380       ,23
E3134BK/5,1,5055939924397       ,23
E3134BK/6,1,5055939924403       ,23
E3134RD/3,1,5055939924328       ,23
E3134RD/4,1,5055939924335       ,23
E3134RD/5,1,5055939924342       ,23
E3168BK/3,1,5055939954165       ,23
E3168BK/4,1,5055939954172       ,23
E3168BK/5,1,5055939954189       ,23
E3168BK/6,1,5055939954196       ,23
E3168BK/7,1,5055939954202       ,23
E3169BK/2,1,5055939954219       ,23
E3169BK/3,1,5055939954226       ,23
E3169BK/4,1,5055939954233       ,23
E3170BK/4,1,5055939954271       ,23
E3170BK/5,1,5055939954288       ,23
E3170BK/6,1,5055939954295       ,23
E5049BK/4,1,5055939924533       ,23
E5049BK/5,2,5055939924540       ,23
E5049BK/6,2,5055939924557       ,23
E5056BK/4,2,5055939941837       ,23
E5056BK/5,3,5055939941844       ,23
E5056BK/6,3,5055939941851       ,23
E5056BK/7,1,5055939941868       ,23
E6106BK/2,1,5055939919485       ,23
E6106BK/3,1,5055939919492       ,23
E7137BK/K11,1,5055939953762       ,23
E8064BK/2,1,5055939915968       ,23
E8064BK/4,1,5055939915982       ,23
E8064BK/5,1,5055939915999       ,23
E8064BK/6,1,5055939916002       ,23
E8064BK/7,1,5055939916019       ,23
E8064KH/4,1,5055939916064       ,23
E8064KH/5,1,5055939916071       ,23
E8093BK/4,1,5055939948782       ,23
E9104CR/4,1,5055939925738       ,23
E9116CE/2,1,5055939941998       ,23
E9116CE/3,1,5055939942001       ,23
E9125MY/2,1,5055939944142       ,23
E9125MY/5,1,5055939944173       ,23
E9143BK/4,1,5055939957463       ,23
E9143BK/5,1,5055939957470       ,23
E9143BK/6,1,5055939957487       ,23
E9145BK/5,1,5055939959108       ,23
E9145BK/6,1,5055939959115       ,23
EM0053OM/4,1,5055939925905       ,23
EM0053OM/5,1,5055939925912       ,23
EM0057BK/4,1,5055939925950       ,23
EM0057BK/5,1,5055939925967       ,23
EM0057BK/6,1,5055939925974       ,23
EM0057BK/7,1,5055939925981       ,23
E6106BK/2,1,5055939919485       ,59
E1157BK/L-XL,1,5055939928418       ,74
E3170BK/4,1,5055939954271       ,74
E3170BK/5,2,5055939954288       ,74
E7137BK/K7,1,5055939953748       ,74
E7137BK/K9,1,5055939953755       ,74
E8064BK/3,1,5055939915975       ,74
E8064KH/6,1,5055939916088       ,74
E8093BK/5,1,5055939948799       ,74
E9114BK/6,1,5055939941752       ,74
E1160BK/4,1,5055939928500       ,177
E1160BK/5,1,5055939928517       ,177
E1160BK/6,1,5055939928524       ,177
E1160BK/7,1,5055939928531       ,177
E1160KH/7,1,5055939928593       ,177
E1165BK/3,1,5055939928845       ,177
E1165BK/4,1,5055939928852       ,177
E1165BK/5,1,5055939928869       ,177
E1165BK/6,1,5055939928876       ,177
E1165BK/7,1,5055939928883       ,177
E1165GV/5,1,5055939928913       ,177
E1165GV/6,1,5055939928920       ,177
E1165GV/7,1,5055939928937       ,177
E1165RD/4,1,5055939929019       ,177
E1165RD/5,1,5055939929026       ,177
E1165RD/6,1,5055939929033       ,177
E1188BK/4,1,5055939944821       ,177
E1188BK/5,1,5055939944838       ,177
E1188BK/6,1,5055939944845       ,177
E1202BK/L-XL,1,5055939949918       ,177
E1202BK/S-M,1,5055939949901       ,177
E1254BK/L-XL,1,5055939971797       ,177
E1254BK/M-L,1,5055939971780       ,177
E1256BK/L-XL,1,5055939971858       ,177
E1256BK/M-L,1,5055939971841       ,177
E1257BK/L-XL,1,5055939971940       ,177
E1257BK/M-L,1,5055939971933       ,177
E1259BK/4,1,5055939975603       ,177
E1259BK/5,2,5055939975610       ,177
E1259BK/6,2,5055939975627       ,177
E1259BK/7,1,5055939975634       ,177
E1505GY/L-XL,1,5055939930091       ,177
E1505GY/M-L,1,5055939930107       ,177
E1505WH/M-L,1,5055939904559       ,177
E1505WH/S-M,1,5055939904566       ,177
E1511KH/L-XL,1,5055939950402       ,177
E1511KH/M-L,2,5055939950396       ,177
E1511KH/S-M,1,5055939950389       ,177
E1511RR/M-L,1,5055939959627       ,177
E1511RR/S-M,1,5055939959610       ,177
E1535BK/0,1,5055939968810       ,177
E3168BK/3,1,5055939954165       ,177
E3168BK/5,1,5055939954189       ,177
E3168BK/6,2,5055939954196       ,177
E3168BK/7,1,5055939954202       ,177
E3169BK/2,1,5055939954219       ,177
E3169BK/3,2,5055939954226       ,177
E3189BK/6,1,5055939972428       ,177
E3189BK/7,1,5055939972435       ,177
E3189CC/5,1,5055939972466       ,177
E3189CC/6,1,5055939972473       ,177
E3192BK/5,1,5055939974705       ,177
E3192BK/6,1,5055939974712       ,177
E3192WH/4,1,5055939974798       ,177
E3192WH/5,1,5055939974804       ,177
E3193BK/2,1,5055939975764       ,177
E3193BK/3,1,5055939975771       ,177
E3193BK/4,1,5055939975788       ,177
E3193BK/5,1,5055939975795       ,177
E3193BK/6,1,5055939975801       ,177
E3193BK/7,1,5055939975818       ,177
E4054BK/3,1,5055939953168       ,177
E4054BK/4,2,5055939953175       ,177
E4054BK/5,3,5055939953182       ,177
E4054BK/6,3,5055939953199       ,177
E4054BK/7,1,5055939953205       ,177
E4055BK/3,1,5055939953069       ,177
E4055BK/4,1,5055939953076       ,177
E4055BK/5,2,5055939953083       ,177
E4055BK/6,2,5055939953090       ,177
E5069BK/3,1,5055939951577       ,177
E5069BK/4,1,5055939951584       ,177
E5069BK/5,1,5055939951591       ,177
E5069BK/6,1,5055939951607       ,177
E6126CE/3,2,5055939933207       ,177
E6126CE/4,2,5055939933214       ,177
E6153BK/1,1,5055939953267       ,177
E6153BK/2,2,5055939953274       ,177
E6153BK/3,3,5055939953281       ,177
E6153BK/4,3,5055939953298       ,177
E6153BK/5,1,5055939953304       ,177
E6172BK/2,1,5055939973715       ,177
E6172BK/3,1,5055939973722       ,177
E6172BK/4,1,5055939973739       ,177
E6174WH/2,1,5055939976150       ,177
E6176GY/2,1,5055939976273       ,177
E6176GY/3,2,5055939976280       ,177
E6176GY/4,1,5055939976297       ,177
E6177BK/3,1,5055939976334       ,177
E6177BK/4,2,5055939976341       ,177
E6177BK/5,2,5055939976358       ,177
E6187GK/3,1,5055939977539       ,177
E7128OT/0,1,5055939977461       ,177
E8064BC/5,1,5055939936796       ,177
E8064BC/6,1,5055939936802       ,177
E8064BC/7,1,5055939936819       ,177
E8064CC/3,1,5055939972220       ,177
E8064CC/4,1,5055939972237       ,177
E8064CC/5,1,5055939972244       ,177
E8064CC/6,1,5055939972251       ,177
E8069BK/4,1,5055939916569       ,177
E8069BK/5,1,5055939916576       ,177
E8069BK/6,1,5055939916583       ,177
E8093BK/4,1,5055939948782       ,177
E8098BK/2,1,5055939953335       ,177
E8098BK/3,1,5055939953342       ,177
E8098BK/4,1,5055939953359       ,177
E8098BK/5,1,5055939953366       ,177
E8101CC/5,1,5055939970790       ,177
E8104BK/4,1,5055939972077       ,177
E8104BK/5,1,5055939972084       ,177
E8104BK/6,1,5055939972091       ,177
E9114BK/3,1,5055939941721       ,177
E9114BK/4,1,5055939941738       ,177
E9114BK/6,1,5055939941752       ,177
E9114BK/7,1,5055939941769       ,177
E9115CE/3,1,5055939941929       ,177
E9115CE/4,1,5055939941936       ,177
E9115CE/5,1,5055939941943       ,177
E9151BK/2,1,5055939975887       ,177
E9151BK/3,1,5055939975894       ,177
E9151BK/4,1,5055939975900       ,177
E9151BK/5,2,5055939975917       ,177
E9151BK/6,2,5055939975924       ,177
E9151BK/7,1,5055939975931       ,177
E3192BK/7,1,5055939974729       ,178
E6174WH/3,1,5055939976167       ,178
E3168BK/4,2,5055939954172       ,179
E3168BK/5,1,5055939954189       ,179
E3169BK/4,2,5055939954233       ,179
E1253WH/L-XL,1,5055939971704       ,187
E1253WH/M-L,1,5055939971698       ,187
E8093BK/5,1,5055939948799       ,187
E1160KH/5,1,5055939928579       ,206
E1160KH/6,1,5055939928586       ,206
E6172BP/3,1,5055939973777       ,206
E6172BP/4,1,5055939973784       ,206
