Proposal for: ,FRED04
,Frede Cycles
Proposal name: ,AW2020
Created by: ,Simon Dawson
To be delivered: ,2020-10-06


SKU,Qty,Each,RRP,Product Name,Code,Variant,Color,Size,Product Type,Barcode
E9120YV/4,1,43.9,89.99,Hummvee Waterproof Jacket,E9120,E9120YV,Hi-Viz Yellow,M,Hardshell Jackets,5055939943268,
E9120YV/5,1,43.9,89.99,Hummvee Waterproof Jacket,E9120,E9120YV,Hi-Viz Yellow,L,Hardshell Jackets,5055939943275,
E9120YV/6,1,43.9,89.99,Hummvee Waterproof Jacket,E9120,E9120YV,Hi-Viz Yellow,XL,Hardshell Jackets,5055939943282,
E9147LG/4,1,68.3,,SingleTrack Jacket,E9147,E9147LG,Lime Green,M,Hardshell Jackets,5055939984520,
E9147LG/5,1,68.3,,SingleTrack Jacket,E9147,E9147LG,Lime Green,L,Hardshell Jackets,5055939984537,
E9147LG/6,1,68.3,,SingleTrack Jacket,E9147,E9147LG,Lime Green,XL,Hardshell Jackets,5055939984544,
E3181RR/4,1,48.8,99.99,FS260-Pro Jetstream L/S Jersey II,E3181,E3181RR,Rust Red,M,L/S Shirts & Jerseys,5055939958293,
E3181RR/5,1,48.8,99.99,FS260-Pro Jetstream L/S Jersey II,E3181,E3181RR,Rust Red,L,L/S Shirts & Jerseys,5055939958309,
E3181RR/6,1,48.8,99.99,FS260-Pro Jetstream L/S Jersey II,E3181,E3181RR,Rust Red,XL,L/S Shirts & Jerseys,5055939958316,
E5056BK/4,1,39,79.99,Xtract Bibtight,E5056,E5056BK,Black,M,Biblongs,5055939941837,
E5056BK/5,2,39,79.99,Xtract Bibtight,E5056,E5056BK,Black,L,Biblongs,5055939941844,
E5056BK/6,1,39,79.99,Xtract Bibtight,E5056,E5056BK,Black,XL,Biblongs,5055939941851,
E5079BK/4,1,56.1,,FS260-Pro Thermo Bibtights II,E5079,E5079BK,Black,M,Biblongs,5055939986593,
E5079BK/5,2,56.1,,FS260-Pro Thermo Bibtights II,E5079,E5079BK,Black,L,Biblongs,5055939986609,
E5079BK/6,1,56.1,,FS260-Pro Thermo Bibtights II,E5079,E5079BK,Black,XL,Biblongs,5055939986616,
E1223BK/L-XL,3,9.8,19.99,FS260-Pro Skull Cap,E1223,E1223BK,Black,L-XL,Head warmer,5055939958613,
E1223BK/S-M,2,9.8,19.99,FS260-Pro Skull Cap,E1223,E1223BK,Black,S-M,Head warmer,5055939958606,
E0157YV/4,1,20.9,,Strike Glove,E0157,E0157YV,Hi-Viz Yellow,M,Long finger gloves,5055939988009,
E0157YV/5,2,20.9,,Strike Glove,E0157,E0157YV,Hi-Viz Yellow,L,Long finger gloves,5055939988016,
E0157YV/6,1,20.9,,Strike Glove,E0157,E0157YV,Hi-Viz Yellow,XL,Long finger gloves,5055939988023,
E1224BK/4,1,13.7,27.99,FS260-Pro Thermo Glove,E1224,E1224BK,Black,M,Long finger gloves,5055939966274,
E1224BK/5,2,13.7,27.99,FS260-Pro Thermo Glove,E1224,E1224BK,Black,L,Long finger gloves,5055939966281,
E1224BK/6,1,13.7,27.99,FS260-Pro Thermo Glove,E1224,E1224BK,Black,XL,Long finger gloves,5055939966298,
E1119BK/4,1,19.5,39.99,WP Gaiter Overshoe,E1119,E1119BK,Black,M,Neoprene,5055205390543,
E1119BK/5,2,19.5,39.99,WP Gaiter Overshoe,E1119,E1119BK,Black,L,Neoprene,5055205390550,
E1119BK/6,1,19.5,39.99,WP Gaiter Overshoe,E1119,E1119BK,Black,XL,Neoprene,5055205390567,
