SKU,Quantity
E1129WH/0,2
E9109BK/3,1
E6132BK/6,1
E6108TL/4,1
E6106BK/4,1
E6097BK/5,2
E6097BK/4,2
E6105CE/5,1
E6105WH/4,1
E6105WH/3,1
E6140BK/4,1
E6111BK/4,1
E8057BK/6,1
E7107BK/5,1
E7107PU/4,1
E8062BK/4,1
E6126WH/5,1
E6091BK/5,1