SKU,Maximum allowed,Barcode/EAN,Days left
E1170CL/0,2,5055939951331       ,5
E5049BK/7,1,5055939924564       ,5
E3133AN/4,1,5055939957074       ,48
E3133AN/5,1,5055939957081       ,48
E1043BK/L-XL,1,5055939923871       ,67
E1505MB/M-L,1,5055939904481       ,67
E1505OR/M-L,1,5055939904511       ,67
E1505WH/L-XL,1,5055939904542       ,67
E1505WH/M-L,1,5055939904559       ,67
E1505WH/S-M,1,5055939904566       ,67
E5049BK/7,1,5055939924564       ,67
E1171BK/0,1,5055939929859       ,95
E1171WH/0,1,5055939929866       ,95
E1505GV/M-L,1,5055939904450       ,95
E1505GY/M-L,1,5055939930107       ,95
E1505MB/L-XL,1,5055939904474       ,95
E1505OR/M-L,1,5055939904511       ,95
E1505RD/L-XL,2,5055939951287       ,95
E1505RD/M-L,1,5055939951270       ,95
E1505WH/L-XL,1,5055939904542       ,95
E1505WH/M-L,1,5055939904559       ,95
E3061W/2,1,5055205358024       ,95
E6097BK/2,1,5055939901206       ,95
E6097BK/3,1,5055939901213       ,95
E6097BK/4,1,5055939901220       ,95
E6122BP/3,1,5055939951928       ,95
E6124BK/2,1,5055939932996       ,95
E6124BK/4,1,5055939933016       ,95
E7117BK/4,1,5055939917023       ,95
E1166BK/3,1,5055939929064       ,124
E1166BK/4,1,5055939929071       ,124
E1166BK/5,1,5055939929088       ,124
E1167BK/3,1,5055939929309       ,124
E1167BK/4,1,5055939929316       ,124
E1167BK/5,1,5055939929323       ,124
E1167BK/6,1,5055939929330       ,124
E1171WH/0,1,5055939929866       ,124
E1505GY/M-L,1,5055939930107       ,124
E6095BK/2,1,5055939901114       ,124
E6095BK/3,1,5055939901121       ,124
E6095BK/4,1,5055939901138       ,124
E7117WH/5,1,5055939917085       ,124
E1165BK/5,1,5055939928869       ,143
E1165BK/6,1,5055939928876       ,143
E1165BK/7,1,5055939928883       ,143
E1167BK/5,1,5055939929323       ,143
E1167BK/6,1,5055939929330       ,143
E1167BK/7,1,5055939929347       ,143
E1171BK/0,2,5055939929859       ,143
E1171WH/0,2,5055939929866       ,143
E1505WH/S-M,1,5055939904566       ,143
E6095BK/5,1,5055939901145       ,143
E7117BK/4,1,5055939917023       ,143
E7117BK/5,1,5055939917030       ,143
E7117NA/4,1,5055939955056       ,143
E7117WH/4,1,5055939917078       ,143
E1165BK/4,1,5055939928852       ,172
E1165BK/5,1,5055939928869       ,172
E1165BK/6,1,5055939928876       ,172
E1218BK/L-XL,2,5055939958521       ,172
E1218BK/M-L,2,5055939958514       ,172
E1505GY/L-XL,1,5055939930091       ,172
E1505RD/M-L,1,5055939951270       ,172
E3029/4,1,5055205304236       ,172
E3029/5,1,5055205304243       ,172
E3029/6,1,5055205304250       ,172
E6165BK/2,1,5055939959344       ,172
E6165BK/3,1,5055939959351       ,172
E6165BK/4,1,5055939959368       ,172
E9095BK/4,1,5055939918068       ,172
E0110BP/0,1,5055939959726       ,190
E0110PK,1,5055205367231       ,190
E0153BK/L-XL,1,5055939965970       ,190
E0153BK/S-M,1,5055939958132       ,190
E1155BK/L-XL,1,5055939928388       ,190
E1155BK/S-M,1,5055939928395       ,190
E1223BK/L-XL,1,5055939958613       ,190
E1223BK/S-M,1,5055939958606       ,190
E3063W/7,1,5055205343662       ,190
E3133AN/4,2,5055939957074       ,190
E7112BK/K9,1,5055205390635       ,190
E7117NA/3,1,5055939955049       ,190
E9113BK/4,1,5055939941134       ,190
E9113BK/5,1,5055939941141       ,190
E9113BK/6,1,5055939941158       ,190
E9113BV/5,1,5055939941196       ,190
E9113BK/5,1,5055939941141       ,207
