SKU,Maximum allowed,Barcode/EAN,Days left
E3061W/3,1,5055205342467       ,0
E3061W/5,2,5055205342481       ,0
E3061W/6,1,5055205342498       ,0
E3063W/4,2,5055205343631       ,0
E3170BK/3,1,5055939954264       ,0
E3170BK/4,1,5055939954271       ,0
E8081BK/4,1,5055939934969       ,0
E1155BK/L-XL,1,5055939928388       ,20
E1155BK/S-M,1,5055939928395       ,20
E1157BK/S-M,2,5055939928425       ,20
E1167BK/6,1,5055939929330       ,20
E1204BK/5,2,5055939950587       ,20
E7131BK/K11,1,5055939949970       ,20
E0110BK,1,5055205367224       ,45
E0110BP/0,1,5055939959726       ,45
E0110RR/0,1,5055939959719       ,45
E0110YM/0,1,5055939959702       ,45
E1038BK/L-XL,2,5055939906706       ,45
E1038BK/S-M,1,5055939906690       ,45
E1117BK/3,1,5055205390116       ,45
E1117BK/4,1,5055205390123       ,45
E1117BK/5,1,5055205390130       ,45
E1117BK/6,1,5055205390147       ,45
E1117BK/7,1,5055205390154       ,45
E1186BK/2,1,5055939945248       ,45
E1186BK/3,1,5055939944623       ,45
E1186BK/4,1,5055939944630       ,45
E1186BK/5,1,5055939944647       ,45
E1186BK/7,1,5055939944661       ,45
E1186GV/4,1,5055939944685       ,45
E1186GV/5,1,5055939944692       ,45
E1188BK/3,1,5055939944814       ,45
E1188BK/4,1,5055939944821       ,45
E1188BK/5,1,5055939944838       ,45
E1188BK/6,1,5055939944845       ,45
E1188GV/4,1,5055939944876       ,45
E1188GV/5,1,5055939944883       ,45
E1188GV/6,1,5055939944890       ,45
E1188RD/5,1,5055939958767       ,45
E1188RD/6,1,5055939958774       ,45
E1188RD/7,1,5055939958781       ,45
E1218BK/L-XL,2,5055939958521       ,45
E1218BK/M-L,2,5055939958514       ,45
E1218BK/S-M,1,5055939958507       ,45
E1219BK/L-XL,2,5055939958545       ,45
E1219BK/S-M,2,5055939958538       ,45
E1220BK/L-XL,1,5055939958569       ,45
E1220BK/S-M,1,5055939958552       ,45
E1222BK/0,3,5055939958590       ,45
E1223BK/L-XL,3,5055939958613       ,45
E1223BK/S-M,3,5055939958606       ,45
E1227BK/L-XL,2,5055939966311       ,45
E1227BK/S-M,1,5055939959405       ,45
E1227GK/L-XL,2,5055939966328       ,45
E1227GK/S-M,1,5055939960616       ,45
E3161BK/3,1,5055939944951       ,45
E3161BK/4,1,5055939944968       ,45
E3161BK/5,1,5055939944975       ,45
E3161BK/6,1,5055939944982       ,45
E3161BK/7,1,5055939944999       ,45
E5049BK/3,1,5055939924526       ,45
E5049BK/4,2,5055939924533       ,45
E5049BK/5,1,5055939924540       ,45
E5049BK/6,1,5055939924557       ,45
E5049BK/7,1,5055939924564       ,45
E8088BK/4,1,5055939943169       ,45
E8088BK/5,1,5055939943176       ,45
E8088BK/6,1,5055939943183       ,45
E9106BK/4,1,5055939935263       ,45
E9106BK/5,1,5055939935270       ,45
E9106BK/6,1,5055939935287       ,45
E9106BK/7,1,5055939935294       ,45
E9107BK/3,1,5055939935409       ,45
E9107BK/5,1,5055939935423       ,45
E9107BK/6,1,5055939935430       ,45
E9103BK/5,1,5055939925639       ,59
E1186BK/6,1,5055939944654       ,61
E1186GV/6,1,5055939944708       ,61
E9147NA/4,1,5055939959474       ,61
E9147NA/5,1,5055939959481       ,61
E9147NA/6,1,5055939959498       ,61
E9147RR/3,1,5055939959511       ,61
E3168BK/3,1,5055939954165       ,67
E3168BK/4,1,5055939954172       ,67
E3181BK/3,1,5055939958187       ,67
E3181BK/4,1,5055939958194       ,67
E3181BK/5,1,5055939958200       ,67
E3181RR/4,1,5055939958293       ,67
E9107BK/7,1,5055939935447       ,67
E9147GF/7,1,5055939959450       ,67
E3169BK/2,1,5055939954219       ,88
E3169BK/3,1,5055939954226       ,88
E1109BK/S-M,1,5055205387994       ,94
E1157BK/L-XL,1,5055939928418       ,94
E1158BK/L-XL,1,5055939928432       ,94
EM0054BK/4,3,5055939918730       ,94
E1158BK/L-XL,1,5055939928432       ,124
E1188BK/3,1,5055939944814       ,124
E1188GV/4,1,5055939944876       ,124
E3142NA/4,1,5055939952673       ,124
E3173GF/5,1,5055939949666       ,124
E4031BK/3,1,5055939916965       ,124
E4031BK/5,1,5055939916989       ,124
E4042BK/5,1,5055939931784       ,124
E4043BK/5,1,5055939931845       ,124
E4043BK/6,1,5055939931852       ,124
E5067BK/4,1,5055939950723       ,124
E6110BK/2,1,5055939914664       ,124
E6110BK/3,1,5055939914671       ,124
E6110BK/6,1,5055939922331       ,124
E6151GK/3,1,5055939950297       ,124
E6151GK/4,1,5055939950303       ,124
E6151GK/5,1,5055939950310       ,124
E6154RD/2,1,5055939953014       ,124
E7117RD/6,1,5055939917917       ,124
E8064BC/6,1,5055939936802       ,124
E8064GC/3,1,5055939950969       ,124
E8067BK/6,1,5055939916477       ,124
E8067NA/4,1,5055939949307       ,124
E8094AN/6,1,5055939949420       ,124
E8097NA/4,1,5055939950471       ,124
E8098BK/4,1,5055939953359       ,124
E9120BK/5,1,5055939943220       ,124
E9120BK/8,1,5055939946436       ,124
E9120KH/5,1,5055939943329       ,124
E9120KH/7,1,5055939943343       ,124
E9140BK/6,1,5055939953502       ,124
E9140BV/5,1,5055939953540       ,124
E1216BK/4,2,5055939958354       ,137
E1216BK/5,2,5055939958361       ,137
E1216BK/6,2,5055939958378       ,137
E1216BK/7,1,5055939958385       ,137
E1223BK/L-XL,5,5055939958613       ,137
E1223BK/S-M,5,5055939958606       ,137
E1102,5,5055205353814       ,202
E1188BK/3,1,5055939944814       ,202
E1188BK/4,1,5055939944821       ,202
E1188BK/5,1,5055939944838       ,202
E1188BK/6,1,5055939944845       ,202
E1188GV/4,1,5055939944876       ,202
E1188GV/5,1,5055939944883       ,202
E1188GV/6,1,5055939944890       ,202
E1254BK/L-XL,1,5055939971797       ,202
E1254BK/M-L,1,5055939971780       ,202
E1254BK/S-M,1,5055939971773       ,202
E1256BK/L-XL,2,5055939971858       ,202
E1256BK/M-L,2,5055939971841       ,202
E1256BK/S-M,1,5055939971834       ,202
E1257BK/L-XL,2,5055939971940       ,202
E1257BK/M-L,2,5055939971933       ,202
E1257BK/S-M,1,5055939971926       ,202
E1263BK/L-XL,1,5055939977584       ,202
E1263BK/S-M,1,5055939977577       ,202
E1264RR/L-XL,1,5055939978420       ,202
E1264RR/S-M,1,5055939978413       ,202
E1265BP/0,3,5055939977669       ,202
E1505MB/M-L,1,5055939904481       ,202
E1505MB/S-M,1,5055939904498       ,202
E1511BK/M-L,1,5055939930138       ,202
E3061W/2,1,5055205358024       ,202
E3061W/3,1,5055205342467       ,202
E3061W/4,1,5055205342474       ,202
E3061W/5,2,5055205342481       ,202
E3061W/6,1,5055205342498       ,202
E3061W/7,1,5055205342504       ,202
E3063W/2,1,5055205358031       ,202
E3063W/3,1,5055205343624       ,202
E3063W/4,2,5055205343631       ,202
E3063W/5,2,5055205343648       ,202
E3063W/6,1,5055205343655       ,202
E3063W/7,1,5055205343662       ,202
E3170BK/3,1,5055939954264       ,202
E3170BK/4,2,5055939954271       ,202
E3170BK/5,2,5055939954288       ,202
E3170BK/6,1,5055939954295       ,202
E3170BK/7,1,5055939954301       ,202
E3189CC/4,1,5055939972459       ,202
E3189CC/5,1,5055939972466       ,202
E3189CC/6,1,5055939972473       ,202
E3192BK/4,1,5055939974699       ,202
E3192BK/5,1,5055939974705       ,202
E3192BK/6,1,5055939974712       ,202
E3192RR/4,1,5055939974743       ,202
E3192RR/5,1,5055939974750       ,202
E3192WH/3,1,5055939974781       ,202
E3192WH/4,1,5055939974798       ,202
E3192WH/5,1,5055939974804       ,202
E6169CC/2,1,5055939973203       ,202
E6169CC/3,1,5055939973210       ,202
E6169CC/4,1,5055939973227       ,202
E6169CC/5,1,5055939973234       ,202
E6170BK/3,1,5055939973319       ,202
E6170BK/4,1,5055939973326       ,202
E6170BK/5,1,5055939973333       ,202
E6174CV/4,1,5055939976129       ,202
E6174CV/5,1,5055939976136       ,202
E6174WH/2,1,5055939976150       ,202
E6174WH/3,1,5055939976167       ,202
E6175GY/2,1,5055939976211       ,202
E6175GY/3,1,5055939976228       ,202
E6175GY/4,1,5055939976235       ,202
E6175GY/5,1,5055939976242       ,202
E6175GY/6,1,5055939976259       ,202
E6176GY/2,1,5055939976273       ,202
E6176GY/3,1,5055939976280       ,202
E6176GY/4,1,5055939976297       ,202
E6176GY/5,1,5055939976303       ,202
E7117BK/4,1,5055939917023       ,202
E7117BK/5,1,5055939917030       ,202
E7117BK/6,1,5055939917047       ,202
E7117WH/3,1,5055939917061       ,202
E7117WH/4,1,5055939917078       ,202
E7117WH/5,1,5055939917085       ,202
E7118BK/3,1,5055939914879       ,202
E7118BK/4,2,5055939914886       ,202
E7118BK/5,2,5055939914893       ,202
E7118BK/6,1,5055939914909       ,202
E7118BK/7,1,5055939914916       ,202
E7128BK/0,1,5055939934419       ,202
E7128GY/0,1,5055939934426       ,202
E8064BC/4,1,5055939936789       ,202
E8064BC/5,1,5055939936796       ,202
E8064BC/6,1,5055939936802       ,202
E8064BK/3,1,5055939915975       ,202
E8064BK/4,1,5055939915982       ,202
E8064BK/5,1,5055939915999       ,202
E8064BK/6,1,5055939916002       ,202
E8064BK/7,1,5055939916019       ,202
E8064GY/4,1,5055939916224       ,202
E8064GY/5,1,5055939916231       ,202
E8098BK/2,1,5055939953335       ,202
E8098BK/3,1,5055939953342       ,202
E8098BK/4,1,5055939953359       ,202
E8098BK/5,1,5055939953366       ,202
E8098BK/6,1,5055939953373       ,202
E9106BK/6,1,5055939935287       ,202
E9106CG/3,1,5055939974965       ,202
E9106CG/4,1,5055939974972       ,202
E9106CG/5,1,5055939974989       ,202
E9106CG/6,1,5055939974996       ,202
E9108BK/3,1,5055939935515       ,202
E9108BK/4,1,5055939935522       ,202
E9108BK/5,1,5055939935539       ,202
E9108CE/2,1,5055939935546       ,202
E9108CE/3,1,5055939935553       ,202
E9147RR/3,1,5055939959511       ,202
E9147RR/4,1,5055939959528       ,202
E1253WH/L-XL,1,5055939971704       ,210
E1253WH/M-L,1,5055939971698       ,210
E1253WH/S-M,1,5055939971681       ,210
