E0042/6,1
E0076BK/5,1
E0095/5,2
E0095/6,1
E0128BK/4,1
E0128BK/5,1
E0128YV/7,1
E1004BK/S-M,1
E1005BK/L-XL,2
E1120BK/3,1
E1131BK/S-M,1
E3072BK/4,1
E3086RD/4,1
E3115BK/4,1
E4013BK/4,1
E6040BK/4,2
E6065BK/2,1
E6065BK/4,1
E8014/4,1
E8024/4,1
E8025/4,1
E9023BK/6,1
E9063UM/5,1
E9063UM/6,1
E9063UM/7,1
E9063YV/4,1
EU8045BK/4,1
