E0002W/5,1
E0031BK/4,1
E0031BK/7,1
E0038BK/3,1
E0038BK/4,1
E0038BK/5,1
E0038R/5,1
E0040SM,1
E1024BK/5,1
E1131BK/S-M,1
E3085BK/7,1
E3101BK/4,1
E3101RD/7,1
E3102RD/7,1
E3104BK/7,1
E4013BK/5,1
E6060BK/3,1
E6060BK/4,1
E6060BK/5,1
E6061UM/4,1
E7012BK/4,1
E7012BK/6,1
E8025/5,1
E8061BK/3,1
