E0005/L-XL,1
E0040CL,1
E0042/5,1
E0116PK,1
E0128BK/5,1
E1031BK/S-M,1
E1043BK/S-M,1
E1120BK/5,1
E1145BK/5,1
E1152BK/7,1
E1168BK/6,1
E1186BK/5,1
E3078BK/4,1
E3108RD/5,1
E3108RD/7,1
E4015BK/5,1
E4027BK/3,1
E4027BK/4,1
E4041BK/4,1
E6146BK/4,1
E7112BK/K9,1
E8042BK/4,1
E8073BK/4,1
E9120YV/5,1
E9129YV/2,1
E9129YV/3,1
E9129YV/4,1
E9129YV/5,1
