E0043BC,2
E1035BK/S-M,1
E1102,2
E1168BK/5,1
E1181BK/3,1
E1186BK/4,1
E3078BK/5,1
E3109YV/5,1
E3134BK/6,1
E5056BK/3,1
E6095BK/3,1
E6146BK/5,1
E7110BK/K11,1
E8073BK/5,1
E8073BK/6,1
E8081BK/3,1
E8081BK/5,1
E8084BK/6,1
E9119PW/4,1
E9119PW/5,1
E9119PW/6,1
E9119PW/7,1
E9120YV/6,1
