E0003/M-L,1
E0040CL,1
E0062/6,2
E0072BK/5,1
E0076BK/4,1
E0095/3,1
E0095/5,1
E0095/6,1
E0116PK,1
E0128BK/3,1
E0128YV/6,1
E1004BK/S-M,1
E1005BK/L-XL,1
E1028BK/0,1
E1038BK/S-M,1
E1117BK/4,1
E3072BK/6,1
E5017P/5,1
E5017P/6,1
E6040BK/4,1
E6049BK/5,1
