E0002/5,1
E0013TH/5,1
E0035/3,1
E0039/3,1
E0040CL,1
E0042/4,1
E0042/6,1
E1003BK/L-XL,1
E1005BK/L-XL,1
E1118BK/4,1
E1118BK/6,1
E1301BK/5,1
E3025/3,1
E3025/4,1
E6032/4,1
E6036/2,1
E6036/5,1
E6065BK/3,1
E8042BK/5,1
E9063UM/4,1
E9063YV/7,1
E9066UM/5,1
E9067YV/6,1
