E0002MX/3,1
E0002W/5,1
E0011/4,1
E0011/5,1
E0011R/4,1
E0038BK/5,1
E0060/4,1
E0061/3,1
E1006/7,1
E3079WH/4,1
E4013BK/4,1
E5003SP/3,1
E6028/6,1
E6039W/6,1
E6047BK/2,1
E6049BK/4,1
E6069BK/2,1
E8037G/6,1
