E0040BL,1
E0040ST,1
E0062/4,1
E0062/5,1
E1006/4,1
E3079WH/6,1
E4013BK/5,1
E4014BK/5,1
E6028/4,1
E6065BK/4,1
E6069BK/2,1
E6069PU/3,1
E6070TL/4,1
E7107BK/4,1
E8024/4,1
E8025C/6,1
E8025GY/5,1
E8025GY/6,1
E8036BK/3,1
E8036BK/5,1
E8037G/4,1
E9067YV/5,1
E9069BU/3,1
