E0068BK/5,1
E0095/6,2
E1152BK/5,1
E1182BK/L-XL,1
E1186BK/6,1
E3069BK/5,1
E3109YV/6,1
E5049BK/3,1
E6065BK/4,1
E6106BK/2,1
E6106BK/4,1
E6106BK/5,1
E6120BK/4,1
E9084PU/4,1
E9099CO/4,1
E9103BK/5,2
E9106BK/5,1
E9120BK/6,1
E9126YV/3,1
E9126YV/4,1
E9126YV/5,1
E9126YV/6,1
E9126YV/7,1
