E0035/3,1
E0035/5,1
E0040CL,1
E0069BK/4,1
E0069BK/6,1
E0073,1
E0076BK/3,1
E0095/4,1
E0095/5,1
E0128BK/4,1
E0128YV/4,1
E1026RD/4,1
E1038BK/S-M,1
E1118BK/5,1
E3057RD/4,1
E5003SP/4,1
E6040BK/2,1
E9067YV/5,1
EU3062TU/3,1
