E0038R/5,1
E0060/7,1
E0105BK/L-XL,1
E1024BK/3,1
E3101RD/4,1
E3104BK/7,1
E4014BK/7,1
E4020BK/4,1
E4029BK/4,1
E6074TL/6,1
E7012BK/4,1
E7012BK/5,1
E8014/4,1
E8024/4,1
E8025/5,1
E8025GY/4,1
E8051BK/5,1
E9063YV/4,1
E9063YV/7,1
