E0002/5,2
E0002W/3,2
E0002W/5,1
E0011/5,1
E0038R/5,1
E0040ST,2
E0061/5,1
E0062/3,1
E1006/4,1
E3066R/7,1
E3079WH/3,1
E3079WH/6,1
E4013BK/4,2
E6028/4,1
E6049BK/2,1
E6069BK/4,1
E7012BK/4,1
E7012BK/7,1
E7107BK/2,1
E8024/6,1
E8037G/3,1
