E0076BK/3,1
E0095/5,1
E0116PK,2
E0128BK/4,2
E0128YV/5,1
E1004BK/S-M,2
E1005BK/L-XL,1
E1028PU/0,1
E6040BK/3,1
E6040YV/4,1
E6065BK/3,1
E6065BK/4,1
E6067PV/5,1
E9066CE/4,1
E9066CE/6,1
E9066UM/5,1
E9086BK/5,1
E9092RA/3,1
