E7120BK/5,1
E3134RD/4,1
E5049BK/3,1
E9111BK/3,1
E5056BK/6,1
E6146BK/4,1
E3161BK/4,1
E9117BK/5,1
E9120YV/4,1
E9120YV/5,1
E9120YV/6,1
E1184BK/5,1
E1187BK/5,1
E9134BK/5,1
E1183BK/4,1
E1183BK/5,1
E1188BK/5,1
E0153BK/L-XL,1
E6155BK/3,1
E1160BK/6,1
E9117CC/5,1
E9147NA/4,1
E0151GC/0,1
E1227BK/L-XL,1
E1250CL,1
