E0062/4,1
E1145BK/6,1
E0083BK/6,1
E1599BK,1
E7112BK/K9,1
E5049BK/3,1
E5056BK/3,1
E5056BK/5,1
E1186BK/6,1
E1161BK/6,1
E1187BK/4,1
E8084BK/5,1
E1188BK/4,1
E9117GF/4,1
E9120KH/5,1
E9124NA/6,1
E6164GK/3,1
E1227BK/S-M,1
