SKU,Maximum allowed,Barcode/EAN,Days left
E0035/3,3,5055205301440       ,54
E0035/5,3,5055205301457       ,54
E0110BK,6,5055205367224       ,54
E0110UM,2,5055205367248       ,54
E0110YM/0,2,5055939959702       ,54
E0128BK/3,1,5055939904924       ,54
E0128BK/4,3,5055939904931       ,54
E0128BK/5,3,5055939904948       ,54
E0128BK/6,3,5055939904955       ,54
E1048BK/L-XL,2,5055939928197       ,54
E1048BK/S-M,2,5055939928203       ,54
E1118BK/5,2,5055205389981       ,54
E1118BK/6,2,5055205389998       ,54
E1118BK/7,2,5055205390000       ,54
E1186BK/3,1,5055939944623       ,54
E1186BK/4,3,5055939944630       ,54
E1186BK/5,3,5055939944647       ,54
E1186BK/6,2,5055939944654       ,54
E1234BK/L-XL,3,5055939966823       ,54
E1234BK/S-M,3,5055939966816       ,54
E1234GF/L-XL,3,5055939966847       ,54
E1234GF/S-M,3,5055939966830       ,54
E1505GY/L-XL,1,5055939930091       ,54
E1505GY/M-L,1,5055939930107       ,54
E1505KH/M-L,1,5055939951300       ,54
E1505MB/L-XL,1,5055939904474       ,54
E1505MB/S-M,1,5055939904498       ,54
E1505RD/M-L,1,5055939951270       ,54
E1518GF/M-L,1,5055939948928       ,54
E3109BK/3,2,5055939908953       ,54
E3109BK/4,3,5055939908960       ,54
E3109BK/5,3,5055939908977       ,54
E3109BK/6,2,5055939908984       ,54
E3133GF/3,1,5055939957128       ,54
E3133GF/4,2,5055939957135       ,54
E3133GF/5,2,5055939957142       ,54
E5056BK/3,2,5055939941820       ,54
E5056BK/4,2,5055939941837       ,54
E5056BK/5,2,5055939941844       ,54
E5056BK/6,2,5055939941851       ,54
E8074BK/3,1,5055939924717       ,54
E8074BK/4,2,5055939924724       ,54
E8074BK/5,2,5055939924731       ,54
E9102BK/3,1,5055939925516       ,54
E9102BK/4,2,5055939925523       ,54
E9102BK/5,2,5055939925530       ,54
E9102BK/6,1,5055939925547       ,54
E9102BK/7,1,5055939925554       ,54
E9106BK/3,2,5055939935256       ,54
E9106BK/4,2,5055939935263       ,54
E9106BK/5,2,5055939935270       ,54
E9106BK/6,2,5055939935287       ,54
E9119GF/4,2,5055939948997       ,54
E9119GF/5,2,5055939949000       ,54
E9119GF/6,1,5055939949017       ,54
E9122BV/3,1,5055939945415       ,54
E9122BV/4,1,5055939945422       ,54
E9122BV/5,1,5055939945439       ,54
E9144BK/4,2,5055939957562       ,54
E9144BK/5,2,5055939957579       ,54
E9144BK/3,1,5055939957555       ,62
E1506GF/M-L,1,5055939948966       ,80
E1506NA/M-L,1,5055939922843       ,80
E3109BK/7,2,5055939908991       ,80
E5056BK/7,2,5055939941868       ,80
E7112BK/K11,1,5055205390642       ,80
E7112BK/K9,2,5055205390635       ,80
E7140GY/K7,1,5055939960654       ,80
E9102BK/7,1,5055939925554       ,80
E1192BK/0,1,5055939945316       ,122
E1506WH/S-M,1,5055939920078       ,122
E1506GF/S-M,1,5055939948959       ,130
E1506WH/S-M,1,5055939920078       ,130
E1527GY/0,1,5055939968643       ,150
E3133GF/3,2,5055939957128       ,150
E9102BK/4,1,5055939925523       ,150
E9102BK/6,1,5055939925547       ,150
E9102BK/7,1,5055939925554       ,150
E9117BK/4,1,5055939942179       ,150
E9117BK/5,1,5055939942186       ,150
