SKU,Maximum allowed,Barcode/EAN,Days left
E1161BK/5,1,5055939928692       ,11
E1505MB/M-L,2,5055939904481       ,11
E4054BK/5,1,5055939953182       ,11
E7118BK/5,1,5055939914893       ,11
E1505WH/L-XL,1,5055939904542       ,19
E1505WH/M-L,1,5055939904559       ,19
E8064BK/5,1,5055939915999       ,19
E1161BK/5,1,5055939928692       ,31
E1161BK/6,1,5055939928708       ,31
E1216BK/5,1,5055939958361       ,31
E1216BK/6,1,5055939958378       ,31
E1216BK/7,1,5055939958385       ,31
E1505WH/L-XL,1,5055939904542       ,31
E4054BK/5,1,5055939953182       ,31
E7128BK/0,1,5055939934419       ,31
E8076BK/6,1,5055939924847       ,31
E0128BK/4,1,5055939904931       ,46
E0128BK/5,1,5055939904948       ,46
E0128BK/6,1,5055939904955       ,46
E1187BK/5,1,5055939944784       ,46
E4054BK/4,1,5055939953175       ,46
E6040BK/4,1,5055939904993       ,46
E6105WH/4,1,5055939918457       ,46
E0152BK/S-M,1,5055939958118       ,54
E1038BK/L-XL,3,5055939906706       ,54
E1117BK/5,1,5055205390130       ,54
E1117BK/6,2,5055205390147       ,54
E1117BK/7,2,5055205390154       ,54
E1120BK/4,1,5055205390222       ,54
E1120BK/5,2,5055205390239       ,54
E1120BK/6,2,5055205390246       ,54
E1120BK/7,2,5055205390253       ,54
E1216BK/4,1,5055939958354       ,54
E1505MB/S-M,1,5055939904498       ,54
E1301BK/5,1,5055205363547       ,61
E9120YV/4,1,5055939943268       ,61
E0128BK/5,1,5055939904948       ,67
E0128BK/6,1,5055939904955       ,67
E0151RR/0,1,5055939960685       ,67
E1038BK/S-M,1,5055939906690       ,67
E1216BK/6,1,5055939958378       ,67
E1251CL,1,5055939955803       ,67
E1505MB/L-XL,2,5055939904474       ,67
E9120YV/6,1,5055939943282       ,67
E9120YV/7,1,5055939943299       ,67
E1118BK/5,1,5055205389981       ,86
E1226BK/0,1,5055939959399       ,86
E1226GK/0,1,5055939960593       ,86
E1505MB/L-XL,1,5055939904474       ,86
E3157BK/7,1,5055939941462       ,86
E8086AN/6,1,5055939942810       ,86
E1038BK/S-M,1,5055939906690       ,115
E1117BK/5,1,5055205390130       ,115
E1118BK/5,1,5055205389981       ,115
E1216BK/5,1,5055939958361       ,115
E1251CL,1,5055939955803       ,115
E1505GY/L-XL,1,5055939930091       ,115
E9120YV/4,1,5055939943268       ,115
E1145BK/5,1,5055939908205       ,122
E1145BK/6,1,5055939908212       ,122
E1511RR/M-L,1,5055939959627       ,122
E0151GF/0,1,5055939960708       ,123
E1120BK/6,1,5055205390246       ,123
E1216BK/4,1,5055939958354       ,123
E1505MB/M-L,1,5055939904481       ,123
E1505RD/M-L,1,5055939951270       ,123
E1301BK/4,1,5055205363530       ,129
E1301BK/6,1,5055205363554       ,129
E1505MB/L-XL,1,5055939904474       ,131
E7128OT/0,1,5055939977461       ,131
E1038BK/S-M,1,5055939906690       ,142
E1118BK/5,1,5055205389981       ,142
E1145BK/5,1,5055939908205       ,142
E1145BK/6,1,5055939908212       ,142
E9120YV/5,1,5055939943275       ,142
E1145BK/4,1,5055939908199       ,153
E1511BK/L-XL,1,5055939930121       ,153
E1145BK/5,1,5055939908205       ,157
E7117BK/5,1,5055939917030       ,157
E8076BK/4,1,5055939924823       ,157
E9120YV/4,1,5055939943268       ,157
E9120YV/7,1,5055939943299       ,157
E1216BK/5,1,5055939958361       ,159
E1216BK/6,1,5055939958378       ,159
E1505MB/L-XL,1,5055939904474       ,159
E7117BK/5,1,5055939917030       ,159
E1038BK/L-XL,1,5055939906706       ,171
E1118BK/5,2,5055205389981       ,171
E1145BK/5,1,5055939908205       ,171
E1505BA/L-XL,1,5055939978154       ,171
E1505BA/M-L,1,5055939978147       ,171
E6040BK/4,1,5055939904993       ,171
E0062/4,1,5055205323770       ,192
E0128BK/6,1,5055939904955       ,192
E1118BK/6,1,5055205389998       ,192
E0117BK/5,1,5055205391076       ,200
E0128BK/6,1,5055939904955       ,209
E1145BK/4,1,5055939908199       ,209
E1258BK/5,1,5055939972626       ,209
E1258BK/6,1,5055939972633       ,209
E1301BK/4,1,5055205363530       ,209
E1301BK/5,1,5055205363547       ,209
E1301BK/6,1,5055205363554       ,209
