SKU,Maximum allowed,Barcode/EAN,Days left
E1108BK/L-XL,2,5055205387987       ,117
E1108BK/S-M,2,5055205387970       ,117
E1157BK/L-XL,1,5055939928418       ,117
E1157BK/S-M,1,5055939928425       ,117
E1158BK/L-XL,2,5055939928432       ,117
E1158BK/S-M,2,5055939928449       ,117
E1160BK/3,1,5055939928494       ,117
E1160BK/4,1,5055939928500       ,117
E1160BK/5,1,5055939928517       ,117
E1160BK/6,1,5055939928524       ,117
E1160KH/4,1,5055939928562       ,117
E1160KH/5,1,5055939928579       ,117
E1160KH/6,1,5055939928586       ,117
E1165BK/3,1,5055939928845       ,117
E1165BK/4,1,5055939928852       ,117
E1165BK/5,2,5055939928869       ,117
E1165BK/6,2,5055939928876       ,117
E1165BK/7,1,5055939928883       ,117
E1166BK/4,1,5055939929071       ,117
E1166BK/5,1,5055939929088       ,117
E1166BK/6,1,5055939929095       ,117
E1170BK/0,1,5055939929828       ,117
E1170GY/0,1,5055939929835       ,117
E1170YV/0,1,5055939929842       ,117
E1171BK/0,1,5055939929859       ,117
E1171WH/0,1,5055939929866       ,117
E1202BK/L-XL,1,5055939949918       ,117
E1202BK/S-M,1,5055939949901       ,117
E1202GF/L-XL,1,5055939949932       ,117
E1202GF/S-M,1,5055939949925       ,117
E1505GY/M-L,2,5055939930107       ,117
E1505GY/S-M,1,5055939930114       ,117
E1505KH/M-L,1,5055939951300       ,117
E1505MB/L-XL,1,5055939904474       ,117
E1505MB/M-L,2,5055939904481       ,117
E1505MB/S-M,2,5055939904498       ,117
E1505WH/M-L,1,5055939904559       ,117
E1505WH/S-M,1,5055939904566       ,117
E1511WH/M-L,1,5055939930190       ,117
E3123KH/4,1,5055939930480       ,117
E3123KH/5,1,5055939930497       ,117
E3123KH/6,1,5055939930503       ,117
E3141BV/4,1,5055939951768       ,117
E3142BK/3,1,5055939931357       ,117
E3142BK/4,1,5055939931364       ,117
E4028BK/4,1,5055939901077       ,117
E4028BK/5,2,5055939901084       ,117
E4028BK/6,1,5055939901091       ,117
E4029BK/5,2,5055939900988       ,117
E4029BK/6,2,5055939900995       ,117
E5069BK/4,1,5055939951584       ,117
E5069BK/5,1,5055939951591       ,117
E6095BK/3,1,5055939901121       ,117
E6095BK/4,1,5055939901138       ,117
E6095BK/5,1,5055939901145       ,117
E6097BK/2,1,5055939901206       ,117
E6097BK/3,1,5055939901213       ,117
E6097BK/4,1,5055939901220       ,117
E6106BK/3,1,5055939919492       ,117
E6106BK/5,1,5055939919515       ,117
E6126BK/2,1,5055939933153       ,117
E6126BK/3,1,5055939933160       ,117
E6126BK/4,1,5055939933177       ,117
E6126BK/5,1,5055939933184       ,117
E6126WH/2,1,5055939933276       ,117
E6126WH/3,1,5055939933283       ,117
E6126WH/4,1,5055939933290       ,117
E6126WH/5,1,5055939933306       ,117
E6126WH/6,1,5055939936413       ,117
E6130GY/3,1,5055939933603       ,117
E6130GY/4,1,5055939933610       ,117
E6130GY/5,1,5055939933627       ,117
E7117BK/5,1,5055939917030       ,117
E7117BK/6,1,5055939917047       ,117
E7131BK/K9,1,5055939949963       ,117
E8064BC/3,1,5055939936772       ,117
E8064BC/4,1,5055939936789       ,117
E8064BC/5,1,5055939936796       ,117
E8064BC/6,1,5055939936802       ,117
E8064GC/2,1,5055939950952       ,117
E8064GC/3,1,5055939950969       ,117
E8064GC/4,1,5055939950976       ,117
E8064GC/5,1,5055939950983       ,117
E8064GC/6,1,5055939950990       ,117
E8064KH/4,1,5055939916064       ,117
E8064KH/5,1,5055939916071       ,117
E9106BK/3,1,5055939935256       ,117
E9106BK/5,1,5055939935270       ,117
E9106BV/4,1,5055939941387       ,117
E9106BV/5,1,5055939941394       ,117
E9106BV/6,1,5055939941400       ,117
E9106WH/4,1,5055939935362       ,117
E9106WH/5,1,5055939935379       ,117
E9106WH/6,1,5055939935386       ,117
E9108CE/2,1,5055939935546       ,117
E9108CE/3,1,5055939935553       ,117
E9108CE/4,1,5055939935560       ,117
E1511KH/M-L,1,5055939950396       ,137
E7131BK/K11,1,5055939949970       ,137
E8091BK/4,1,5055939948256       ,153
E1511KH/L-XL,1,5055939950402       ,166
E1511KH/M-L,1,5055939950396       ,166
E1511PT/M-L,2,5055939930169       ,166
E3133GY/3,1,5055939924274       ,166
E3133GY/4,1,5055939924281       ,166
E3133GY/5,1,5055939924298       ,166
E6130GK/3,1,5055939950174       ,166
E6130GK/4,1,5055939950181       ,166
E6130GK/5,1,5055939950198       ,166
E8081KH/3,2,5055939935003       ,166
E8081KH/4,2,5055939935010       ,166
E8081KH/5,2,5055939935027       ,166
E8081KH/6,1,5055939935034       ,166
