SKU,Maximum allowed,Barcode/EAN,Days left
E9126BV/7,1,5055939943909       ,44
E9126BV/8,1,5055939945194       ,44
E9126YV/8,1,5055939945170       ,45
E8070BK/5,2,5055939916736       ,51
E9126YV/5,1,5055939943930       ,51
E9126YV/6,1,5055939943947       ,51
E9126YV/8,1,5055939945170       ,51
E5049BK/3,1,5055939924526       ,71
E5049BK/4,2,5055939924533       ,71
E5049BK/5,2,5055939924540       ,71
E5049BK/6,2,5055939924557       ,71
E5049BK/7,2,5055939924564       ,71
E6146BK/3,1,5055939942087       ,71
E6146BK/4,2,5055939942094       ,71
E6146BK/5,2,5055939942100       ,71
E9099CC/4,1,5055939960319       ,71
E9099CC/5,1,5055939960326       ,71
E9099CC/6,1,5055939960333       ,71
E9117BK/5,1,5055939942186       ,71
E9117BK/7,1,5055939942209       ,71
E9117YM/4,1,5055939960999       ,71
E9117YM/6,1,5055939961019       ,71
E9147GF/5,1,5055939959436       ,71
EM0053GF/5,1,5055939951416       ,71
EM0053GF/6,1,5055939951423       ,71
E3181BK/4,1,5055939958194       ,79
E3181BK/5,2,5055939958200       ,79
E3181BK/6,2,5055939958217       ,79
E3181BK/7,1,5055939958224       ,79
E6153BK/3,1,5055939953281       ,80
E6153BK/4,1,5055939953298       ,80
E6153BK/6,1,5055939953311       ,80
E7127RD/4,1,5055939934396       ,80
E7127RD/5,1,5055939934402       ,80
E6164GK/4,1,5055939958880       ,89
E6164RR/4,1,5055939958934       ,89
E6164RR/5,1,5055939958941       ,89
E7125BK/4,1,5055939924625       ,89
E6163BK/4,1,5055939958835       ,99
E6163BK/5,2,5055939958842       ,99
E6164GK/5,1,5055939958897       ,99
E9126YV/7,1,5055939943954       ,99
E3179BK/5,1,5055939957944       ,103
E9117YM/5,1,5055939961002       ,103
E9117YM/7,1,5055939961026       ,103
E9122BV/4,2,5055939945422       ,103
E5050BK/5,1,5055939927725       ,109
E8088BK/6,1,5055939943183       ,127
E0110BP/0,2,5055939959726       ,162
E0110PK,1,5055205367231       ,162
E0110RR/0,2,5055939959719       ,162
E0110UM,2,5055205367248       ,162
E0110YM/0,1,5055939959702       ,162
E0128BK/4,2,5055939904931       ,162
E0128YV/3,1,5055939909615       ,162
E0128YV/5,2,5055939909639       ,162
E0128YV/6,2,5055939909646       ,162
E0128YV/7,2,5055939909653       ,162
E5049BK/6,1,5055939924557       ,162
E8090AN/6,1,5055939944357       ,162
E9147NA/3,1,5055939959467       ,165
E1119BK/5,1,5055205390550       ,184
E1119BK/6,1,5055205390567       ,184
E3181BK/7,2,5055939958224       ,184
E7112BK/K11,2,5055205390642       ,190
E7112BK/K7,2,5055205390659       ,190
E7112BK/K9,2,5055205390635       ,190
E9106BK/7,1,5055939935294       ,190
E9117BK/3,1,5055939942162       ,190
E9117BK/4,4,5055939942179       ,190
E9117BK/5,9,5055939942186       ,190
E9117BK/6,2,5055939942193       ,190
E9117BK/7,2,5055939942209       ,190
E9117YM/5,1,5055939961002       ,190
E9147NA/6,1,5055939959498       ,194
E6032/4,1,5055205307275       ,197
E8083BK/6,1,5055939942346       ,197
E8084BK/7,1,5055939942407       ,197
E9126BV/5,1,5055939943886       ,197
E9126BV/6,1,5055939943893       ,197
