SKU,Maximum allowed,Barcode/EAN,Days left
E0110BK,4,5055205367224       ,38
E1043BK/L-XL,2,5055939923871       ,38
E1043BK/S-M,2,5055939923888       ,38
E1186BK/3,1,5055939944623       ,38
E1186BK/4,2,5055939944630       ,38
E1186BK/5,2,5055939944647       ,38
E1186BK/6,2,5055939944654       ,38
E1186BK/7,1,5055939944661       ,38
E3029/3,1,5055205304229       ,38
E3029/4,1,5055205304236       ,38
E9147NA/4,1,5055939959474       ,38
E9147NA/5,1,5055939959481       ,38
E9147NA/6,1,5055939959498       ,38
E9147NA/7,1,5055939959504       ,38
E1039BK/L-XL,2,5055939906720       ,115
E1039BK/S-M,2,5055939906713       ,115
E1145BK/5,2,5055939908205       ,115
E1145BK/6,1,5055939908212       ,115
E1145BK/7,1,5055939910659       ,115
E1187BK/7,1,5055939944807       ,115
E1187BK/6,1,5055939944791       ,123
E1301BK/4,1,5055205363530       ,123
E1301BK/5,1,5055205363547       ,123
E1301BK/6,1,5055205363554       ,123
E1145BK/4,1,5055939908199       ,147
E1187BK/4,1,5055939944777       ,147
E1187BK/5,1,5055939944784       ,159
E1505WH/M-L,1,5055939904559       ,159
E3168BK/4,1,5055939954172       ,194
E3168BK/5,1,5055939954189       ,194
E3168BK/6,1,5055939954196       ,194
E3169BK/3,1,5055939954226       ,194
E3169BK/4,1,5055939954233       ,194
E3169BK/5,1,5055939954240       ,194
E6132BK/2,1,5055939933719       ,194
E6132BK/3,1,5055939933726       ,194
E6132BK/4,1,5055939933733       ,194
E6132BK/5,1,5055939933740       ,194
E6176GY/2,1,5055939976273       ,194
E6176GY/3,1,5055939976280       ,194
E6176GY/4,1,5055939976297       ,194
E7117BK/3,1,5055939917016       ,194
E7117BK/4,1,5055939917023       ,194
E7117BK/5,1,5055939917030       ,194
E7117BK/6,1,5055939917047       ,194
E7118BK/4,1,5055939914886       ,194
E7118BK/5,1,5055939914893       ,194
E7118BK/6,1,5055939914909       ,194
E7118BK/7,1,5055939914916       ,194
