INVOICE,SIN642230
YOUR REF,SOR394232
DATE,04/11/2019
VALUE,273.7


SKU,Qty,Value,Name,Colour,Size
E9114GV/5       ,1,39.00,Xtract Jacket II,Hi-Viz Green,L
E8092BK/5       ,1,43.90,MT500 Burner Short II,Black,L
E8064GC/4       ,2,63.60,Hummvee Short II with liner,Grey Camo,M
E8064GC/5       ,2,63.60,Hummvee Short II with liner,Grey Camo,L
E8064GC/6       ,2,63.60,Hummvee Short II with liner,Grey Camo,XL
