SKU,Maximum allowed,Barcode/EAN,Days left
E1518BK/L-XL,1,5055939948904       ,1
E1518BK/M-L,2,5055939948898       ,1
E1518BK/S-M,1,5055939948881       ,1
E4031BK/4,1,5055939916972       ,1
E4031BK/5,1,5055939916989       ,1
E1194BU/S-M,3,5055939946153       ,10
E1196BK/M-L,1,5055939956510       ,10
E1205BK/L-XL,2,5055939951812       ,10
E1518BK/S-M,1,5055939948881       ,10
E3156BU/3,1,5055939939513       ,10
E3156BU/4,3,5055939939520       ,10
E3156BU/5,2,5055939939537       ,10
E3169BK/3,1,5055939954226       ,10
E3169BK/4,2,5055939954233       ,10
E6155BK/3,1,5055939951195       ,10
E6155BK/4,1,5055939951201       ,10
E6155BK/5,1,5055939951218       ,10
E1166BK/2,1,5055939929057       ,13
E1166BK/4,2,5055939929071       ,13
E1166BK/5,2,5055939929088       ,13
E1166BK/6,1,5055939929095       ,13
E1166BK/7,2,5055939929101       ,13
E1167BK/4,2,5055939929316       ,13
E1167BK/5,2,5055939929323       ,13
E1167BK/6,1,5055939929330       ,13
E1167BK/7,1,5055939929347       ,13
E9144BK/4,1,5055939957562       ,21
E9144BK/5,1,5055939957579       ,21
E9144BK/6,1,5055939957586       ,21
E9144BK/7,2,5055939957593       ,21
E1194BU/L-XL,2,5055939946146       ,33
E1205BK/L-XL,2,5055939951812       ,33
E4054BK/4,2,5055939953175       ,33
E4054BK/5,2,5055939953182       ,33
E4054BK/6,1,5055939953199       ,33
E4054BK/7,1,5055939953205       ,33
E6106BK/3,1,5055939919492       ,33
E6106BK/4,1,5055939919508       ,33
E7135BK/3,1,5055939953113       ,33
E7135BK/5,1,5055939953137       ,33
E8064BC/4,1,5055939936789       ,33
E8064BC/5,2,5055939936796       ,33
E9108WH/3,1,5055939941967       ,33
E9108WH/5,1,5055939941981       ,33
E8064BK/5,3,5055939915999       ,34
E9106GV/5,1,5055939935324       ,34
E1183BK/5,3,5055939944241       ,38
E1183BK/6,2,5055939944258       ,38
E1183BK/7,1,5055939944265       ,38
E1505KH/L-XL,1,5055939951317       ,45
E1511BK/M-L,2,5055939930138       ,45
E0128BK/3,1,5055939904924       ,46
E0128BK/4,1,5055939904931       ,46
E0128BK/5,1,5055939904948       ,46
E0128BK/6,1,5055939904955       ,46
E0128BK/7,1,5055939904962       ,46
E1145BK/3,1,5055939908182       ,46
E1145BK/4,1,5055939908199       ,46
E1145BK/5,1,5055939908205       ,46
E1145BK/6,1,5055939908212       ,46
E1145BK/7,1,5055939910659       ,46
E1186BK/3,1,5055939944623       ,46
E1186BK/4,1,5055939944630       ,46
E1186BK/5,1,5055939944647       ,46
E1186BK/6,1,5055939944654       ,46
E1186BK/7,1,5055939944661       ,46
E1518GF/L-XL,1,5055939948935       ,46
E1518GF/M-L,1,5055939948928       ,46
E1518GF/S-M,1,5055939948911       ,46
E3158BK/3,1,5055939942414       ,46
E3158BK/4,1,5055939942421       ,46
E3158BK/5,1,5055939942438       ,46
E3158BK/6,1,5055939942445       ,46
E3158BK/7,1,5055939942452       ,46
E6040BK/2,1,5055939904979       ,46
E6040BK/3,1,5055939904986       ,46
E6040BK/4,1,5055939904993       ,46
E6040BK/5,1,5055939905006       ,46
E6067BK/2,1,5055205367644       ,46
E6067BK/3,1,5055205367651       ,46
E6067BK/4,1,5055205367668       ,46
E6067BK/5,1,5055205367675       ,46
E6147BK/2,1,5055939944722       ,46
E6147BK/3,1,5055939944739       ,46
E6147BK/4,1,5055939944746       ,46
E6147BK/5,1,5055939944753       ,46
E8100BK/3,1,5055939959139       ,46
E8100BK/4,1,5055939959146       ,46
E8100BK/5,1,5055939959153       ,46
E8100BK/6,1,5055939959160       ,46
E8100BK/7,1,5055939959177       ,46
E9117OM/3,1,5055939942261       ,46
E9143BK/3,1,5055939957456       ,46
E9143BK/4,1,5055939957463       ,46
E9143BK/5,1,5055939957470       ,46
E9143BK/6,1,5055939957487       ,46
E9143BK/7,1,5055939957494       ,46
E9145BK/4,1,5055939959092       ,46
E9145BK/5,1,5055939959108       ,46
E9145BK/6,1,5055939959115       ,46
E1043BK/L-XL,3,5055939923871       ,55
E9117BK/5,1,5055939942186       ,55
E9145BK/3,1,5055939959085       ,60
E9145BK/7,1,5055939959122       ,60
E1505GY/M-L,3,5055939930107       ,63
E1505MB/M-L,2,5055939904481       ,63
E0062/4,1,5055205323770       ,67
E9117OM/4,1,5055939942278       ,74
E9117OM/5,1,5055939942285       ,74
E9117OM/6,1,5055939942292       ,74
E9117OM/7,1,5055939942308       ,74
E3161BK/7,2,5055939944999       ,90
E0128BK/5,1,5055939904948       ,94
E0132MB/6,1,5055939922041       ,94
E1117BK/3,1,5055205390116       ,94
E1117BK/4,2,5055205390123       ,94
E1117BK/5,2,5055205390130       ,94
E1117BK/6,1,5055205390147       ,94
E1117BK/7,1,5055205390154       ,94
E1118BK/5,2,5055205389981       ,94
E1118BK/6,2,5055205389998       ,94
E1145BK/4,1,5055939908199       ,94
E1145BK/6,1,5055939908212       ,94
E3158BK/5,1,5055939942438       ,94
E3158BK/6,1,5055939942445       ,94
E8100BK/5,1,5055939959153       ,94
E9106BK/3,1,5055939935256       ,94
E9106BK/4,1,5055939935263       ,94
E9106BK/6,1,5055939935287       ,94
E9106BK/7,1,5055939935294       ,94
E9106GV/6,1,5055939935331       ,94
E9106GV/7,1,5055939935348       ,94
E9145BK/5,1,5055939959108       ,94
E9145BK/6,1,5055939959115       ,94
E7136WH/0,2,5055939948942       ,101
E9144BV/4,1,5055939957616       ,122
E0110BK,2,5055205367224       ,126
E0110PK,2,5055205367231       ,126
E1042BK/L-XL,3,5055939923857       ,126
E1042BK/S-M,2,5055939923864       ,126
E1043BK/L-XL,3,5055939923871       ,126
E1120BK/4,2,5055205390222       ,126
E1120BK/6,1,5055205390246       ,126
E1186BK/6,1,5055939944654       ,126
E1505KH/L-XL,2,5055939951317       ,126
E1505MB/L-XL,2,5055939904474       ,126
E1505OR/M-L,2,5055939904511       ,126
E1505RD/M-L,2,5055939951270       ,126
E1505GY/L-XL,1,5055939930091       ,129
E1505KH/L-XL,1,5055939951317       ,129
E1505MB/L-XL,2,5055939904474       ,129
E1505MB/M-L,1,5055939904481       ,129
E1505RD/L-XL,1,5055939951287       ,129
E1505RD/M-L,1,5055939951270       ,129
E0116PK,4,5055205381046       ,146
E1117BK/5,2,5055205390130       ,146
E1120BK/7,1,5055205390253       ,146
E1194BU/L-XL,4,5055939946146       ,146
E1225BK/L-XL,1,5055939959207       ,146
E1225BK/M-L,2,5055939959191       ,146
E1225BK/S-M,1,5055939959184       ,146
E1120BK/5,1,5055205390239       ,150
E1120BK/6,1,5055205390246       ,150
E1043BK/S-M,2,5055939923888       ,158
E1120BK/5,3,5055205390239       ,158
E1145BK/4,1,5055939908199       ,158
E1145BK/6,1,5055939908212       ,158
E5058BK/3,1,5055939942681       ,166
E8086AN/3,1,5055939942780       ,166
E1225BK/L-XL,1,5055939959207       ,172
E1225BK/XL-XXL,1,5055939966564       ,172
E1511BK/S-M,1,5055939930145       ,172
E0045,3,5055205315935       ,173
E1518GF/M-L,1,5055939948928       ,173
E9117BK/4,1,5055939942179       ,178
E1145BK/7,1,5055939910659       ,194
E9147RR/6,1,5055939959542       ,194
E9147RR/7,1,5055939959559       ,194
E1117BK/6,1,5055205390147       ,200
E1120BK/3,1,5055205390215       ,200
E1120BK/5,1,5055205390239       ,200
E1505GY/M-L,2,5055939930107       ,200
E1505GY/S-M,2,5055939930114       ,200
E1506NA/L-XL,1,5055939922850       ,200
E1506NA/M-L,1,5055939922843       ,200
E1511BK/M-L,2,5055939930138       ,200
E1117BK/5,1,5055205390130       ,202
E9117BK/4,2,5055939942179       ,202
