INVOICE,SIN600425
YOUR REF,SOR365551
DATE,08/04/2019
VALUE,460.4


SKU,Qty,Value,Name,Colour,Size
E7117NA/4       ,1,48.80,FS260-Pro Bibshort,Navy,M
E3142NA/5       ,1,33.20,FS260-Pro S/S Jersey,Navy,L
E8069BK/5       ,1,24.40,Cairn Short,Black,L
E8065BK/5       ,1,34.20,Hummvee Lite Short II with liner,Black,L
E6108BK/4       ,1,34.20,Women's Hummvee Lite Short II with liner,Black,M
E4029BK/5       ,2,78.00,Hyperon II Bibshort,Black,L
E4029BK/6       ,1,39.00,Hyperon II Bibshort,Black,XL
E6132BK/6       ,1,39.00,Women's FS260-Pro Short,Black,XL
E7133OM/K7      ,1,17.40,Kids MT500JR L/S T II,Mango,7-8yrs
E7123RD/K9      ,1,17.10,Kids Ray S/S Jersey,Red,9-10yrs
E7110BK/K7      ,1,19.50,Kids Xtract Gel Short,Black,7-8yrs
E7110BK/K9      ,1,19.50,Kids Xtract Gel Short,Black,9-10yrs
E9116CE/3       ,1,56.10,Women's Windchill Jacket ,Cerise,S
