SKU,Maximum allowed,Barcode/EAN,Days left
E0004/L-XL,1,5055205300153       ,15
E1109BK/L-XL,1,5055205388014       ,15
E1109BK/M-L,1,5055205388007       ,15
E1109BK/S-M,1,5055205387994       ,15
E1112BK/L-XL,1,5055205384689       ,15
E1112BK/S-M,1,5055205384672       ,15
E1134BK/0,2,5055939902470       ,15
E1134BU/0,2,5055205399225       ,15
E1157BK/S-M,1,5055939928425       ,15
E1158BK/S-M,1,5055939928449       ,15
E1505GY/L-XL,1,5055939930091       ,15
E1505GY/M-L,1,5055939930107       ,15
E1505KH/L-XL,1,5055939951317       ,15
E1505KH/M-L,1,5055939951300       ,15
E1505KH/S-M,1,5055939951294       ,15
E1505MB/L-XL,1,5055939904474       ,15
E1505MB/M-L,2,5055939904481       ,15
E1505MB/S-M,2,5055939904498       ,15
E1505OR/M-L,1,5055939904511       ,15
E1505OR/S-M,1,5055939904528       ,15
E1505RD/M-L,1,5055939951270       ,15
E1505RD/S-M,1,5055939951263       ,15
E1505WH/M-L,2,5055939904559       ,15
E1506GF/M-L,2,5055939948966       ,15
E1506NA/L-XL,1,5055939922850       ,15
E1506NA/M-L,1,5055939922843       ,15
E1511KH/L-XL,1,5055939950402       ,15
E1511KH/M-L,1,5055939950396       ,15
E1511KH/S-M,1,5055939950389       ,15
E1511PT/L-XL,1,5055939930152       ,15
E1511PT/M-L,1,5055939930169       ,15
E1513GV/M-L,1,5055939930312       ,15
E1513WH/M-L,1,5055939930343       ,15
E1517BK/L-XL,1,5055939953403       ,15
E1517BK/M-L,2,5055939953397       ,15
E1517BK/S-M,1,5055939953380       ,15
E1517RD/L-XL,1,5055939953434       ,15
E1517RD/M-L,2,5055939953427       ,15
E1517RD/S-M,1,5055939953410       ,15
E1517WH/L-XL,1,5055939953465       ,15
E1517WH/M-L,1,5055939953458       ,15
E1517WH/S-M,1,5055939953441       ,15
E3061W/5,1,5055205342481       ,15
E3061W/6,1,5055205342498       ,15
E3109OC/3,1,5055939909103       ,15
E3109OC/4,1,5055939909110       ,15
E3109OC/5,1,5055939909127       ,15
E3109OC/6,1,5055939909134       ,15
E3109OC/7,1,5055939909141       ,15
E3142NA/4,1,5055939952673       ,15
E3142NA/5,1,5055939952680       ,15
E3142NA/6,1,5055939952697       ,15
E3143AN/3,1,5055939936093       ,15
E3143AN/4,1,5055939936109       ,15
E3143AN/5,1,5055939936116       ,15
E3168BK/3,1,5055939954165       ,15
E3168BK/4,1,5055939954172       ,15
E3168BK/5,1,5055939954189       ,15
E3168BK/6,1,5055939954196       ,15
E3168BK/7,1,5055939954202       ,15
E3169BK/2,1,5055939954219       ,15
E3169BK/3,1,5055939954226       ,15
E3169BK/4,1,5055939954233       ,15
E3169BK/5,1,5055939954240       ,15
E3169BK/6,1,5055939954257       ,15
E3170BK/3,1,5055939954264       ,15
E3170BK/4,1,5055939954271       ,15
E3170BK/5,1,5055939954288       ,15
E3170BK/6,1,5055939954295       ,15
E3170BK/7,1,5055939954301       ,15
E3171BK/3,1,5055939954325       ,15
E3171BK/4,1,5055939954332       ,15
E3171BK/5,1,5055939954349       ,15
E3173GF/4,1,5055939949659       ,15
E3173GF/5,1,5055939949666       ,15
E3174NA/4,1,5055939952925       ,15
E3174NA/5,1,5055939952932       ,15
E3174NA/6,1,5055939952949       ,15
E4028BK/3,1,5055939901060       ,15
E4028BK/4,1,5055939901077       ,15
E4028BK/5,1,5055939901084       ,15
E4028BK/6,1,5055939901091       ,15
E4030BK/3,1,5055939917474       ,15
E4030BK/4,1,5055939917481       ,15
E4031BK/3,1,5055939916965       ,15
E4031BK/4,1,5055939916972       ,15
E4031BK/5,1,5055939916989       ,15
E4032BK/5,1,5055939917559       ,15
E4032BK/6,1,5055939917566       ,15
E5067BK/5,1,5055939950730       ,15
E5067BK/6,1,5055939950747       ,15
E5067BK/7,1,5055939950754       ,15
E5067NA/3,1,5055939950761       ,15
E5067NA/4,1,5055939950778       ,15
E5067NA/5,1,5055939950785       ,15
E5073RR/3,1,5055939949192       ,15
E5073RR/4,1,5055939949208       ,15
E5073RR/5,1,5055939949215       ,15
E6097BK/2,1,5055939901206       ,15
E6097BK/3,1,5055939901213       ,15
E6097BK/4,1,5055939901220       ,15
E6097BK/5,1,5055939901237       ,15
E6110BK/2,1,5055939914664       ,15
E6110BK/3,1,5055939914671       ,15
E6110BK/4,1,5055939914688       ,15
E6110BK/5,1,5055939914695       ,15
E6132BK/2,1,5055939933719       ,15
E6132BK/3,1,5055939933726       ,15
E6132BK/4,1,5055939933733       ,15
E6132BK/5,1,5055939933740       ,15
E6151GK/3,1,5055939950297       ,15
E6151GK/4,1,5055939950303       ,15
E6151GK/5,1,5055939950310       ,15
E6152RD/3,1,5055939951089       ,15
E6152RD/4,1,5055939951096       ,15
E6152RD/5,1,5055939951102       ,15
E6154RD/3,1,5055939953021       ,15
E6154RD/4,1,5055939953038       ,15
E6154RD/5,1,5055939953045       ,15
E7117BK/3,1,5055939917016       ,15
E7117BK/4,1,5055939917023       ,15
E7117BK/5,1,5055939917030       ,15
E7117BK/6,1,5055939917047       ,15
E7117NA/4,1,5055939955056       ,15
E7117NA/5,1,5055939955063       ,15
E7117NA/6,1,5055939955070       ,15
E7128BK/0,2,5055939934419       ,15
E7128GY/0,2,5055939934426       ,15
E7128KH/0,2,5055939951324       ,15
E8064GY/3,1,5055939916217       ,15
E8064GY/4,1,5055939916224       ,15
E8064GY/5,1,5055939916231       ,15
E8067BK/3,1,5055939916446       ,15
E8067BK/4,1,5055939916453       ,15
E8067BK/5,1,5055939916460       ,15
E8067NA/3,1,5055939949291       ,15
E8067NA/4,1,5055939949307       ,15
E8087BK/5,1,5055939943121       ,15
E8087BK/6,1,5055939943138       ,15
E8088BK/3,1,5055939943152       ,15
E8088BK/5,1,5055939943176       ,15
E8088BK/6,1,5055939943183       ,15
E8094AN/3,1,5055939949390       ,15
E8094AN/4,2,5055939949406       ,15
E8094AN/5,1,5055939949413       ,15
E8094AN/6,1,5055939949420       ,15
E8094AN/7,1,5055939949437       ,15
E8095AN/3,1,5055939950013       ,15
E8095AN/4,1,5055939950020       ,15
E8095AN/5,1,5055939950037       ,15
E8098BK/3,1,5055939953342       ,15
E8098BK/4,1,5055939953359       ,15
E9098CT/5,1,5055939925226       ,15
E9098CT/6,1,5055939925233       ,15
E9100CR/3,1,5055939925356       ,15
E9100CR/4,1,5055939925363       ,15
E9100CR/5,1,5055939925370       ,15
E9106BV/3,1,5055939941370       ,15
E9106BV/4,1,5055939941387       ,15
E9106BV/5,1,5055939941394       ,15
E9106BV/6,1,5055939941400       ,15
E9106BV/7,1,5055939941417       ,15
E9106GV/3,1,5055939935300       ,15
E9106GV/4,1,5055939935317       ,15
E9106GV/5,1,5055939935324       ,15
E9106GV/6,1,5055939935331       ,15
E9106GV/7,1,5055939935348       ,15
E9108WH/3,1,5055939941967       ,15
E9108WH/5,1,5055939941981       ,15
EM0054BK/3,1,5055939918723       ,15
EM0054BK/4,1,5055939918730       ,15
EM0054BK/5,1,5055939918747       ,15
EM0058NA/3,1,5055939935829       ,15
EM0058NA/4,1,5055939935836       ,15
E6097BK/1,1,5055939910086       ,27
E8093BK/4,1,5055939948782       ,27
E1505WH/S-M,2,5055939904566       ,32
E9115CO/3,1,5055939941882       ,32
E9115CO/4,1,5055939941899       ,32
E9115CO/5,1,5055939941905       ,32
E9115CO/6,1,5055939945088       ,32
E0098YV/L-XL,2,5055205363349       ,33
E1119BK/5,2,5055205390550       ,33
E1119BK/6,2,5055205390567       ,33
E1131BK/S-M,3,5055205398679       ,33
E1511WH/M-L,1,5055939930190       ,33
E6124BK/3,1,5055939933009       ,33
E1118BK/6,1,5055205389998       ,63
E1119BK/5,1,5055205390550       ,63
E1183BK/4,1,5055939944234       ,63
E1183BK/6,1,5055939944258       ,63
E1505MB/M-L,1,5055939904481       ,63
E3168BK/6,1,5055939954196       ,63
E3169BK/5,1,5055939954240       ,63
E3170BK/4,1,5055939954271       ,63
E3171BK/5,1,5055939954349       ,63
E6097BK/3,1,5055939901213       ,63
E6104CE/3,1,5055939915708       ,63
E6104CE/4,1,5055939915715       ,63
E6104CE/6,1,5055939920931       ,63
E6104CO/5,1,5055939918341       ,63
E6104CO/6,1,5055939920948       ,63
E6154RD/2,1,5055939953014       ,63
E7117BK/3,1,5055939917016       ,63
E7117BK/4,2,5055939917023       ,63
E6110BK/6,2,5055939922331       ,76
E9114BV/4,1,5055939941783       ,97
E9114BV/5,1,5055939941790       ,97
E9114BV/6,1,5055939941806       ,97
E7136WH/0,2,5055939948942       ,105
E0048,2,5055205315966       ,112
E3109OC/5,1,5055939909127       ,112
E3109YV/4,1,5055939909011       ,112
E3109YV/5,1,5055939909028       ,112
E3168BK/4,1,5055939954172       ,112
E3168BK/5,1,5055939954189       ,112
E3169BK/4,1,5055939954233       ,112
E3170BK/4,2,5055939954271       ,112
E3170BK/5,2,5055939954288       ,112
E3171BK/4,1,5055939954332       ,112
E4031BK/5,1,5055939916989       ,112
E5067NA/5,1,5055939950785       ,112
E5067NA/6,1,5055939950792       ,112
E7117BK/4,2,5055939917023       ,112
E9106GV/5,1,5055939935324       ,112
E9114BV/3,1,5055939941776       ,112
E9138GC/3,1,5055939949048       ,112
E9138GC/4,1,5055939949055       ,112
E9138GC/5,1,5055939949062       ,112
E3168BK/4,2,5055939954172       ,145
E3168BK/6,1,5055939954196       ,145
E3169BK/3,1,5055939954226       ,145
E3169BK/4,1,5055939954233       ,145
E3171BK/4,1,5055939954332       ,145
E5067NA/4,1,5055939950778       ,145
E5067NA/5,1,5055939950785       ,145
E5073GF/3,1,5055939949147       ,145
E6097BK/3,1,5055939901213       ,145
E6132BK/3,3,5055939933726       ,145
E6132BK/4,1,5055939933733       ,145
E9095YV/4,1,5055939918129       ,145
E9106GV/4,1,5055939935317       ,145
E9106GV/5,1,5055939935324       ,145
E9138GC/5,1,5055939949062       ,145
