SKU,Maximum allowed,Barcode/EAN,Days left
E0063/2,2,5055205323817       ,2
E1102,5,5055205353814       ,2
E1108BK/L-XL,1,5055205387987       ,2
E1108BK/S-M,1,5055205387970       ,2
E1165GV/5,1,5055939928913       ,2
E1165GV/6,1,5055939928920       ,2
E1168BK/4,1,5055939929484       ,2
E1168BK/5,1,5055939929491       ,2
E1168BK/6,2,5055939929507       ,2
E1168BK/7,2,5055939929514       ,2
E1184BK/4,1,5055939944432       ,2
E1184BK/5,1,5055939944449       ,2
E1184BK/6,1,5055939944456       ,2
E1184BK/7,1,5055939944463       ,2
E1505GY/L-XL,1,5055939930091       ,2
E1505MB/L-XL,3,5055939904474       ,2
E4055BK/4,2,5055939953076       ,2
E4055BK/5,2,5055939953083       ,2
E4055BK/6,2,5055939953090       ,2
E6097BK/2,2,5055939901206       ,2
E6106BK/4,1,5055939919508       ,2
E6108BK/4,1,5055939919607       ,2
E6108BK/5,1,5055939919614       ,2
E6108BK/6,1,5055939919621       ,2
E6153BK/3,1,5055939953281       ,2
E6153BK/4,1,5055939953298       ,2
E6153BK/5,1,5055939953304       ,2
E6153BK/6,1,5055939953311       ,2
E8064GY/6,3,5055939916248       ,2
E8064GY/7,2,5055939916255       ,2
E9117BK/5,2,5055939942186       ,2
E9117BK/7,1,5055939942209       ,2
E3169BK/3,1,5055939954226       ,5
E3169BK/4,2,5055939954233       ,5
E6106BK/5,1,5055939919515       ,5
E7131BK/K11,1,5055939949970       ,5
E8064BK/3,1,5055939915975       ,5
E3109BK/3,1,5055939908953       ,10
E3109BK/6,1,5055939908984       ,10
E3109OC/3,1,5055939909103       ,10
E3109OC/5,1,5055939909127       ,10
E3109OC/6,2,5055939909134       ,10
E3109OC/7,1,5055939909141       ,10
E6104CE/4,1,5055939915715       ,10
E6104CE/6,1,5055939920931       ,10
E0035/3,2,5055205301440       ,16
E0035/5,8,5055205301457       ,16
E0043GK/0,15,5055939961385       ,16
E0089BK/3,1,5055205343679       ,16
E0089BK/4,1,5055205343686       ,16
E0089BK/5,2,5055205343693       ,16
E0089BK/6,1,5055205343709       ,16
E0128YV/5,4,5055939909639       ,16
E0128YV/6,8,5055939909646       ,16
E0128YV/7,5,5055939909653       ,16
E1043BK/L-XL,1,5055939923871       ,16
E1043BK/S-M,1,5055939923888       ,16
E1118BK/5,4,5055205389981       ,16
E1118BK/6,11,5055205389998       ,16
E1118BK/7,8,5055205390000       ,16
E1145BK/6,1,5055939908212       ,16
E1145BK/7,1,5055939910659       ,16
E1165BK/4,5,5055939928852       ,16
E1165BK/5,9,5055939928869       ,16
E1165BK/6,15,5055939928876       ,16
E1165BK/7,15,5055939928883       ,16
E1165RD/5,9,5055939929026       ,16
E1165RD/6,9,5055939929033       ,16
E1165RD/7,10,5055939929040       ,16
E1167BK/6,2,5055939929330       ,16
E1182BK/L-XL,2,5055939942629       ,16
E1182BK/S-M,1,5055939942612       ,16
E1183BK/5,15,5055939944241       ,16
E1183BK/6,10,5055939944258       ,16
E1183BK/7,8,5055939944265       ,16
E1184BK/3,1,5055939944425       ,16
E1184BK/4,1,5055939944432       ,16
E1184BK/5,8,5055939944449       ,16
E1184BK/6,10,5055939944456       ,16
E1184BK/7,7,5055939944463       ,16
E1185BK/5,6,5055939944548       ,16
E1185BK/6,6,5055939944555       ,16
E1185BK/7,5,5055939944562       ,16
E1186BK/3,1,5055939944623       ,16
E1186BK/4,7,5055939944630       ,16
E1186BK/5,7,5055939944647       ,16
E1186BK/6,7,5055939944654       ,16
E1186BK/7,7,5055939944661       ,16
E1224BK/2,1,5055939958798       ,16
E1224BK/3,2,5055939958804       ,16
E1224BK/7,2,5055939966304       ,16
E1505KH/L-XL,2,5055939951317       ,16
E1505KH/M-L,1,5055939951300       ,16
E1505KH/S-M,1,5055939951294       ,16
E1505RD/M-L,1,5055939951270       ,16
E1511WH/S-M,1,5055939930206       ,16
E3061W/3,1,5055205342467       ,16
E3061W/4,1,5055205342474       ,16
E3123BK/5,2,5055939915340       ,16
E3123BK/6,2,5055939915357       ,16
E3123GF/4,1,5055939948508       ,16
E3123GF/5,2,5055939948515       ,16
E3123GF/6,2,5055939948522       ,16
E3123GF/7,1,5055939948539       ,16
E3133AN/7,1,5055939957104       ,16
E3134BK/4,1,5055939924380       ,16
E3134BK/5,1,5055939924397       ,16
E3134BK/6,1,5055939924403       ,16
E3134BK/7,1,5055939924410       ,16
E3158BK/5,1,5055939942438       ,16
E4054BK/6,1,5055939953199       ,16
E4055BK/4,1,5055939953076       ,16
E4055BK/6,1,5055939953090       ,16
E4055BK/7,1,5055939953106       ,16
E5049BK/5,6,5055939924540       ,16
E5049BK/6,8,5055939924557       ,16
E5049BK/7,5,5055939924564       ,16
E5056BK/4,1,5055939941837       ,16
E5056BK/5,6,5055939941844       ,16
E5056BK/6,5,5055939941851       ,16
E5056BK/7,2,5055939941868       ,16
E6104CE/4,1,5055939915715       ,16
E6153BK/3,1,5055939953281       ,16
E7135BK/4,2,5055939953120       ,16
E7135BK/5,2,5055939953137       ,16
E7135BK/6,2,5055939953144       ,16
E7135BK/7,2,5055939953151       ,16
E8064BK/4,6,5055939915982       ,16
E8064BK/5,9,5055939915999       ,16
E8064BK/6,5,5055939916002       ,16
E8064GY/6,5,5055939916248       ,16
E8064KH/5,1,5055939916071       ,16
E8073BK/4,10,5055939924670       ,16
E8073BK/5,15,5055939924687       ,16
E8073BK/6,12,5055939924694       ,16
E8073BK/7,5,5055939924700       ,16
E9102BK/5,5,5055939925530       ,16
E9102BK/6,6,5055939925547       ,16
E9102BK/7,3,5055939925554       ,16
E9102GV/7,1,5055939925608       ,16
E9102RD/5,5,5055939925486       ,16
E9102RD/6,5,5055939925493       ,16
E9106WH/3,1,5055939935355       ,16
E9106WH/4,1,5055939935362       ,16
E9106WH/5,1,5055939935379       ,16
E9106WH/6,1,5055939935386       ,16
E9117BK/5,2,5055939942186       ,16
E9117BK/6,3,5055939942193       ,16
E9119GF/4,1,5055939948997       ,16
E9120BK/5,4,5055939943220       ,16
E9120BK/6,4,5055939943237       ,16
E9120BK/7,3,5055939943244       ,16
E9120YV/5,1,5055939943275       ,16
E9120YV/6,4,5055939943282       ,16
E9120YV/7,5,5055939943299       ,16
E9129BP/3,1,5055939943619       ,16
E9129BP/4,1,5055939943626       ,16
E9129BP/5,1,5055939943633       ,16
E1102,1,5055205353814       ,17
E1128BK/L-XL,1,5055205398617       ,17
E1165BK/6,1,5055939928876       ,17
E1165GV/4,1,5055939928906       ,17
E1165GV/6,1,5055939928920       ,17
E1165RD/5,1,5055939929026       ,17
E1168BK/3,1,5055939929477       ,17
E1168BK/4,2,5055939929484       ,17
E1168BK/5,1,5055939929491       ,17
E1168BK/6,2,5055939929507       ,17
E1204GC/4,1,5055939950679       ,17
E1204GC/5,1,5055939950686       ,17
E1505GV/L-XL,1,5055939904443       ,17
E1505GV/M-L,1,5055939904450       ,17
E3125BK/4,1,5055939915395       ,17
E4054BK/5,1,5055939953182       ,17
E6104CE/3,1,5055939915708       ,17
E6105CE/2,1,5055939918396       ,17
E6120BK/2,1,5055939932750       ,17
E6153BK/5,1,5055939953304       ,17
E8064GC/4,1,5055939950976       ,17
E8064GC/5,3,5055939950983       ,17
E8064GC/7,1,5055939951003       ,17
E8065BK/4,1,5055939919157       ,17
E8073BK/4,1,5055939924670       ,17
E9098BK/5,1,5055939942896       ,17
E9106BK/5,1,5055939935270       ,17
E9106WH/4,1,5055939935362       ,17
E9106WH/5,1,5055939935379       ,17
E9121YV/4,1,5055939945828       ,17
E9134YV/4,1,5055939943367       ,17
E0151GC/0,15,5055939960715       ,18
E0153BK/L-XL,2,5055939965970       ,18
E0153BK/S-M,1,5055939958132       ,18
E0154BK/L-XL,3,5055939965987       ,18
E0154BK/S-M,1,5055939958149       ,18
E1218BK/L-XL,4,5055939958521       ,18
E1218BK/M-L,3,5055939958514       ,18
E1218BK/S-M,1,5055939958507       ,18
E1219BK/L-XL,19,5055939958545       ,18
E1219BK/S-M,1,5055939958538       ,18
E1220BK/L-XL,3,5055939958569       ,18
E1222BK/0,14,5055939958590       ,18
E1223BK/L-XL,20,5055939958613       ,18
E1223BK/S-M,1,5055939958606       ,18
E1224BK/4,5,5055939966274       ,18
E1224BK/5,9,5055939966281       ,18
E1224BK/6,6,5055939966298       ,18
E1227BK/L-XL,15,5055939966311       ,18
E1227BK/S-M,9,5055939959405       ,18
E7120BK/5,10,5055939915517       ,18
E7120BK/6,10,5055939915524       ,18
E7139BK/K11,1,5055939959238       ,18
E7139BK/K9,1,5055939959221       ,18
E7140GY/K11,1,5055939960678       ,18
E7140GY/K9,1,5055939960661       ,18
E8064GY/4,6,5055939916224       ,18
E8064GY/5,8,5055939916231       ,18
E9114BV/4,1,5055939941783       ,18
E9114BV/5,1,5055939941790       ,18
E9145BK/6,1,5055939959115       ,18
E1505MB/L-XL,1,5055939904474       ,23
E8064BK/9,2,5055939916033       ,23
E8064GY/4,2,5055939916224       ,23
E1168BK/4,1,5055939929484       ,24
E1168BK/5,1,5055939929491       ,31
E1168BK/7,1,5055939929514       ,31
E1204GC/5,1,5055939950686       ,31
E1250CL,1,5055939955797       ,31
E8064GY/3,1,5055939916217       ,31
E8064GY/4,2,5055939916224       ,31
E9098BK/4,1,5055939942889       ,31
E9098BK/7,2,5055939942919       ,31
E9106BK/5,1,5055939935270       ,31
E3134GV/5,1,5055939924441       ,39
E3134GV/7,1,5055939924465       ,39
E3134RD/6,1,5055939924359       ,39
E9102RD/5,1,5055939925486       ,39
E9102RD/6,1,5055939925493       ,39
E9114GV/4,1,5055939941684       ,39
E9114GV/5,1,5055939941691       ,39
E9114GV/6,1,5055939941707       ,39
E9140BV/4,1,5055939953533       ,39
E9140BV/5,1,5055939953540       ,39
E9140BV/6,1,5055939953557       ,39
E1043BK/S-M,1,5055939923888       ,45
E1128BK/L-XL,2,5055205398617       ,45
E1506GF/M-L,1,5055939948966       ,45
E2010BK/4,1,5055205358086       ,45
E2010BK/5,1,5055205358093       ,45
E8064BK/7,1,5055939916019       ,45
E8081BK/3,1,5055939934952       ,45
E8081BK/4,2,5055939934969       ,45
E8081BK/7,2,5055939934990       ,45
E8092BK/5,1,5055939948362       ,45
E9103GV/6,1,5055939925691       ,45
E9106WH/4,1,5055939935362       ,45
E9106WH/6,1,5055939935386       ,45
E9134YV/6,1,5055939943381       ,45
E9145BK/6,1,5055939959115       ,45
E0063/4,1,5055205323831       ,46
E0063/5,1,5055205323848       ,46
E0128YV/5,2,5055939909639       ,46
E0128YV/7,1,5055939909653       ,46
E0154BK/L-XL,2,5055939965987       ,46
E0154BK/S-M,1,5055939958149       ,46
E1043BK/L-XL,2,5055939923871       ,46
E1043BK/S-M,1,5055939923888       ,46
E1145GV/5,1,5055939910697       ,46
E1145GV/6,1,5055939910703       ,46
E1145GV/7,1,5055939910635       ,46
E1182BK/L-XL,2,5055939942629       ,46
E1182BK/S-M,1,5055939942612       ,46
E1184BK/4,1,5055939944432       ,46
E1223BK/S-M,1,5055939958606       ,46
E1505GV/M-L,1,5055939904450       ,46
E1505KH/L-XL,1,5055939951317       ,46
E1505KH/S-M,1,5055939951294       ,46
E1505RD/S-M,1,5055939951263       ,46
E1505WH/M-L,1,5055939904559       ,46
E3029/4,1,5055205304236       ,46
E3029/6,1,5055205304250       ,46
E3109BK/6,1,5055939908984       ,46
E3134BK/6,1,5055939924403       ,46
E3134BK/7,1,5055939924410       ,46
E3134GV/5,1,5055939924441       ,46
E3134GV/6,1,5055939924458       ,46
E6040YV/2,1,5055939909738       ,46
E6040YV/3,1,5055939909745       ,46
E6040YV/4,2,5055939909752       ,46
E6040YV/5,1,5055939909769       ,46
E6104CE/3,1,5055939915708       ,46
E6104CE/6,1,5055939920931       ,46
E6146BK/4,1,5055939942094       ,46
E6146BK/5,1,5055939942100       ,46
E6147BK/2,1,5055939944722       ,46
E6147BK/3,1,5055939944739       ,46
E6147BK/4,2,5055939944746       ,46
E6147BK/5,1,5055939944753       ,46
E7139BK/K11,1,5055939959238       ,46
E7139BK/K9,1,5055939959221       ,46
E8076BK/4,1,5055939924823       ,46
E8076BK/5,1,5055939924830       ,46
E8076BK/6,1,5055939924847       ,46
E8076BK/7,1,5055939924854       ,46
E8098BK/5,1,5055939953366       ,46
E8100BK/5,1,5055939959153       ,46
E8100BK/6,1,5055939959160       ,46
E8100BK/7,1,5055939959177       ,46
E9098BK/4,1,5055939942889       ,46
E9098BK/5,1,5055939942896       ,46
E9098BK/6,1,5055939942902       ,46
E9098BK/7,1,5055939942919       ,46
E9104CR/3,1,5055939925721       ,46
E9104CR/4,1,5055939925738       ,46
E9104CR/5,1,5055939925745       ,46
E9114GV/6,1,5055939941707       ,46
E9119GF/4,1,5055939948997       ,46
E9119GF/5,1,5055939949000       ,46
E9119GF/6,1,5055939949017       ,46
E9119GF/7,1,5055939949024       ,46
E9129BP/3,1,5055939943619       ,46
E9129BP/4,1,5055939943626       ,46
E9129BP/5,1,5055939943633       ,46
E9145BK/6,1,5055939959115       ,46
E9145BK/7,1,5055939959122       ,46
E9150GK/3,1,5055939960401       ,46
E9150GK/4,1,5055939960418       ,46
E9150GK/5,1,5055939960425       ,46
E1505KH/M-L,1,5055939951300       ,47
E1506BK/M-L,1,5055939920054       ,47
E0062/4,2,5055205323770       ,52
E0062/5,3,5055205323787       ,52
E1108BK/L-XL,2,5055205387987       ,52
E1109BK/L-XL,1,5055205388014       ,52
E1109BK/M-L,2,5055205388007       ,52
E1506BK/M-L,1,5055939920054       ,52
E9103GV/7,1,5055939925707       ,52
E9117YM/4,1,5055939960999       ,52
E9117YM/5,1,5055939961002       ,52
E9117YM/6,1,5055939961019       ,52
E9117YM/7,1,5055939961026       ,52
E5049BK/4,1,5055939924533       ,53
E8100BK/4,1,5055939959146       ,53
E0063/4,2,5055205323831       ,57
E1043BK/L-XL,2,5055939923871       ,57
E1108BK/L-XL,1,5055205387987       ,57
E1109BK/M-L,1,5055205388007       ,57
E1186BK/4,1,5055939944630       ,57
E1505KH/M-L,2,5055939951300       ,57
E1505MB/L-XL,1,5055939904474       ,57
E1506BK/M-L,1,5055939920054       ,57
E1506GF/M-L,1,5055939948966       ,57
E3109BK/5,1,5055939908977       ,57
E5049BK/5,1,5055939924540       ,57
E6146BK/4,1,5055939942094       ,57
E7131BK/K9,1,5055939949963       ,57
E1219BK/S-M,1,5055939958538       ,58
E1224BK/5,1,5055939966281       ,58
E1224BK/6,2,5055939966298       ,58
E3134BK/4,1,5055939924380       ,58
E3134BK/5,2,5055939924397       ,58
E3134BK/6,2,5055939924403       ,58
E3134BK/7,1,5055939924410       ,58
E3134GV/4,1,5055939924434       ,58
E3134GV/5,1,5055939924441       ,58
E3134GV/6,1,5055939924458       ,58
E3134GV/7,1,5055939924465       ,58
E3134RD/5,1,5055939924342       ,58
E3134RD/6,1,5055939924359       ,58
E3134RD/7,1,5055939924366       ,58
E5049BK/5,1,5055939924540       ,58
E8076BK/5,1,5055939924830       ,58
E8076BK/6,2,5055939924847       ,58
E8076BK/7,1,5055939924854       ,58
E9102BK/5,1,5055939925530       ,58
E9102BK/6,1,5055939925547       ,58
E9102BK/7,1,5055939925554       ,58
E9102GV/4,1,5055939925578       ,58
E9102GV/5,1,5055939925585       ,58
E9102GV/6,1,5055939925592       ,58
E9104CR/3,1,5055939925721       ,58
E9104CR/4,1,5055939925738       ,58
E9104CR/5,1,5055939925745       ,58
E0062/3,1,5055205323763       ,60
E0062/4,1,5055205323770       ,60
E0062/6,1,5055205323794       ,60
E0063/2,1,5055205323817       ,60
E0063/4,1,5055205323831       ,60
E0063/5,1,5055205323848       ,60
E1168BK/3,1,5055939929477       ,60
E1185BK/4,1,5055939944531       ,60
E1185BK/6,1,5055939944555       ,60
E1186BK/3,1,5055939944623       ,60
E1224BK/3,1,5055939958804       ,60
E1224BK/5,2,5055939966281       ,60
E1504GV/S-M,1,5055205389684       ,60
E1505GY/L-XL,1,5055939930091       ,60
E1505MB/L-XL,2,5055939904474       ,60
E3125BK/6,1,5055939915418       ,60
E5049BK/4,1,5055939924533       ,60
E5049BK/5,1,5055939924540       ,60
E5049BK/6,1,5055939924557       ,60
E5049BK/7,1,5055939924564       ,60
E5056BK/4,1,5055939941837       ,60
E5056BK/5,1,5055939941844       ,60
E5056BK/6,1,5055939941851       ,60
E5056BK/7,1,5055939941868       ,60
E5067BK/6,1,5055939950747       ,60
E5067BK/7,1,5055939950754       ,60
E6106BK/4,1,5055939919508       ,60
E6153BK/6,1,5055939953311       ,60
E7117BK/3,1,5055939917016       ,60
E8064GY/2,1,5055939916200       ,60
E8073BK/3,2,5055939924663       ,60
E9102BK/4,1,5055939925523       ,60
E9102BK/5,1,5055939925530       ,60
E9102BK/6,1,5055939925547       ,60
E9102BK/7,1,5055939925554       ,60
E9106BK/3,1,5055939935256       ,60
E9106BK/4,1,5055939935263       ,60
E9120BK/4,2,5055939943213       ,60
E9120BK/5,2,5055939943220       ,60
E9120BK/6,2,5055939943237       ,60
E9120BK/7,1,5055939943244       ,60
E9120YV/4,1,5055939943268       ,60
E9134YV/4,1,5055939943367       ,60
E1043BK/S-M,3,5055939923888       ,61
E1511KH/M-L,1,5055939950396       ,61
E3123BK/5,2,5055939915340       ,61
E8064BK/3,1,5055939915975       ,61
E8073BK/4,1,5055939924670       ,61
E9120YV/6,1,5055939943282       ,61
E1043BK/S-M,2,5055939923888       ,66
E1183BK/4,2,5055939944234       ,66
E1511KH/M-L,1,5055939950396       ,66
E2010BK/3,1,5055205358079       ,66
E3169BK/5,1,5055939954240       ,66
E5049BK/6,1,5055939924557       ,66
E5056BK/5,1,5055939941844       ,66
E5056BK/6,1,5055939941851       ,66
E8073BK/3,1,5055939924663       ,66
E8073BK/7,1,5055939924700       ,66
E8076BK/4,1,5055939924823       ,66
E8076BK/6,1,5055939924847       ,66
E8100BK/6,1,5055939959160       ,66
E8100BK/7,1,5055939959177       ,66
E9114BV/6,1,5055939941806       ,66
E1218BK/S-M,1,5055939958507       ,72
E1219BK/L-XL,1,5055939958545       ,72
E1220BK/L-XL,1,5055939958569       ,72
E1224BK/2,1,5055939958798       ,72
E1224BK/3,1,5055939958804       ,72
E1224BK/4,1,5055939966274       ,72
E1224BK/5,2,5055939966281       ,72
E5067BK/6,1,5055939950747       ,72
E8073BK/4,2,5055939924670       ,72
E8088BK/4,1,5055939943169       ,72
E8088BK/5,1,5055939943176       ,72
E8088BK/6,1,5055939943183       ,72
E9098BK/4,2,5055939942889       ,72
E9098BK/7,1,5055939942919       ,72
E9106BK/7,1,5055939935294       ,72
E9120YV/4,1,5055939943268       ,72
E0062/6,2,5055205323794       ,74
E0153BK/L-XL,2,5055939965970       ,74
E0153BK/S-M,1,5055939958132       ,74
E1102,2,5055205353814       ,74
E1108BK/L-XL,2,5055205387987       ,74
E1128BK/L-XL,2,5055205398617       ,74
E1128BK/S-M,1,5055205399164       ,74
E1165BK/5,1,5055939928869       ,74
E1168BK/4,1,5055939929484       ,74
E1168BK/5,1,5055939929491       ,74
E1168BK/6,1,5055939929507       ,74
E1184BK/5,2,5055939944449       ,74
E1220BK/L-XL,2,5055939958569       ,74
E1223BK/L-XL,2,5055939958613       ,74
E1227BK/L-XL,1,5055939966311       ,74
E1250CL,2,5055939955797       ,74
E3134BK/7,1,5055939924410       ,74
E3134GV/7,1,5055939924465       ,74
E4054BK/5,1,5055939953182       ,74
E5049BK/7,2,5055939924564       ,74
E5056BK/4,2,5055939941837       ,74
E5056BK/5,3,5055939941844       ,74
E5056BK/7,2,5055939941868       ,74
E8064BK/7,1,5055939916019       ,74
E8064GY/7,1,5055939916255       ,74
E8073BK/5,1,5055939924687       ,74
E8076BK/6,1,5055939924847       ,74
E9098BK/7,1,5055939942919       ,74
E9102RD/7,2,5055939925509       ,74
E9103GV/5,1,5055939925684       ,74
E9103GV/7,1,5055939925707       ,74
E9120YV/4,1,5055939943268       ,74
E9120YV/5,1,5055939943275       ,74
E9120YV/6,1,5055939943282       ,74
E1108BK/L-XL,1,5055205387987       ,75
E9103GV/7,1,5055939925707       ,75
E9117BK/7,1,5055939942209       ,75
E3123GF/5,2,5055939948515       ,78
E3123GF/7,1,5055939948539       ,78
E8100BK/5,1,5055939959153       ,78
E0089BK/4,2,5055205343686       ,81
E0089BK/6,2,5055205343709       ,81
E0153BK/L-XL,2,5055939965970       ,81
E0153BK/S-M,2,5055939958132       ,81
E0154BK/L-XL,3,5055939965987       ,81
E0154BK/S-M,3,5055939958149       ,81
E1145BK/5,2,5055939908205       ,81
E1145BK/6,2,5055939908212       ,81
E1145BK/7,1,5055939910659       ,81
E1186BK/3,1,5055939944623       ,81
E1218BK/L-XL,2,5055939958521       ,81
E1218BK/M-L,2,5055939958514       ,81
E1218BK/S-M,1,5055939958507       ,81
E1219BK/L-XL,1,5055939958545       ,81
E1219BK/S-M,1,5055939958538       ,81
E1224BK/3,1,5055939958804       ,81
E1224BK/5,2,5055939966281       ,81
E1224BK/6,1,5055939966298       ,81
E1224BK/7,1,5055939966304       ,81
E1250CL,3,5055939955797       ,81
E1251CL,4,5055939955803       ,81
E2010BK/5,2,5055205358093       ,81
E5056BK/4,2,5055939941837       ,81
E5056BK/5,2,5055939941844       ,81
E5056BK/6,1,5055939941851       ,81
E5056BK/7,1,5055939941868       ,81
E6147BK/2,2,5055939944722       ,81
E6147BK/3,2,5055939944739       ,81
E6147BK/4,1,5055939944746       ,81
E9102BK/4,1,5055939925523       ,81
E9102BK/5,1,5055939925530       ,81
E9102BK/7,1,5055939925554       ,81
E9102GV/4,1,5055939925578       ,81
E9102GV/5,1,5055939925585       ,81
E9102GV/6,1,5055939925592       ,81
E9102RD/6,1,5055939925493       ,81
E6108BK/4,1,5055939919607       ,89
E6108BK/5,1,5055939919614       ,89
E0035/5,1,5055205301457       ,93
E0063/4,1,5055205323831       ,93
E0151GC/0,1,5055939960715       ,93
E0154BK/L-XL,1,5055939965987       ,93
E1145GV/6,1,5055939910703       ,93
E1160BK/6,1,5055939928524       ,93
E1165GV/4,1,5055939928906       ,93
E1165GV/7,2,5055939928937       ,93
E1223BK/L-XL,1,5055939958613       ,93
E1251CL,3,5055939955803       ,93
E1505MB/L-XL,2,5055939904474       ,93
E3134GV/4,1,5055939924434       ,93
E3134GV/5,1,5055939924441       ,93
E3134GV/6,1,5055939924458       ,93
E3134GV/7,1,5055939924465       ,93
E5049BK/5,1,5055939924540       ,93
E6146BK/3,1,5055939942087       ,93
E7120BK/4,2,5055939915500       ,93
E7120BK/7,1,5055939915531       ,93
E8064BK/4,1,5055939915982       ,93
E8064BK/6,2,5055939916002       ,93
E8073BK/4,2,5055939924670       ,93
E8073BK/5,1,5055939924687       ,93
E8073BK/6,1,5055939924694       ,93
E8076BK/4,1,5055939924823       ,93
E8100BK/4,2,5055939959146       ,93
E8100BK/5,2,5055939959153       ,93
E9103GV/5,1,5055939925684       ,93
E9103GV/6,1,5055939925691       ,93
E9114GV/7,1,5055939941714       ,93
E9117BK/6,2,5055939942193       ,93
E9117YM/4,1,5055939960999       ,93
E1145BK/7,1,5055939910659       ,101
E1165BK/2,1,5055939936352       ,101
E1165GV/4,1,5055939928906       ,101
E1168BK/6,1,5055939929507       ,101
E1183BK/5,1,5055939944241       ,101
E1185BK/5,1,5055939944548       ,101
E1223BK/L-XL,1,5055939958613       ,101
E1224BK/2,1,5055939958798       ,101
E1224BK/4,2,5055939966274       ,101
E1505MB/L-XL,1,5055939904474       ,101
E3125BK/7,1,5055939915425       ,101
E3125RD/6,1,5055939919287       ,101
E4054BK/8,1,5055939955094       ,101
E5056BK/4,1,5055939941837       ,101
E5056BK/5,1,5055939941844       ,101
E5056BK/6,1,5055939941851       ,101
E6040YV/2,1,5055939909738       ,101
E6105CE/3,1,5055939918402       ,101
E6120BK/2,1,5055939932750       ,101
E8064BK/2,1,5055939915968       ,101
E8064BK/3,1,5055939915975       ,101
E8064BK/4,1,5055939915982       ,101
E8064BK/8,1,5055939916026       ,101
E8073BK/5,2,5055939924687       ,101
E8088BK/4,1,5055939943169       ,101
E9102BK/5,1,5055939925530       ,101
E9129YV/4,1,5055939943664       ,101
E9134YV/7,1,5055939943398       ,101
E7120BK/4,2,5055939915500       ,102
E7120BK/7,1,5055939915531       ,102
E9114BV/7,1,5055939941813       ,102
E9114GV/7,1,5055939941714       ,102
E9117BK/6,1,5055939942193       ,102
E9117YM/4,1,5055939960999       ,102
E9117YM/6,2,5055939961019       ,102
E9117YM/7,2,5055939961026       ,102
E1167BK/6,1,5055939929330       ,106
E1118BK/6,1,5055205389998       ,107
E0128YV/6,2,5055939909646       ,108
E8076BK/7,1,5055939924854       ,108
E9117BK/5,1,5055939942186       ,108
E9120BK/5,1,5055939943220       ,108
E0062/3,1,5055205323763       ,113
E0062/6,2,5055205323794       ,113
E0062/8,1,5055205343792       ,113
E1168BK/7,1,5055939929514       ,113
E1184BK/5,2,5055939944449       ,113
E1186BK/5,3,5055939944647       ,113
E1186BK/6,1,5055939944654       ,113
E1186BK/7,1,5055939944661       ,113
E1224BK/4,1,5055939966274       ,113
E1227BK/S-M,1,5055939959405       ,113
E1505WH/M-L,1,5055939904559       ,113
E3109BK/6,1,5055939908984       ,113
E4054BK/8,1,5055939955094       ,113
E5056BK/5,1,5055939941844       ,113
E6040YV/3,1,5055939909745       ,113
E6040YV/4,1,5055939909752       ,113
E6040YV/5,1,5055939909769       ,113
E6126CE/4,1,5055939933214       ,113
E9102GV/4,1,5055939925578       ,113
E9102GV/5,1,5055939925585       ,113
E9102GV/6,1,5055939925592       ,113
E9114GV/5,1,5055939941691       ,113
E9120BK/5,1,5055939943220       ,113
E9145BK/4,1,5055939959092       ,113
E9145BK/6,1,5055939959115       ,113
E9117BK/5,1,5055939942186       ,116
E8064GY/9,1,5055939916279       ,117
E9117BK/7,1,5055939942209       ,117
E9145BK/5,1,5055939959108       ,117
E1165GV/4,1,5055939928906       ,120
E1165GV/5,2,5055939928913       ,120
E1165GV/6,2,5055939928920       ,120
E1165GV/7,2,5055939928937       ,120
E1183BK/4,1,5055939944234       ,120
E1183BK/5,1,5055939944241       ,120
E1183BK/6,2,5055939944258       ,120
E1185BK/5,1,5055939944548       ,120
E1185BK/6,1,5055939944555       ,120
E1185BK/7,1,5055939944562       ,120
E5049BK/5,2,5055939924540       ,120
E5049BK/6,1,5055939924557       ,120
E5056BK/5,1,5055939941844       ,120
E5056BK/6,2,5055939941851       ,120
E5056BK/7,1,5055939941868       ,120
E6126BK/5,2,5055939933184       ,120
E6126CE/4,2,5055939933214       ,120
E6126CE/5,2,5055939933221       ,120
E6126WH/4,2,5055939933290       ,120
E6126WH/5,2,5055939933306       ,120
E9114BV/5,1,5055939941790       ,120
E9114BV/6,2,5055939941806       ,120
E9114BV/7,1,5055939941813       ,120
E9114GV/6,2,5055939941707       ,120
E9114GV/7,2,5055939941714       ,120
E9145BK/4,1,5055939959092       ,121
E9145BK/5,1,5055939959108       ,121
E0153BK/S-M,1,5055939958132       ,127
E1108BK/L-XL,2,5055205387987       ,127
E1108BK/S-M,2,5055205387970       ,127
E1112BK/S-M,2,5055205384672       ,127
E1184BK/4,1,5055939944432       ,127
E1227BK/S-M,1,5055939959405       ,127
E1250CL,2,5055939955797       ,127
E1505KH/M-L,1,5055939951300       ,127
E1505KH/S-M,1,5055939951294       ,127
E3133AN/4,1,5055939957074       ,127
E3133AN/5,1,5055939957081       ,127
E3133AN/6,1,5055939957098       ,127
E3133AN/7,1,5055939957104       ,127
E3134BK/4,1,5055939924380       ,127
E3134BK/5,1,5055939924397       ,127
E3134BK/6,1,5055939924403       ,127
E3134BK/7,2,5055939924410       ,127
E3134GV/4,1,5055939924434       ,127
E3134GV/5,1,5055939924441       ,127
E3134GV/6,1,5055939924458       ,127
E3134GV/7,1,5055939924465       ,127
E3134RD/5,1,5055939924342       ,127
E8064BK/6,1,5055939916002       ,127
E8073BK/3,2,5055939924663       ,127
E8073BK/4,1,5055939924670       ,127
E8073BK/5,2,5055939924687       ,127
E8073BK/6,1,5055939924694       ,127
E9099CC/4,1,5055939960319       ,127
E9114GV/7,1,5055939941714       ,127
E9117BK/5,1,5055939942186       ,127
E9117YM/5,1,5055939961002       ,127
E9117YM/6,1,5055939961019       ,127
E9119BA/5,1,5055939942995       ,127
E9119BA/6,1,5055939943008       ,127
E9119GF/5,1,5055939949000       ,127
E9119GF/6,1,5055939949017       ,127
E9119GF/7,1,5055939949024       ,127
E9145BK/3,1,5055939959085       ,127
E9145BK/5,2,5055939959108       ,127
E9145BK/6,1,5055939959115       ,127
E3109YV/5,1,5055939909028       ,128
E8065BK/6,1,5055939919171       ,128
E9102BK/5,1,5055939925530       ,128
E9102BK/6,1,5055939925547       ,128
E9102BK/7,1,5055939925554       ,128
E9102RD/5,1,5055939925486       ,128
E9102RD/6,1,5055939925493       ,128
E9102RD/7,1,5055939925509       ,128
E6146BK/5,1,5055939942100       ,142
E9117BK/7,1,5055939942209       ,142
E0043GK/0,5,5055939961385       ,150
E0154BK/L-XL,2,5055939965987       ,150
E1118BK/4,1,5055205389974       ,150
E1118BK/6,1,5055205389998       ,150
E1168BK/4,1,5055939929484       ,150
E1168BK/5,1,5055939929491       ,150
E1185BK/4,1,5055939944531       ,150
E1223BK/L-XL,2,5055939958613       ,150
E1224BK/2,2,5055939958798       ,150
E1224BK/4,1,5055939966274       ,150
E1224BK/5,1,5055939966281       ,150
E1224BK/6,1,5055939966298       ,150
E1227BK/L-XL,1,5055939966311       ,150
E1227BK/S-M,1,5055939959405       ,150
E1505MB/L-XL,1,5055939904474       ,150
E3125BK/6,1,5055939915418       ,150
E3134BK/5,1,5055939924397       ,150
E4055BK/7,1,5055939953106       ,150
E5056BK/5,1,5055939941844       ,150
E8064GY/5,2,5055939916231       ,150
E9102BK/5,1,5055939925530       ,150
E9102BK/6,1,5055939925547       ,150
E9120BK/3,1,5055939943206       ,150
E0128YV/6,2,5055939909646       ,152
E1165GV/5,1,5055939928913       ,152
E1227BK/S-M,1,5055939959405       ,152
E1511KH/M-L,1,5055939950396       ,152
E6147BK/3,1,5055939944739       ,152
E8064BK/7,1,5055939916019       ,152
E8076BK/5,1,5055939924830       ,152
E9099CC/5,1,5055939960326       ,152
E9120YV/8,2,5055939983110       ,152
E9120BK/4,1,5055939943213       ,156
E9145BK/7,1,5055939959122       ,156
E0154BK/L-XL,1,5055939965987       ,157
E1184BK/4,1,5055939944432       ,157
E1184BK/5,1,5055939944449       ,157
E1506BK/M-L,1,5055939920054       ,157
E7128GY/0,1,5055939934426       ,157
E8064GY/5,1,5055939916231       ,157
E8064GY/6,3,5055939916248       ,157
E9117BK/5,1,5055939942186       ,157
E9117BK/7,2,5055939942209       ,157
E9120BK/7,2,5055939943244       ,157
E9145BK/6,1,5055939959115       ,157
E0154BK/L-XL,1,5055939965987       ,158
E1145BK/2,1,5055939908175       ,158
E1165BK/5,1,5055939928869       ,158
E1165BK/6,1,5055939928876       ,158
E1223BK/S-M,1,5055939958606       ,158
E1511BK/L-XL,1,5055939930121       ,158
E1511BK/M-L,1,5055939930138       ,158
E7128GY/0,1,5055939934426       ,158
E8064GY/3,1,5055939916217       ,158
E8064GY/8,2,5055939916262       ,158
E8064GY/9,1,5055939916279       ,158
E8073BK/4,1,5055939924670       ,158
E8073BK/5,2,5055939924687       ,158
E8073BK/6,1,5055939924694       ,158
E9102BK/6,1,5055939925547       ,158
E9102GV/6,1,5055939925592       ,158
E9120BK/3,1,5055939943206       ,158
E8076BK/4,1,5055939924823       ,186
E1513GV/M-L,1,5055939930312       ,187
E0062/4,15,5055205323770       ,198
E0062/5,20,5055205323787       ,198
E0062/6,22,5055205323794       ,198
E0062/7,14,5055205323800       ,198
E0063/5,10,5055205323848       ,198
E1102,24,5055205353814       ,198
E1160BK/3,1,5055939928494       ,198
E1165BK/3,10,5055939928845       ,198
E1165BK/4,1,5055939928852       ,198
E1165BK/5,2,5055939928869       ,198
E1165BK/6,12,5055939928876       ,198
E1165BK/7,11,5055939928883       ,198
E1165GV/4,16,5055939928906       ,198
E1165GV/5,22,5055939928913       ,198
E1165GV/6,27,5055939928920       ,198
E1165GV/7,16,5055939928937       ,198
E1165RD/4,6,5055939929019       ,198
E1165RD/5,12,5055939929026       ,198
E1165RD/6,2,5055939929033       ,198
E1165RD/7,1,5055939929040       ,198
E1166BK/4,1,5055939929071       ,198
E1166BK/5,2,5055939929088       ,198
E1166BK/6,2,5055939929095       ,198
E1166BK/7,1,5055939929101       ,198
E1168BK/3,1,5055939929477       ,198
E1168BK/4,10,5055939929484       ,198
E1168BK/5,15,5055939929491       ,198
E1168BK/6,15,5055939929507       ,198
E1168BK/7,4,5055939929514       ,198
E1168OT/4,1,5055939971582       ,198
E1168OT/5,2,5055939971599       ,198
E1168OT/6,2,5055939971605       ,198
E1168OT/7,1,5055939971612       ,198
E1250CL,5,5055939955797       ,198
E1251CL,5,5055939955803       ,198
E1253WH/L-XL,10,5055939971704       ,198
E1253WH/M-L,10,5055939971698       ,198
E1254BK/L-XL,10,5055939971797       ,198
E1254BK/M-L,10,5055939971780       ,198
E1263BK/L-XL,43,5055939977584       ,198
E1263BK/S-M,2,5055939977577       ,198
E1505GY/L-XL,12,5055939930091       ,198
E1505GY/M-L,14,5055939930107       ,198
E1505GY/S-M,1,5055939930114       ,198
E1505KH/L-XL,20,5055939951317       ,198
E1505KH/M-L,15,5055939951300       ,198
E1505MB/L-XL,27,5055939904474       ,198
E1505MB/M-L,12,5055939904481       ,198
E1505MB/S-M,1,5055939904498       ,198
E1505RD/L-XL,10,5055939951287       ,198
E1505RD/M-L,10,5055939951270       ,198
E1505RD/S-M,5,5055939951263       ,198
E1505WH/L-XL,12,5055939904542       ,198
E1505WH/M-L,12,5055939904559       ,198
E1505WH/S-M,6,5055939904566       ,198
E1511BK/L-XL,12,5055939930121       ,198
E1511BK/M-L,7,5055939930138       ,198
E1511WH/L-XL,2,5055939930183       ,198
E1511WH/M-L,12,5055939930190       ,198
E3063W/4,1,5055205343631       ,198
E3063W/5,2,5055205343648       ,198
E3063W/6,2,5055205343655       ,198
E3063W/7,1,5055205343662       ,198
E3125NA/4,3,5055939950839       ,198
E3125NA/5,4,5055939950846       ,198
E3125NA/6,7,5055939950853       ,198
E3125NA/7,6,5055939950860       ,198
E3184OT/4,1,5055939970486       ,198
E3184OT/5,1,5055939970493       ,198
E3184OT/6,1,5055939970509       ,198
E3184OT/7,1,5055939970516       ,198
E3189BK/4,6,5055939972404       ,198
E3189BK/5,7,5055939972411       ,198
E3189BK/6,7,5055939972428       ,198
E3189BK/7,6,5055939972435       ,198
E3189CC/4,2,5055939972459       ,198
E3189CC/5,3,5055939972466       ,198
E3189CC/6,3,5055939972473       ,198
E3189CC/7,2,5055939972480       ,198
E3192BK/4,1,5055939974699       ,198
E3192BK/5,2,5055939974705       ,198
E3192BK/6,2,5055939974712       ,198
E3192BK/7,1,5055939974729       ,198
E3193BK/4,1,5055939975788       ,198
E3193BK/5,2,5055939975795       ,198
E3193BK/6,2,5055939975801       ,198
E3193BK/7,1,5055939975818       ,198
E3193YV/4,1,5055939975849       ,198
E3193YV/5,2,5055939975856       ,198
E3193YV/6,2,5055939975863       ,198
E3193YV/7,1,5055939975870       ,198
E4027BK/4,5,5055205398266       ,198
E4027BK/5,10,5055205398273       ,198
E4027BK/6,15,5055205398280       ,198
E4027BK/7,10,5055205398297       ,198
E4054BK/4,12,5055939953175       ,198
E4054BK/5,18,5055939953182       ,198
E4054BK/6,23,5055939953199       ,198
E4054BK/7,8,5055939953205       ,198
E4055BK/4,4,5055939953076       ,198
E4055BK/5,7,5055939953083       ,198
E4055BK/6,8,5055939953090       ,198
E4055BK/7,6,5055939953106       ,198
E6120BK/2,1,5055939932750       ,198
E6126BK/2,1,5055939933153       ,198
E6126BK/3,2,5055939933160       ,198
E6126BK/4,22,5055939933177       ,198
E6126BK/5,11,5055939933184       ,198
E6126CE/2,1,5055939933191       ,198
E6126CE/3,2,5055939933207       ,198
E6126CE/4,12,5055939933214       ,198
E6126CE/5,7,5055939933221       ,198
E6126WH/3,10,5055939933283       ,198
E6126WH/4,20,5055939933290       ,198
E6126WH/5,10,5055939933306       ,198
E6153BK/3,8,5055939953281       ,198
E6153BK/4,5,5055939953298       ,198
E6153BK/5,5,5055939953304       ,198
E6153BK/6,3,5055939953311       ,198
E6169BP/2,1,5055939973258       ,198
E6169BP/3,2,5055939973265       ,198
E6169BP/4,2,5055939973272       ,198
E6169BP/5,1,5055939973289       ,198
E6169CC/2,1,5055939973203       ,198
E6169CC/3,3,5055939973210       ,198
E6169CC/4,4,5055939973227       ,198
E6169CC/5,3,5055939973234       ,198
E6169CC/6,1,5055939973241       ,198
E6170BK/3,6,5055939973319       ,198
E6170BK/4,10,5055939973326       ,198
E6170BK/5,10,5055939973333       ,198
E6170GK/2,1,5055939973357       ,198
E6170GK/3,2,5055939973364       ,198
E6170GK/4,2,5055939973371       ,198
E6170GK/5,1,5055939973388       ,198
E6171BK/2,1,5055939973555       ,198
E6171BK/3,2,5055939973562       ,198
E6171BK/4,2,5055939973579       ,198
E6171BK/5,1,5055939973586       ,198
E6171BP/3,1,5055939973616       ,198
E6171BP/4,2,5055939973623       ,198
E6171BP/5,1,5055939973630       ,198
E6174WH/3,1,5055939976167       ,198
E6174WH/4,2,5055939976174       ,198
E6174WH/5,1,5055939976181       ,198
E7117BK/3,1,5055939917016       ,198
E7117BK/4,2,5055939917023       ,198
E7117BK/5,6,5055939917030       ,198
E7117BK/6,12,5055939917047       ,198
E7117BK/7,4,5055939917054       ,198
E7120BK/4,16,5055939915500       ,198
E7120BK/5,41,5055939915517       ,198
E7120BK/6,26,5055939915524       ,198
E7120BK/7,11,5055939915531       ,198
E7128GY/0,12,5055939934426       ,198
E7128KH/0,12,5055939951324       ,198
E7131BK/K11,10,5055939949970       ,198
E7131BK/K9,6,5055939949963       ,198
E7132BK/K11,10,5055939949994       ,198
E7132BK/K9,6,5055939949987       ,198
E8064BK/3,5,5055939915975       ,198
E8064BK/4,22,5055939915982       ,198
E8064BK/5,35,5055939915999       ,198
E8064BK/6,22,5055939916002       ,198
E8064BK/7,10,5055939916019       ,198
E8064BK/8,6,5055939916026       ,198
E8064BK/9,5,5055939916033       ,198
E8064CC/4,1,5055939972237       ,198
E8064CC/5,2,5055939972244       ,198
E8064CC/6,2,5055939972251       ,198
E8064GC/4,2,5055939950976       ,198
E8064GC/5,3,5055939950983       ,198
E8064GC/6,3,5055939950990       ,198
E8064GC/7,2,5055939951003       ,198
E8064GY/3,10,5055939916217       ,198
E8064GY/4,27,5055939916224       ,198
E8064GY/5,38,5055939916231       ,198
E8064GY/6,32,5055939916248       ,198
E8064GY/7,16,5055939916255       ,198
E8064GY/8,4,5055939916262       ,198
E8064GY/9,5,5055939916279       ,198
E8066BK/4,1,5055939916347       ,198
E8066BK/5,6,5055939916354       ,198
E8066BK/6,12,5055939916361       ,198
E8066BK/7,1,5055939916378       ,198
E8073BK/4,7,5055939924670       ,198
E8073BK/5,7,5055939924687       ,198
E8073BK/6,8,5055939924694       ,198
E8073BK/7,4,5055939924700       ,198
E8084BK/4,1,5055939942377       ,198
E8084BK/5,2,5055939942384       ,198
E8084BK/6,2,5055939942391       ,198
E8084BK/7,1,5055939942407       ,198
E8096AN/2,1,5055939950082       ,198
E8096AN/3,2,5055939950099       ,198
E8096AN/4,2,5055939950105       ,198
E8096AN/5,1,5055939950112       ,198
E8098BK/2,1,5055939953335       ,198
E8098BK/3,1,5055939953342       ,198
E8098BK/4,2,5055939953359       ,198
E8098BK/5,1,5055939953366       ,198
E8098BK/6,1,5055939953373       ,198
E8104BK/4,12,5055939972077       ,198
E8104BK/5,18,5055939972084       ,198
E8104BK/6,10,5055939972091       ,198
E8104BK/7,1,5055939972107       ,198
E9106BK/3,1,5055939935256       ,198
E9106BK/4,1,5055939935263       ,198
E9106BK/5,2,5055939935270       ,198
E9106BK/6,1,5055939935287       ,198
E9106BK/7,1,5055939935294       ,198
E9106RD/4,1,5055939958644       ,198
E9106RD/5,2,5055939958651       ,198
E9106RD/6,1,5055939958668       ,198
E9106RD/7,1,5055939958675       ,198
E9107BK/7,1,5055939935447       ,198
E9114GV/4,2,5055939941684       ,198
E9114GV/5,4,5055939941691       ,198
E9114GV/6,8,5055939941707       ,198
E9114GV/7,4,5055939941714       ,198
E9120BK/4,2,5055939943213       ,198
E9120BK/5,5,5055939943220       ,198
E9120BK/6,5,5055939943237       ,198
E9120YV/4,1,5055939943268       ,198
E9120YV/5,3,5055939943275       ,198
E9120YV/6,3,5055939943282       ,198
E9120YV/7,3,5055939943299       ,198
E9121YV/3,1,5055939945811       ,198
E9129BP/2,1,5055939943602       ,198
E9129BP/3,2,5055939943619       ,198
E9129BP/4,1,5055939943626       ,198
E9129BP/5,1,5055939943633       ,198
E9129YV/2,1,5055939943640       ,198
E9129YV/3,2,5055939943657       ,198
E9129YV/5,1,5055939943671       ,198
E9134YV/4,1,5055939943367       ,198
E9134YV/5,2,5055939943374       ,198
E9134YV/6,1,5055939943381       ,198
E9134YV/7,1,5055939943398       ,198
E9150CV/3,1,5055939960357       ,198
E9150CV/4,2,5055939960364       ,198
E9150CV/5,1,5055939960371       ,198
E9151BK/4,1,5055939975900       ,198
E9151BK/5,2,5055939975917       ,198
E9151BK/6,2,5055939975924       ,198
E9151BK/7,1,5055939975931       ,198
E9151YV/4,1,5055939975962       ,198
E9151YV/5,2,5055939975979       ,198
E9151YV/6,2,5055939975986       ,198
E9151YV/7,1,5055939975993       ,198
E0062/4,2,5055205323770       ,199
E0062/5,2,5055205323787       ,199
E1160BK/4,1,5055939928500       ,199
E1160BK/5,2,5055939928517       ,199
E1160BK/6,2,5055939928524       ,199
E1160BK/7,1,5055939928531       ,199
E1168BK/4,1,5055939929484       ,199
E1168BK/5,2,5055939929491       ,199
E1168BK/6,2,5055939929507       ,199
E3184BK/4,1,5055939970387       ,199
E3184BK/5,2,5055939970394       ,199
E3184BK/6,2,5055939970400       ,199
E3184BK/7,1,5055939970417       ,199
E6120BK/3,2,5055939932767       ,199
E6120BK/4,2,5055939932774       ,199
E6120BK/5,1,5055939932781       ,199
E6153BK/3,1,5055939953281       ,199
E6153BK/4,2,5055939953298       ,199
E6153BK/5,2,5055939953304       ,199
E6153BK/6,1,5055939953311       ,199
E8064BK/5,2,5055939915999       ,199
E9107BK/4,1,5055939935416       ,199
E9107BK/5,2,5055939935423       ,199
E9107BK/6,1,5055939935430       ,199
E9129YV/4,2,5055939943664       ,199
E1258OT/4,1,5055939972718       ,205
E1258OT/5,1,5055939972725       ,205
E1258OT/6,2,5055939972732       ,205
E1258OT/7,1,5055939972749       ,205
E1168BK/4,1,5055939929484       ,208
E1168BK/5,1,5055939929491       ,208
E1168BK/6,1,5055939929507       ,208
E1505RD/M-L,1,5055939951270       ,208
E1511BK/L-XL,1,5055939930121       ,208
E1511BK/M-L,2,5055939930138       ,208
E1511BK/S-M,1,5055939930145       ,208
E3134RD/7,1,5055939924366       ,208
E3189CC/4,1,5055939972459       ,208
E3189CC/5,1,5055939972466       ,208
E3189CC/6,1,5055939972473       ,208
E3189CC/7,1,5055939972480       ,208
E6126WH/3,1,5055939933283       ,208
E6126WH/4,1,5055939933290       ,208
E6126WH/5,1,5055939933306       ,208
E6126WH/6,1,5055939936413       ,208
E6174WH/4,1,5055939976174       ,208
E6184BP/3,1,5055939976877       ,208
E6184BP/4,1,5055939976884       ,208
E6184BP/5,1,5055939976891       ,208
E6184CV/3,1,5055939976921       ,208
E6184CV/4,1,5055939976938       ,208
E6184CV/5,1,5055939976945       ,208
E6185BP/3,1,5055939976976       ,208
E6185BP/4,1,5055939976983       ,208
E6185BP/5,1,5055939976990       ,208
E6185CV/3,1,5055939977027       ,208
E6185CV/4,1,5055939977034       ,208
E6185CV/5,1,5055939977041       ,208
E8064GY/5,1,5055939916231       ,208
E8064GY/7,1,5055939916255       ,208
E9129BP/3,1,5055939943619       ,208
E9129BP/4,1,5055939943626       ,208
E9129BP/5,1,5055939943633       ,208
E9151BK/4,1,5055939975900       ,208
E9151BK/5,1,5055939975917       ,208
E9151BK/6,1,5055939975924       ,208
E9151BK/7,1,5055939975931       ,208
E9151YV/4,1,5055939975962       ,208
E9151YV/5,1,5055939975979       ,208
E9151YV/6,1,5055939975986       ,208
E9151YV/7,1,5055939975993       ,208
E3188LG/4,2,5055939971131       ,210
E3188LG/5,4,5055939971148       ,210
E3188LG/6,4,5055939971155       ,210
E3188LG/7,2,5055939971162       ,210
E6168CV/2,1,5055939973159       ,210
E6168CV/3,3,5055939973166       ,210
E6168CV/4,3,5055939973173       ,210
E6168CV/5,1,5055939973180       ,210
E3185LG/4,1,5055939978222       ,212
E3185LG/5,1,5055939978239       ,212
E3185LG/6,1,5055939978246       ,212
E3185LG/7,1,5055939978253       ,212
E3188BK/4,1,5055939971087       ,212
E3188BK/5,1,5055939971094       ,212
E3188BK/6,1,5055939971100       ,212
E3188BK/7,1,5055939971117       ,212
E3188LG/4,1,5055939971131       ,212
E3188LG/5,1,5055939971148       ,212
E3188LG/6,1,5055939971155       ,212
E3188LG/7,1,5055939971162       ,212
E3188OT/4,1,5055939978178       ,212
E3188OT/5,3,5055939978185       ,212
E3188OT/6,3,5055939978192       ,212
E3188OT/7,1,5055939978208       ,212
E6168CV/3,1,5055939973166       ,212
E6168CV/4,3,5055939973173       ,212
E6168CV/5,3,5055939973180       ,212
E6168CV/6,2,5055939973197       ,212
E6168GK/3,1,5055939978376       ,212
E6168GK/4,1,5055939978383       ,212
E6168GK/5,1,5055939978390       ,212
E6168GK/6,1,5055939978406       ,212
E7141OT/K11,1,5055939977263       ,212
E7141OT/K7,1,5055939977249       ,212
E7141OT/K9,1,5055939977256       ,212
E7142OT/K11,2,5055939977324       ,212
E7142OT/K7,2,5055939977300       ,212
E7142OT/K9,2,5055939977317       ,212
E0089BK/4,2,5055205343686       ,213
E0089BK/5,2,5055205343693       ,213
E0089BK/6,2,5055205343709       ,213
E1102,5,5055205353814       ,213
E1160BK/4,1,5055939928500       ,213
E1160BK/5,2,5055939928517       ,213
E1160BK/6,2,5055939928524       ,213
E1160BK/7,1,5055939928531       ,213
E1165BK/4,1,5055939928852       ,213
E1165BK/5,2,5055939928869       ,213
E1165BK/6,2,5055939928876       ,213
E1165BK/7,1,5055939928883       ,213
E1165GV/4,1,5055939928906       ,213
E1165GV/5,2,5055939928913       ,213
E1165GV/6,2,5055939928920       ,213
E1165GV/7,1,5055939928937       ,213
E1165RD/4,1,5055939929019       ,213
E1165RD/5,2,5055939929026       ,213
E1165RD/6,2,5055939929033       ,213
E1165RD/7,1,5055939929040       ,213
E1168BK/4,1,5055939929484       ,213
E1168BK/5,2,5055939929491       ,213
E1168BK/6,2,5055939929507       ,213
E1168BK/7,1,5055939929514       ,213
E1188BK/4,1,5055939944821       ,213
E1188BK/5,1,5055939944838       ,213
E1188BK/6,1,5055939944845       ,213
E1188GV/4,1,5055939944876       ,213
E1188GV/5,1,5055939944883       ,213
E1188GV/6,1,5055939944890       ,213
E1250CL,3,5055939955797       ,213
E1251CL,7,5055939955803       ,213
E1258BK/4,1,5055939972619       ,213
E1258BK/5,2,5055939972626       ,213
E1258BK/6,2,5055939972633       ,213
E1258BK/7,1,5055939972640       ,213
E1258OT/4,1,5055939972718       ,213
E1258OT/5,2,5055939972725       ,213
E1258OT/6,2,5055939972732       ,213
E1258OT/7,1,5055939972749       ,213
E1263BK/L-XL,3,5055939977584       ,213
E1263BK/S-M,3,5055939977577       ,213
E1505GY/L-XL,2,5055939930091       ,213
E1505GY/M-L,2,5055939930107       ,213
E1505GY/S-M,1,5055939930114       ,213
E1505MB/L-XL,2,5055939904474       ,213
E1505MB/M-L,2,5055939904481       ,213
E1505MB/S-M,1,5055939904498       ,213
E1505RD/L-XL,2,5055939951287       ,213
E1505RD/M-L,2,5055939951270       ,213
E1505RD/S-M,1,5055939951263       ,213
E1511BK/L-XL,2,5055939930121       ,213
E1511BK/M-L,2,5055939930138       ,213
E3125NA/4,1,5055939950839       ,213
E3125NA/5,1,5055939950846       ,213
E3125NA/6,1,5055939950853       ,213
E3125NA/7,1,5055939950860       ,213
E3188BK/4,1,5055939971087       ,213
E3188BK/5,2,5055939971094       ,213
E3188BK/6,1,5055939971100       ,213
E3188NA/4,1,5055939971186       ,213
E3188NA/5,2,5055939971193       ,213
E3188NA/6,1,5055939971209       ,213
E3188OT/4,1,5055939978178       ,213
E3188OT/5,2,5055939978185       ,213
E3188OT/6,1,5055939978192       ,213
E3189BK/4,1,5055939972404       ,213
E3189BK/5,2,5055939972411       ,213
E3189BK/6,1,5055939972428       ,213
E3189BK/7,1,5055939972435       ,213
E3189CC/4,1,5055939972459       ,213
E3189CC/5,1,5055939972466       ,213
E3189CC/6,1,5055939972473       ,213
E3189CC/7,1,5055939972480       ,213
E3192BK/4,1,5055939974699       ,213
E3192BK/5,1,5055939974705       ,213
E3192BK/6,1,5055939974712       ,213
E3193BK/4,1,5055939975788       ,213
E3193BK/5,2,5055939975795       ,213
E3193BK/6,2,5055939975801       ,213
E3193BK/7,1,5055939975818       ,213
E3193YV/4,1,5055939975849       ,213
E3193YV/5,1,5055939975856       ,213
E3193YV/6,1,5055939975863       ,213
E3193YV/7,1,5055939975870       ,213
E4054BK/4,1,5055939953175       ,213
E4054BK/5,2,5055939953182       ,213
E4054BK/6,2,5055939953199       ,213
E4054BK/7,1,5055939953205       ,213
E4055BK/4,1,5055939953076       ,213
E4055BK/5,2,5055939953083       ,213
E4055BK/6,2,5055939953090       ,213
E4055BK/7,1,5055939953106       ,213
E6126BK/3,1,5055939933160       ,213
E6126BK/4,2,5055939933177       ,213
E6126BK/5,1,5055939933184       ,213
E6126CE/3,1,5055939933207       ,213
E6126CE/4,2,5055939933214       ,213
E6126CE/5,1,5055939933221       ,213
E6132BK/3,1,5055939933726       ,213
E6132BK/4,2,5055939933733       ,213
E6132BK/5,1,5055939933740       ,213
E6153BK/3,1,5055939953281       ,213
E6153BK/4,2,5055939953298       ,213
E6153BK/5,2,5055939953304       ,213
E6153BK/6,1,5055939953311       ,213
E6168CV/3,1,5055939973166       ,213
E6168CV/4,2,5055939973173       ,213
E6168CV/5,2,5055939973180       ,213
E6168CV/6,1,5055939973197       ,213
E6169BP/3,1,5055939973265       ,213
E6169BP/4,2,5055939973272       ,213
E6169BP/5,2,5055939973289       ,213
E6170GK/3,1,5055939973364       ,213
E6170GK/4,1,5055939973371       ,213
E6170GK/5,1,5055939973388       ,213
E6179CV/3,1,5055939978468       ,213
E6179CV/4,1,5055939978475       ,213
E6179CV/5,1,5055939978482       ,213
E6184BP/3,1,5055939976877       ,213
E6184BP/4,1,5055939976884       ,213
E6184BP/5,1,5055939976891       ,213
E6184CV/3,1,5055939976921       ,213
E6184CV/4,1,5055939976938       ,213
E6184CV/5,1,5055939976945       ,213
E6185BP/3,1,5055939976976       ,213
E6185BP/4,1,5055939976983       ,213
E6185BP/5,1,5055939976990       ,213
E6185CV/3,1,5055939977027       ,213
E6185CV/4,1,5055939977034       ,213
E6185CV/5,1,5055939977041       ,213
E6187GK/3,1,5055939977539       ,213
E6187GK/4,1,5055939977546       ,213
E6187GK/5,1,5055939977553       ,213
E7117BK/4,1,5055939917023       ,213
E7117BK/5,1,5055939917030       ,213
E7117BK/6,1,5055939917047       ,213
E7142BA/K11,2,5055939977294       ,213
E7142BA/K9,1,5055939977287       ,213
E7142OT/K11,2,5055939977324       ,213
E7142OT/K9,1,5055939977317       ,213
E8064BC/4,1,5055939936789       ,213
E8064BC/5,1,5055939936796       ,213
E8064BC/6,1,5055939936802       ,213
E8064BC/7,1,5055939936819       ,213
E8064BK/4,1,5055939915982       ,213
E8064BK/5,2,5055939915999       ,213
E8064BK/6,2,5055939916002       ,213
E8064BK/7,1,5055939916019       ,213
E8064CC/4,1,5055939972237       ,213
E8064CC/5,1,5055939972244       ,213
E8064CC/6,1,5055939972251       ,213
E8064CC/7,1,5055939972268       ,213
E8064NA/4,1,5055939950907       ,213
E8064NA/5,1,5055939950914       ,213
E8064NA/6,1,5055939950921       ,213
E8064NA/7,1,5055939950938       ,213
E8088BK/4,1,5055939943169       ,213
E8088BK/5,1,5055939943176       ,213
E8088BK/6,1,5055939943183       ,213
E8098BK/3,1,5055939953342       ,213
E8098BK/4,2,5055939953359       ,213
E8098BK/5,1,5055939953366       ,213
E8098BK/6,1,5055939953373       ,213
E8104BK/4,1,5055939972077       ,213
E8104BK/5,1,5055939972084       ,213
E8104BK/6,1,5055939972091       ,213
E8104BK/7,1,5055939972107       ,213
E9106BK/4,1,5055939935263       ,213
E9106BK/5,1,5055939935270       ,213
E9106BK/6,1,5055939935287       ,213
E9106BK/7,1,5055939935294       ,213
E9129YV/3,1,5055939943657       ,213
E9129YV/4,1,5055939943664       ,213
E9129YV/5,1,5055939943671       ,213
E9151BK/4,1,5055939975900       ,213
E9151BK/5,2,5055939975917       ,213
E9151BK/6,2,5055939975924       ,213
E9151BK/7,1,5055939975931       ,213
E9151YV/4,1,5055939975962       ,213
E9151YV/5,1,5055939975979       ,213
E9151YV/6,1,5055939975986       ,213
E9151YV/7,1,5055939975993       ,213
