INVOICE,SIN637176
YOUR REF,AW19
DATE,11/10/2019
VALUE,411.31


SKU,Qty,Value,Name,Colour,Size
E3072BK/3       ,1,20.86,Transrib L/S Baselayer,Black,S
E3072BK/4       ,1,20.86,Transrib L/S Baselayer,Black,M
E6163BK/4       ,1,93.03,Women's Pro SL Bibtight,Black,M
E8088BK/3       ,1,44.14,Hummvee Waterproof Trouser,Black,S
E9114BV/3       ,1,37.15,Xtract Jacket II,Hi-Viz Blue,S
E9148BK/3       ,1,65.09,Pro SL HC Windproof Jacket,Black,S
E9148BK/4       ,1,65.09,Pro SL HC Windproof Jacket,Black,M
E9148BK/6       ,1,65.09,Pro SL HC Windproof Jacket,Black,XL
