SKU,Maximum allowed,Barcode/EAN,Days left
E3168BK/3,1,5055939954165       ,20
E3168BK/4,1,5055939954172       ,20
E3168BK/5,1,5055939954189       ,20
E3168BK/6,1,5055939954196       ,20
E3168BK/7,1,5055939954202       ,20
E3169BK/2,1,5055939954219       ,20
E3169BK/3,1,5055939954226       ,20
E3169BK/4,1,5055939954233       ,20
E3169BK/5,1,5055939954240       ,20
E3170BK/3,1,5055939954264       ,20
E3170BK/4,1,5055939954271       ,20
E3170BK/5,1,5055939954288       ,20
E3170BK/6,1,5055939954295       ,20
E3170BK/7,1,5055939954301       ,20
E3171BK/2,1,5055939954318       ,20
E3171BK/3,1,5055939954325       ,20
E3171BK/4,1,5055939954332       ,20
E3171BK/5,1,5055939954349       ,20
E3171BK/6,1,5055939954356       ,20
E3174WH/6,1,5055939952888       ,20
E8067NA/5,1,5055939949314       ,20
E8067NA/6,1,5055939949321       ,20
E0041,5,5055205301938       ,24
E0066BK,1,5055205340234       ,24
E0066MB,1,5055939901312       ,24
E1048BK/L-XL,2,5055939928197       ,24
E1048BK/S-M,2,5055939928203       ,24
E1050BK/L-XL,2,5055939928210       ,24
E1050BK/S-M,2,5055939928227       ,24
E1108BK/L-XL,2,5055205387987       ,24
E1108BK/S-M,2,5055205387970       ,24
E1109BK/L-XL,2,5055205388014       ,24
E1109BK/M-L,2,5055205388007       ,24
E1109BK/S-M,1,5055205387994       ,24
E1112BK/L-XL,1,5055205384689       ,24
E1112BK/S-M,1,5055205384672       ,24
E1128BK/L-XL,2,5055205398617       ,24
E1128BK/S-M,2,5055205399164       ,24
E1128WH/L-XL,2,5055205398624       ,24
E1128WH/S-M,2,5055205399614       ,24
E1129BK/0,2,5055205398631       ,24
E1129WH/0,2,5055205398648       ,24
E1168BK/4,1,5055939929484       ,24
E1168BK/5,2,5055939929491       ,24
E1168BK/6,2,5055939929507       ,24
E1168BK/7,1,5055939929514       ,24
E1170BK/0,1,5055939929828       ,24
E1170YV/0,1,5055939929842       ,24
E1171BK/0,2,5055939929859       ,24
E1174BK/0,2,5055939929972       ,24
E1174GY/0,2,5055939929989       ,24
E1174PT/0,1,5055939929996       ,24
E1188BK/3,1,5055939944814       ,24
E1188BK/4,2,5055939944821       ,24
E1188BK/5,2,5055939944838       ,24
E1188BK/6,2,5055939944845       ,24
E1204BK/3,1,5055939950563       ,24
E1204BK/4,2,5055939950570       ,24
E1204BK/5,2,5055939950587       ,24
E1204BK/6,2,5055939950594       ,24
E1204BK/7,1,5055939950600       ,24
E1504BK/M-L,1,5055205389660       ,24
E1504BK/S-M,1,5055205389653       ,24
E1505MB/L-XL,1,5055939904474       ,24
E1505MB/M-L,2,5055939904481       ,24
E1505MB/S-M,1,5055939904498       ,24
E1505WH/L-XL,1,5055939904542       ,24
E1505WH/M-L,2,5055939904559       ,24
E1505WH/S-M,1,5055939904566       ,24
E1506GF/L-XL,1,5055939948973       ,24
E1506GF/M-L,2,5055939948966       ,24
E1506GF/S-M,1,5055939948959       ,24
E1506WH/L-XL,1,5055939920092       ,24
E1506WH/M-L,1,5055939920085       ,24
E1506WH/S-M,1,5055939920078       ,24
E1511BK/L-XL,1,5055939930121       ,24
E1511BK/M-L,2,5055939930138       ,24
E1511BK/S-M,1,5055939930145       ,24
E1511KH/L-XL,1,5055939950402       ,24
E1511KH/M-L,2,5055939950396       ,24
E1511KH/S-M,1,5055939950389       ,24
E1511PT/M-L,1,5055939930169       ,24
E1511PT/S-M,1,5055939930176       ,24
E1511WH/M-L,1,5055939930190       ,24
E1511WH/S-M,1,5055939930206       ,24
E1513BK/L-XL,1,5055939930275       ,24
E1513BK/M-L,2,5055939930282       ,24
E1513BK/S-M,1,5055939930299       ,24
E1513WH/L-XL,1,5055939930336       ,24
E1513WH/M-L,2,5055939930343       ,24
E1513WH/S-M,1,5055939930350       ,24
E3061W/3,1,5055205342467       ,24
E3061W/4,1,5055205342474       ,24
E3061W/5,1,5055205342481       ,24
E3061W/6,1,5055205342498       ,24
E3109OC/2,1,5055939910734       ,24
E3109OC/3,1,5055939909103       ,24
E3109OC/4,1,5055939909110       ,24
E3109YV/4,1,5055939909011       ,24
E3109YV/5,1,5055939909028       ,24
E3109YV/6,1,5055939909035       ,24
E3109YV/7,1,5055939909042       ,24
E3142NA/5,1,5055939952680       ,24
E3142NA/6,1,5055939952697       ,24
E3142NA/7,1,5055939952703       ,24
E3142RR/3,1,5055939952611       ,24
E3142RR/4,1,5055939952628       ,24
E3142RR/5,1,5055939952635       ,24
E4055BK/3,1,5055939953069       ,24
E4055BK/4,1,5055939953076       ,24
E4055BK/5,1,5055939953083       ,24
E4055BK/6,1,5055939953090       ,24
E4055BK/7,1,5055939953106       ,24
E6095BK/3,1,5055939901121       ,24
E6095BK/4,1,5055939901138       ,24
E6095BK/5,1,5055939901145       ,24
E6095BK/6,1,5055939901152       ,24
E6097BK/1,1,5055939910086       ,24
E6097BK/2,1,5055939901206       ,24
E6097BK/3,1,5055939901213       ,24
E6104CE/2,1,5055939915692       ,24
E6104CE/3,1,5055939915708       ,24
E6104CE/4,1,5055939915715       ,24
E6104CO/4,1,5055939918334       ,24
E6104CO/5,1,5055939918341       ,24
E6104CO/6,1,5055939920948       ,24
E6110BK/2,1,5055939914664       ,24
E6110BK/3,1,5055939914671       ,24
E6110BK/4,1,5055939914688       ,24
E6110BK/5,1,5055939914695       ,24
E6122BP/2,1,5055939951911       ,24
E6122BP/3,1,5055939951928       ,24
E6122BP/4,1,5055939951935       ,24
E6122BP/5,1,5055939951942       ,24
E6124BK/2,1,5055939932996       ,24
E6124BK/3,1,5055939933009       ,24
E6124BK/4,1,5055939933016       ,24
E6124BK/5,1,5055939933023       ,24
E7110BK/K11,1,5055205387895       ,24
E7110BK/K7,1,5055205387871       ,24
E7110BK/K9,1,5055205387888       ,24
E7117NA/5,1,5055939955063       ,24
E7117NA/6,1,5055939955070       ,24
E7117NA/7,1,5055939955087       ,24
E7117WH/3,1,5055939917061       ,24
E7117WH/4,1,5055939917078       ,24
E7117WH/5,1,5055939917085       ,24
E7123RD/K11,1,5055939919959       ,24
E7123RD/K7,1,5055939919966       ,24
E7123RD/K9,1,5055939919973       ,24
E7127BK/3,1,5055939934358       ,24
E7127BK/4,1,5055939934365       ,24
E7127BK/5,1,5055939934372       ,24
E7128GY/0,4,5055939934426       ,24
E7128KH/0,4,5055939951324       ,24
E8070BK/3,1,5055939916712       ,24
E8070BK/4,1,5055939916729       ,24
E8070BK/5,1,5055939916736       ,24
E8070BK/6,1,5055939916743       ,24
E8087BK/3,1,5055939943107       ,24
E8087BK/4,1,5055939943114       ,24
E8087BK/5,1,5055939943121       ,24
E8087BK/6,1,5055939943138       ,24
E8088BK/3,1,5055939943152       ,24
E8088BK/4,1,5055939943169       ,24
E8088BK/5,1,5055939943176       ,24
E8088BK/6,1,5055939943183       ,24
E9095YV/3,1,5055939918112       ,24
E9095YV/4,1,5055939918129       ,24
E9095YV/5,1,5055939918136       ,24
E9095YV/6,1,5055939918143       ,24
E9107BK/3,1,5055939935409       ,24
E9107BK/4,1,5055939935416       ,24
E9107BK/5,1,5055939935423       ,24
E9107BK/6,1,5055939935430       ,24
E9120BK/4,1,5055939943213       ,24
E9120BK/5,1,5055939943220       ,24
E9120BK/6,1,5055939943237       ,24
E9120BK/7,1,5055939943244       ,24
E9120YV/3,1,5055939943251       ,24
E9120YV/4,1,5055939943268       ,24
E9120YV/5,1,5055939943275       ,24
E9120YV/6,1,5055939943282       ,24
E3174WH/3,1,5055939952857       ,28
E3174WH/4,1,5055939952864       ,28
E3174WH/5,1,5055939952871       ,28
E5067NA/3,1,5055939950761       ,28
E5067NA/4,1,5055939950778       ,28
E5067NA/5,1,5055939950785       ,28
E5067NA/6,1,5055939950792       ,28
E6152CO/2,1,5055939951027       ,28
E6152CO/3,1,5055939951034       ,28
E6152CO/4,1,5055939951041       ,28
E6152CO/5,1,5055939951058       ,28
E6154RD/3,1,5055939953021       ,28
E6154RD/4,1,5055939953038       ,28
E9140BK/4,1,5055939953489       ,28
E9140BK/5,1,5055939953496       ,28
E9140BK/6,1,5055939953502       ,28
E8067NA/7,1,5055939949338       ,37
E8095AN/4,1,5055939950020       ,37
E8095AN/5,1,5055939950037       ,37
E3063W/3,2,5055205343624       ,44
E3063W/4,3,5055205343631       ,44
E3063W/5,3,5055205343648       ,44
E3063W/6,2,5055205343655       ,44
E3168BK/4,1,5055939954172       ,52
E3168BK/5,1,5055939954189       ,52
E3168BK/6,1,5055939954196       ,52
E3171BK/4,1,5055939954332       ,52
E3171BK/5,1,5055939954349       ,52
E3173BK/3,1,5055939949598       ,52
E3173BK/4,1,5055939949604       ,52
E3173BK/5,1,5055939949611       ,52
E3173BK/6,1,5055939949628       ,52
E4031BK/4,1,5055939916972       ,52
E4031BK/5,1,5055939916989       ,52
E4031BK/6,1,5055939916996       ,52
E5069BK/4,1,5055939951584       ,52
E5069BK/5,1,5055939951591       ,52
E5069BK/6,1,5055939951607       ,52
E8067BK/3,1,5055939916446       ,52
E8067BK/4,1,5055939916453       ,52
E8067BK/5,1,5055939916460       ,52
E8067BK/6,1,5055939916477       ,52
E8094AN/4,1,5055939949406       ,52
E8094AN/5,1,5055939949413       ,52
E8094AN/6,1,5055939949420       ,52
E8094AN/7,1,5055939949437       ,52
E6154RD/5,1,5055939953045       ,58
E8097GY/4,1,5055939950426       ,58
E8097GY/5,1,5055939950433       ,58
E8097GY/6,1,5055939950440       ,58
E0043BS,1,5055205324517       ,82
E3169BK/6,1,5055939954257       ,82
E3170BK/4,3,5055939954271       ,82
E3170BK/5,3,5055939954288       ,82
E3171BK/3,2,5055939954325       ,82
E1028BK/0,3,5055205385952       ,128
E1184BK/5,2,5055939944449       ,128
E1202BK/L-XL,2,5055939949918       ,128
E1202BK/S-M,2,5055939949901       ,128
E3167BK/S-M,1,5055939954110       ,128
E8067NA/5,1,5055939949314       ,128
E3168BK/4,2,5055939954172       ,129
E3168BK/5,2,5055939954189       ,129
E3168BK/6,1,5055939954196       ,129
E3170BK/4,2,5055939954271       ,129
E3170BK/5,2,5055939954288       ,129
E3170BK/6,1,5055939954295       ,129
E8088BK/4,2,5055939943169       ,129
E1109BK/M-L,1,5055205388007       ,149
E1511BK/S-M,1,5055939930145       ,149
E3142RR/6,1,5055939952642       ,149
E7136WH/0,1,5055939948942       ,149
E1167BK/4,1,5055939929316       ,187
E1167BK/5,1,5055939929323       ,187
E1167BK/6,2,5055939929330       ,187
E1167BK/7,1,5055939929347       ,187
E1204BK/5,2,5055939950587       ,187
E1204BK/6,1,5055939950594       ,187
E1513BK/M-L,1,5055939930282       ,187
E1518BK/M-L,1,5055939948898       ,187
E3125NA/5,1,5055939950846       ,187
E3168BK/4,1,5055939954172       ,187
E3170BK/3,1,5055939954264       ,187
E3170BK/5,1,5055939954288       ,187
E3170BK/6,1,5055939954295       ,187
E1506GF/M-L,1,5055939948966       ,200
E1506NA/L-XL,1,5055939922850       ,200
E1506NA/S-M,1,5055939922836       ,200
E1506WH/S-M,1,5055939920078       ,200
E1513BK/L-XL,1,5055939930275       ,200
E1513BK/S-M,1,5055939930299       ,200
E1513WH/L-XL,1,5055939930336       ,200
E1513WH/S-M,1,5055939930350       ,200
E1513WH/M-L,1,5055939930343       ,212
