E0073,1
E0136RD/L-XL,1
E1023BK/4,1
E1023BK/5,1
E1030BK/M-L,1
E1161BK/4,1
E1161RD/5,1
E1162BK/6,1
E3063W/6,1
E3132MY/6,1
E3140BK/5,1
E3140RD/7,1
E3140RD4,1
E3145NA/5,1
E4027BK/5,1
E4030BK/5,1
E4030BK/6,1
E4031BK/4,1
E7110BK/K7,1
E7122BK/K11,1
E7127BK/5,1
E8064BK/6,1
E9106WH/6,1
E9108BK/4,1
