#E6124BK/5,1
E0003/L-XL,1
E1128BK/S-M,1
E1128WH/S-M,1
E1167RD/4,1
E1177WH/L-XL,1
E1504BK/L-XL,1
E3142GV/5,1
E3142RD/4,1
E4027BK/6,1
E4030BK/3,1
E4030BK/5,1
E4031BK/5,1
E6127BK/4,1
E7117RD/4,1
E7117WH/4,1
E7122BK/K11,1
