SKU,Maximum allowed,Barcode/EAN,Days left
E7136WH/0,1,5055939948942       ,48
E1518BK/L-XL,1,5055939948904       ,97
E1518BK/M-L,1,5055939948898       ,97
E1518BK/S-M,1,5055939948881       ,97
E1199RR/3,1,5055939949697       ,170
E1199RR/4,1,5055939949703       ,170
E1199RR/5,2,5055939949710       ,170
E1199RR/6,2,5055939949727       ,170
E1199RR/7,1,5055939949734       ,170
E3173BK/4,1,5055939949604       ,170
E3173BK/5,1,5055939949611       ,170
E3173BK/6,1,5055939949628       ,170
E3173BK/7,1,5055939949635       ,170
E3173GF/4,1,5055939949659       ,170
E3173GF/5,1,5055939949666       ,170
E3173GF/6,1,5055939949673       ,170
E3173GF/7,1,5055939949680       ,170
E5067BK/4,1,5055939950723       ,170
E5067BK/6,1,5055939950747       ,170
E6078BK/3,1,5055205386669       ,170
E6078BK/5,1,5055205386683       ,170
E6110CR/4,1,5055939915876       ,170
E6110CR/5,1,5055939915883       ,170
E6119MY/3,1,5055939932729       ,170
E6119MY/4,1,5055939932736       ,170
E6119MY/5,1,5055939932743       ,170
E6151BK/3,1,5055939950334       ,170
E6151BK/4,1,5055939950341       ,170
E8070BK/4,1,5055939916729       ,170
E8070BK/6,1,5055939916743       ,170
E8070BK/7,1,5055939916750       ,170
E8092GF/4,1,5055939948409       ,170
E8092GF/6,1,5055939948423       ,170
E8092GF/7,1,5055939948430       ,170
E8094AN/6,1,5055939949420       ,170
E8094AN/7,1,5055939949437       ,170
E9106BK/3,1,5055939935256       ,170
E9106BK/6,1,5055939935287       ,170
E9106BK/7,1,5055939935294       ,170
E9140BK/3,1,5055939953472       ,170
E9140BK/6,1,5055939953502       ,170
E9140BK/7,1,5055939953519       ,170
E1512BK/S-M,1,5055939930237       ,173
