SKU,Maximum allowed,Barcode/EAN,Days left
E9102BK/6,1,5055939925547       ,14
E3125BK/4,1,5055939915395       ,40
E3125BK/5,1,5055939915401       ,40
E3125BK/6,1,5055939915418       ,40
E3125BK/7,1,5055939915425       ,40
E3142NA/3,1,5055939952666       ,40
E3142NA/4,1,5055939952673       ,40
E3142NA/5,1,5055939952680       ,40
E3142NA/6,1,5055939952697       ,40
E3142NA/7,1,5055939952703       ,40
E7117BK/3,1,5055939917016       ,40
E7117BK/4,1,5055939917023       ,40
E7117BK/5,1,5055939917030       ,40
E7117BK/6,1,5055939917047       ,40
E7117BK/7,1,5055939917054       ,40
E8064BK/3,1,5055939915975       ,40
E8064BK/5,1,5055939915999       ,40
E8064BK/6,1,5055939916002       ,40
E8088BK/3,1,5055939943152       ,40
E8088BK/4,1,5055939943169       ,40
E8088BK/5,1,5055939943176       ,40
E8088BK/6,1,5055939943183       ,40
E8088BK/7,1,5055939943190       ,40
E9120BK/3,1,5055939943206       ,40
E9120BK/4,1,5055939943213       ,40
E9120BK/5,1,5055939943220       ,40
E9120BK/6,1,5055939943237       ,40
E9120BK/7,1,5055939943244       ,40
E3125NA/4,1,5055939950839       ,62
E3125NA/5,1,5055939950846       ,62
E8064BK/5,2,5055939915999       ,62
E8064BK/6,1,5055939916002       ,62
E7117BK/4,2,5055939917023       ,74
E7117BK/5,2,5055939917030       ,74
E8064BK/4,2,5055939915982       ,74
E9098NA/6,1,5055939925288       ,74
E9098NA/5,1,5055939925271       ,88
E3142BK/5,1,5055939931371       ,111
E3142BK/6,1,5055939931388       ,111
E8064BK/5,2,5055939915999       ,111
E8064BK/6,2,5055939916002       ,111
E8064GY/5,1,5055939916231       ,111
E9120BK/5,1,5055939943220       ,111
E6124BK/5,1,5055939933023       ,143
E7117BK/5,1,5055939917030       ,143
E7117BK/6,1,5055939917047       ,143
E8065BK/3,1,5055939919140       ,143
E8065BK/4,1,5055939919157       ,143
E8065BK/5,2,5055939919164       ,143
E8065BK/6,1,5055939919171       ,143
E0062/6,1,5055205323794       ,159
E4028BK/4,1,5055939901077       ,159
E8064BK/7,2,5055939916019       ,160
E8065BK/4,1,5055939919157       ,178
E8065BK/5,1,5055939919164       ,178
E8065BK/7,2,5055939919188       ,178
E3158BK/4,1,5055939942421       ,186
E3158BK/5,1,5055939942438       ,186
E3158BK/6,1,5055939942445       ,186
E3158BK/7,1,5055939942452       ,186
E5049BK/4,1,5055939924533       ,186
E5049BK/5,1,5055939924540       ,186
E5049BK/6,1,5055939924557       ,186
E5049BK/7,1,5055939924564       ,186
E8064BK/4,1,5055939915982       ,186
E8064BK/6,1,5055939916002       ,186
E8064BK/7,1,5055939916019       ,186
E8066BK/4,1,5055939916347       ,186
E8066BK/5,1,5055939916354       ,186
E8066BK/6,1,5055939916361       ,186
E8088BK/4,1,5055939943169       ,186
E8088BK/5,1,5055939943176       ,186
E8088BK/6,1,5055939943183       ,186
E9120KH/4,1,5055939943312       ,186
E9120KH/5,1,5055939943329       ,186
E9120YV/3,1,5055939943251       ,186
E9120YV/4,1,5055939943268       ,186
E9120YV/5,1,5055939943275       ,186
E9120YV/6,1,5055939943282       ,186
E9120YV/7,1,5055939943299       ,186
E3183BK/4,1,5055939959306       ,198
E3183BK/5,1,5055939959313       ,198
E3183BK/6,1,5055939959320       ,198
E3183BK/7,1,5055939959337       ,198
E8070BK/4,1,5055939916729       ,198
E8070BK/5,1,5055939916736       ,198
E8070BK/6,1,5055939916743       ,198
E8070BK/7,1,5055939916750       ,198
