SKU,Maximum allowed,Barcode/EAN,Days left
E0128BK/4,1,5055939904931       ,59
E1038BK/L-XL,3,5055939906706       ,59
E1038BK/S-M,3,5055939906690       ,59
E1043BK/L-XL,2,5055939923871       ,59
E1043BK/S-M,2,5055939923888       ,59
E1185BK/5,1,5055939944548       ,59
E1222BK/0,3,5055939958590       ,59
E1223BK/L-XL,2,5055939958613       ,59
E1223BK/S-M,1,5055939958606       ,59
E1227BK/L-XL,1,5055939966311       ,59
E1227BK/S-M,1,5055939959405       ,59
E1227GK/L-XL,1,5055939966328       ,59
E1227RR/L-XL,1,5055939966335       ,59
E1227RR/S-M,1,5055939960609       ,59
E8090AN/4,1,5055939944333       ,59
E1227GK/S-M,1,5055939960616       ,66
E1505MB/L-XL,1,5055939904474       ,66
E3109OC/4,1,5055939909110       ,92
E3109OC/5,1,5055939909127       ,92
E3109RD/3,1,5055939909059       ,92
E3109RD/4,1,5055939909066       ,92
E3109RD/5,1,5055939909073       ,92
E3109YV/3,2,5055939909004       ,92
E0110RR/0,1,5055939959719       ,144
E1185BK/5,2,5055939944548       ,144
E1186BK/3,1,5055939944623       ,144
E1223BK/L-XL,1,5055939958613       ,144
E1223BK/S-M,2,5055939958606       ,144
E3109YV/4,3,5055939909011       ,144
E3109YV/5,2,5055939909028       ,144
E6040BK/3,1,5055939904986       ,144
E6040BK/4,1,5055939904993       ,144
E6040BK/5,1,5055939905006       ,144
E6040YV/3,1,5055939909745       ,144
E6040YV/4,1,5055939909752       ,144
E3167WH/L-XL,1,5055939954073       ,171
