SKU,Maximum allowed,Barcode/EAN,Days left
E0132BK/4,1,5055939915012       ,10
E1165BK/5,1,5055939928869       ,10
E1165BK/6,1,5055939928876       ,10
E1165GV/5,1,5055939928913       ,10
E1165GV/7,1,5055939928937       ,10
E1166BK/5,1,5055939929088       ,10
E1166NA/7,1,5055939952765       ,10
E1204BK/4,1,5055939950570       ,10
E3063W/4,1,5055205343631       ,10
E3063W/5,1,5055205343648       ,10
E3063W/7,1,5055205343662       ,10
E3140OC/4,1,5055939931142       ,10
E3142NA/6,1,5055939952697       ,10
E6132BK/3,1,5055939933726       ,10
E8094AN/4,1,5055939949406       ,10
E8094AN/5,1,5055939949413       ,10
E8094AN/6,1,5055939949420       ,10
E8094AN/7,1,5055939949437       ,10
E0132BK/5,1,5055939915029       ,24
E0132NA/5,1,5055939915081       ,24
E1042BK/L-XL,1,5055939923857       ,24
E1165GV/4,1,5055939928906       ,24
E1166NA/5,1,5055939952741       ,24
E1204BK/4,2,5055939950570       ,24
E8064GY/4,1,5055939916224       ,24
E8064NA/8,1,5055939950945       ,24
E0068BK/4,1,5055205367705       ,44
E0068BK/7,1,5055205367736       ,44
E0083BK/4,1,5055205341491       ,44
E0083BK/5,1,5055205341507       ,44
E0083BK/6,1,5055205341514       ,44
E0154BK/L-XL,1,5055939965987       ,44
E0154BK/S-M,1,5055939958149       ,44
E1038BK/L-XL,1,5055939906706       ,44
E1038BK/S-M,1,5055939906690       ,44
E1120BK/5,1,5055205390239       ,44
E1165BK/4,1,5055939928852       ,44
E1182BK/L-XL,1,5055939942629       ,44
E1182BK/S-M,1,5055939942612       ,44
E1204BK/4,1,5055939950570       ,44
E1216BK/4,1,5055939958354       ,44
E1216BK/5,1,5055939958361       ,44
E1216BK/6,1,5055939958378       ,44
E1216BK/7,1,5055939958385       ,44
E1216BV/4,1,5055939958415       ,44
E1218BK/L-XL,1,5055939958521       ,44
E1218BK/M-L,1,5055939958514       ,44
E3134BK/4,1,5055939924380       ,44
E3134BK/5,1,5055939924397       ,44
E3134BK/6,1,5055939924403       ,44
E3134RD/5,1,5055939924342       ,44
E3134RD/6,1,5055939924359       ,44
E3134RD/7,1,5055939924366       ,44
E4054BK/4,1,5055939953175       ,44
E4054BK/5,1,5055939953182       ,44
E4054BK/6,1,5055939953199       ,44
E4054BK/7,1,5055939953205       ,44
E4055BK/5,1,5055939953083       ,44
E4055BK/6,1,5055939953090       ,44
E4055BK/7,1,5055939953106       ,44
E5049BK/5,1,5055939924540       ,44
E8088BK/4,1,5055939943169       ,44
E8088BK/5,1,5055939943176       ,44
E9121NA/4,1,5055939943510       ,44
E9121NA/5,1,5055939943527       ,44
E9121YV/6,1,5055939945842       ,44
E0128BK/5,1,5055939904948       ,58
E0128BK/6,1,5055939904955       ,58
E0128BK/7,1,5055939904962       ,58
E0128YV/5,1,5055939909639       ,58
E1042BK/L-XL,1,5055939923857       ,58
E1043BK/L-XL,1,5055939923871       ,58
E3133GY/7,1,5055939924311       ,58
E3161BK/4,1,5055939944968       ,58
E3181NA/5,1,5055939958255       ,58
E8070BK/4,1,5055939916729       ,58
E8070BK/5,1,5055939916736       ,58
E8070BK/7,1,5055939916750       ,58
E8087BK/4,1,5055939943114       ,58
E9102BK/4,1,5055939925523       ,58
E9117YM/4,1,5055939960999       ,58
E9117YM/5,1,5055939961002       ,58
E9117YM/6,1,5055939961019       ,58
E9117YM/7,1,5055939961026       ,58
E3133GY/4,1,5055939924281       ,60
E3133GY/5,1,5055939924298       ,60
E3133GY/6,1,5055939924304       ,60
E0083BK/5,1,5055205341507       ,66
E0128BK/4,1,5055939904931       ,66
E0128YV/4,1,5055939909622       ,66
E1120BK/4,1,5055205390222       ,66
E8076BK/4,1,5055939924823       ,66
E8088BK/6,1,5055939943183       ,66
E1043BK/S-M,1,5055939923888       ,67
E3158BK/4,1,5055939942421       ,67
E3158BK/5,1,5055939942438       ,67
E3158BK/6,1,5055939942445       ,67
E3158BK/7,1,5055939942452       ,67
E3181NA/4,1,5055939958248       ,67
E3181NA/6,1,5055939958262       ,67
E8088BK/7,1,5055939943190       ,67
E0128BK/5,1,5055939904948       ,73
E0128BK/6,1,5055939904955       ,73
E1042BK/L-XL,1,5055939923857       ,73
E1120BK/6,1,5055205390246       ,73
E1196BK/L-XL,1,5055939948874       ,73
E1251CL,8,5055939955803       ,73
E1252CL,10,5055939955810       ,73
E3183GK/4,1,5055939960456       ,73
E3183GK/5,1,5055939960463       ,73
E3183GK/6,1,5055939960470       ,73
E3183GK/7,1,5055939960487       ,73
E3183RR/4,1,5055939960500       ,73
E3183RR/5,1,5055939960517       ,73
E3183RR/6,1,5055939960524       ,73
E3183RR/7,1,5055939960531       ,73
E8070BK/6,1,5055939916743       ,73
E8074BK/4,1,5055939924724       ,73
E8074BK/5,1,5055939924731       ,73
E8088BK/4,1,5055939943169       ,73
E9102GV/4,1,5055939925578       ,73
E0083BK/3,1,5055205341484       ,79
E0152BK/S-M,1,5055939958118       ,79
E1218BK/S-M,1,5055939958507       ,79
E2010BK/2,1,5055205358062       ,79
E8074BK/5,1,5055939924731       ,79
E9127YV/2,1,5055939943961       ,79
E9150CV/3,1,5055939960357       ,79
E0128BK/4,1,5055939904931       ,86
E0128BK/6,1,5055939904955       ,86
E1118BK/6,1,5055205389998       ,86
E1165BK/4,1,5055939928852       ,86
E1216BK/4,1,5055939958354       ,86
E1216BK/5,1,5055939958361       ,86
E8074BK/4,1,5055939924724       ,86
E9102GV/4,1,5055939925578       ,86
E9139BK/3,1,5055939953588       ,86
E0128BK/5,1,5055939904948       ,87
E8064BK/9,1,5055939916033       ,87
E0128YV/5,1,5055939909639       ,88
E1216BV/3,1,5055939958408       ,88
E3134RD/5,1,5055939924342       ,88
E9126BV/5,1,5055939943886       ,88
E1120BK/4,1,5055205390222       ,89
E3133GY/3,1,5055939924274       ,89
E0035/3,1,5055205301440       ,100
E0035/5,1,5055205301457       ,100
E0128BK/4,1,5055939904931       ,100
E1038BK/L-XL,1,5055939906706       ,100
E1038BK/S-M,1,5055939906690       ,100
E1120BK/4,1,5055205390222       ,100
E1120BK/5,1,5055205390239       ,100
E1131BK/L-XL,1,5055205398662       ,100
E1181BK/7,1,5055939942551       ,100
E1216BK/5,1,5055939958361       ,100
E1225BK/XL-XXL,1,5055939966564       ,100
E3063W/4,1,5055205343631       ,100
E3181NA/6,1,5055939958262       ,100
E3183GK/6,1,5055939960470       ,100
E3183RR/6,1,5055939960524       ,100
E8070BK/5,1,5055939916736       ,100
E9117YM/4,1,5055939960999       ,100
E1182BK/S-M,1,5055939942612       ,103
E1196BK/L-XL,1,5055939948874       ,103
E3133GY/7,1,5055939924311       ,103
E7125BK/4,1,5055939924625       ,103
E7125BK/5,1,5055939924632       ,103
E7125BK/6,1,5055939924649       ,103
E8087BK/4,1,5055939943114       ,103
E8087BK/5,1,5055939943121       ,103
E8087BK/6,1,5055939943138       ,103
E8087BK/7,1,5055939943145       ,103
E9102BK/4,1,5055939925523       ,103
E9102BK/5,1,5055939925530       ,103
E9102BK/6,1,5055939925547       ,103
E9102BK/7,1,5055939925554       ,103
E9102GV/4,1,5055939925578       ,103
E9102GV/5,1,5055939925585       ,103
E9102GV/6,1,5055939925592       ,103
E9121NA/4,1,5055939943510       ,103
E9121NA/5,1,5055939943527       ,103
E9121NA/6,1,5055939943534       ,103
E9121RD/4,1,5055939943466       ,103
E9121RD/5,1,5055939943473       ,103
E9121RD/6,1,5055939943480       ,103
E9121RD/7,1,5055939943497       ,103
E8074BK/5,1,5055939924731       ,109
E1196BK/M-L,1,5055939956510       ,115
E0128YV/6,1,5055939909646       ,116
E1181BK/5,1,5055939942537       ,116
E1165BK/5,1,5055939928869       ,121
E1216BV/4,1,5055939958415       ,121
E3133GY/4,1,5055939924281       ,121
E3133GY/6,1,5055939924304       ,121
E3158BK/4,1,5055939942421       ,121
E8088BK/5,1,5055939943176       ,121
E9121RD/5,1,5055939943473       ,121
E9126BV/5,1,5055939943886       ,121
E0132MB/4,1,5055939922027       ,137
E1042BK/L-XL,1,5055939923857       ,137
E1165BK/6,1,5055939928876       ,137
E1118BK/5,1,5055205389981       ,157
E1196BK/S-M,1,5055939948867       ,157
E1120BK/5,1,5055205390239       ,163
E1216BK/4,1,5055939958354       ,163
E1216BK/5,1,5055939958361       ,163
E1216BV/5,1,5055939958422       ,163
E3133GY/6,1,5055939924304       ,163
E9117BK/4,1,5055939942179       ,163
E8074BK/4,1,5055939924724       ,166
E1102,5,5055205353814       ,184
E1216BV/6,1,5055939958439       ,184
E9117YM/6,1,5055939961019       ,184
E1038BK/L-XL,1,5055939906706       ,200
E1038BK/S-M,1,5055939906690       ,200
E3133GF/4,1,5055939957135       ,200
E1168BK/4,1,5055939929484       ,201
E1168BK/5,1,5055939929491       ,201
E1168BK/6,1,5055939929507       ,201
E1168NA/4,1,5055939929583       ,201
E1168NA/5,1,5055939929590       ,201
E1168NA/6,1,5055939929606       ,201
E1168NA/7,1,5055939929613       ,201
E1168OT/4,1,5055939971582       ,201
E1168OT/5,1,5055939971599       ,201
E1168OT/6,1,5055939971605       ,201
E1168OT/7,1,5055939971612       ,201
E5073RR/4,1,5055939949208       ,201
E5073RR/5,1,5055939949215       ,201
E5073RR/6,1,5055939949222       ,201
E5073YM/4,1,5055939977744       ,201
E5073YM/5,1,5055939977751       ,201
E5073YM/6,1,5055939977768       ,201
E9137AN/4,1,5055939946276       ,201
E9137AN/5,1,5055939946283       ,201
E9137AN/6,1,5055939946290       ,201
E9137RD/4,1,5055939946320       ,201
E1161BK/6,1,5055939928708       ,207
E1161RD/4,1,5055939928746       ,207
E1161RD/7,1,5055939928777       ,207
E1165BK/4,1,5055939928852       ,207
E1165BK/5,1,5055939928869       ,207
E1165BK/6,1,5055939928876       ,207
E1165BK/7,1,5055939928883       ,207
E1165GV/4,1,5055939928906       ,207
E1165GV/5,1,5055939928913       ,207
E1165GV/6,1,5055939928920       ,207
E1165GV/7,1,5055939928937       ,207
E1166BK/4,1,5055939929071       ,207
E1166BK/6,1,5055939929095       ,207
E1166BK/7,1,5055939929101       ,207
E1166NA/4,1,5055939952734       ,207
E1166NA/5,1,5055939952741       ,207
E1166NA/6,1,5055939952758       ,207
E1263BK/L-XL,1,5055939977584       ,207
E1263BK/S-M,1,5055939977577       ,207
E1263WH/L-XL,1,5055939978444       ,207
E1263WH/S-M,1,5055939978437       ,207
E3177GK/4,1,5055939957760       ,207
E3177GK/5,1,5055939957777       ,207
E3177GK/6,1,5055939957784       ,207
E3177GK/7,1,5055939957791       ,207
E3192BK/W4,1,5055939978789       ,207
E3192BK/W5,1,5055939978796       ,207
E3192BK/W6,1,5055939978802       ,207
E3192BK/W7,1,5055939978819       ,207
E3192RR/4,1,5055939974743       ,207
E3192RR/5,1,5055939974750       ,207
E3192RR/6,1,5055939974767       ,207
E3192RR/7,1,5055939974774       ,207
E9118PW/4,1,5055939942643       ,207
E9118PW/5,1,5055939942650       ,207
E9118PW/6,1,5055939942667       ,207
E9118PW/7,1,5055939942674       ,207
E9126YV/4,1,5055939943923       ,207
