SKU,Maximum allowed,Barcode/EAN,Days left
E0110BK,1,5055205367224       ,33
E0110PK,1,5055205367231       ,33
E0110UM,1,5055205367248       ,33
E0110YM/0,1,5055939959702       ,33
E1160KH/7,1,5055939928593       ,33
E8075BK/5,1,5055939924786       ,33
E8075BK/6,1,5055939924793       ,33
E0128BK/3,1,5055939904924       ,58
E0128BK/5,1,5055939904948       ,58
E0128BK/6,2,5055939904955       ,58
E0128BK/7,1,5055939904962       ,58
E0128YV/4,1,5055939909622       ,58
E0128YV/7,1,5055939909653       ,58
E0151GF/0,1,5055939960708       ,58
E1160BK/2,1,5055939928487       ,58
E1160BK/3,1,5055939928494       ,58
E1160BK/4,1,5055939928500       ,58
E1160BK/5,2,5055939928517       ,58
E1186GV/4,1,5055939944685       ,58
E1223BK/L-XL,2,5055939958613       ,58
E1223BK/S-M,2,5055939958606       ,58
E1226BK/0,2,5055939959399       ,58
E1226GK/0,2,5055939960593       ,58
E3133AN/4,1,5055939957074       ,58
E3158BK/5,1,5055939942438       ,58
E4027BK/4,1,5055205398266       ,58
E6130GK/3,1,5055939950174       ,58
E7112BK/K11,2,5055205390642       ,58
E7112BK/K7,2,5055205390659       ,58
E7128GY/0,2,5055939934426       ,58
E7128KH/0,2,5055939951324       ,58
E8064GY/4,1,5055939916224       ,58
E8074BK/5,1,5055939924731       ,58
E8075BK/5,1,5055939924786       ,58
E8088BK/4,1,5055939943169       ,58
E8088BK/5,1,5055939943176       ,58
E8088BK/6,1,5055939943183       ,58
E8088BK/7,1,5055939943190       ,58
E8090AN/5,1,5055939944340       ,58
E9126YV/5,1,5055939943930       ,58
E9126YV/6,1,5055939943947       ,58
E9126YV/7,1,5055939943954       ,58
E4027BK/6,1,5055205398280       ,59
E4027BK/8,1,5055939901305       ,59
E7112BK/K9,1,5055205390635       ,59
E7128BK/0,3,5055939934419       ,59
E9120BK/5,1,5055939943220       ,59
E1160BK/6,2,5055939928524       ,60
E8088BK/4,1,5055939943169       ,66
E9143GK/5,1,5055939957524       ,90
E5055BK/7,1,5055939941516       ,94
