SKU,Maximum allowed,Barcode/EAN,Days left
E0043BC,1,5055205324494       ,0
E0132BK/3,1,5055939915005       ,0
E0132MB/3,1,5055939922010       ,0
E0150BK/0,1,5055939936925       ,0
E1125MB/3,1,5055939928234       ,0
E1168BK/3,1,5055939929477       ,0
E1184BK/3,1,5055939944425       ,0
E1183BK/3,2,5055939944227       ,1
E1183BK/4,3,5055939944234       ,1
E1183BK/5,4,5055939944241       ,1
E1183BK/6,4,5055939944258       ,1
E1183BK/7,2,5055939944265       ,1
E8074BK/6,2,5055939924748       ,1
E8074BK/7,1,5055939924755       ,1
E9124PW/7,1,5055939944081       ,1
E1183BK/4,1,5055939944234       ,5
E1183BK/6,1,5055939944258       ,5
E0062/3,1,5055205323763       ,7
E0062/4,2,5055205323770       ,7
E0062/5,2,5055205323787       ,7
E0062/6,1,5055205323794       ,7
E0062/7,1,5055205323800       ,7
E0062/8,1,5055205343792       ,7
E1301BK/3,1,5055205363523       ,7
E1301BK/4,1,5055205363530       ,7
E1301BK/5,2,5055205363547       ,7
E1301BK/6,1,5055205363554       ,7
E1301BK/7,1,5055205363561       ,7
E3125BK/3,1,5055939915388       ,7
E3125BK/4,2,5055939915395       ,7
E3125BK/5,2,5055939915401       ,7
E3125BK/6,1,5055939915418       ,7
E3125BK/7,1,5055939915425       ,7
E3125KH/4,1,5055939919324       ,7
E3125KH/5,1,5055939919331       ,7
E3125KH/6,1,5055939919348       ,7
E3125KH/7,1,5055939919355       ,7
E3133GY/4,2,5055939924281       ,7
E3133GY/5,2,5055939924298       ,7
E4027BK/4,1,5055205398266       ,7
E4027BK/5,2,5055205398273       ,7
E4027BK/6,2,5055205398280       ,7
E4027BK/7,1,5055205398297       ,7
E6106BK/3,1,5055939919492       ,7
E6106BK/4,1,5055939919508       ,7
E6106BK/5,1,5055939919515       ,7
E6106BK/6,1,5055939919522       ,7
E6106PU/2,1,5055939919539       ,7
E8064GY/3,1,5055939916217       ,7
E8064GY/4,2,5055939916224       ,7
E8064GY/5,2,5055939916231       ,7
E8064GY/6,2,5055939916248       ,7
E8064GY/7,2,5055939916255       ,7
E8064GY/8,1,5055939916262       ,7
E8069BK/3,1,5055939916552       ,7
E8069BK/4,2,5055939916569       ,7
E8069BK/5,2,5055939916576       ,7
E8069BK/6,1,5055939916583       ,7
E8069BK/7,1,5055939916590       ,7
E9114BK/7,1,5055939941769       ,7
E9114BV/5,2,5055939941790       ,7
E9114BV/6,1,5055939941806       ,7
E9114BV/7,1,5055939941813       ,7
E1118BK/5,1,5055205389981       ,8
E3133GY/5,2,5055939924298       ,8
E8074BK/4,2,5055939924724       ,8
E8074BK/5,2,5055939924731       ,8
E8074BK/6,1,5055939924748       ,8
E8074BK/7,1,5055939924755       ,8
E9114BK/4,1,5055939941738       ,8
E9114BK/5,1,5055939941745       ,8
E9114BK/6,1,5055939941752       ,8
E9081GV/6,1,5055205390437       ,9
E1024BK/6,1,5055205375519       ,23
E3109YV/6,1,5055939909035       ,23
E8073BK/4,2,5055939924670       ,23
E8074BK/3,1,5055939924717       ,23
E8074BK/5,2,5055939924731       ,23
E9081GV/5,1,5055205390420       ,23
E9098CM/6,1,5055939925189       ,23
E9098CT/5,1,5055939925226       ,23
E1119BK/5,1,5055205390550       ,26
E1119BK/6,1,5055205390567       ,26
E1125CM/4,1,5055939923086       ,26
E1146BK/L-XL,1,5055939909721       ,26
E1301BK/6,1,5055205363554       ,26
E8075BK/5,1,5055939924786       ,26
E8075BK/6,2,5055939924793       ,26
E8075BK/7,2,5055939924809       ,26
E0095/5,1,5055205344348       ,27
E0095/6,2,5055205344355       ,27
E0095/7,1,5055205375977       ,27
E0128BK/4,1,5055939904931       ,27
E0128BK/5,1,5055939904948       ,27
E0128BK/6,1,5055939904955       ,27
E0128YV/4,2,5055939909622       ,27
E0128YV/5,2,5055939909639       ,27
E0128YV/6,2,5055939909646       ,27
E1118BK/5,1,5055205389981       ,27
E1119BK/4,1,5055205390543       ,27
E1119BK/5,2,5055205390550       ,27
E1119BK/6,1,5055205390567       ,27
E1181BK/3,1,5055939942513       ,27
E1181BK/4,1,5055939942520       ,27
E1181BK/5,1,5055939942537       ,27
E1181BK/6,2,5055939942544       ,27
E5022BK/6,1,5055205360881       ,27
E8074BK/7,1,5055939924755       ,27
E3173BK/3,1,5055939949598       ,30
E3173BK/4,1,5055939949604       ,30
E3173BK/5,1,5055939949611       ,30
E3173BK/6,1,5055939949628       ,30
E3173BK/7,1,5055939949635       ,30
E9114BV/4,1,5055939941783       ,30
E4054BK/3,1,5055939953168       ,34
E4054BK/4,2,5055939953175       ,34
E4054BK/5,2,5055939953182       ,34
E4054BK/6,2,5055939953199       ,34
E4054BK/7,1,5055939953205       ,34
E4054BK/8,1,5055939955094       ,34
E4055BK/3,1,5055939953069       ,34
E4055BK/4,1,5055939953076       ,34
E4055BK/5,2,5055939953083       ,34
E4055BK/6,2,5055939953090       ,34
E4055BK/7,1,5055939953106       ,34
E6153BK/3,1,5055939953281       ,34
E6153BK/4,2,5055939953298       ,34
E6153BK/5,2,5055939953304       ,34
E6153BK/6,1,5055939953311       ,34
E8098BK/3,1,5055939953342       ,34
E8098BK/4,2,5055939953359       ,34
E8098BK/5,2,5055939953366       ,34
E8098BK/6,1,5055939953373       ,34
E0062/4,3,5055205323770       ,49
E0062/6,1,5055205323794       ,49
E0062/7,1,5055205323800       ,49
E0062/8,2,5055205343792       ,49
E0128BK/2,1,5055939904917       ,49
E0128BK/3,2,5055939904924       ,49
E0128BK/4,1,5055939904931       ,49
E0128BK/5,2,5055939904948       ,49
E0128BK/6,1,5055939904955       ,49
E0128BK/7,1,5055939904962       ,49
E0128YV/3,1,5055939909615       ,49
E0128YV/4,1,5055939909622       ,49
E0128YV/5,2,5055939909639       ,49
E0128YV/6,2,5055939909646       ,49
E0128YV/7,2,5055939909653       ,49
E1108BK/L-XL,1,5055205387987       ,49
E1108BK/S-M,2,5055205387970       ,49
E3158BK/3,1,5055939942414       ,49
E3158BK/4,3,5055939942421       ,49
E3158BK/5,2,5055939942438       ,49
E3158BK/6,2,5055939942445       ,49
E3158BK/7,1,5055939942452       ,49
E8073BK/3,1,5055939924663       ,49
E8073BK/6,1,5055939924694       ,49
E8073BK/7,1,5055939924700       ,49
E8074BK/7,2,5055939924755       ,49
E8075BK/6,1,5055939924793       ,49
E8075BK/7,1,5055939924809       ,49
E8085AN/6,1,5055939956213       ,49
E9081GV/6,1,5055205390437       ,49
E9124PW/3,1,5055939944043       ,49
E8075BK/3,1,5055939924762       ,50
E3125BK/3,1,5055939915388       ,51
E3125BK/4,2,5055939915395       ,51
E3125BK/5,2,5055939915401       ,51
E3125BK/6,1,5055939915418       ,51
E3125BK/7,1,5055939915425       ,51
E3125KH/3,1,5055939919317       ,51
E3125KH/4,1,5055939919324       ,51
E3125KH/5,1,5055939919331       ,51
E3125KH/6,1,5055939919348       ,51
E3125KH/7,1,5055939919355       ,51
E9081GV/4,1,5055205390413       ,55
E9081GV/5,1,5055205390420       ,55
E9081GV/6,1,5055205390437       ,55
E1024BK/6,1,5055205375519       ,56
E1183BK/3,2,5055939944227       ,56
E1183BK/4,1,5055939944234       ,56
E1183BK/5,1,5055939944241       ,56
E1183BK/6,2,5055939944258       ,56
E1183BK/7,1,5055939944265       ,56
E0062/3,10,5055205323763       ,57
E0062/4,21,5055205323770       ,57
E0062/5,23,5055205323787       ,57
E0062/6,13,5055205323794       ,57
E0062/7,12,5055205323800       ,57
E1118BK/7,1,5055205390000       ,57
E1204BK/3,1,5055939950563       ,57
E1204BK/4,2,5055939950570       ,57
E1204BK/5,2,5055939950587       ,57
E1204BK/6,2,5055939950594       ,57
E1204BK/7,1,5055939950600       ,57
E1204GC/3,4,5055939950662       ,57
E1204GC/4,8,5055939950679       ,57
E1204GC/5,8,5055939950686       ,57
E1204GC/6,8,5055939950693       ,57
E1204GC/7,4,5055939950709       ,57
E1301BK/3,9,5055205363523       ,57
E1301BK/4,11,5055205363530       ,57
E1301BK/5,18,5055205363547       ,57
E1301BK/6,11,5055205363554       ,57
E1301BK/7,9,5055205363561       ,57
E3109BK/4,4,5055939908960       ,57
E3109BK/5,4,5055939908977       ,57
E3109BK/6,4,5055939908984       ,57
E3109BK/7,2,5055939908991       ,57
E3109OC/4,1,5055939909110       ,57
E3109OC/5,2,5055939909127       ,57
E3109OC/6,1,5055939909134       ,57
E3109OC/7,1,5055939909141       ,57
E3109YV/4,2,5055939909011       ,57
E3109YV/5,4,5055939909028       ,57
E3109YV/6,3,5055939909035       ,57
E3109YV/7,3,5055939909042       ,57
E3125BK/3,5,5055939915388       ,57
E3125BK/4,14,5055939915395       ,57
E3125BK/5,17,5055939915401       ,57
E3125BK/6,8,5055939915418       ,57
E3125BK/7,8,5055939915425       ,57
E3125KH/3,4,5055939919317       ,57
E3125KH/4,13,5055939919324       ,57
E3125KH/5,13,5055939919331       ,57
E3125KH/6,9,5055939919348       ,57
E3125KH/7,9,5055939919355       ,57
E3125NA/3,1,5055939950822       ,57
E3125NA/4,4,5055939950839       ,57
E3125NA/5,5,5055939950846       ,57
E3125NA/6,4,5055939950853       ,57
E3125NA/7,3,5055939950860       ,57
E3125RD/3,1,5055939919256       ,57
E3125RD/4,2,5055939919263       ,57
E3125RD/5,2,5055939919270       ,57
E3125RD/6,1,5055939919287       ,57
E3125RD/7,1,5055939919294       ,57
E3142NA/4,1,5055939952673       ,57
E3142NA/5,3,5055939952680       ,57
E3142NA/6,3,5055939952697       ,57
E3142NA/7,2,5055939952703       ,57
E3173BK/3,9,5055939949598       ,57
E3173BK/4,13,5055939949604       ,57
E3173BK/5,13,5055939949611       ,57
E3173BK/6,10,5055939949628       ,57
E3173BK/7,9,5055939949635       ,57
E3173GF/3,2,5055939949642       ,57
E3173GF/4,8,5055939949659       ,57
E3173GF/5,10,5055939949666       ,57
E3173GF/6,9,5055939949673       ,57
E3173GF/7,6,5055939949680       ,57
E4027BK/3,4,5055205398259       ,57
E4027BK/4,18,5055205398266       ,57
E4027BK/5,26,5055205398273       ,57
E4027BK/6,23,5055205398280       ,57
E4027BK/7,13,5055205398297       ,57
E4054BK/3,7,5055939953168       ,57
E4054BK/4,17,5055939953175       ,57
E4054BK/5,20,5055939953182       ,57
E4054BK/6,20,5055939953199       ,57
E4054BK/7,11,5055939953205       ,57
E4054BK/8,6,5055939955094       ,57
E4055BK/3,11,5055939953069       ,57
E4055BK/4,25,5055939953076       ,57
E4055BK/5,34,5055939953083       ,57
E4055BK/6,26,5055939953090       ,57
E4055BK/7,16,5055939953106       ,57
E5067BK/3,3,5055939950716       ,57
E5067BK/5,6,5055939950730       ,57
E5067BK/6,3,5055939950747       ,57
E5067BK/7,3,5055939950754       ,57
E6106BK/2,3,5055939919485       ,57
E6106BK/3,14,5055939919492       ,57
E6106BK/4,15,5055939919508       ,57
E6106BK/5,14,5055939919515       ,57
E6106BK/6,11,5055939919522       ,57
E6106CO/3,6,5055939951140       ,57
E6106CO/4,6,5055939951157       ,57
E6106CO/5,6,5055939951164       ,57
E6106PU/2,2,5055939919539       ,57
E6106PU/3,1,5055939919546       ,57
E6106PU/4,1,5055939919553       ,57
E6106PU/5,1,5055939919560       ,57
E6108BK/2,1,5055939919584       ,57
E6108BK/3,10,5055939919591       ,57
E6108BK/4,11,5055939919607       ,57
E6108BK/5,10,5055939919614       ,57
E6108BK/6,5,5055939919621       ,57
E6108TL/3,3,5055939915821       ,57
E6108TL/4,4,5055939915838       ,57
E6108TL/5,3,5055939915845       ,57
E6108TL/6,1,5055939915753       ,57
E6110BK/2,1,5055939914664       ,57
E6110BK/3,5,5055939914671       ,57
E6110BK/4,5,5055939914688       ,57
E6110BK/5,5,5055939914695       ,57
E6110BK/6,1,5055939922331       ,57
E6130GK/2,2,5055939950167       ,57
E6130GK/3,9,5055939950174       ,57
E6130GK/4,9,5055939950181       ,57
E6130GK/5,8,5055939950198       ,57
E6130GY/3,5,5055939933603       ,57
E6130GY/4,5,5055939933610       ,57
E6130GY/5,5,5055939933627       ,57
E6151BK/2,2,5055939950327       ,57
E6151BK/3,5,5055939950334       ,57
E6151BK/4,5,5055939950341       ,57
E6151BK/5,3,5055939950358       ,57
E6151GK/2,5,5055939950280       ,57
E6151GK/3,11,5055939950297       ,57
E6151GK/4,12,5055939950303       ,57
E6151GK/5,7,5055939950310       ,57
E6153BK/2,4,5055939953274       ,57
E6153BK/3,16,5055939953281       ,57
E6153BK/4,26,5055939953298       ,57
E6153BK/5,26,5055939953304       ,57
E6153BK/6,16,5055939953311       ,57
E6153BK/7,4,5055939953328       ,57
E7117BK/3,1,5055939917016       ,57
E7117BK/4,6,5055939917023       ,57
E7117BK/5,9,5055939917030       ,57
E7117BK/6,5,5055939917047       ,57
E7117BK/7,5,5055939917054       ,57
E7118BK/4,1,5055939914886       ,57
E7118BK/5,2,5055939914893       ,57
E7118BK/6,2,5055939914909       ,57
E7118BK/7,1,5055939914916       ,57
E8064BC/3,1,5055939936772       ,57
E8064BC/6,2,5055939936802       ,57
E8064BC/7,2,5055939936819       ,57
E8064BK/2,4,5055939915968       ,57
E8064BK/3,10,5055939915975       ,57
E8064BK/4,28,5055939915982       ,57
E8064BK/5,35,5055939915999       ,57
E8064BK/6,28,5055939916002       ,57
E8064BK/7,17,5055939916019       ,57
E8064BK/8,12,5055939916026       ,57
E8064BK/9,7,5055939916033       ,57
E8064GC/3,3,5055939950969       ,57
E8064GC/4,4,5055939950976       ,57
E8064GC/5,5,5055939950983       ,57
E8064GC/6,3,5055939950990       ,57
E8064GC/7,2,5055939951003       ,57
E8064GY/3,13,5055939916217       ,57
E8064GY/4,28,5055939916224       ,57
E8064GY/5,33,5055939916231       ,57
E8064GY/6,26,5055939916248       ,57
E8064GY/7,21,5055939916255       ,57
E8064GY/8,11,5055939916262       ,57
E8064GY/9,1,5055939916279       ,57
E8064KH/3,1,5055939916057       ,57
E8064KH/4,5,5055939916064       ,57
E8064KH/5,6,5055939916071       ,57
E8064KH/6,5,5055939916088       ,57
E8064KH/7,4,5055939916095       ,57
E8064NA/3,1,5055939950891       ,57
E8064NA/4,1,5055939950907       ,57
E8064NA/5,2,5055939950914       ,57
E8064NA/6,1,5055939950921       ,57
E8064NA/7,1,5055939950938       ,57
E8065BK/3,2,5055939919140       ,57
E8065BK/4,7,5055939919157       ,57
E8065BK/5,12,5055939919164       ,57
E8065BK/6,12,5055939919171       ,57
E8065BK/7,6,5055939919188       ,57
E8065GY/3,1,5055939916286       ,57
E8065GY/4,1,5055939916293       ,57
E8065GY/5,1,5055939916309       ,57
E8065GY/6,1,5055939916316       ,57
E8065GY/7,1,5055939916323       ,57
E8066BK/3,6,5055939916330       ,57
E8066BK/4,10,5055939916347       ,57
E8066BK/5,15,5055939916354       ,57
E8066BK/6,17,5055939916361       ,57
E8066BK/7,8,5055939916378       ,57
E8066CM/4,2,5055939919102       ,57
E8066CM/5,4,5055939919119       ,57
E8066CM/6,3,5055939919126       ,57
E8066CM/7,2,5055939919133       ,57
E8066KH/3,1,5055939916385       ,57
E8066KH/4,6,5055939916392       ,57
E8066KH/5,8,5055939916408       ,57
E8066KH/6,6,5055939916415       ,57
E8066KH/7,3,5055939916422       ,57
E8069BK/3,8,5055939916552       ,57
E8069BK/4,18,5055939916569       ,57
E8069BK/5,19,5055939916576       ,57
E8069BK/6,12,5055939916583       ,57
E8069BK/7,9,5055939916590       ,57
E8069NA/3,1,5055939919430       ,57
E8069NA/4,5,5055939919447       ,57
E8069NA/5,5,5055939919454       ,57
E8069NA/6,5,5055939919461       ,57
E8069NA/7,5,5055939919478       ,57
E8075BK/3,1,5055939924762       ,57
E8075BK/4,6,5055939924779       ,57
E8075BK/5,8,5055939924786       ,57
E8075BK/6,8,5055939924793       ,57
E8075BK/7,7,5055939924809       ,57
E8081KH/3,2,5055939935003       ,57
E8081KH/4,4,5055939935010       ,57
E8081KH/5,4,5055939935027       ,57
E8081KH/6,3,5055939935034       ,57
E8081KH/7,1,5055939935041       ,57
E8091BK/6,6,5055939948270       ,57
E8091BK/7,5,5055939948287       ,57
E8092GF/6,1,5055939948423       ,57
E8092GF/7,1,5055939948430       ,57
E8098BK/2,2,5055939953335       ,57
E8098BK/3,12,5055939953342       ,57
E8098BK/4,22,5055939953359       ,57
E8098BK/5,22,5055939953366       ,57
E8098BK/6,12,5055939953373       ,57
E9106BV/3,1,5055939941370       ,57
E9106BV/4,2,5055939941387       ,57
E9106BV/5,2,5055939941394       ,57
E9106BV/6,2,5055939941400       ,57
E9106BV/7,1,5055939941417       ,57
E9114BK/5,1,5055939941745       ,57
E9114BK/7,3,5055939941769       ,57
E9114BV/4,1,5055939941783       ,57
E9114BV/5,4,5055939941790       ,57
E9114BV/6,10,5055939941806       ,57
E9114BV/7,11,5055939941813       ,57
E9114GV/4,6,5055939941684       ,57
E9114GV/5,12,5055939941691       ,57
E9114GV/6,6,5055939941707       ,57
E9114GV/7,6,5055939941714       ,57
E9115CE/3,2,5055939941929       ,57
E9115CE/4,3,5055939941936       ,57
E9115CE/5,3,5055939941943       ,57
E9115CE/6,3,5055939945095       ,57
EU8045BK/3,1,5055205339061       ,57
EU8045BK/4,2,5055205339078       ,57
EU8045BK/5,1,5055205339085       ,57
EU8045BK/6,1,5055205339092       ,57
E3168BK/3,4,5055939954165       ,58
E3168BK/4,9,5055939954172       ,58
E3168BK/5,10,5055939954189       ,58
E3168BK/6,10,5055939954196       ,58
E3168BK/7,6,5055939954202       ,58
E3169BK/3,6,5055939954226       ,58
E3169BK/4,9,5055939954233       ,58
E3169BK/5,9,5055939954240       ,58
E3169BK/6,6,5055939954257       ,58
E3168BK/3,1,5055939954165       ,59
E3168BK/4,1,5055939954172       ,59
E3168BK/5,1,5055939954189       ,59
E3168BK/6,1,5055939954196       ,59
E3168BK/7,1,5055939954202       ,59
E3169BK/3,4,5055939954226       ,59
E3169BK/4,8,5055939954233       ,59
E3169BK/5,8,5055939954240       ,59
E3169BK/6,4,5055939954257       ,59
E0040CL,2,5055205301877       ,61
E0040OR,3,5055205301884       ,61
E0040SM,3,5055205301907       ,61
E0078CL,3,5055205338521       ,61
E0096BK/3,2,5055205352947       ,61
E0096BK/5,2,5055205352954       ,61
E1108BK/L-XL,2,5055205387987       ,61
E1108BK/S-M,2,5055205387970       ,61
E1109BK/L-XL,2,5055205388014       ,61
E1109BK/M-L,2,5055205388007       ,61
E1109BK/S-M,2,5055205387994       ,61
E1160BK/2,1,5055939928487       ,61
E1160BK/3,1,5055939928494       ,61
E1160BK/4,1,5055939928500       ,61
E1160BK/5,1,5055939928517       ,61
E1160BK/6,1,5055939928524       ,61
E1160BK/7,1,5055939928531       ,61
E1161BK/2,1,5055939928661       ,61
E1161BK/3,1,5055939928678       ,61
E1161BK/4,2,5055939928685       ,61
E1161BK/5,2,5055939928692       ,61
E1161BK/6,2,5055939928708       ,61
E1161BK/7,1,5055939928715       ,61
E1165BK/2,1,5055939936352       ,61
E1165BK/3,1,5055939928845       ,61
E1165BK/4,1,5055939928852       ,61
E1165BK/5,1,5055939928869       ,61
E1165BK/6,1,5055939928876       ,61
E1165BK/7,1,5055939928883       ,61
E1204BK/3,1,5055939950563       ,61
E1204BK/4,1,5055939950570       ,61
E1204BK/5,1,5055939950587       ,61
E1204BK/6,1,5055939950594       ,61
E1204BK/7,1,5055939950600       ,61
E1204GC/3,1,5055939950662       ,61
E1204GC/4,2,5055939950679       ,61
E1204GC/5,2,5055939950686       ,61
E1204GC/6,2,5055939950693       ,61
E1204GC/7,1,5055939950709       ,61
E1504BK/S-M,2,5055205389653       ,61
E1504GV/L-XL,2,5055205389707       ,61
E1504GV/M-L,2,5055205389691       ,61
E1504GV/S-M,2,5055205389684       ,61
E1511BK/L-XL,1,5055939930121       ,61
E1511BK/M-L,2,5055939930138       ,61
E1511BK/S-M,1,5055939930145       ,61
E1511KH/L-XL,1,5055939950402       ,61
E1511KH/M-L,2,5055939950396       ,61
E1511KH/S-M,1,5055939950389       ,61
E1511WH/L-XL,1,5055939930183       ,61
E1511WH/M-L,2,5055939930190       ,61
E1511WH/S-M,1,5055939930206       ,61
E3061W/3,2,5055205342467       ,61
E3061W/4,2,5055205342474       ,61
E3061W/5,2,5055205342481       ,61
E3061W/6,2,5055205342498       ,61
E3061W/7,2,5055205342504       ,61
E3063W/3,1,5055205343624       ,61
E3063W/4,1,5055205343631       ,61
E3063W/5,1,5055205343648       ,61
E3063W/6,1,5055205343655       ,61
E3063W/7,1,5055205343662       ,61
E3109OC/3,1,5055939909103       ,61
E3109OC/4,1,5055939909110       ,61
E3109OC/5,1,5055939909127       ,61
E3109OC/6,1,5055939909134       ,61
E3109OC/7,1,5055939909141       ,61
E3109RD/3,1,5055939909059       ,61
E3109RD/4,1,5055939909066       ,61
E3109RD/5,1,5055939909073       ,61
E3109RD/6,1,5055939909080       ,61
E3109RD/7,1,5055939909097       ,61
E3109YV/3,1,5055939909004       ,61
E3109YV/4,1,5055939909011       ,61
E3109YV/5,1,5055939909028       ,61
E3109YV/6,1,5055939909035       ,61
E3109YV/7,1,5055939909042       ,61
E3125KH/3,1,5055939919317       ,61
E3125KH/4,1,5055939919324       ,61
E3125KH/5,1,5055939919331       ,61
E3125KH/6,1,5055939919348       ,61
E3125KH/7,1,5055939919355       ,61
E3125KH/8,1,5055939919362       ,61
E3125RD/3,1,5055939919256       ,61
E3125RD/4,1,5055939919263       ,61
E3125RD/5,1,5055939919270       ,61
E3125RD/6,1,5055939919287       ,61
E3125RD/7,1,5055939919294       ,61
E3125RD/8,1,5055939919300       ,61
E3142NA/3,1,5055939952666       ,61
E3142NA/4,1,5055939952673       ,61
E3142NA/5,1,5055939952680       ,61
E3142NA/6,1,5055939952697       ,61
E3142NA/7,1,5055939952703       ,61
E3168BK/3,3,5055939954165       ,61
E3168BK/4,6,5055939954172       ,61
E3168BK/5,6,5055939954189       ,61
E3168BK/6,6,5055939954196       ,61
E3168BK/7,4,5055939954202       ,61
E3169BK/2,1,5055939954219       ,61
E3169BK/3,6,5055939954226       ,61
E3169BK/4,9,5055939954233       ,61
E3169BK/5,9,5055939954240       ,61
E3169BK/6,6,5055939954257       ,61
E3173BK/3,1,5055939949598       ,61
E3173BK/4,1,5055939949604       ,61
E3173BK/5,1,5055939949611       ,61
E3173BK/6,1,5055939949628       ,61
E3173BK/7,1,5055939949635       ,61
E3173GF/3,1,5055939949642       ,61
E3173GF/4,1,5055939949659       ,61
E3173GF/5,1,5055939949666       ,61
E3173GF/6,1,5055939949673       ,61
E3173GF/7,1,5055939949680       ,61
E4054BK/3,1,5055939953168       ,61
E4054BK/4,1,5055939953175       ,61
E4054BK/5,1,5055939953182       ,61
E4054BK/6,1,5055939953199       ,61
E4054BK/7,1,5055939953205       ,61
E4054BK/8,1,5055939955094       ,61
E4055BK/3,2,5055939953069       ,61
E4055BK/4,2,5055939953076       ,61
E4055BK/5,2,5055939953083       ,61
E4055BK/6,2,5055939953090       ,61
E4055BK/7,2,5055939953106       ,61
E6104CE/3,1,5055939915708       ,61
E6104CE/4,1,5055939915715       ,61
E6104CE/5,1,5055939915722       ,61
E6104CE/6,1,5055939920931       ,61
E6104CO/3,1,5055939918327       ,61
E6104CO/4,1,5055939918334       ,61
E6104CO/5,1,5055939918341       ,61
E6104CO/6,1,5055939920948       ,61
E6105CE/3,1,5055939918402       ,61
E6105CE/4,1,5055939918419       ,61
E6105CE/5,1,5055939918426       ,61
E6108BK/2,1,5055939919584       ,61
E6108BK/3,1,5055939919591       ,61
E6108BK/4,1,5055939919607       ,61
E6108BK/5,1,5055939919614       ,61
E6108BK/6,1,5055939919621       ,61
E6108TL/2,1,5055939915814       ,61
E6108TL/3,1,5055939915821       ,61
E6108TL/4,1,5055939915838       ,61
E6108TL/5,1,5055939915845       ,61
E6108TL/6,1,5055939915753       ,61
E6110BK/2,1,5055939914664       ,61
E6110BK/3,1,5055939914671       ,61
E6110BK/4,1,5055939914688       ,61
E6110BK/5,1,5055939914695       ,61
E6110BK/6,1,5055939922331       ,61
E6124BK/3,1,5055939933009       ,61
E6124BK/4,1,5055939933016       ,61
E6124BK/5,1,5055939933023       ,61
E6132BK/3,1,5055939933726       ,61
E6132BK/4,1,5055939933733       ,61
E6151BK/3,2,5055939950334       ,61
E6151BK/4,2,5055939950341       ,61
E6151BK/5,2,5055939950358       ,61
E6151GK/3,2,5055939950297       ,61
E6151GK/4,2,5055939950303       ,61
E6151GK/5,2,5055939950310       ,61
E6153BK/3,2,5055939953281       ,61
E6153BK/4,2,5055939953298       ,61
E6153BK/5,2,5055939953304       ,61
E6153BK/6,2,5055939953311       ,61
E6153BK/7,2,5055939953328       ,61
E7117BK/3,1,5055939917016       ,61
E7117BK/4,2,5055939917023       ,61
E7117BK/5,2,5055939917030       ,61
E7117BK/6,2,5055939917047       ,61
E7117BK/7,2,5055939917054       ,61
E7117NA/4,1,5055939955056       ,61
E7117NA/5,1,5055939955063       ,61
E7117NA/6,1,5055939955070       ,61
E7118BK/3,2,5055939914879       ,61
E7118BK/4,2,5055939914886       ,61
E7118BK/5,2,5055939914893       ,61
E7118BK/6,2,5055939914909       ,61
E7118BK/7,2,5055939914916       ,61
E8064GY/3,1,5055939916217       ,61
E8064GY/4,1,5055939916224       ,61
E8064GY/5,2,5055939916231       ,61
E8064GY/6,2,5055939916248       ,61
E8064GY/7,2,5055939916255       ,61
E8064GY/8,1,5055939916262       ,61
E8064KH/3,1,5055939916057       ,61
E8064KH/5,1,5055939916071       ,61
E8064KH/6,1,5055939916088       ,61
E8064KH/7,1,5055939916095       ,61
E8065GY/4,1,5055939916293       ,61
E8070BK/3,2,5055939916712       ,61
E8070BK/4,2,5055939916729       ,61
E8070BK/5,2,5055939916736       ,61
E8070BK/6,2,5055939916743       ,61
E8070BK/7,2,5055939916750       ,61
E8070GF/3,1,5055939948447       ,61
E8070GF/4,1,5055939948454       ,61
E8070GF/5,1,5055939948461       ,61
E8070GF/6,1,5055939948478       ,61
E8070GF/7,1,5055939948485       ,61
E8075BK/3,1,5055939924762       ,61
E8075BK/6,1,5055939924793       ,61
E8075BK/7,1,5055939924809       ,61
E8098BK/3,1,5055939953342       ,61
E8098BK/4,1,5055939953359       ,61
E8098BK/5,1,5055939953366       ,61
E8098BK/6,1,5055939953373       ,61
E9106BK/3,1,5055939935256       ,61
E9106BK/4,1,5055939935263       ,61
E9106BK/5,1,5055939935270       ,61
E9106BK/6,1,5055939935287       ,61
E9106BK/7,1,5055939935294       ,61
E9134BK/3,1,5055939943404       ,61
E9134BK/4,1,5055939943411       ,61
E9134BK/5,1,5055939943428       ,61
E9134BK/6,1,5055939943435       ,61
E9134BK/7,1,5055939943442       ,61
E9134YV/3,1,5055939943350       ,61
E9134YV/4,1,5055939943367       ,61
E9134YV/5,1,5055939943374       ,61
E9134YV/6,1,5055939943381       ,61
E9134YV/7,1,5055939943398       ,61
E1112BK/L-XL,1,5055205384689       ,63
E6106PU/2,2,5055939919539       ,63
E8064GC/3,2,5055939950969       ,63
E8064GC/4,7,5055939950976       ,63
E8064GC/5,9,5055939950983       ,63
E8064GC/6,10,5055939950990       ,63
E8064GC/7,6,5055939951003       ,63
E8064NA/4,2,5055939950907       ,63
E8064NA/5,2,5055939950914       ,63
E8064NA/6,2,5055939950921       ,63
E8064NA/7,2,5055939950938       ,63
E8073BK/4,1,5055939924670       ,63
E8094AN/3,7,5055939949390       ,63
E8094AN/4,18,5055939949406       ,63
E8094AN/5,18,5055939949413       ,63
E8094AN/6,11,5055939949420       ,63
E8094AN/7,2,5055939949437       ,63
E9124NA/5,1,5055939944111       ,63
E1183BK/4,2,5055939944234       ,65
E1183BK/5,2,5055939944241       ,65
E1183BK/6,2,5055939944258       ,65
E1183BK/7,2,5055939944265       ,65
E3109OC/4,1,5055939909110       ,65
E3109RD/3,1,5055939909059       ,65
E3109RD/4,1,5055939909066       ,65
E3168BK/3,3,5055939954165       ,65
E3168BK/4,3,5055939954172       ,65
E3168BK/5,3,5055939954189       ,65
E3168BK/6,3,5055939954196       ,65
E3168BK/7,3,5055939954202       ,65
E3169BK/2,2,5055939954219       ,65
E3169BK/3,2,5055939954226       ,65
E3169BK/4,3,5055939954233       ,65
E3169BK/5,3,5055939954240       ,65
E3169BK/6,2,5055939954257       ,65
E3174NA/4,1,5055939952925       ,65
E3174NA/6,1,5055939952949       ,65
E3174NA/7,1,5055939952956       ,65
E5067BK/3,1,5055939950716       ,65
E5067BK/4,2,5055939950723       ,65
E5067BK/5,2,5055939950730       ,65
E5067BK/6,1,5055939950747       ,65
E5067BK/7,1,5055939950754       ,65
E5067NA/3,1,5055939950761       ,65
E5067NA/4,2,5055939950778       ,65
E5067NA/5,2,5055939950785       ,65
E5067NA/6,1,5055939950792       ,65
E5067NA/7,1,5055939950808       ,65
E6132BK/5,1,5055939933740       ,65
E6132BK/6,1,5055939936314       ,65
E6152CO/2,1,5055939951027       ,65
E6152CO/3,1,5055939951034       ,65
E6152CO/4,1,5055939951041       ,65
E6152CO/5,1,5055939951058       ,65
E6152CO/6,1,5055939951065       ,65
E6152RD/2,1,5055939951072       ,65
E6152RD/3,1,5055939951089       ,65
E6152RD/4,1,5055939951096       ,65
E6152RD/5,1,5055939951102       ,65
E8064KH/4,1,5055939916064       ,65
E8067NA/3,1,5055939949291       ,65
E8067NA/4,1,5055939949307       ,65
E8067NA/5,1,5055939949314       ,65
E8067NA/6,1,5055939949321       ,65
E8067NA/7,1,5055939949338       ,65
E8075BK/4,1,5055939924779       ,65
E8075BK/5,1,5055939924786       ,65
E8094AN/3,2,5055939949390       ,65
E8094AN/4,2,5055939949406       ,65
E8094AN/5,2,5055939949413       ,65
E8094AN/6,2,5055939949420       ,65
E8094AN/7,2,5055939949437       ,65
E3174NA/3,1,5055939952918       ,68
E3174NA/5,1,5055939952932       ,68
E5067BK/3,2,5055939950716       ,68
E5067BK/4,3,5055939950723       ,68
E5067BK/5,3,5055939950730       ,68
E5067BK/6,2,5055939950747       ,68
E5067BK/7,2,5055939950754       ,68
E5067NA/3,2,5055939950761       ,68
E5067NA/4,3,5055939950778       ,68
E5067NA/5,3,5055939950785       ,68
E5067NA/6,3,5055939950792       ,68
E5067NA/7,2,5055939950808       ,68
E6152CO/2,1,5055939951027       ,68
E6152CO/3,1,5055939951034       ,68
E6152CO/4,2,5055939951041       ,68
E6152CO/5,1,5055939951058       ,68
E6152RD/2,2,5055939951072       ,68
E6152RD/3,3,5055939951089       ,68
E6152RD/4,3,5055939951096       ,68
E6152RD/5,2,5055939951102       ,68
E6154RD/3,1,5055939953021       ,68
E6154RD/4,1,5055939953038       ,68
E6154WH/3,1,5055939952970       ,68
E6154WH/4,1,5055939952987       ,68
E6154WH/5,1,5055939952994       ,68
E9138GC/4,2,5055939949055       ,68
E9138GC/5,2,5055939949062       ,68
E9138GC/6,1,5055939949079       ,68
E9138GC/7,1,5055939949086       ,68
E5067BK/3,4,5055939950716       ,69
E5067BK/4,14,5055939950723       ,69
E5067BK/5,8,5055939950730       ,69
E5067BK/6,4,5055939950747       ,69
E5067BK/7,4,5055939950754       ,69
E5067NA/3,2,5055939950761       ,69
E5067NA/4,4,5055939950778       ,69
E5067NA/5,4,5055939950785       ,69
E5067NA/6,2,5055939950792       ,69
E5067NA/7,2,5055939950808       ,69
E6106PU/2,2,5055939919539       ,69
E6152CO/2,1,5055939951027       ,69
E6152CO/3,2,5055939951034       ,69
E6152CO/4,2,5055939951041       ,69
E6152CO/5,2,5055939951058       ,69
E6152RD/2,1,5055939951072       ,69
E6152RD/3,2,5055939951089       ,69
E6152RD/4,2,5055939951096       ,69
E6152RD/5,1,5055939951102       ,69
E9138GC/4,1,5055939949055       ,69
E9138GC/5,2,5055939949062       ,69
E9138GC/6,1,5055939949079       ,69
E9138GC/7,1,5055939949086       ,69
E6106PU/2,1,5055939919539       ,71
E8064BC/3,1,5055939936772       ,71
E8064BC/4,1,5055939936789       ,71
E8064BC/5,2,5055939936796       ,71
E8091BK/3,1,5055939948249       ,71
E8091BK/4,3,5055939948256       ,71
E8091BK/5,4,5055939948263       ,71
E8091BK/6,2,5055939948270       ,71
E8091BK/7,2,5055939948287       ,71
E8092BK/3,1,5055939948348       ,71
E8092BK/4,1,5055939948355       ,71
E8092BK/5,1,5055939948362       ,71
E8092BK/6,1,5055939948379       ,71
E8092BK/7,1,5055939948386       ,71
E8092GF/3,2,5055939948393       ,71
E8092GF/4,5,5055939948409       ,71
E8092GF/5,4,5055939948416       ,71
E8092GF/6,4,5055939948423       ,71
E8064BC/4,2,5055939936789       ,72
E8064BC/5,2,5055939936796       ,72
E8091BK/4,3,5055939948256       ,72
E8091BK/5,4,5055939948263       ,72
E8092GF/4,1,5055939948409       ,72
E8092GF/5,1,5055939948416       ,72
E0062/2,2,5055205360416       ,76
E3133GY/6,2,5055939924304       ,76
E3133GY/7,2,5055939924311       ,76
E8066CM/3,1,5055939919096       ,76
E8066CM/4,2,5055939919102       ,76
E8066CM/5,2,5055939919119       ,76
E8066CM/6,2,5055939919126       ,76
E8066CM/7,1,5055939919133       ,76
E8074BK/4,4,5055939924724       ,76
E8074BK/5,5,5055939924731       ,76
E8074BK/6,1,5055939924748       ,76
E9106WH/3,1,5055939935355       ,76
E9106WH/4,1,5055939935362       ,76
E9106WH/5,1,5055939935379       ,76
E9106WH/6,1,5055939935386       ,76
E9106WH/7,1,5055939935393       ,76
E9126YV/3,1,5055939943916       ,76
E6152RD/6,1,5055939951119       ,77
E7135BK/3,1,5055939953113       ,77
E7135BK/4,1,5055939953120       ,77
E7135BK/5,1,5055939953137       ,77
E7135BK/6,1,5055939953144       ,77
E7135BK/7,1,5055939953151       ,77
E6106CO/6,1,5055939951171       ,84
E8064BK/5,1,5055939915999       ,84
E8064BK/6,1,5055939916002       ,84
E8064GY/3,2,5055939916217       ,84
E8064GY/4,2,5055939916224       ,84
E8064GY/5,2,5055939916231       ,84
E8064GY/6,1,5055939916248       ,84
E8064KH/4,2,5055939916064       ,84
E8064KH/5,2,5055939916071       ,84
E8064KH/6,1,5055939916088       ,84
E8074BK/5,2,5055939924731       ,84
E8074BK/6,2,5055939924748       ,84
E8074BK/7,1,5055939924755       ,84
E8085AN/5,1,5055939956206       ,84
E9117BK/5,1,5055939942186       ,84
E1109BK/M-L,1,5055205388007       ,85
E1112BK/L-XL,2,5055205384689       ,85
E1112BK/S-M,2,5055205384672       ,85
E1118BK/5,2,5055205389981       ,85
E1118BK/6,2,5055205389998       ,85
E1118BK/7,2,5055205390000       ,85
E1119BK/5,1,5055205390550       ,85
E1120BK/4,1,5055205390222       ,85
E1120BK/5,1,5055205390239       ,85
E1120BK/6,2,5055205390246       ,85
E1301BK/4,2,5055205363530       ,85
E3125BK/6,1,5055939915418       ,85
E3125BK/7,1,5055939915425       ,85
E3125KH/6,1,5055939919348       ,85
E6066BK/4,2,5055205363745       ,85
E6106BK/2,1,5055939919485       ,85
E6106BK/5,2,5055939919515       ,85
E6106CO/2,1,5055939951133       ,85
E6106CO/4,2,5055939951157       ,85
E6106CO/6,2,5055939951171       ,85
E6106PU/6,2,5055939919577       ,85
E6108BK/5,2,5055939919614       ,85
E6110BK/3,1,5055939914671       ,85
E6110BK/5,1,5055939914695       ,85
E6130GK/5,1,5055939950198       ,85
E8064GY/8,2,5055939916262       ,85
E8064GY/9,2,5055939916279       ,85
E8066BK/4,1,5055939916347       ,85
E8066BK/5,2,5055939916354       ,85
E8066BK/7,1,5055939916378       ,85
E8073BK/4,1,5055939924670       ,85
E8073BK/5,2,5055939924687       ,85
E8075BK/4,2,5055939924779       ,85
E8066KH/4,1,5055939916392       ,91
E8066KH/5,1,5055939916408       ,91
E8066KH/6,1,5055939916415       ,91
E9114BK/5,1,5055939941745       ,91
E9114BK/6,1,5055939941752       ,91
E9124NA/7,1,5055939944135       ,93
E8073BK/5,1,5055939924687       ,94
E0062/4,2,5055205323770       ,95
E8065BK/4,2,5055939919157       ,95
E8066BK/6,2,5055939916361       ,95
E3125KH/7,1,5055939919355       ,100
E3125KH/8,1,5055939919362       ,100
E8097GY/3,6,5055939950419       ,100
E8097GY/4,12,5055939950426       ,100
E8097GY/5,12,5055939950433       ,100
E8097GY/6,9,5055939950440       ,100
E8097GY/7,7,5055939950457       ,100
E8097NA/4,3,5055939950471       ,100
E8097NA/5,3,5055939950488       ,100
E8097NA/6,3,5055939950495       ,100
E6154RD/5,1,5055939953045       ,101
E6154RD/6,1,5055939953052       ,101
E8097GY/3,6,5055939950419       ,101
E8097GY/4,11,5055939950426       ,101
E8097GY/5,11,5055939950433       ,101
E8097GY/6,6,5055939950440       ,101
E8097GY/7,5,5055939950457       ,101
E8097NA/4,1,5055939950471       ,101
E8097NA/5,1,5055939950488       ,101
E8097NA/6,1,5055939950495       ,101
E1108BK/L-XL,1,5055205387987       ,102
E1108BK/S-M,1,5055205387970       ,102
E1112BK/L-XL,1,5055205384689       ,102
E1160BK/3,2,5055939928494       ,102
E1160BK/4,2,5055939928500       ,102
E1160BK/5,2,5055939928517       ,102
E1160BK/6,2,5055939928524       ,102
E1160BK/7,2,5055939928531       ,102
E3143AN/3,1,5055939936093       ,102
E3143AN/6,1,5055939936123       ,102
E3143AN/7,2,5055939936130       ,102
E6106BK/6,1,5055939919522       ,102
E6130GK/2,1,5055939950167       ,102
E6130GK/3,1,5055939950174       ,102
E8065BK/6,1,5055939919171       ,102
E8065BK/7,2,5055939919188       ,102
E8066BK/7,2,5055939916378       ,102
E8066KH/6,2,5055939916415       ,102
E8073BK/5,2,5055939924687       ,102
E8075BK/4,2,5055939924779       ,102
E8075BK/5,2,5055939924786       ,102
E8075BK/6,2,5055939924793       ,102
E8075BK/7,2,5055939924809       ,102
E1108BK/L-XL,1,5055205387987       ,107
E1108BK/S-M,2,5055205387970       ,107
E1109BK/L-XL,1,5055205388014       ,107
E1109BK/M-L,1,5055205388007       ,107
E1112BK/S-M,1,5055205384672       ,107
E8066KH/7,1,5055939916422       ,107
E0063/5,1,5055205323848       ,108
E1183BK/5,2,5055939944241       ,108
E1183BK/7,2,5055939944265       ,108
E1204BK/3,4,5055939950563       ,108
E1204BK/4,4,5055939950570       ,108
E1204BK/5,5,5055939950587       ,108
E1204BK/6,4,5055939950594       ,108
E1204BK/7,4,5055939950600       ,108
E1204GC/3,2,5055939950662       ,108
E1204GC/4,3,5055939950679       ,108
E1204GC/5,2,5055939950686       ,108
E1204GC/6,2,5055939950693       ,108
E1204GC/7,2,5055939950709       ,108
E3142NA/4,1,5055939952673       ,108
E3168BK/4,2,5055939954172       ,108
E3168BK/5,2,5055939954189       ,108
E3168BK/6,1,5055939954196       ,108
E3169BK/4,2,5055939954233       ,108
E4054BK/4,1,5055939953175       ,108
E4054BK/5,2,5055939953182       ,108
E6108BK/4,2,5055939919607       ,108
E6108BK/5,1,5055939919614       ,108
E6108TL/4,1,5055939915838       ,108
E6110BK/3,1,5055939914671       ,108
E6110BK/4,1,5055939914688       ,108
E6110BK/5,2,5055939914695       ,108
E6110BK/6,1,5055939922331       ,108
E6151BK/2,1,5055939950327       ,108
E6151BK/4,1,5055939950341       ,108
E6151GK/4,1,5055939950303       ,108
E6151GK/5,1,5055939950310       ,108
E7117BK/5,2,5055939917030       ,108
E7118BK/3,3,5055939914879       ,108
E7118BK/4,3,5055939914886       ,108
E7118BK/5,3,5055939914893       ,108
E7118BK/6,3,5055939914909       ,108
E7118BK/7,3,5055939914916       ,108
E7135BK/3,2,5055939953113       ,108
E7135BK/4,2,5055939953120       ,108
E7135BK/5,2,5055939953137       ,108
E7135BK/6,2,5055939953144       ,108
E7135BK/7,2,5055939953151       ,108
E8064BK/3,4,5055939915975       ,108
E8064BK/4,4,5055939915982       ,108
E8064BK/5,4,5055939915999       ,108
E8064BK/6,4,5055939916002       ,108
E8064GC/5,1,5055939950983       ,108
E8064GY/3,3,5055939916217       ,108
E8064GY/4,3,5055939916224       ,108
E8064GY/5,3,5055939916231       ,108
E8064GY/6,3,5055939916248       ,108
E8064GY/7,3,5055939916255       ,108
E8064GY/8,3,5055939916262       ,108
E8064GY/9,3,5055939916279       ,108
E8064KH/3,2,5055939916057       ,108
E8064KH/4,2,5055939916064       ,108
E8064KH/5,2,5055939916071       ,108
E8064KH/6,2,5055939916088       ,108
E8064KH/7,2,5055939916095       ,108
E8066CM/4,2,5055939919102       ,108
E6108BK/6,1,5055939919621       ,109
E9114BV/4,3,5055939941783       ,109
E9114BV/5,4,5055939941790       ,109
E9115CE/3,1,5055939941929       ,109
E9115CE/4,1,5055939941936       ,109
E3168BK/3,2,5055939954165       ,112
E3168BK/4,2,5055939954172       ,112
E3168BK/5,2,5055939954189       ,112
E3168BK/6,2,5055939954196       ,112
E3168BK/7,2,5055939954202       ,112
E3169BK/3,2,5055939954226       ,112
E3169BK/4,2,5055939954233       ,112
E3169BK/5,2,5055939954240       ,112
E3169BK/6,2,5055939954257       ,112
E6110BK/3,2,5055939914671       ,112
E6110BK/4,2,5055939914688       ,112
E6110BK/5,2,5055939914695       ,112
E6154RD/3,2,5055939953021       ,112
E6154RD/4,2,5055939953038       ,112
E6154RD/6,2,5055939953052       ,112
E8098BK/2,1,5055939953335       ,112
E8098BK/3,2,5055939953342       ,112
E8098BK/4,2,5055939953359       ,112
E8098BK/5,2,5055939953366       ,112
E8098BK/6,2,5055939953373       ,112
E9134BK/3,2,5055939943404       ,112
E9134BK/4,2,5055939943411       ,112
E9134BK/5,2,5055939943428       ,112
E9134BK/6,2,5055939943435       ,112
E9134YV/3,2,5055939943350       ,112
E9134YV/4,2,5055939943367       ,112
E9134YV/5,2,5055939943374       ,112
E9134YV/6,2,5055939943381       ,112
E1108BK/S-M,1,5055205387970       ,113
E1511BK/L-XL,2,5055939930121       ,113
E1511BK/M-L,2,5055939930138       ,113
E1511BK/S-M,2,5055939930145       ,113
E1511KH/L-XL,2,5055939950402       ,113
E1511KH/M-L,2,5055939950396       ,113
E1511KH/S-M,2,5055939950389       ,113
E1511WH/L-XL,1,5055939930183       ,113
E1511WH/M-L,1,5055939930190       ,113
E1511WH/S-M,1,5055939930206       ,113
E3168BK/4,2,5055939954172       ,113
E3168BK/5,2,5055939954189       ,113
E3169BK/4,1,5055939954233       ,113
E3173BK/3,1,5055939949598       ,113
E8075BK/6,1,5055939924793       ,113
E9105BK/5,1,5055939925813       ,113
E9114BK/4,1,5055939941738       ,113
E9114BK/5,1,5055939941745       ,113
E9114BK/6,1,5055939941752       ,113
E0062/5,2,5055205323787       ,115
E0062/6,2,5055205323794       ,115
E1301BK/3,1,5055205363523       ,115
E1301BK/4,1,5055205363530       ,115
E1301BK/5,1,5055205363547       ,115
E1301BK/6,1,5055205363554       ,115
E3125BK/6,1,5055939915418       ,115
E3125BK/7,1,5055939915425       ,115
E6108BK/5,1,5055939919614       ,115
E6108BK/6,2,5055939919621       ,115
E8064BK/8,2,5055939916026       ,115
E8064GC/4,2,5055939950976       ,115
E8064GC/5,2,5055939950983       ,115
E8064GC/7,2,5055939951003       ,115
E8064GY/4,3,5055939916224       ,115
E8066BK/5,1,5055939916354       ,115
E8073BK/4,1,5055939924670       ,115
E8073BK/6,2,5055939924694       ,115
E8075BK/6,2,5055939924793       ,115
E8075BK/7,2,5055939924809       ,115
E8081BK/3,1,5055939934952       ,115
E8094AN/4,1,5055939949406       ,115
E9115CE/3,1,5055939941929       ,115
E9115CE/4,1,5055939941936       ,115
E9115CE/5,1,5055939941943       ,115
E9120YV/7,2,5055939943299       ,115
E9126YV/5,1,5055939943930       ,115
E9104CO/3,1,5055939925769       ,116
E9124NA/6,1,5055939944128       ,119
E1119BK/5,1,5055205390550       ,120
E1119BK/6,1,5055205390567       ,120
E1204BK/3,2,5055939950563       ,120
E1204BK/7,1,5055939950600       ,120
E1204GC/3,1,5055939950662       ,120
E1204GC/4,1,5055939950679       ,120
E1204GC/5,1,5055939950686       ,120
E3109YV/4,1,5055939909011       ,120
E3109YV/6,2,5055939909035       ,120
E3109YV/7,1,5055939909042       ,120
E3168BK/3,1,5055939954165       ,120
E3168BK/5,3,5055939954189       ,120
E3169BK/3,2,5055939954226       ,120
E3169BK/5,2,5055939954240       ,120
E6106BK/5,1,5055939919515       ,120
E7120BK/5,1,5055939915517       ,120
E8064GC/4,2,5055939950976       ,120
E8064GC/5,4,5055939950983       ,120
E8064GC/6,3,5055939950990       ,120
E8064GY/4,3,5055939916224       ,120
E8064GY/5,2,5055939916231       ,120
E8064GY/7,1,5055939916255       ,120
E8064KH/5,1,5055939916071       ,120
E8073BK/4,1,5055939924670       ,120
E8073BK/5,1,5055939924687       ,120
E8073BK/7,1,5055939924700       ,120
E8094AN/3,1,5055939949390       ,120
E8094AN/4,1,5055939949406       ,120
E8098BK/3,1,5055939953342       ,120
E8098BK/4,2,5055939953359       ,120
E8098BK/5,2,5055939953366       ,120
E9095BK/4,1,5055939918068       ,120
E9095BK/5,1,5055939918075       ,120
E9095BK/6,1,5055939918082       ,120
E9095BK/7,1,5055939918099       ,120
E9095YV/4,1,5055939918129       ,120
E9095YV/5,1,5055939918136       ,120
E9095YV/6,1,5055939918143       ,120
E9095YV/7,1,5055939918150       ,120
E9114GV/5,1,5055939941691       ,120
E9114GV/6,1,5055939941707       ,120
E9120YV/4,2,5055939943268       ,120
E9120YV/5,2,5055939943275       ,120
E9120YV/7,2,5055939943299       ,120
E0128BK/5,1,5055939904948       ,121
E9114BV/5,1,5055939941790       ,121
E3125BK/5,1,5055939915401       ,122
E4027BK/3,1,5055205398259       ,122
E4027BK/4,1,5055205398266       ,122
E4054BK/3,1,5055939953168       ,122
E4054BK/6,1,5055939953199       ,122
E6124BK/2,1,5055939932996       ,122
E6124BK/3,1,5055939933009       ,122
E6124BK/4,1,5055939933016       ,122
E6124BK/5,1,5055939933023       ,122
E7117BK/3,1,5055939917016       ,122
E7117BK/4,1,5055939917023       ,122
E7117BK/5,1,5055939917030       ,122
E7117BK/6,1,5055939917047       ,122
E9114BV/4,1,5055939941783       ,129
E9114BV/5,2,5055939941790       ,129
E0040CL,1,5055205301877       ,134
E2010BK/2,2,5055205358062       ,134
E2010BK/3,3,5055205358079       ,134
E2010BK/4,3,5055205358086       ,134
E2010BK/5,3,5055205358093       ,134
E2010BK/6,3,5055205358109       ,134
E0062/4,3,5055205323770       ,135
E1108BK/L-XL,1,5055205387987       ,135
E1108BK/S-M,2,5055205387970       ,135
E1112BK/L-XL,2,5055205384689       ,135
E1112BK/S-M,2,5055205384672       ,135
E1119BK/7,1,5055205390574       ,135
E1160BK/2,2,5055939928487       ,135
E1160BK/3,5,5055939928494       ,135
E1160BK/4,5,5055939928500       ,135
E1160BK/5,5,5055939928517       ,135
E1160BK/6,5,5055939928524       ,135
E1160BK/7,5,5055939928531       ,135
E1161BK/3,5,5055939928678       ,135
E1161BK/4,5,5055939928685       ,135
E1161BK/5,5,5055939928692       ,135
E1161BK/6,5,5055939928708       ,135
E1161BK/7,5,5055939928715       ,135
E1165BK/2,2,5055939936352       ,135
E1165BK/3,5,5055939928845       ,135
E1165BK/4,5,5055939928852       ,135
E1165BK/5,5,5055939928869       ,135
E1165BK/6,5,5055939928876       ,135
E1165BK/7,5,5055939928883       ,135
E3125BK/4,1,5055939915395       ,135
E3142NA/4,2,5055939952673       ,135
E3142NA/5,2,5055939952680       ,135
E3142NA/6,2,5055939952697       ,135
E3142NA/7,2,5055939952703       ,135
E3173GF/4,1,5055939949659       ,135
E3173GF/5,1,5055939949666       ,135
E3173GF/6,1,5055939949673       ,135
E3173GF/7,1,5055939949680       ,135
E3174NA/2,2,5055939952901       ,135
E3174NA/3,2,5055939952918       ,135
E3174NA/4,3,5055939952925       ,135
E3174NA/5,3,5055939952932       ,135
E3174NA/6,3,5055939952949       ,135
E3174NA/7,2,5055939952956       ,135
E4054BK/3,1,5055939953168       ,135
E4054BK/4,2,5055939953175       ,135
E4054BK/7,1,5055939953205       ,135
E4055BK/3,1,5055939953069       ,135
E4055BK/5,1,5055939953083       ,135
E4055BK/6,1,5055939953090       ,135
E4055BK/7,1,5055939953106       ,135
E5067BK/4,1,5055939950723       ,135
E5067BK/7,1,5055939950754       ,135
E5067NA/3,1,5055939950761       ,135
E5067NA/4,2,5055939950778       ,135
E5067NA/5,3,5055939950785       ,135
E5067NA/6,3,5055939950792       ,135
E5067NA/7,2,5055939950808       ,135
E6104CE/2,2,5055939915692       ,135
E6104CE/3,2,5055939915708       ,135
E6104CE/4,2,5055939915715       ,135
E6104CE/5,2,5055939915722       ,135
E6104CE/6,2,5055939920931       ,135
E6104CO/2,1,5055939918310       ,135
E6104CO/3,1,5055939918327       ,135
E6104CO/4,1,5055939918334       ,135
E6104CO/5,1,5055939918341       ,135
E6104CO/6,1,5055939920948       ,135
E6105CE/2,2,5055939918396       ,135
E6105CE/3,2,5055939918402       ,135
E6105CE/4,2,5055939918419       ,135
E6105CE/5,2,5055939918426       ,135
E6106BK/2,1,5055939919485       ,135
E6106BK/3,1,5055939919492       ,135
E6106BK/4,1,5055939919508       ,135
E8064BK/4,2,5055939915982       ,135
E8064GC/5,1,5055939950983       ,135
E8064GY/6,2,5055939916248       ,135
E8065BK/4,3,5055939919157       ,135
E8065BK/5,3,5055939919164       ,135
E8065BK/7,1,5055939919188       ,135
E8066BK/4,2,5055939916347       ,135
E8066BK/5,1,5055939916354       ,135
E8066BK/6,2,5055939916361       ,135
E8070BK/5,2,5055939916736       ,135
E8070BK/7,1,5055939916750       ,135
E8073BK/3,1,5055939924663       ,135
E8073BK/5,2,5055939924687       ,135
E8073BK/6,1,5055939924694       ,135
E8098BK/3,1,5055939953342       ,135
E8098BK/4,1,5055939953359       ,135
E9117BK/5,1,5055939942186       ,135
E9117BK/6,1,5055939942193       ,135
E9120YV/3,1,5055939943251       ,135
E9120YV/4,2,5055939943268       ,135
E3173BK/7,1,5055939949635       ,137
E1109BK/L-XL,1,5055205388014       ,140
E1109BK/M-L,1,5055205388007       ,140
E1112BK/L-XL,1,5055205384689       ,140
E1112BK/S-M,1,5055205384672       ,140
E1204GC/5,1,5055939950686       ,140
E1204GC/7,1,5055939950709       ,140
E3168BK/4,3,5055939954172       ,140
E3168BK/5,4,5055939954189       ,140
E3168BK/6,3,5055939954196       ,140
E3168BK/7,3,5055939954202       ,140
E3169BK/4,3,5055939954233       ,140
E3169BK/6,2,5055939954257       ,140
E4027BK/6,2,5055205398280       ,140
E4027BK/7,2,5055205398297       ,140
E6106BK/3,1,5055939919492       ,140
E6106BK/4,1,5055939919508       ,140
E6106BK/5,1,5055939919515       ,140
E6108TL/4,1,5055939915838       ,140
E6153BK/3,1,5055939953281       ,140
E6153BK/4,2,5055939953298       ,140
E6153BK/5,2,5055939953304       ,140
E8064BK/4,1,5055939915982       ,140
E8064BK/5,1,5055939915999       ,140
E8064BK/8,1,5055939916026       ,140
E8064KH/7,1,5055939916095       ,140
E8065BK/4,1,5055939919157       ,140
E8065BK/5,1,5055939919164       ,140
E8065BK/7,1,5055939919188       ,140
E8066BK/4,1,5055939916347       ,140
E8066BK/6,1,5055939916361       ,140
E8066BK/7,1,5055939916378       ,140
E8098BK/4,1,5055939953359       ,140
E8098BK/5,1,5055939953366       ,140
E8098BK/6,2,5055939953373       ,140
E9120YV/5,1,5055939943275       ,140
E9120YV/6,1,5055939943282       ,140
E9120YV/7,1,5055939943299       ,140
E8074BK/3,1,5055939924717       ,142
E0063/3,1,5055205323824       ,148
E0063/5,1,5055205323848       ,148
E3125KH/4,1,5055939919324       ,148
E3168BK/3,2,5055939954165       ,148
E3168BK/5,1,5055939954189       ,148
E3168BK/6,3,5055939954196       ,148
E3168BK/7,1,5055939954202       ,148
E3169BK/2,1,5055939954219       ,148
E3169BK/3,1,5055939954226       ,148
E3169BK/4,3,5055939954233       ,148
E3169BK/5,2,5055939954240       ,148
E3169BK/6,2,5055939954257       ,148
E3173GF/4,1,5055939949659       ,148
E3173GF/7,1,5055939949680       ,148
E4054BK/5,1,5055939953182       ,148
E6106BK/5,1,5055939919515       ,148
E6108BK/2,1,5055939919584       ,148
E6130GK/2,1,5055939950167       ,148
E6151BK/4,2,5055939950341       ,148
E8064GC/6,2,5055939950990       ,148
E8064GC/7,1,5055939951003       ,148
E8064GY/5,1,5055939916231       ,148
E8069BK/6,1,5055939916583       ,148
E8069NA/4,1,5055939919447       ,148
E8069NA/5,1,5055939919454       ,148
E8069NA/6,1,5055939919461       ,148
E8092BK/4,1,5055939948355       ,148
E8092BK/5,1,5055939948362       ,148
E9114BV/4,2,5055939941783       ,148
E9114GV/4,1,5055939941684       ,148
E9114GV/5,2,5055939941691       ,148
E9114GV/6,2,5055939941707       ,148
E9114GV/7,1,5055939941714       ,148
E9115CO/3,1,5055939941882       ,148
E0063/4,1,5055205323831       ,149
E0063/5,2,5055205323848       ,149
E0098YV/L-XL,10,5055205363349       ,149
E1118BK/6,1,5055205389998       ,149
E1118BK/7,1,5055205390000       ,149
E1183BK/4,2,5055939944234       ,149
E1183BK/5,2,5055939944241       ,149
E1301BK/5,2,5055205363547       ,149
E3125BK/7,1,5055939915425       ,149
E3125KH/6,1,5055939919348       ,149
E3133GF/3,1,5055939957128       ,149
E3133GF/4,1,5055939957135       ,149
E3133GF/5,1,5055939957142       ,149
E3133GF/6,1,5055939957159       ,149
E3133GF/7,1,5055939957166       ,149
E3133GY/4,1,5055939924281       ,149
E3133GY/5,1,5055939924298       ,149
E3133GY/6,1,5055939924304       ,149
E3133GY/7,1,5055939924311       ,149
E3143AN/3,1,5055939936093       ,149
E3143AN/6,1,5055939936123       ,149
E3143AN/7,1,5055939936130       ,149
E3158BK/4,1,5055939942421       ,149
E3158BK/5,1,5055939942438       ,149
E3158BK/6,1,5055939942445       ,149
E3169BK/3,1,5055939954226       ,149
E3169BK/4,1,5055939954233       ,149
E3173GF/7,1,5055939949680       ,149
E5067BK/6,1,5055939950747       ,149
E6106BK/4,1,5055939919508       ,149
E6108BK/5,1,5055939919614       ,149
E7117BK/4,2,5055939917023       ,149
E8064BK/3,1,5055939915975       ,149
E8064BK/4,2,5055939915982       ,149
E8064BK/5,2,5055939915999       ,149
E8064BK/6,1,5055939916002       ,149
E8064BK/7,1,5055939916019       ,149
E8064BK/8,1,5055939916026       ,149
E8064BK/9,1,5055939916033       ,149
E8064GY/2,1,5055939916200       ,149
E8064GY/3,2,5055939916217       ,149
E8064GY/4,4,5055939916224       ,149
E8064GY/5,2,5055939916231       ,149
E8064GY/6,3,5055939916248       ,149
E8064GY/7,1,5055939916255       ,149
E8066BK/4,1,5055939916347       ,149
E8066BK/5,2,5055939916354       ,149
E8066BK/6,1,5055939916361       ,149
E8069BK/7,1,5055939916590       ,149
E8069NA/5,1,5055939919454       ,149
E8069NA/7,1,5055939919478       ,149
E8075BK/7,2,5055939924809       ,149
E8094AN/5,1,5055939949413       ,149
E8094AN/6,2,5055939949420       ,149
E9114BV/4,1,5055939941783       ,149
E9114BV/5,2,5055939941790       ,149
E9126YV/6,1,5055939943947       ,149
E1108BK/L-XL,2,5055205387987       ,150
E1108BK/S-M,2,5055205387970       ,150
E1112BK/L-XL,1,5055205384689       ,150
E1112BK/S-M,2,5055205384672       ,150
E8092BK/4,1,5055939948355       ,150
E8092BK/5,1,5055939948362       ,150
E8092BK/6,1,5055939948379       ,150
E8092GF/5,1,5055939948416       ,150
E8092GF/6,1,5055939948423       ,150
E9114BV/4,1,5055939941783       ,150
E9114BV/5,2,5055939941790       ,150
E9115CE/6,1,5055939945095       ,150
E1204BK/3,1,5055939950563       ,151
E1204BK/4,1,5055939950570       ,151
E1204BK/5,1,5055939950587       ,151
E1204BK/6,1,5055939950594       ,151
E1204BK/7,1,5055939950600       ,151
E1301BK/3,1,5055205363523       ,151
E1301BK/4,1,5055205363530       ,151
E3108GV/3,1,5055939909332       ,151
E3108GV/4,1,5055939909349       ,151
E3108GV/5,1,5055939909356       ,151
E3108GV/6,1,5055939909363       ,151
E3142BK/3,1,5055939931357       ,151
E3142BK/4,1,5055939931364       ,151
E3142BK/5,1,5055939931371       ,151
E3142BK/6,1,5055939931388       ,151
E4027BK/4,1,5055205398266       ,151
E6066BK/3,1,5055205363738       ,151
E6066BK/4,1,5055205363745       ,151
E6108BK/4,1,5055939919607       ,151
E6108BK/6,1,5055939919621       ,151
E7117BK/5,1,5055939917030       ,151
E8064BK/3,1,5055939915975       ,151
E8064BK/8,1,5055939916026       ,151
E8064GC/3,4,5055939950969       ,151
E8064GC/4,2,5055939950976       ,151
E8064GC/5,3,5055939950983       ,151
E8064GC/6,1,5055939950990       ,151
E8066BK/3,1,5055939916330       ,151
E8066BK/4,1,5055939916347       ,151
E8066BK/7,1,5055939916378       ,151
E8092BK/3,1,5055939948348       ,151
E9106BV/3,1,5055939941370       ,151
E9106BV/4,1,5055939941387       ,151
E9106BV/5,1,5055939941394       ,151
E9106BV/6,1,5055939941400       ,151
E9134YV/3,1,5055939943350       ,151
E9117BK/4,1,5055939942179       ,154
E9117BK/5,1,5055939942186       ,154
E1108BK/S-M,2,5055205387970       ,155
E1109BK/M-L,2,5055205388007       ,155
E1109BK/S-M,2,5055205387994       ,155
E1119BK/6,1,5055205390567       ,155
E1119BK/7,1,5055205390574       ,155
E1204GC/3,1,5055939950662       ,155
E1204GC/5,1,5055939950686       ,155
E1204GC/7,1,5055939950709       ,155
E3125KH/6,1,5055939919348       ,155
E3142NA/5,1,5055939952680       ,155
E3173GF/5,1,5055939949666       ,155
E6153BK/4,1,5055939953298       ,155
E8066BK/3,1,5055939916330       ,155
E8066BK/4,2,5055939916347       ,155
E8066BK/6,2,5055939916361       ,155
E8066BK/7,1,5055939916378       ,155
E9095BK/3,1,5055939918051       ,155
E9095YV/3,1,5055939918112       ,155
E9095YV/4,2,5055939918129       ,155
E9095YV/5,2,5055939918136       ,155
E9095YV/6,2,5055939918143       ,155
E9114GV/6,1,5055939941707       ,155
E9120YV/6,1,5055939943282       ,155
E8064GC/7,1,5055939951003       ,156
E9114GV/4,1,5055939941684       ,156
E9114BV/4,1,5055939941783       ,157
E9114BV/5,2,5055939941790       ,157
E3158BK/7,2,5055939942452       ,158
E6066BK/5,1,5055205363752       ,158
E9114BK/3,1,5055939941721       ,162
E9114BK/4,7,5055939941738       ,162
E9114BK/5,12,5055939941745       ,162
E9114BK/6,6,5055939941752       ,162
E9114BK/7,5,5055939941769       ,162
E9114BV/4,1,5055939941783       ,162
E9114BV/5,2,5055939941790       ,162
E9114BV/6,1,5055939941806       ,162
E0062/3,5,5055205323763       ,164
E0062/4,5,5055205323770       ,164
E0062/5,5,5055205323787       ,164
E0062/6,5,5055205323794       ,164
E0062/7,5,5055205323800       ,164
E0063/2,5,5055205323817       ,164
E0063/3,5,5055205323824       ,164
E0063/4,5,5055205323831       ,164
E0063/5,5,5055205323848       ,164
E3168BK/3,5,5055939954165       ,164
E3168BK/4,5,5055939954172       ,164
E3168BK/5,5,5055939954189       ,164
E3168BK/6,5,5055939954196       ,164
E3168BK/7,5,5055939954202       ,164
E3169BK/2,5,5055939954219       ,164
E3169BK/3,5,5055939954226       ,164
E3169BK/4,5,5055939954233       ,164
E3169BK/5,5,5055939954240       ,164
E3169BK/6,5,5055939954257       ,164
E6154WH/6,1,5055939953007       ,164
E8070BK/3,1,5055939916712       ,164
E8070BK/4,1,5055939916729       ,164
E8070BK/5,1,5055939916736       ,164
E8070BK/6,1,5055939916743       ,164
E8070BK/7,1,5055939916750       ,164
E8070GF/3,1,5055939948447       ,164
E8070GF/4,1,5055939948454       ,164
E8070GF/5,1,5055939948461       ,164
E8070GF/6,1,5055939948478       ,164
E8070GF/7,1,5055939948485       ,164
E8098BK/2,1,5055939953335       ,164
E8098BK/3,2,5055939953342       ,164
E8098BK/4,2,5055939953359       ,164
E8098BK/5,2,5055939953366       ,164
E8098BK/6,2,5055939953373       ,164
E0151KH/0,1,5055939936963       ,165
E1043BK/L-XL,1,5055939923871       ,165
E1119BK/3,1,5055205390536       ,165
E1170BK/0,1,5055939929828       ,165
E9114BV/4,1,5055939941783       ,165
E9114BV/5,1,5055939941790       ,165
E9114BV/6,2,5055939941806       ,165
E9114GV/4,1,5055939941684       ,165
E9134YV/4,1,5055939943367       ,165
E9134YV/6,1,5055939943381       ,165
E3173GF/6,2,5055939949673       ,169
E3173GF/7,1,5055939949680       ,169
E6151GK/4,1,5055939950303       ,169
E6151GK/5,2,5055939950310       ,169
E8064BK/5,2,5055939915999       ,169
E8066CM/4,1,5055939919102       ,169
E8066CM/5,1,5055939919119       ,169
E8069BK/4,3,5055939916569       ,169
E8094AN/3,1,5055939949390       ,169
E8094AN/4,1,5055939949406       ,169
E8094AN/6,2,5055939949420       ,169
E8094AN/7,1,5055939949437       ,169
E9105BK/4,1,5055939925806       ,169
E9106WH/3,1,5055939935355       ,169
E1108BK/L-XL,1,5055205387987       ,170
E1109BK/L-XL,2,5055205388014       ,170
E1109BK/M-L,1,5055205388007       ,170
E1112BK/L-XL,2,5055205384689       ,170
E1112BK/S-M,2,5055205384672       ,170
E1170GY/0,1,5055939929835       ,170
E6106BK/6,1,5055939919522       ,170
E6106PU/4,1,5055939919553       ,170
E8064BK/4,1,5055939915982       ,170
E8064BK/7,3,5055939916019       ,170
E8066BK/3,1,5055939916330       ,170
E8066BK/4,2,5055939916347       ,170
E8066KH/7,1,5055939916422       ,170
E0128BK/6,2,5055939904955       ,171
E0128BK/7,1,5055939904962       ,171
E1181BK/6,1,5055939942544       ,171
E3142BK/3,1,5055939931357       ,171
E4027BK/4,2,5055205398266       ,171
E4027BK/5,1,5055205398273       ,171
E4054BK/4,2,5055939953175       ,171
E4054BK/5,1,5055939953182       ,171
E8064BK/4,2,5055939915982       ,171
E8064GY/8,1,5055939916262       ,171
E8064GY/9,1,5055939916279       ,171
E8098BK/2,1,5055939953335       ,171
E8098BK/4,1,5055939953359       ,171
E9095BK/3,1,5055939918051       ,171
E9095BK/4,1,5055939918068       ,171
E9095BK/5,1,5055939918075       ,171
E9095BK/6,1,5055939918082       ,171
E9095BK/7,1,5055939918099       ,171
E9114GV/5,1,5055939941691       ,171
EU8045BK/5,1,5055205339085       ,171
E3142NA/3,1,5055939952666       ,178
E3142NA/4,1,5055939952673       ,178
E3142NA/5,1,5055939952680       ,178
E3142NA/6,1,5055939952697       ,178
E4054BK/3,1,5055939953168       ,178
E6153BK/7,2,5055939953328       ,178
E0003/L-XL,3,5055205300122       ,179
E0003/M-L,3,5055205300139       ,179
E0062/4,3,5055205323770       ,179
E1039BK/L-XL,3,5055939906720       ,179
E1039BK/S-M,3,5055939906713       ,179
E1108BK/S-M,1,5055205387970       ,179
E1181BK/7,1,5055939942551       ,179
E1183BK/4,2,5055939944234       ,179
E1183BK/6,1,5055939944258       ,179
E3109YV/5,1,5055939909028       ,179
E3109YV/6,1,5055939909035       ,179
E3109YV/7,1,5055939909042       ,179
E3125BK/3,1,5055939915388       ,179
E3125BK/4,1,5055939915395       ,179
E3125BK/5,1,5055939915401       ,179
E3125BK/6,1,5055939915418       ,179
E3125BK/7,1,5055939915425       ,179
E3125NA/3,1,5055939950822       ,179
E3169BK/2,1,5055939954219       ,179
E3173BK/5,2,5055939949611       ,179
E4027BK/6,2,5055205398280       ,179
E4054BK/3,2,5055939953168       ,179
E4054BK/4,3,5055939953175       ,179
E4054BK/5,1,5055939953182       ,179
E4054BK/6,1,5055939953199       ,179
E4054BK/7,3,5055939953205       ,179
E4055BK/7,1,5055939953106       ,179
E5067BK/7,2,5055939950754       ,179
E6066BK/3,1,5055205363738       ,179
E6106BK/2,1,5055939919485       ,179
E6106BK/3,1,5055939919492       ,179
E6106BK/5,1,5055939919515       ,179
E6106BK/6,1,5055939919522       ,179
E6106PU/3,1,5055939919546       ,179
E6106PU/4,1,5055939919553       ,179
E6106PU/5,1,5055939919560       ,179
E6106PU/6,1,5055939919577       ,179
E6108BK/3,3,5055939919591       ,179
E6108BK/4,3,5055939919607       ,179
E6108BK/5,1,5055939919614       ,179
E6108BK/6,1,5055939919621       ,179
E6108TL/3,1,5055939915821       ,179
E6108TL/4,1,5055939915838       ,179
E6108TL/5,1,5055939915845       ,179
E6110BK/3,1,5055939914671       ,179
E6110BK/6,1,5055939922331       ,179
E6132BK/3,2,5055939933726       ,179
E6132BK/4,2,5055939933733       ,179
E6132BK/5,2,5055939933740       ,179
E6132BK/6,2,5055939936314       ,179
E6153BK/3,1,5055939953281       ,179
E6153BK/7,1,5055939953328       ,179
E7117BK/5,1,5055939917030       ,179
E8064BK/5,2,5055939915999       ,179
E8064BK/6,3,5055939916002       ,179
E8064BK/7,2,5055939916019       ,179
E8064GY/3,3,5055939916217       ,179
E8064GY/4,2,5055939916224       ,179
E8064GY/5,2,5055939916231       ,179
E8064GY/6,5,5055939916248       ,179
E8064GY/7,3,5055939916255       ,179
E8066BK/5,1,5055939916354       ,179
E8066KH/7,1,5055939916422       ,179
E8081KH/7,1,5055939935041       ,179
E8098BK/3,2,5055939953342       ,179
E8098BK/6,2,5055939953373       ,179
E9114BV/6,1,5055939941806       ,179
E1301BK/7,1,5055205363561       ,184
E4055BK/4,2,5055939953076       ,184
E4055BK/5,2,5055939953083       ,184
E4055BK/6,3,5055939953090       ,184
E6066BK/5,1,5055205363752       ,184
E7117BK/6,1,5055939917047       ,184
E8064BK/5,2,5055939915999       ,184
E8064BK/7,2,5055939916019       ,184
E8064BK/8,2,5055939916026       ,184
E8064GC/7,1,5055939951003       ,184
E8064GY/3,2,5055939916217       ,184
E8064GY/4,5,5055939916224       ,184
E8064GY/5,3,5055939916231       ,184
E8066BK/6,2,5055939916361       ,184
E8066BK/7,2,5055939916378       ,184
E8066KH/3,1,5055939916385       ,184
E8066KH/4,2,5055939916392       ,184
E8066KH/5,3,5055939916408       ,184
E8070BK/4,1,5055939916729       ,184
E8075BK/4,3,5055939924779       ,184
E8075BK/5,2,5055939924786       ,184
E1301BK/7,2,5055205363561       ,185
E6130GK/4,1,5055939950181       ,185
E6130GK/5,1,5055939950198       ,185
E8064GY/9,1,5055939916279       ,185
E8066KH/3,1,5055939916385       ,185
E8075BK/3,2,5055939924762       ,185
E8092GF/3,1,5055939948393       ,185
E8092GF/4,1,5055939948409       ,185
E8092GF/5,1,5055939948416       ,185
E8092GF/6,2,5055939948423       ,185
E8092GF/7,1,5055939948430       ,185
E9114BV/5,1,5055939941790       ,185
E9114BV/7,1,5055939941813       ,185
E1118BK/4,1,5055205389974       ,186
E1118BK/5,2,5055205389981       ,186
E1204BK/5,1,5055939950587       ,186
E1204BK/6,1,5055939950594       ,186
E1204GC/6,1,5055939950693       ,186
E1204GC/7,1,5055939950709       ,186
E1301BK/5,1,5055205363547       ,186
E1301BK/6,1,5055205363554       ,186
E3109YV/3,1,5055939909004       ,186
E3109YV/4,2,5055939909011       ,186
E3109YV/5,2,5055939909028       ,186
E3109YV/6,2,5055939909035       ,186
E3109YV/7,1,5055939909042       ,186
E3125BK/6,1,5055939915418       ,186
E3168BK/4,2,5055939954172       ,186
E3168BK/5,2,5055939954189       ,186
E4027BK/5,1,5055205398273       ,186
E4054BK/5,1,5055939953182       ,186
E4054BK/7,1,5055939953205       ,186
E4055BK/3,2,5055939953069       ,186
E4055BK/5,2,5055939953083       ,186
E6106BK/6,1,5055939919522       ,186
E7117BK/7,2,5055939917054       ,186
E8064GY/4,2,5055939916224       ,186
E8064GY/5,1,5055939916231       ,186
E8064GY/6,1,5055939916248       ,186
E8069BK/3,1,5055939916552       ,186
E8069BK/5,1,5055939916576       ,186
E8081KH/4,1,5055939935010       ,186
E8081KH/5,1,5055939935027       ,186
E8094AN/4,2,5055939949406       ,186
E8094AN/5,2,5055939949413       ,186
E8097GY/3,1,5055939950419       ,186
E8097GY/4,2,5055939950426       ,186
E8097GY/5,2,5055939950433       ,186
E8098BK/5,1,5055939953366       ,186
E8098BK/6,1,5055939953373       ,186
E9106GV/7,1,5055939935348       ,186
E9115CO/2,1,5055939941875       ,186
E9115CO/3,1,5055939941882       ,186
E0096BK/3,3,5055205352947       ,189
E0096BK/5,5,5055205352954       ,189
E0120PV/L-XL,1,5055205390963       ,189
E0120PV/M-L,1,5055205390970       ,189
E0120PV/S-M,1,5055205390987       ,189
E0120YV/L-XL,2,5055205391205       ,189
E0120YV/M-L,2,5055205391199       ,189
E0120YV/S-M,2,5055205391182       ,189
E3142BK/6,1,5055939931388       ,189
E3142BK/7,1,5055939931395       ,189
E4027BK/6,2,5055205398280       ,189
E4054BK/5,2,5055939953182       ,189
E4055BK/3,1,5055939953069       ,189
E4055BK/4,2,5055939953076       ,189
E4055BK/5,1,5055939953083       ,189
E6108BK/2,1,5055939919584       ,189
E6108BK/5,1,5055939919614       ,189
E6110BK/4,1,5055939914688       ,189
E6153BK/2,1,5055939953274       ,189
E6153BK/7,1,5055939953328       ,189
E6154RD/2,1,5055939953014       ,189
E6154RD/3,1,5055939953021       ,189
E6154RD/4,1,5055939953038       ,189
E6154RD/5,1,5055939953045       ,189
E6154RD/6,1,5055939953052       ,189
E6154WH/2,1,5055939952963       ,189
E6154WH/3,1,5055939952970       ,189
E6154WH/4,1,5055939952987       ,189
E6154WH/5,1,5055939952994       ,189
E6154WH/6,1,5055939953007       ,189
E7117BK/6,1,5055939917047       ,189
E8066BK/4,1,5055939916347       ,189
E8066KH/3,1,5055939916385       ,189
E8066KH/5,1,5055939916408       ,189
E8075BK/3,2,5055939924762       ,189
E8075BK/4,1,5055939924779       ,189
E8094AN/5,1,5055939949413       ,189
E1118BK/4,1,5055205389974       ,191
E1118BK/5,2,5055205389981       ,191
E1204BK/5,1,5055939950587       ,191
E1204BK/6,1,5055939950594       ,191
E1204GC/6,1,5055939950693       ,191
E1204GC/7,1,5055939950709       ,191
E1301BK/5,1,5055205363547       ,191
E3109YV/3,1,5055939909004       ,191
E3109YV/4,2,5055939909011       ,191
E3109YV/5,2,5055939909028       ,191
E3109YV/6,2,5055939909035       ,191
E3109YV/7,1,5055939909042       ,191
E3125BK/6,1,5055939915418       ,191
E3168BK/4,2,5055939954172       ,191
E3168BK/5,2,5055939954189       ,191
E4027BK/5,1,5055205398273       ,191
E4054BK/5,1,5055939953182       ,191
E4054BK/7,1,5055939953205       ,191
E4055BK/3,2,5055939953069       ,191
E4055BK/5,2,5055939953083       ,191
E6106BK/6,1,5055939919522       ,191
E8064GY/4,2,5055939916224       ,191
E8064GY/5,1,5055939916231       ,191
E8064GY/6,1,5055939916248       ,191
E8069BK/3,1,5055939916552       ,191
E8069BK/5,1,5055939916576       ,191
E8081KH/4,1,5055939935010       ,191
E8081KH/5,1,5055939935027       ,191
E8094AN/4,2,5055939949406       ,191
E8094AN/5,2,5055939949413       ,191
E8097GY/3,1,5055939950419       ,191
E8097GY/4,2,5055939950426       ,191
E8097GY/5,2,5055939950433       ,191
E8098BK/6,1,5055939953373       ,191
E9106GV/7,1,5055939935348       ,191
E9115CO/2,1,5055939941875       ,191
E9115CO/3,1,5055939941882       ,191
E8065BK/4,2,5055939919157       ,192
E8064GY/2,1,5055939916200       ,193
E8065BK/3,1,5055939919140       ,193
E8066KH/4,2,5055939916392       ,193
E8066KH/5,2,5055939916408       ,193
E1181BK/3,1,5055939942513       ,196
E1181BK/4,1,5055939942520       ,196
E1181BK/5,1,5055939942537       ,196
E1181BK/6,2,5055939942544       ,196
E1181BK/7,1,5055939942551       ,196
E3173BK/3,1,5055939949598       ,196
E3173BK/6,1,5055939949628       ,196
E3173GF/3,1,5055939949642       ,196
E3174NA/3,1,5055939952918       ,196
E3174NA/4,1,5055939952925       ,196
E3174NA/5,1,5055939952932       ,196
E3174NA/6,1,5055939952949       ,196
E3174NA/7,1,5055939952956       ,196
E4043BK/4,1,5055939931838       ,196
E4054BK/3,1,5055939953168       ,196
E5069BK/4,1,5055939951584       ,196
E6066BK/5,1,5055205363752       ,196
E6108BK/5,1,5055939919614       ,196
E6108TL/3,1,5055939915821       ,196
E6108TL/4,1,5055939915838       ,196
E6108TL/5,1,5055939915845       ,196
E8064BK/3,1,5055939915975       ,196
E8064BK/4,6,5055939915982       ,196
E8064BK/7,1,5055939916019       ,196
E8064GY/5,2,5055939916231       ,196
E8064GY/6,2,5055939916248       ,196
E8065BK/3,1,5055939919140       ,196
E8065BK/4,1,5055939919157       ,196
E8066KH/3,1,5055939916385       ,196
E8092GF/3,2,5055939948393       ,196
E8092GF/4,2,5055939948409       ,196
E8092GF/5,2,5055939948416       ,196
E8092GF/6,2,5055939948423       ,196
E8092GF/7,2,5055939948430       ,196
E9115CO/6,1,5055939945088       ,196
E9134YV/5,1,5055939943374       ,196
E8064BK/4,2,5055939915982       ,198
E8064GC/3,1,5055939950969       ,198
E8064GC/4,1,5055939950976       ,198
E1301BK/6,1,5055205363554       ,199
E0062/3,1,5055205323763       ,204
E0062/5,3,5055205323787       ,204
E1108BK/L-XL,1,5055205387987       ,204
E1108BK/S-M,3,5055205387970       ,204
E1109BK/M-L,2,5055205388007       ,204
E1109BK/S-M,2,5055205387994       ,204
E1112BK/L-XL,4,5055205384689       ,204
E1112BK/S-M,4,5055205384672       ,204
E1301BK/4,1,5055205363530       ,204
E1301BK/6,2,5055205363554       ,204
E3133GF/5,1,5055939957142       ,204
E3158BK/4,1,5055939942421       ,204
E3158BK/5,1,5055939942438       ,204
E3158BK/7,1,5055939942452       ,204
E3169BK/3,1,5055939954226       ,204
E3169BK/5,2,5055939954240       ,204
E8064BK/5,5,5055939915999       ,204
E8064BK/6,4,5055939916002       ,204
E8064GY/6,2,5055939916248       ,204
E8066BK/5,1,5055939916354       ,204
E8066BK/6,1,5055939916361       ,204
E8066KH/6,4,5055939916415       ,204
E8073BK/4,2,5055939924670       ,204
E8073BK/5,2,5055939924687       ,204
E8073BK/6,2,5055939924694       ,204
E8073BK/7,1,5055939924700       ,204
E8074BK/5,1,5055939924731       ,204
E8074BK/6,1,5055939924748       ,204
E6106BK/4,1,5055939919508       ,207
E7117WH/3,2,5055939917061       ,207
E7117WH/4,2,5055939917078       ,207
E7117WH/5,2,5055939917085       ,207
E7117WH/6,2,5055939917092       ,207
E1118BK/7,1,5055205390000       ,208
E0062/5,1,5055205323787       ,212
E0132BK/6,2,5055939915036       ,212
E1043BK/S-M,1,5055939923888       ,212
E3169BK/3,2,5055939954226       ,212
E3169BK/4,2,5055939954233       ,212
E6108BK/4,1,5055939919607       ,212
E6124BK/2,1,5055939932996       ,212
E6124BK/3,2,5055939933009       ,212
E6124BK/4,2,5055939933016       ,212
E8064BK/5,2,5055939915999       ,212
E8069BK/4,2,5055939916569       ,212
E3123BK/3,1,5055939915326       ,213
E8064GY/7,2,5055939916255       ,213
E8065BK/5,1,5055939919164       ,213
E8065BK/6,1,5055939919171       ,213
E9114BV/4,1,5055939941783       ,213
E9114BV/6,1,5055939941806       ,213
E9114BV/7,1,5055939941813       ,213
E9114GV/4,1,5055939941684       ,213
E9114GV/7,1,5055939941714       ,213
E9120YV/4,1,5055939943268       ,213
E9120YV/5,2,5055939943275       ,213
E9120YV/6,2,5055939943282       ,213
E9120YV/7,2,5055939943299       ,213
E9126YV/5,1,5055939943930       ,213
E9126YV/6,1,5055939943947       ,213
E9126YV/7,1,5055939943954       ,213
E1301BK/7,1,5055205363561       ,214
E8091BK/4,1,5055939948256       ,214
E8091BK/5,1,5055939948263       ,214
E8091BK/6,1,5055939948270       ,214
