SKU,Maximum allowed,Barcode/EAN,Days left
E1160BK/3,1,5055939928494       ,22
E1160BK/4,1,5055939928500       ,22
E1160BK/5,1,5055939928517       ,22
E1160BK/6,1,5055939928524       ,22
E1160BK/7,1,5055939928531       ,22
E1165BK/3,1,5055939928845       ,22
E1165BK/4,1,5055939928852       ,22
E1165BK/5,1,5055939928869       ,22
E1165BK/6,1,5055939928876       ,22
E1165BK/7,1,5055939928883       ,22
E1165RD/3,1,5055939929002       ,22
E1165RD/4,1,5055939929019       ,22
E1165RD/5,1,5055939929026       ,22
E1165RD/6,1,5055939929033       ,22
E1165RD/7,1,5055939929040       ,22
E1166WH/3,1,5055939929248       ,22
E1166WH/4,1,5055939929255       ,22
E1166WH/5,1,5055939929262       ,22
E1166WH/6,1,5055939929279       ,22
E1166WH/7,1,5055939929286       ,22
E1505KH/L-XL,1,5055939951317       ,22
E1505KH/M-L,1,5055939951300       ,22
E1505KH/S-M,1,5055939951294       ,22
E1505MB/L-XL,1,5055939904474       ,22
E1505MB/M-L,1,5055939904481       ,22
E1505MB/S-M,1,5055939904498       ,22
E1505RD/M-L,1,5055939951270       ,22
E1505RD/S-M,1,5055939951263       ,22
E1517BK/L-XL,1,5055939953403       ,22
E1517BK/M-L,1,5055939953397       ,22
E1517BK/S-M,1,5055939953380       ,22
E3109BK/3,1,5055939908953       ,22
E3109BK/4,1,5055939908960       ,22
E3109BK/5,1,5055939908977       ,22
E3109BK/6,1,5055939908984       ,22
E3125NA/4,1,5055939950839       ,22
E3125NA/5,1,5055939950846       ,22
E3125NA/6,1,5055939950853       ,22
E3174NA/3,1,5055939952918       ,22
E3174NA/4,1,5055939952925       ,22
E3174NA/5,1,5055939952932       ,22
E3174NA/6,1,5055939952949       ,22
E3174WH/3,1,5055939952857       ,22
E3174WH/4,1,5055939952864       ,22
E3174WH/5,1,5055939952871       ,22
E3174WH/6,1,5055939952888       ,22
E4029BK/3,1,5055939900964       ,22
E4029BK/4,1,5055939900971       ,22
E4029BK/5,1,5055939900988       ,22
E4029BK/6,1,5055939900995       ,22
E4029BK/7,1,5055939901008       ,22
E4054BK/3,1,5055939953168       ,22
E4054BK/4,1,5055939953175       ,22
E4054BK/5,1,5055939953182       ,22
E4054BK/6,1,5055939953199       ,22
E4054BK/7,1,5055939953205       ,22
E4055BK/4,1,5055939953076       ,22
E4055BK/5,1,5055939953083       ,22
E4055BK/6,1,5055939953090       ,22
E4055BK/7,1,5055939953106       ,22
E6153BK/2,1,5055939953274       ,22
E6153BK/3,1,5055939953281       ,22
E6153BK/4,1,5055939953298       ,22
E6153BK/5,1,5055939953304       ,22
E6154WH/3,1,5055939952970       ,22
E6154WH/4,1,5055939952987       ,22
E6154WH/5,1,5055939952994       ,22
E7110BK/K11,1,5055205387895       ,22
E7110BK/K7,1,5055205387871       ,22
E7110BK/K9,1,5055205387888       ,22
E7123RD/K11,1,5055939919959       ,22
E7123RD/K7,1,5055939919966       ,22
E7123RD/K9,1,5055939919973       ,22
E7127BK/3,1,5055939934358       ,22
E7127BK/4,1,5055939934365       ,22
E7127BK/5,1,5055939934372       ,22
E7128BK/0,1,5055939934419       ,22
E7128GY/0,1,5055939934426       ,22
E7128KH/0,1,5055939951324       ,22
E8065GY/3,1,5055939916286       ,22
E8065GY/4,1,5055939916293       ,22
E8065GY/5,1,5055939916309       ,22
E8065GY/6,1,5055939916316       ,22
E1120WH/7,1,5055205390307       ,86
E3125NA/3,1,5055939950822       ,86
E6154WH/2,1,5055939952963       ,86
E0128BK/3,1,5055939904924       ,212
E0128BK/4,2,5055939904931       ,212
E0128BK/5,2,5055939904948       ,212
E0128BK/6,1,5055939904955       ,212
E0128BK/7,1,5055939904962       ,212
E1038BK/L-XL,2,5055939906706       ,212
E1038BK/S-M,2,5055939906690       ,212
E1120WH/4,1,5055205390277       ,212
E1120WH/5,1,5055205390284       ,212
E1120WH/6,1,5055205390291       ,212
E1120WH/7,1,5055205390307       ,212
E1185BK/4,1,5055939944531       ,212
E1185BK/5,1,5055939944548       ,212
E1185BK/6,1,5055939944555       ,212
E1185BK/7,1,5055939944562       ,212
E1186BK/3,1,5055939944623       ,212
E1186BK/4,2,5055939944630       ,212
E1186BK/5,2,5055939944647       ,212
E1186BK/6,1,5055939944654       ,212
E1186BK/7,1,5055939944661       ,212
E1224BK/3,1,5055939958804       ,212
E1224BK/4,2,5055939966274       ,212
E1224BK/5,2,5055939966281       ,212
E1224BK/6,1,5055939966298       ,212
E1224BK/7,1,5055939966304       ,212
E1227BK/L-XL,2,5055939966311       ,212
E1227BK/S-M,2,5055939959405       ,212
E5056BK/3,1,5055939941820       ,212
E5056BK/4,1,5055939941837       ,212
E5056BK/5,1,5055939941844       ,212
E5056BK/6,1,5055939941851       ,212
E9102BK/4,1,5055939925523       ,212
E9102BK/5,1,5055939925530       ,212
E9102BK/6,1,5055939925547       ,212
E9102RD/4,1,5055939925479       ,212
E9102RD/5,1,5055939925486       ,212
E9102RD/6,1,5055939925493       ,212
E9114BK/4,1,5055939941738       ,212
E9114BK/5,1,5055939941745       ,212
E9114BK/6,1,5055939941752       ,212
E9114GV/4,1,5055939941684       ,212
E9114GV/5,1,5055939941691       ,212
E9114GV/6,1,5055939941707       ,212
