SKU,Maximum allowed,Barcode/EAN,Days left
E1028AN/0,1,5055205389240       ,15
E1028BK/0,1,5055205385952       ,15
E1128BK/L-XL,1,5055205398617       ,15
E1128BK/S-M,1,5055205399164       ,15
E1128WH/L-XL,1,5055205398624       ,15
E1128WH/S-M,1,5055205399614       ,15
E1130WH/L-XL,1,5055205398655       ,15
E1130WH/S-M,1,5055205399621       ,15
E1138BK/0,1,5055939901367       ,15
E1138RD/0,1,5055939901381       ,15
E1138WH/0,1,5055939901374       ,15
E1157BK/L-XL,1,5055939928418       ,15
E1157BK/S-M,1,5055939928425       ,15
E1158BK/L-XL,1,5055939928432       ,15
E1158BK/S-M,1,5055939928449       ,15
E1160BK/3,1,5055939928494       ,15
E1160BK/4,1,5055939928500       ,15
E1160BK/5,1,5055939928517       ,15
E1160BK/6,1,5055939928524       ,15
E1160RD/3,1,5055939928616       ,15
E1160RD/4,1,5055939928623       ,15
E1160RD/5,1,5055939928630       ,15
E1160RD/6,1,5055939928647       ,15
E1165BK/3,1,5055939928845       ,15
E1165BK/4,2,5055939928852       ,15
E1165BK/5,2,5055939928869       ,15
E1165BK/6,1,5055939928876       ,15
E1165RD/3,1,5055939929002       ,15
E1165RD/4,2,5055939929019       ,15
E1165RD/5,2,5055939929026       ,15
E1165RD/6,1,5055939929033       ,15
E1166BK/3,1,5055939929064       ,15
E1166BK/4,2,5055939929071       ,15
E1166BK/5,2,5055939929088       ,15
E1166BK/6,1,5055939929095       ,15
E1166RD/3,1,5055939929187       ,15
E1166RD/4,2,5055939929194       ,15
E1166RD/5,2,5055939929200       ,15
E1166RD/6,1,5055939929217       ,15
E1171BK/0,1,5055939929859       ,15
E1171WH/0,1,5055939929866       ,15
E1196BK/L-XL,1,5055939948874       ,15
E1505GY/M-L,1,5055939930107       ,15
E1505KH/M-L,1,5055939951300       ,15
E1505MB/M-L,1,5055939904481       ,15
E1505RD/M-L,1,5055939951270       ,15
E1511BK/M-L,1,5055939930138       ,15
E1513BK/M-L,1,5055939930282       ,15
E1513BK/S-M,1,5055939930299       ,15
E1517BK/M-L,1,5055939953397       ,15
E1517BK/S-M,1,5055939953380       ,15
E3061W/4,1,5055205342474       ,15
E3061W/5,1,5055205342481       ,15
E3108GV/4,1,5055939909349       ,15
E3109OC/4,1,5055939909110       ,15
E3109OC/5,1,5055939909127       ,15
E3109OC/6,1,5055939909134       ,15
E3109YV/4,1,5055939909011       ,15
E3109YV/5,1,5055939909028       ,15
E3109YV/6,1,5055939909035       ,15
E3142BK/4,1,5055939931364       ,15
E3142BK/5,1,5055939931371       ,15
E3142BK/6,1,5055939931388       ,15
E3142NA/4,1,5055939952673       ,15
E3142NA/5,1,5055939952680       ,15
E3142NA/6,1,5055939952697       ,15
E3173BK/4,1,5055939949604       ,15
E3173BK/5,1,5055939949611       ,15
E3173BK/6,1,5055939949628       ,15
E3173GF/4,1,5055939949659       ,15
E3173GF/5,1,5055939949666       ,15
E3173GF/6,1,5055939949673       ,15
E3174WH/3,1,5055939952857       ,15
E3174WH/4,1,5055939952864       ,15
E3174WH/5,1,5055939952871       ,15
E3174WH/6,1,5055939952888       ,15
E4031BK/3,1,5055939916965       ,15
E4031BK/4,2,5055939916972       ,15
E4031BK/5,2,5055939916989       ,15
E4031BK/6,1,5055939916996       ,15
E4054BK/3,1,5055939953168       ,15
E4054BK/4,1,5055939953175       ,15
E4054BK/5,1,5055939953182       ,15
E4054BK/6,1,5055939953199       ,15
E4054BK/7,1,5055939953205       ,15
E6095BK/2,1,5055939901114       ,15
E6095BK/3,2,5055939901121       ,15
E6095BK/4,2,5055939901138       ,15
E6097BK/2,1,5055939901206       ,15
E6097BK/3,2,5055939901213       ,15
E6097BK/4,2,5055939901220       ,15
E6154WH/2,1,5055939952963       ,15
E6154WH/3,1,5055939952970       ,15
E6154WH/4,1,5055939952987       ,15
E7117BK/3,1,5055939917016       ,15
E7117BK/4,1,5055939917023       ,15
E7117BK/5,1,5055939917030       ,15
E7117BK/6,1,5055939917047       ,15
E7117NA/3,1,5055939955049       ,15
E7117NA/4,1,5055939955056       ,15
E7117NA/5,1,5055939955063       ,15
E7117NA/6,1,5055939955070       ,15
E7117RD/3,1,5055939917887       ,15
E7117RD/4,1,5055939917894       ,15
E7117RD/5,1,5055939917900       ,15
E7117RD/6,1,5055939917917       ,15
E8064KH/3,1,5055939916057       ,15
E8064KH/4,1,5055939916064       ,15
E8064KH/5,1,5055939916071       ,15
E8064KH/6,1,5055939916088       ,15
E8064KH/7,1,5055939916095       ,15
E8064NA/4,1,5055939950907       ,15
E8064NA/5,1,5055939950914       ,15
E8064NA/6,1,5055939950921       ,15
E8093BK/4,1,5055939948782       ,15
E8093BK/5,1,5055939948799       ,15
E1196BK/M-L,2,5055939956510       ,50
E3063W/2,1,5055205358031       ,119
E6095BK/4,2,5055939901138       ,119
E6095BK/5,1,5055939901145       ,119
E6124BK/3,1,5055939933009       ,119
E8098BK/3,1,5055939953342       ,119
E8098BK/4,1,5055939953359       ,119
E8098BK/5,1,5055939953366       ,119
E1157BK/S-M,1,5055939928425       ,181
E3061W/3,1,5055205342467       ,181
E3061W/4,1,5055205342474       ,181
E6132BK/3,1,5055939933726       ,181
