INVOICE,SIN595358
YOUR REF,SS2019
DATE,14/03/2019
VALUE,4303.47


SKU,Qty,Value,Name,Colour,Size
E9095YV/3       ,1,18.33,Pakagilet II,Hi-Viz Yellow,S
E9095YV/4       ,1,18.33,Pakagilet II,Hi-Viz Yellow,M
E9095YV/5       ,1,18.33,Pakagilet II,Hi-Viz Yellow,L
E9095YV/6       ,1,18.33,Pakagilet II,Hi-Viz Yellow,XL
E9095YV/7       ,1,18.33,Pakagilet II,Hi-Viz Yellow,XXL
E3165BK/4       ,1,18.05,MT500 L/S Print T - LTD,Black,M
E3165BK/5       ,2,36.10,MT500 L/S Print T - LTD,Black,L
E3165BK/6       ,2,36.10,MT500 L/S Print T - LTD,Black,XL
E3165BK/7       ,1,18.05,MT500 L/S Print T - LTD,Black,XXL
E3142BK/4       ,1,31.21,FS260-Pro S/S Jersey,Black,M
E3142BK/5       ,1,31.21,FS260-Pro S/S Jersey,Black,L
E3142BK/6       ,1,31.21,FS260-Pro S/S Jersey,Black,XL
E3142BK/7       ,1,31.21,FS260-Pro S/S Jersey,Black,XXL
E3172NA/3       ,1,15.98,SingleTrack Print T - LTD,Navy,S
E3172NA/4       ,1,15.98,SingleTrack Print T - LTD,Navy,M
E3172NA/5       ,1,15.98,SingleTrack Print T - LTD,Navy,L
E3172NA/6       ,1,15.98,SingleTrack Print T - LTD,Navy,XL
E3172NA/7       ,1,15.98,SingleTrack Print T - LTD,Navy,XXL
E3172RR/3       ,1,15.98,SingleTrack Print T - LTD,Rust Red,S
E3172RR/4       ,1,15.98,SingleTrack Print T - LTD,Rust Red,M
E3172RR/5       ,1,15.98,SingleTrack Print T - LTD,Rust Red,L
E3172RR/6       ,1,15.98,SingleTrack Print T - LTD,Rust Red,XL
E3172RR/7       ,1,15.98,SingleTrack Print T - LTD,Rust Red,XXL
E3174NA/4       ,1,31.21,Hyperon S/S Jersey II,Navy,M
E3174NA/5       ,1,31.21,Hyperon S/S Jersey II,Navy,L
E3174NA/6       ,1,31.21,Hyperon S/S Jersey II,Navy,XL
E3174NA/7       ,1,31.21,Hyperon S/S Jersey II,Navy,XXL
E3174WH/3       ,1,31.21,Hyperon S/S Jersey II,White,S
E3174WH/4       ,1,31.21,Hyperon S/S Jersey II,White,M
E3174WH/5       ,1,31.21,Hyperon S/S Jersey II,White,L
E3174WH/6       ,1,31.21,Hyperon S/S Jersey II,White,XL
E3174WH/7       ,1,31.21,Hyperon S/S Jersey II,White,XXL
E5067NA/3       ,1,27.54,Hummvee Ray S/S Jersey II,Navy,S
E5067NA/4       ,1,27.54,Hummvee Ray S/S Jersey II,Navy,M
E5067NA/5       ,1,27.54,Hummvee Ray S/S Jersey II,Navy,L
E5067NA/6       ,1,27.54,Hummvee Ray S/S Jersey II,Navy,XL
E3167BK/S-M     ,2,32.15,Fishnet S/L Baselayer II,Black,S-M
E3167BK/L-XL    ,2,32.15,Fishnet S/L Baselayer II,Black,L-XL
E8064NA/3       ,1,29.89,Hummvee Short II with liner,Navy,S
E8064NA/4       ,1,29.89,Hummvee Short II with liner,Navy,M
E8064NA/5       ,1,29.89,Hummvee Short II with liner,Navy,L
E8064NA/6       ,1,29.89,Hummvee Short II with liner,Navy,XL
E8065BK/3       ,1,32.15,Hummvee Lite Short II with liner,Black,S
E8065BK/4       ,1,32.15,Hummvee Lite Short II with liner,Black,M
E8065BK/5       ,1,32.15,Hummvee Lite Short II with liner,Black,L
E8065BK/6       ,1,32.15,Hummvee Lite Short II with liner,Black,XL
E8065BK/7       ,1,32.15,Hummvee Lite Short II with liner,Black,XXL
E8069BK/4       ,1,22.94,Cairn Short,Black,M
E8069BK/5       ,1,22.94,Cairn Short,Black,L
E8069BK/6       ,1,22.94,Cairn Short,Black,XL
E4029BK/3       ,1,36.66,Hyperon II Bibshort,Black,S
E4029BK/4       ,1,36.66,Hyperon II Bibshort,Black,M
E4029BK/5       ,1,36.66,Hyperon II Bibshort,Black,L
E4029BK/6       ,1,36.66,Hyperon II Bibshort,Black,XL
E4029BK/7       ,1,36.66,Hyperon II Bibshort,Black,XXL
E7117BK/3       ,1,45.87,FS260-Pro Bibshort,Black,S
E7117BK/4       ,1,45.87,FS260-Pro Bibshort,Black,M
E7117BK/5       ,1,45.87,FS260-Pro Bibshort,Black,L
E7117BK/6       ,1,45.87,FS260-Pro Bibshort,Black,XL
E7117BK/7       ,1,45.87,FS260-Pro Bibshort,Black,XXL
E7117WH/3       ,1,45.87,FS260-Pro Bibshort,White,S
E7117WH/4       ,1,45.87,FS260-Pro Bibshort,White,M
E7117WH/5       ,1,45.87,FS260-Pro Bibshort,White,L
E7117WH/6       ,1,45.87,FS260-Pro Bibshort,White,XL
E7117WH/7       ,1,45.87,FS260-Pro Bibshort,White,XXL
E1505GY/S-M     ,1,18.89,Hummvee Helmet,Grey,S-M
E1505GY/M-L     ,1,18.89,Hummvee Helmet,Grey,M-L
E1505GY/L-XL    ,1,18.89,Hummvee Helmet,Grey,L-XL
E1505KH/M-L     ,1,18.89,Hummvee Helmet,Khaki,M-L
E1505MB/S-M     ,1,18.89,Hummvee Helmet,Matt Black,S-M
E1505MB/M-L     ,1,18.89,Hummvee Helmet,Matt Black,M-L
E1505MB/L-XL    ,1,18.89,Hummvee Helmet,Matt Black,L-XL
E1505RD/M-L     ,1,18.89,Hummvee Helmet,Red,M-L
E1511BK/S-M     ,1,36.66,SingleTrack Helmet II,Black,S-M
E1511BK/M-L     ,1,36.66,SingleTrack Helmet II,Black,M-L
E1511PT/M-L     ,1,36.66,SingleTrack Helmet II,Petrol,M-L
E1511PT/L-XL    ,1,36.66,SingleTrack Helmet II,Petrol,L-XL
E1511WH/M-L     ,1,36.66,SingleTrack Helmet II,White,M-L
E1512WH/M-L     ,1,87.14,Pro SL Helmet,White,M-L
E1512WH/L-XL    ,1,87.14,Pro SL Helmet,White,L-XL
E1513GV/S-M     ,1,54.99,FS260-Pro Helmet,Hi-Viz Green,S-M
E1513GV/M-L     ,1,54.99,FS260-Pro Helmet,Hi-Viz Green,M-L
E1513GV/L-XL    ,1,54.99,FS260-Pro Helmet,Hi-Viz Green,L-XL
E1513WH/M-L     ,1,54.99,FS260-Pro Helmet,White,M-L
E1513WH/L-XL    ,1,54.99,FS260-Pro Helmet,White,L-XL
E7128BK/0       ,1,17.86,Hummvee Youth Helmet,Black,One size
E7128GY/0       ,1,17.86,Hummvee Youth Helmet,Grey,One size
E1512BK/S-M     ,1,87.14,Pro SL Helmet,Black,S-M
E1512BK/M-L     ,1,87.14,Pro SL Helmet,Black,M-L
E1513BK/S-M     ,1,54.99,FS260-Pro Helmet,Black,S-M
E1513BK/M-L     ,1,54.99,FS260-Pro Helmet,Black,M-L
E1160BK/3       ,1,13.14,Hummvee Plus Glove II,Black,S
E1160BK/4       ,1,13.14,Hummvee Plus Glove II,Black,M
E1160BK/5       ,2,26.28,Hummvee Plus Glove II,Black,L
E1160BK/6       ,2,26.28,Hummvee Plus Glove II,Black,XL
E1160BK/7       ,1,13.14,Hummvee Plus Glove II,Black,XXL
E1199NA/4       ,1,17.55,SingleTrack LiteKnit Glove,Navy,M
E1199NA/5       ,2,35.10,SingleTrack LiteKnit Glove,Navy,L
E1199NA/6       ,2,35.10,SingleTrack LiteKnit Glove,Navy,XL
E1199NA/7       ,1,17.55,SingleTrack LiteKnit Glove,Navy,XXL
E1199RR/4       ,1,17.55,SingleTrack LiteKnit Glove,Rust Red,M
E1199RR/5       ,2,35.10,SingleTrack LiteKnit Glove,Rust Red,L
E1199RR/6       ,2,35.10,SingleTrack LiteKnit Glove,Rust Red,XL
E1199RR/7       ,1,17.55,SingleTrack LiteKnit Glove,Rust Red,XXL
E1204GC/3       ,1,10.98,Hummvee Lite Glove II,Grey Camo,S
E1204GC/4       ,1,10.98,Hummvee Lite Glove II,Grey Camo,M
E1204GC/5       ,1,10.98,Hummvee Lite Glove II,Grey Camo,L
E1204GC/6       ,1,10.98,Hummvee Lite Glove II,Grey Camo,XL
E1204GC/7       ,1,10.98,Hummvee Lite Glove II,Grey Camo,XXL
E1165BK/3       ,1,10.98,Xtract Mitt II,Black,S
E1165BK/4       ,2,21.96,Xtract Mitt II,Black,M
E1165BK/5       ,2,21.96,Xtract Mitt II,Black,L
E1165BK/6       ,2,21.96,Xtract Mitt II,Black,XL
E1165BK/7       ,1,10.98,Xtract Mitt II,Black,XXL
E1165RD/3       ,1,10.98,Xtract Mitt II,Red,S
E1165RD/4       ,2,21.96,Xtract Mitt II,Red,M
E1165RD/5       ,2,21.96,Xtract Mitt II,Red,L
E1165RD/6       ,2,21.96,Xtract Mitt II,Red,XL
E1165RD/7       ,1,10.98,Xtract Mitt II,Red,XXL
E1166WH/3       ,1,17.55,FS260-Pro Aerogel Mitt,White,S
E1166WH/4       ,2,35.10,FS260-Pro Aerogel Mitt,White,M
E1166WH/5       ,2,35.10,FS260-Pro Aerogel Mitt,White,L
E1166WH/6       ,2,35.10,FS260-Pro Aerogel Mitt,White,XL
E1166WH/7       ,1,17.55,FS260-Pro Aerogel Mitt,White,XXL
E1201BK/S-M     ,2,10.90,SingleTrack Sock II LTD,Black,S-M
E1201BK/L-XL    ,2,10.90,SingleTrack Sock II LTD,Black,L-XL
E1170BK/0       ,1,22.00,Hummvee Glasses,Black,One size
E1170GY/0       ,1,22.00,Hummvee Glasses,Grey,One size
E1171BK/0       ,1,41.27,FS260-Pro Glasses,Black,One size
E1171WH/0       ,1,41.27,FS260-Pro Glasses,White,One size
E1174BK/0       ,1,36.66,SingleTrack Glasses,Black,One size
E1174GY/0       ,1,36.66,SingleTrack Glasses,Grey ,One size
E1174PT/0       ,1,36.66,SingleTrack Glasses,Petrol,One size
E1108BK/S-M     ,1,27.54,SingleTrack Knee Protector,Black,S-M
E1108BK/L-XL    ,1,27.54,SingleTrack Knee Protector,Black,L-XL
E7131BK/K9      ,1,25.19,SingleTrack Youth Knee Protector,Black,9-10yrs
E7131BK/K11     ,1,25.19,SingleTrack Youth Knee Protector,Black,11-12yrs
E7132BK/K9      ,1,22.94,SingleTrack Youth Elbow Protector,Black,9-10yrs
E7132BK/K11     ,1,22.94,SingleTrack Youth Elbow Protector,Black,11-12yrs
E8093BK/4       ,1,36.66,MT500 Protector Undershorts II,Black,M
E8093BK/5       ,1,36.66,MT500 Protector Undershorts II,Black,L
E8093BK/6       ,1,36.66,MT500 Protector Undershorts II,Black,XL
E1109BK/S-M     ,1,25.19,SingleTrack Elbow Protector,Black,S-M
E1109BK/M-L     ,1,25.19,SingleTrack Elbow Protector,Black,M-L
E1109BK/L-XL    ,1,25.19,SingleTrack Elbow Protector,Black,L-XL
