INVOICE,SIN611996
YOUR REF,SS20 SMS
DATE,04/06/2019
VALUE,320.35


SKU,Qty,Value,Name,Colour,Size
E6167CC/3       ,1,46.30,Women's MT500 Spray Short II,Cocoa,S
E6170CR/3       ,1,39.00,Women's SingleTrack Lite Short,Coral,S
E6170GK/3       ,1,39.00,Women's SingleTrack Lite Short,Kingfisher,S
E6171BP/3       ,1,36.60,Women's Hummvee Lite Short with Liner,Pacific Blue,S
E7143OT/K9      ,1,26.10,Kids MT500JR Baggy Short with Liner,Tangerine,9-10yrs
E8064CC/4       ,1,31.80,Hummvee Short II with liner,Cocoa,M
E8066GC/4       ,1,36.60,Hummvee 3/4 Short II with liner,Grey Camo,M
E8101BK/4       ,1,46.30,MT500 Spray Short        ,Black,M
E8101CC/4       ,1,46.30,MT500 Spray Short        ,Cocoa,M
E8102BK/4       ,1,36.60,SingleTrack Short II,Black,M
E8102GF/4       ,1,36.60,SingleTrack Short II,Forest Green,M
E8103BK/S4      ,1,39.00,SingleTrack Lite Short,Black,S4
E8103OT/4       ,1,39.00,SingleTrack Lite Short,Tangerine,M
E8104BA/4       ,1,36.60,Hummvee Lite Short with Liner,Azure Blue,M
E8104BK/4       ,1,36.60,Hummvee Lite Short with Liner,Black,M
E9147BK/4       ,1,68.30,SingleTrack Jacket,Black,M
