E9102GV/5,1
E1117BK/5,1
E9106BK/5,1
E3134BK/7,1
E6040BK/4,1
E6040BK/5,1
E1186BK/4,1
E8064BK/5,1
E6147CE/4,1
E1251CL,1
E4055BK/4,1
E9142GK/6,1
E3181NA/3,1
E8088BK/5,1
E1222BK/0,1
E1223BK/S-M,1
E1226BK/0,1
E1216BK/3,1
E1224BK/3,1
E1217BK/5,1
E0110BP/0,1
