E9104CO/3,1
E1030BK/S-M,1
E0053,1
E0110BK,2
E1160BK/4,2
E1160BK/7,1
E1024BK/5,1
E6147BK/5,2
E1184NA/5,1
E6105WH/3,1
E0006/5,1
E6147BK/4,2
E6147BK/3,2
E9100MY/5,1
E1186BK/6,1
E0068Y/4,1
E0068Y/5,2
E0068Y/6,1
E5056BK/8,1
E0076BK/5,1
E1184NA/7,1
E8064BK/4,1
E1160BK/5,2
E1186BK/4,1
E1154BK/L-XL,1
E1154BK/M-L,1
E1186BK/5,1
E0006/3,2
E0076BK/6,1
E1042BK/L-XL,1
E1038BK/S-M,1
E6147CE/4,1
E6106BK/3,1
E6067BK/3,1
E1120BK/4,1
E1120BK/5,1
E0110UM,1
