SKU,Maximum allowed,Barcode/EAN,Days left
E6139BK/4,1,5055939932859       ,149
E1050BK/L-XL,1,5055939928210       ,195
E1050BK/S-M,1,5055939928227       ,195
E1052BK/L-XL,2,5055939958040       ,195
E1052BK/M-L,2,5055939958033       ,195
E1052BK/S-M,2,5055939958026       ,195
E1117BK/4,1,5055205390123       ,195
E1117BK/5,1,5055205390130       ,195
E1117BK/6,1,5055205390147       ,195
E1152BK/5,1,5055939923918       ,195
E1152BK/6,1,5055939923925       ,195
E1152BK/7,1,5055939923932       ,195
E1187BK/6,1,5055939944791       ,195
E1219BK/L-XL,2,5055939958545       ,195
E1219BK/S-M,2,5055939958538       ,195
E1220BK/L-XL,1,5055939958569       ,195
E1220BK/S-M,1,5055939958552       ,195
E1224BK/5,1,5055939966281       ,195
E3193BK/4,1,5055939975788       ,195
E3193BK/5,1,5055939975795       ,195
E3193YV/4,1,5055939975849       ,195
E3193YV/5,1,5055939975856       ,195
E6124BK/2,1,5055939932996       ,195
E6124BK/3,1,5055939933009       ,195
E6124BK/4,1,5055939933016       ,195
E6124BK/5,1,5055939933023       ,195
E7117BK/3,1,5055939917016       ,195
E7117BK/4,1,5055939917023       ,195
E7117BK/6,1,5055939917047       ,195
E7117BK/7,1,5055939917054       ,195
E9144BK/4,1,5055939957562       ,195
E0130BK/4,1,5055939918006       ,206
E0130BK/5,1,5055939918013       ,206
E1187BK/4,1,5055939944777       ,206
E1187BK/5,1,5055939944784       ,206
