INVOICE,SIN570133
YOUR REF,SOR345780
DATE,06/11/2018
VALUE,283.22


SKU,Qty,Value,Name,Colour,Size
E1024BK/5       ,1,19.50,Wms Engineered Padded Knicker,Black,L
E6146BK/5       ,1,53.80,Wms FS260-Pro Thermo Tight ,Black,L
E1005BK/S-M     ,3,36.46,Windchill Skullcap,Black,S-M
E1005BK/L-XL    ,3,36.46,Windchill Skullcap,Black,L-XL
E8074BK/3       ,1,68.50,MT500 Spray Trouser II,Black,S
E8074BK/4       ,1,68.50,MT500 Spray Trouser II,Black,M
