INVOICE,SIN628784
YOUR REF,SOR386616
DATE,10/09/2019
VALUE,254.87


SKU,Qty,Value,Name,Colour,Size
E8075BK/4       ,1,34.20,Hummvee Zip-Off Trouser II,Black,M
E8064BK/4       ,1,29.20,Hummvee Short II with liner,Black,M
E9117BK/5       ,1,96.90,MT500 Waterproof Jacket,Black,L
E9058BK/6       ,1,12.75,Wms Pakajak,Black,XL
E9100MY/7       ,1,39.34,Women's SingleTrack Jacket II,Mulberry,XXL
