SKU,Maximum allowed,Barcode/EAN,Days left
E1130WH/L-XL,3,5055205398655       ,2
E1130WH/S-M,3,5055205399621       ,2
E1505WH/M-L,1,5055939904559       ,2
E1505WH/S-M,1,5055939904566       ,2
E7117RD/4,1,5055939917894       ,2
E7117RD/5,1,5055939917900       ,2
E1511WH/L-XL,1,5055939930183       ,20
E5069BK/6,1,5055939951607       ,20
E7117RD/4,1,5055939917894       ,20
E7117RD/5,1,5055939917900       ,20
E0073,2,5055205338118       ,60
E0151GC/0,2,5055939960715       ,60
E0153BK/L-XL,2,5055939965970       ,60
E0153BK/S-M,2,5055939958132       ,60
E0154BK/L-XL,2,5055939965987       ,60
E0154BK/S-M,2,5055939958149       ,60
E1108BK/S-M,1,5055205387970       ,60
E1185BK/4,1,5055939944531       ,60
E1185BK/5,2,5055939944548       ,60
E1185BK/6,2,5055939944555       ,60
E1185BK/7,1,5055939944562       ,60
E1216BK/4,2,5055939958354       ,60
E1216BK/5,2,5055939958361       ,60
E1216BK/6,2,5055939958378       ,60
E1216BK/7,1,5055939958385       ,60
E1219BK/L-XL,2,5055939958545       ,60
E1219BK/S-M,2,5055939958538       ,60
E1505MB/M-L,1,5055939904481       ,60
E1505RD/M-L,1,5055939951270       ,60
E5049BK/4,1,5055939924533       ,60
E5049BK/5,2,5055939924540       ,60
E5049BK/6,2,5055939924557       ,60
E5049BK/7,2,5055939924564       ,60
E9146MY/3,1,5055939959252       ,60
E0152BK/L-XL,1,5055939958125       ,61
E1108BK/L-XL,1,5055205387987       ,61
E3161BK/4,1,5055939944968       ,61
E3161BK/5,1,5055939944975       ,61
E3181RR/4,1,5055939958293       ,61
E3181RR/5,1,5055939958309       ,61
E1053BK/M-L,1,5055939958064       ,73
E3161BK/6,1,5055939944982       ,73
E9143GK/4,1,5055939957517       ,73
E9143GK/5,1,5055939957524       ,73
E9143GK/6,1,5055939957531       ,73
E1160BK/4,1,5055939928500       ,121
E1160BK/5,1,5055939928517       ,121
E1160BK/6,1,5055939928524       ,121
E1185BK/5,2,5055939944548       ,121
E1218BK/S-M,1,5055939958507       ,121
E3161BK/3,1,5055939944951       ,121
E3161BK/4,2,5055939944968       ,121
E3161BK/5,1,5055939944975       ,121
E5049BK/5,2,5055939924540       ,121
E9106BK/4,1,5055939935263       ,121
E9106BK/5,1,5055939935270       ,121
E9106BK/6,1,5055939935287       ,121
E9106GV/4,1,5055939935317       ,121
E3178BK/3,1,5055939957869       ,135
E9142BK/3,1,5055939957357       ,135
EM0057BK/5,1,5055939925967       ,135
E3178BK/4,1,5055939957876       ,160
E8064NA/5,1,5055939950914       ,160
E1505MB/L-XL,1,5055939904474       ,185
E8064BK/8,1,5055939916026       ,185
E1166BK/2,1,5055939929057       ,207
E1166BK/3,2,5055939929064       ,207
E1166BK/4,2,5055939929071       ,207
E1166BK/5,2,5055939929088       ,207
E1166BK/6,2,5055939929095       ,207
E1166BK/7,2,5055939929101       ,207
E1166RR/2,1,5055939974897       ,207
E1166RR/3,2,5055939974903       ,207
E1166RR/4,2,5055939974910       ,207
E1166RR/5,2,5055939974927       ,207
E1166RR/6,2,5055939974934       ,207
E1166RR/7,2,5055939974941       ,207
E1166WH/2,1,5055939929231       ,207
E1166WH/3,2,5055939929248       ,207
E1166WH/4,2,5055939929255       ,207
E1166WH/5,2,5055939929262       ,207
E1166WH/6,2,5055939929279       ,207
E1166WH/7,2,5055939929286       ,207
E3167WH/L-XL,2,5055939954073       ,207
E3167WH/S-M,2,5055939954066       ,207
E3192GK/3,1,5055939974637       ,207
E3192GK/4,1,5055939974644       ,207
E3192GK/5,1,5055939974651       ,207
E3192GK/6,1,5055939974668       ,207
E4068GY/4,2,5055939975429       ,207
E4068GY/5,2,5055939975436       ,207
E4068GY/6,2,5055939975443       ,207
E6132BK/2,1,5055939933719       ,207
E6132BK/3,1,5055939933726       ,207
E6132BK/4,1,5055939933733       ,207
E6132BK/5,1,5055939933740       ,207
E6171BP/3,1,5055939973616       ,207
E6171BP/4,1,5055939973623       ,207
E6171BP/5,1,5055939973630       ,207
E6174WH/3,1,5055939976167       ,207
E6174WH/4,1,5055939976174       ,207
E6174WH/5,1,5055939976181       ,207
E6187GK/2,1,5055939977522       ,207
E6187GK/3,1,5055939977539       ,207
E7117BK/4,2,5055939917023       ,207
E7117BK/5,2,5055939917030       ,207
E7117BK/6,1,5055939917047       ,207
E8064CC/3,1,5055939972220       ,207
E8064CC/4,1,5055939972237       ,207
E8064CC/5,1,5055939972244       ,207
E8064CC/6,1,5055939972251       ,207
E9106BK/3,1,5055939935256       ,207
E9106BK/4,1,5055939935263       ,207
E9106BK/5,1,5055939935270       ,207
E9106BK/6,1,5055939935287       ,207
E9151BK/3,1,5055939975894       ,207
E9151BK/4,1,5055939975900       ,207
E9151BK/5,1,5055939975917       ,207
