SKU,Maximum allowed,Barcode/EAN,Days left
E1108BK/L-XL,3,5055205387987       ,77
E1108BK/S-M,4,5055205387970       ,77
E1109BK/L-XL,2,5055205388014       ,77
E1109BK/M-L,2,5055205388007       ,77
E1109BK/S-M,1,5055205387994       ,77
E6108BK/3,1,5055939919591       ,77
E6108BK/4,1,5055939919607       ,77
E9102GV/4,1,5055939925578       ,77
E0132BK/5,1,5055939915029       ,209
E1160BK/5,2,5055939928517       ,209
E1160BK/6,2,5055939928524       ,209
E6066BK/4,1,5055205363745       ,209
E6108BK/5,1,5055939919614       ,209
E8064BK/5,2,5055939915999       ,209
E8064BK/6,2,5055939916002       ,209
E8064GY/4,1,5055939916224       ,209
E8064GY/5,1,5055939916231       ,209
E8064GY/6,1,5055939916248       ,209
E8065BK/4,1,5055939919157       ,209
E8065BK/5,1,5055939919164       ,209
