SKU,Maximum allowed,Barcode/EAN,Days left
E0128BK/3,1,5055939904924       ,21
E0128BK/4,1,5055939904931       ,21
E0128BK/5,1,5055939904948       ,21
E0128BK/6,1,5055939904955       ,21
E0128BK/7,1,5055939904962       ,21
E1511RR/M-L,1,5055939959627       ,21
E1511RR/S-M,1,5055939959610       ,21
E8084CC/4,1,5055939961040       ,21
E8084CC/5,1,5055939961057       ,21
E8100BK/4,1,5055939959146       ,21
E8100BK/5,1,5055939959153       ,21
E9099CC/3,1,5055939960302       ,42
E9099CC/4,1,5055939960319       ,42
E9117YM/4,1,5055939960999       ,42
E9117YM/5,1,5055939961002       ,42
E9117YM/6,1,5055939961019       ,42
E8083BK/4,1,5055939942322       ,50
E8083BK/5,1,5055939942339       ,50
E0035/3,2,5055205301440       ,154
E3158BK/3,1,5055939942414       ,154
E8084BK/3,1,5055939942360       ,154
E9146MY/3,1,5055939959252       ,154
E1165BK/4,1,5055939928852       ,203
E1165BK/5,2,5055939928869       ,203
E1199NA/3,1,5055939949741       ,203
E1199RR/5,1,5055939949710       ,203
E1199RR/6,1,5055939949727       ,203
E1506BK/L-XL,1,5055939920061       ,203
E1506BK/M-L,1,5055939920054       ,203
E1506BK/S-M,1,5055939920047       ,203
E1511BK/L-XL,1,5055939930121       ,203
E1511BK/M-L,1,5055939930138       ,203
E1511BK/S-M,1,5055939930145       ,203
E1511RR/M-L,1,5055939959627       ,203
E1511RR/S-M,1,5055939959610       ,203
E5073YM/4,1,5055939977744       ,203
E5073YM/5,1,5055939977751       ,203
E7136WH/0,1,5055939948942       ,203
E9117CC/4,1,5055939960937       ,203
E6066BK/3,1,5055205363738       ,204
E9099CC/2,1,5055939960296       ,204
E9125MY/2,1,5055939944142       ,204
E1258OT/3,1,5055939972701       ,211
E1258OT/4,2,5055939972718       ,211
E1258OT/5,2,5055939972725       ,211
E1258OT/6,1,5055939972732       ,211
E1258YM/3,1,5055939972756       ,211
E1258YM/4,2,5055939972763       ,211
E1258YM/5,2,5055939972770       ,211
E1258YM/6,1,5055939972787       ,211
E6172CC/2,1,5055939973814       ,211
E6172CC/3,1,5055939973821       ,211
E6172CC/4,1,5055939973838       ,211
