INVOICE,SIN652578
YOUR REF,SOR401581
DATE,12/19/2019
VALUE,190.1


SKU,Qty,Value,Name,Colour,Size
E1042BK/L-XL    ,3,55.50,Hummvee Waterproof Short Sock ,Black,L-XL
E5056BK/4       ,3,117.00,Xtract Bibtight,Black,M
E1227BK/L-XL    ,2,17.60,BaaBaa Merino Winter Sock (Single),Black,L-XL
