SKU,Maximum allowed,Barcode/EAN,Days left
E0128BK/6,1,5055939904955       ,0
E0128BK/7,1,5055939904962       ,0
E0128YV/5,1,5055939909639       ,0
E1039BK/L-XL,1,5055939906720       ,0
E1039BK/S-M,1,5055939906713       ,0
E1145BK/6,1,5055939908212       ,0
E1145BK/7,1,5055939910659       ,0
E1145GV/5,1,5055939910697       ,0
E1145GV/6,1,5055939910703       ,0
E1146BK/L-XL,4,5055939909721       ,0
E1146BK/S-M,4,5055939909714       ,0
E3108BK/6,1,5055939909318       ,0
E3108BK/7,1,5055939909325       ,0
E3119BK/4,1,5055939924083       ,0
E3119BK/5,1,5055939924090       ,0
E3119BK/6,1,5055939924106       ,0
E3119BV/5,1,5055939941295       ,0
E3119BV/6,1,5055939941301       ,0
E3134BK/7,1,5055939924410       ,0
E3134GV/6,1,5055939924458       ,0
E3134RD/4,1,5055939924335       ,0
E3158BK/4,1,5055939942421       ,0
E3158BK/7,1,5055939942452       ,0
E3158OM/5,1,5055939942483       ,0
E3158OM/6,1,5055939942490       ,0
E6130CR/4,1,5055939933573       ,0
E9103BK/5,1,5055939925639       ,0
E9103GV/6,1,5055939925691       ,0
E9105BK/5,1,5055939925813       ,0
E9106BK/6,1,5055939935287       ,0
E9106BV/5,1,5055939941394       ,0
E9106BV/6,1,5055939941400       ,0
E9117OM/6,1,5055939942292       ,0
E9128GY/6,1,5055939943589       ,0
E9130NA/6,1,5055939943718       ,0
EM0057BK/4,1,5055939925950       ,0
EM0057BK/5,1,5055939925967       ,0
EM0057BK/6,1,5055939925974       ,0
EM0057BK/7,1,5055939925981       ,0
EM0057NA/4,1,5055939926001       ,0
EM0057NA/5,1,5055939926018       ,0
EM0057NA/6,1,5055939926025       ,0
EM0057NA/7,1,5055939926032       ,0
E3069BV/7,1,5055939941363       ,2
E9124NA/4,1,5055939944104       ,5
E9124NA/5,1,5055939944111       ,5
E9124NA/6,1,5055939944128       ,5
E9124PW/5,1,5055939944067       ,5
E9124PW/6,1,5055939944074       ,5
E9125MY/4,1,5055939944166       ,5
E3161BK/4,1,5055939944968       ,8
E6130CR/2,1,5055939933559       ,8
E3132BK/4,2,5055939921846       ,22
E0062/5,1,5055205323787       ,26
E1301BK/5,1,5055205363547       ,26
E8062BK/3,1,5055205398587       ,26
E8064BC/7,1,5055939936819       ,26
E8089BK/4,1,5055939944388       ,26
E8089BK/5,1,5055939944395       ,26
E9128GY/4,1,5055939943565       ,26
E9128GY/5,1,5055939943572       ,26
E3161BK/3,2,5055939944951       ,27
E3161BK/5,2,5055939944975       ,27
E3161BK/6,1,5055939944982       ,27
E0004/L-XL,2,5055205300153       ,30
E0004/S-M,2,5055205300160       ,30
E0127BK/4,1,5055939904825       ,30
E0127BK/5,1,5055939904832       ,30
E0127BK/6,1,5055939904849       ,30
E1032BK/L-XL,2,5055205398006       ,30
E1032BK/S-M,2,5055205398013       ,30
E1036BK/L-XL,2,5055939905099       ,30
E1036BK/S-M,2,5055939905082       ,30
E1037BK/L-XL,1,5055939905129       ,30
E1037BK/S-M,1,5055939905105       ,30
E1038BK/L-XL,5,5055939906706       ,30
E1038BK/S-M,5,5055939906690       ,30
E1050BK/L-XL,1,5055939928210       ,30
E1050BK/S-M,1,5055939928227       ,30
E1137BK/0,1,5055939901350       ,30
E1182BK/L-XL,4,5055939942629       ,30
E1182BK/S-M,4,5055939942612       ,30
E1192BK/0,2,5055939945316       ,30
E1192NA/0,1,5055939945330       ,30
E3151NA/5,1,5055939938790       ,30
E3151NA/6,1,5055939938806       ,30
E9124NA/6,2,5055939944128       ,35
E9111BK/6,1,5055939935706       ,55
E0095/4,2,5055205344331       ,62
E0095/5,2,5055205344348       ,62
E0095/6,2,5055205344355       ,62
E0150BK/0,1,5055939936925       ,62
E1026BK/4,1,5055205381008       ,62
E1145BK/5,1,5055939908205       ,62
E1192NA/0,1,5055939945330       ,62
E3025/4,2,5055205303888       ,62
E3025/5,2,5055205303895       ,62
E3069BK/4,1,5055939904740       ,62
E3069BK/5,1,5055939904757       ,62
E3069BV/5,1,5055939941349       ,62
E3073BK/6,1,5055205360997       ,62
E3078BK/6,1,5055205369761       ,62
E3103BK/6,1,5055205398082       ,62
E3151NA/5,1,5055939938790       ,62
E3161BK/5,2,5055939944975       ,62
E5022BK/4,1,5055205360867       ,62
E5022BK/5,2,5055205360874       ,62
E5022BK/6,1,5055205360881       ,62
E5049BK/3,1,5055939924526       ,62
E5049BK/4,2,5055939924533       ,62
E5049BK/5,2,5055939924540       ,62
E5049BK/6,2,5055939924557       ,62
E7125BK/4,1,5055939924625       ,62
E7125BK/5,1,5055939924632       ,62
E7125BK/6,1,5055939924649       ,62
E9095BK/3,1,5055939918051       ,62
E9095BK/4,2,5055939918068       ,62
E9095BK/5,2,5055939918075       ,62
E9095BK/6,1,5055939918082       ,62
E9107BK/3,1,5055939935409       ,62
E9107BK/4,2,5055939935416       ,62
E9107BK/5,2,5055939935423       ,62
E9107BK/6,1,5055939935430       ,62
E9111BK/7,1,5055939935713       ,62
E3161BK/4,6,5055939944968       ,64
E0053,4,5055205317649       ,75
E0095/4,1,5055205344331       ,75
E0095/5,1,5055205344348       ,75
E0095/6,1,5055205344355       ,75
E1023BK/4,2,5055205372402       ,75
E1023BK/5,2,5055205372419       ,75
E1026BK/4,1,5055205381008       ,75
E1134BK/0,1,5055939902470       ,75
E1599BK,1,5055205364827       ,75
E5022BK/5,2,5055205360874       ,75
E7125BK/4,1,5055939924625       ,75
E7125BK/5,1,5055939924632       ,75
E0095/3,1,5055205344324       ,85
E0095/6,1,5055205344355       ,85
E0128BK/4,1,5055939904931       ,85
E0128BK/5,1,5055939904948       ,85
E1023BK/3,1,5055205372396       ,85
E1039BK/L-XL,2,5055939906720       ,85
E1117BK/5,1,5055205390130       ,85
E1120BK/5,1,5055205390239       ,85
E3115BK/5,1,5055939908540       ,85
E3115BK/6,1,5055939908557       ,85
E3133GY/4,1,5055939924281       ,85
E3134BK/4,1,5055939924380       ,85
E3134BK/5,1,5055939924397       ,85
E3158BK/4,1,5055939942421       ,85
E5049BK/6,1,5055939924557       ,85
E7125BK/4,1,5055939924625       ,85
E7125BK/5,1,5055939924632       ,85
E8062BK/2,1,5055205398570       ,85
E9124NA/5,1,5055939944111       ,85
E7125BK/4,1,5055939924625       ,90
E0006/5,2,5055205313610       ,105
E3132BV/5,1,5055939940298       ,105
E9122BV/5,2,5055939945439       ,105
E0128BK/6,1,5055939904955       ,106
E1039BK/S-M,1,5055939906713       ,106
E6122BK/2,1,5055939932873       ,106
E9122BK/6,1,5055939945392       ,121
E1166BK/4,1,5055939929071       ,146
E3109YV/5,2,5055939909028       ,146
E3134GV/4,1,5055939924434       ,146
E3134GV/5,1,5055939924441       ,146
E3134GV/7,1,5055939924465       ,146
E3161BK/5,2,5055939944975       ,146
E3161BK/6,1,5055939944982       ,146
E3163BK/5,2,5055939945996       ,146
E3163BK/6,2,5055939946009       ,146
E4043BK/5,2,5055939931845       ,146
E9122BV/6,1,5055939945446       ,153
E9122BK/5,1,5055939945385       ,162
E1129WH/0,3,5055205398648       ,180
E4043BK/4,2,5055939931838       ,180
E4043BK/5,2,5055939931845       ,180
E4043BK/6,2,5055939931852       ,180
E4043BK/7,1,5055939931869       ,180
E4054BK/3,1,5055939953168       ,180
E4054BK/4,3,5055939953175       ,180
E4054BK/5,4,5055939953182       ,180
E4054BK/6,4,5055939953199       ,180
E4054BK/7,4,5055939953205       ,180
E4054BK/8,2,5055939955094       ,180
E4054RD/3,1,5055939953212       ,180
E4054RD/4,3,5055939953229       ,180
E4054RD/5,4,5055939953236       ,180
E4054RD/6,4,5055939953243       ,180
E4054RD/7,4,5055939953250       ,180
E5068AN/3,1,5055939951348       ,180
E5068AN/4,2,5055939951355       ,180
E5068AN/5,3,5055939951362       ,180
E5068AN/7,1,5055939951386       ,180
E5069BK/4,2,5055939951584       ,180
E5069BK/5,2,5055939951591       ,180
E5069BK/6,2,5055939951607       ,180
E5069BK/7,1,5055939951614       ,180
E5073BA/4,1,5055939949109       ,180
E5073BA/5,1,5055939949116       ,180
E5073BA/6,2,5055939949123       ,180
E5073BA/7,1,5055939949130       ,180
E5073GF/4,1,5055939949154       ,180
E5073GF/5,1,5055939949161       ,180
E5073GF/6,2,5055939949178       ,180
E5073GF/7,1,5055939949185       ,180
E5073RR/4,1,5055939949208       ,180
E5073RR/5,1,5055939949215       ,180
E5073RR/6,2,5055939949222       ,180
E5073RR/7,1,5055939949239       ,180
E6095BK/2,2,5055939901114       ,180
E6095BK/3,2,5055939901121       ,180
E6095BK/4,3,5055939901138       ,180
E6095BK/5,1,5055939901145       ,180
E6097BK/2,2,5055939901206       ,180
E6097BK/3,2,5055939901213       ,180
E6151GK/2,1,5055939950280       ,180
E6151GK/3,2,5055939950297       ,180
E6151GK/4,2,5055939950303       ,180
E6151GK/5,1,5055939950310       ,180
E6153BK/2,1,5055939953274       ,180
E6153BK/3,2,5055939953281       ,180
E6153BK/4,2,5055939953298       ,180
E7118BK/3,1,5055939914879       ,180
E7118BK/4,2,5055939914886       ,180
E7118BK/5,3,5055939914893       ,180
E7118BK/6,2,5055939914909       ,180
E7118BK/7,2,5055939914916       ,180
E9106BK/4,2,5055939935263       ,180
E9106BK/5,2,5055939935270       ,180
E9106BK/6,2,5055939935287       ,180
E9106BK/7,2,5055939935294       ,180
E9108CE/2,1,5055939935546       ,180
E9108CE/3,1,5055939935553       ,180
E9108CE/4,1,5055939935560       ,180
E0114YV/S-M,1,5055205380056       ,207
E1128WH/S-M,2,5055205399614       ,207
E1130WH/S-M,2,5055205399621       ,207
E1165BK/4,2,5055939928852       ,207
E1165BK/5,3,5055939928869       ,207
E1165BK/6,2,5055939928876       ,207
E1165BK/7,1,5055939928883       ,207
E1167WH/4,1,5055939929439       ,207
E1167WH/5,2,5055939929446       ,207
E1167WH/6,1,5055939929453       ,207
E1192BK/0,1,5055939945316       ,207
E3069BK/5,1,5055939904757       ,207
E3069BV/5,1,5055939941349       ,207
E3125NA/6,2,5055939950853       ,207
E3125NA/7,3,5055939950860       ,207
E3143AN/4,2,5055939936109       ,207
E3151NA/4,1,5055939938783       ,207
E3158OM/5,1,5055939942483       ,207
E3158OM/6,1,5055939942490       ,207
E3158OM/7,1,5055939942506       ,207
E3174WH/2,1,5055939952840       ,207
E3174WH/3,1,5055939952857       ,207
E3174WH/4,2,5055939952864       ,207
E3174WH/5,2,5055939952871       ,207
E3174WH/6,2,5055939952888       ,207
E3174WH/7,2,5055939952895       ,207
E5067BK/4,2,5055939950723       ,207
E5067BK/5,2,5055939950730       ,207
E5067BK/6,2,5055939950747       ,207
E5067BK/7,2,5055939950754       ,207
E5067NA/4,2,5055939950778       ,207
E5067NA/5,2,5055939950785       ,207
E5067NA/6,2,5055939950792       ,207
E5067NA/7,2,5055939950808       ,207
E5068AN/6,3,5055939951379       ,207
E6097BK/4,1,5055939901220       ,207
E6152CO/2,2,5055939951027       ,207
E6152CO/3,2,5055939951034       ,207
E6152CO/4,2,5055939951041       ,207
E6152CO/5,1,5055939951058       ,207
E6152RD/2,2,5055939951072       ,207
E6152RD/3,2,5055939951089       ,207
E6152RD/4,2,5055939951096       ,207
E6152RD/5,1,5055939951102       ,207
E7117RD/5,1,5055939917900       ,207
E9138GC/5,1,5055939949062       ,207
E9138GC/6,1,5055939949079       ,207
E9138GC/7,1,5055939949086       ,207
