INVOICE,SIN639542
YOUR REF,SOR392308
DATE,21/10/2019
VALUE,374.2


SKU,Qty,Value,Name,Colour,Size
E9150GK/4       ,1,69.90,Women's SingleTrack Jacket,Kingfisher,M
E6066BK/4       ,1,34.90,Women's Gridlock II Trouser,Black,M
E1505RD/L-XL    ,1,24.90,Hummvee Helmet,Red,L-XL
E8074BK/6       ,1,69.90,MT500 Spray Trouser II,Black,XL
E1103BK         ,1,99.90,Roller Kit Bag,Black,One size
E1053BK/M-L     ,1,29.90,Pro SL Leg Warmers II,Black,M-L
E1505MB/L-XL    ,1,24.90,Hummvee Helmet,Matt Black,L-XL
E1118BK/5       ,1,19.90,MT500 Overshoe II ,Black,L
