SKU,Maximum allowed,Barcode/EAN,Days left
E0150BK/0,2,5055939936925       ,56
E0150NA/0,1,5055939936932       ,56
E0151KH/0,2,5055939936963       ,56
E0151MY/0,1,5055939936956       ,56
E0151PT/0,1,5055939936949       ,56
E1160BK/5,1,5055939928517       ,56
E1160BK/6,1,5055939928524       ,56
E1160RD/4,1,5055939928623       ,56
E1160RD/5,1,5055939928630       ,56
E1160RD/6,1,5055939928647       ,56
E1186GV/4,2,5055939944685       ,56
E1186GV/6,2,5055939944708       ,56
E1511BK/M-L,1,5055939930138       ,56
E1511PT/M-L,1,5055939930169       ,56
E3025/3,1,5055205303871       ,56
E3025/4,2,5055205303888       ,56
E3025/5,2,5055205303895       ,56
E5049BK/5,1,5055939924540       ,56
E7128GY/0,3,5055939934426       ,56
E9102BK/4,1,5055939925523       ,56
EM0057BK/4,1,5055939925950       ,56
E6104CE/2,1,5055939915692       ,76
E3109OC/4,1,5055939909110       ,97
E3109OC/5,1,5055939909127       ,97
E3109RD/4,1,5055939909066       ,97
E3109YV/4,2,5055939909011       ,97
E3109YV/5,2,5055939909028       ,97
E1050BK/S-M,1,5055939928227       ,167
E7128KH/0,2,5055939951324       ,167
E1150BK/0,3,5055939915227       ,216
E1204BK/4,1,5055939950570       ,216
E1204BK/5,1,5055939950587       ,216
E1204BK/6,1,5055939950594       ,216
E1204GC/6,1,5055939950693       ,216
E1513RD/M-L,1,5055939955025       ,216
E1513WH/M-L,1,5055939930343       ,216
E3109YV/4,1,5055939909011       ,216
E3109YV/5,1,5055939909028       ,216
E3173BK/3,1,5055939949598       ,216
E3173BK/4,1,5055939949604       ,216
E3173GF/3,1,5055939949642       ,216
E7127BK/3,2,5055939934358       ,216
E7127BK/4,2,5055939934365       ,216
E7127RD/3,2,5055939934389       ,216
E7128GY/0,2,5055939934426       ,216
E7128KH/0,2,5055939951324       ,216
E8064GY/3,1,5055939916217       ,216
E8064GY/4,1,5055939916224       ,216
E8069BK/3,2,5055939916552       ,216
E8069BK/4,2,5055939916569       ,216
