E1108BK/S-M,1
E0052BC,2
E0053BC,2
E4013BK/5,1
E1160KH/6,1
E1184BK/6,2
E1184NA/5,1
E5050BK/7,1
E6146BK/5,1
E7120BK/4,1
E8081BK/4,1
E0004/S-M,1
E0004/L-XL,1
E0006/5,2
E9120KH/4,1
E1160BK/3,1
E6120BK/4,1
E6147BK/4,2
E0095GV/3,1
E9120YV/6,2
E9120YV/7,1
E9114GV/5,1
E9115CO/5,2
E1186BK/6,1
E4027BK/5,1
E0128BK/6,1
E0068Y/6,1
E0128YV/2,1
E6040BK/5,1
E8062BK/4,1
E5056BK/5,2
E8064BK/4,1
E1165RD/4,1
E1186BK/4,2
E1118BK/7,3
E1030BK/M-L,2
E1154BK/L-XL,1
E1118BK/6,3
E1118BK/5,3
E1032BK/L-XL,1
E9068GV/4,2
E1019RD/4,1
E1186BK/5,2
E0038OC/5,3
E0006/3,1
E0128YV/4,1
E1186GV/5,2
E1186GV/6,1
E3029/6,1
E9114GV/7,1
E6147CE/4,2
E8090AN/7,1
E9068GV/5,2
E1186GV/7,1
E6147CE/5,1
E9027W/7,1
E0076BK/4,1
E1120BK/4,1
E1120BK/6,1
