SKU,Maximum allowed,Barcode/EAN,Days left
E1205BK/L-XL,3,5055939951812       ,3
E1205BK/S-M,2,5055939951805       ,3
E1205NA/L-XL,2,5055939951850       ,3
E1205NA/S-M,2,5055939951843       ,3
E1205WH/L-XL,2,5055939956541       ,3
E1205WH/S-M,2,5055939956534       ,3
E4031BK/4,2,5055939916972       ,3
E4031BK/5,2,5055939916989       ,3
E5069BK/4,1,5055939951584       ,3
E6127BK/3,1,5055939933320       ,3
E6127BK/4,3,5055939933337       ,3
E6127BK/5,1,5055939933344       ,3
E6127BK/6,2,5055939936338       ,3
E6140BK/3,1,5055939934006       ,3
E9106BV/4,3,5055939941387       ,36
E9106BV/5,3,5055939941394       ,36
E9106GV/4,2,5055939935317       ,36
E9106GV/5,2,5055939935324       ,36
E9143GK/2,1,5055939966243       ,37
E0098YV/L-XL,3,5055205363349       ,48
E0098YV/S-M,3,5055205359571       ,48
E0110BK,5,5055205367224       ,48
E0110BP/0,3,5055939959726       ,48
E0110RR/0,3,5055939959719       ,48
E0110YM/0,3,5055939959702       ,48
E0152BK/L-XL,2,5055939958125       ,48
E0153BK/L-XL,10,5055939965970       ,48
E0153BK/S-M,10,5055939958132       ,48
E0154BK/L-XL,10,5055939965987       ,48
E0154BK/S-M,10,5055939958149       ,48
E1038BK/L-XL,4,5055939906706       ,48
E1038BK/S-M,4,5055939906690       ,48
E1043BK/L-XL,2,5055939923871       ,48
E1043BK/S-M,2,5055939923888       ,48
E1052BK/L-XL,2,5055939958040       ,48
E1052BK/M-L,3,5055939958033       ,48
E1052BK/S-M,2,5055939958026       ,48
E1053BK/L-XL,2,5055939958071       ,48
E1053BK/M-L,3,5055939958064       ,48
E1053BK/S-M,2,5055939958057       ,48
E1054BK/L-XL,2,5055939958101       ,48
E1054BK/M-L,3,5055939958095       ,48
E1054BK/S-M,2,5055939958088       ,48
E1145BK/2,1,5055939908175       ,48
E1145BK/4,2,5055939908199       ,48
E1145BK/5,3,5055939908205       ,48
E1145BK/6,2,5055939908212       ,48
E1145BK/7,2,5055939910659       ,48
E1145GV/3,1,5055939910673       ,48
E1145GV/4,2,5055939910680       ,48
E1145GV/5,3,5055939910697       ,48
E1145GV/7,1,5055939910635       ,48
E1183BK/4,1,5055939944234       ,48
E1183BK/5,2,5055939944241       ,48
E1183BK/6,1,5055939944258       ,48
E1186BK/2,2,5055939945248       ,48
E1186BK/3,2,5055939944623       ,48
E1186BK/4,2,5055939944630       ,48
E1186BK/5,3,5055939944647       ,48
E1186BK/6,2,5055939944654       ,48
E1186BK/7,1,5055939944661       ,48
E1188BK/4,1,5055939944821       ,48
E1188BK/5,2,5055939944838       ,48
E1188BK/6,2,5055939944845       ,48
E1224BK/2,1,5055939958798       ,48
E1224BK/3,1,5055939958804       ,48
E1224BK/4,2,5055939966274       ,48
E1224BK/5,2,5055939966281       ,48
E1224BK/6,1,5055939966298       ,48
E1226BK/0,5,5055939959399       ,48
E1226GK/0,5,5055939960593       ,48
E1227GK/L-XL,3,5055939966328       ,48
E1227GK/S-M,3,5055939960616       ,48
E3161BK/4,2,5055939944968       ,48
E3161BK/5,3,5055939944975       ,48
E3161BK/6,2,5055939944982       ,48
E3161BK/7,2,5055939944999       ,48
E3177BK/2,2,5055939966182       ,48
E3177BK/3,2,5055939957708       ,48
E3177BK/4,2,5055939957715       ,48
E3177BK/5,3,5055939957722       ,48
E3177BK/6,2,5055939957739       ,48
E3177BK/7,1,5055939957746       ,48
E3178BK/4,2,5055939957876       ,48
E3178BK/5,3,5055939957883       ,48
E3178BK/6,3,5055939957890       ,48
E3178BK/7,1,5055939957906       ,48
E8088BK/4,1,5055939943169       ,48
E8088BK/5,2,5055939943176       ,48
E8088BK/6,2,5055939943183       ,48
E8088BK/7,1,5055939943190       ,48
E9102GV/4,1,5055939925578       ,48
E9102GV/5,2,5055939925585       ,48
E9102GV/6,2,5055939925592       ,48
E9102GV/7,1,5055939925608       ,48
E9106RD/3,1,5055939958637       ,48
E9106RD/4,2,5055939958644       ,48
E9106RD/5,2,5055939958651       ,48
E9106RD/6,2,5055939958668       ,48
E9143GK/6,1,5055939957531       ,48
E9148BK/3,1,5055939959993       ,48
E9148BK/4,2,5055939960005       ,48
E9148BK/5,3,5055939960012       ,48
E9148BK/6,3,5055939960029       ,48
E9148BK/7,1,5055939960036       ,48
E1117BK/4,2,5055205390123       ,50
E1117BK/5,5,5055205390130       ,50
E1117BK/6,5,5055205390147       ,50
E1217BK/5,5,5055939958477       ,50
E1217BK/6,5,5055939958484       ,50
E3181NA/4,2,5055939958248       ,50
E3181NA/5,3,5055939958255       ,50
E3181NA/6,2,5055939958262       ,50
E3181NA/7,1,5055939958279       ,50
E6163BK/3,2,5055939958828       ,50
E6163BK/4,2,5055939958835       ,50
E6163BK/5,1,5055939958842       ,50
E8074BK/4,1,5055939924724       ,50
E8074BK/5,1,5055939924731       ,50
E8074BK/6,1,5055939924748       ,50
E8088BK/3,1,5055939943152       ,50
E9142GK/3,1,5055939957401       ,50
E9142GK/6,1,5055939957432       ,50
E1187BK/4,1,5055939944777       ,56
E1187BK/5,2,5055939944784       ,56
E9106BK/2,2,5055939936239       ,69
E9106BK/3,1,5055939935256       ,69
E1186BK/3,1,5055939944623       ,90
E1186GV/4,2,5055939944685       ,90
E1186GV/5,2,5055939944692       ,90
E1186GV/6,2,5055939944708       ,90
E3151GY/2,1,5055939939308       ,90
E3161BK/3,2,5055939944951       ,90
E3161BK/4,2,5055939944968       ,90
E3177BK/2,1,5055939966182       ,90
E3177BK/3,1,5055939957708       ,90
E3177GK/3,1,5055939957753       ,90
E3177GK/4,1,5055939957760       ,90
E3177GK/5,1,5055939957777       ,90
E9106BK/6,1,5055939935287       ,90
E9106BV/6,1,5055939941400       ,90
E9106GV/6,1,5055939935331       ,90
E9137RD/3,1,5055939946313       ,90
E0152BK/L-XL,5,5055939958125       ,111
E1183BK/3,1,5055939944227       ,111
E1183BK/4,1,5055939944234       ,111
E1183BK/5,1,5055939944241       ,111
E1183BK/6,1,5055939944258       ,111
E1187BK/4,1,5055939944777       ,111
E1187BK/5,1,5055939944784       ,111
E1216BK/3,1,5055939958347       ,111
E1216BK/5,1,5055939958361       ,111
E1224BK/2,1,5055939958798       ,111
E1224BK/3,2,5055939958804       ,111
E1224BK/4,2,5055939966274       ,111
E1224BK/5,2,5055939966281       ,111
E8088BK/5,1,5055939943176       ,111
E1224BK/3,1,5055939958804       ,120
E1224BK/4,2,5055939966274       ,120
E1224BK/6,1,5055939966298       ,120
E3168BK/3,1,5055939954165       ,120
E3168BK/4,1,5055939954172       ,120
E3168BK/5,1,5055939954189       ,120
E3168BK/6,1,5055939954196       ,120
E9148BK/4,1,5055939960005       ,120
E9148BK/6,1,5055939960029       ,120
E3061W/2,1,5055205358024       ,125
E5069BK/4,1,5055939951584       ,125
E1186BK/4,2,5055939944630       ,127
E1186BK/5,2,5055939944647       ,127
E1186BK/6,2,5055939944654       ,127
E8088BK/3,1,5055939943152       ,133
E9106GV/2,1,5055939936246       ,149
E0043GK/0,4,5055939961385       ,174
E0154BK/L-XL,5,5055939965987       ,174
E1145BK/5,3,5055939908205       ,174
E1145BK/6,1,5055939908212       ,174
E3177BK/2,1,5055939966182       ,174
E3178BK/3,1,5055939957869       ,174
E3178BK/4,2,5055939957876       ,174
E3178BK/5,3,5055939957883       ,174
E3178BK/7,1,5055939957906       ,174
E8088BK/7,1,5055939943190       ,174
E1183BK/4,1,5055939944234       ,175
E6163BK/2,1,5055939958811       ,175
E9142BK/2,1,5055939966212       ,175
E8088BK/4,1,5055939943169       ,177
E8088BK/5,1,5055939943176       ,177
E8088BK/6,1,5055939943183       ,177
E0045,1,5055205315935       ,204
E0048,2,5055205315966       ,204
E0091BK,1,5055205344072       ,204
E1138BK/0,1,5055939901367       ,204
E1138WH/0,1,5055939901374       ,204
E1166BK/2,1,5055939929057       ,204
E1166BK/3,2,5055939929064       ,204
E1166BK/4,3,5055939929071       ,204
E1166BK/5,3,5055939929088       ,204
E1166BK/6,2,5055939929095       ,204
E1166BK/7,2,5055939929101       ,204
E1166WH/3,2,5055939929248       ,204
E1166WH/4,3,5055939929255       ,204
E1166WH/5,3,5055939929262       ,204
E1166WH/6,1,5055939929279       ,204
E1170GY/0,1,5055939929835       ,204
E1170YV/0,1,5055939929842       ,204
E1171BK/0,2,5055939929859       ,204
E1174BK/0,2,5055939929972       ,204
E1174GY/0,2,5055939929989       ,204
E1183BK/4,1,5055939944234       ,204
E1183BK/5,1,5055939944241       ,204
E1183BK/6,1,5055939944258       ,204
E1188BK/3,1,5055939944814       ,204
E1188BK/4,2,5055939944821       ,204
E1188BK/5,2,5055939944838       ,204
E1188BK/6,1,5055939944845       ,204
E1205BK/L-XL,3,5055939951812       ,204
E1205BK/S-M,3,5055939951805       ,204
E1205NA/L-XL,3,5055939951850       ,204
E1205NA/S-M,3,5055939951843       ,204
E1205PS/L-XL,3,5055939974590       ,204
E1205PS/S-M,3,5055939974583       ,204
E1205WH/L-XL,3,5055939956541       ,204
E1205WH/S-M,3,5055939956534       ,204
E1263BK/L-XL,3,5055939977584       ,204
E1263BK/S-M,3,5055939977577       ,204
E1263WH/L-XL,3,5055939978444       ,204
E1263WH/S-M,3,5055939978437       ,204
E1265BP/0,6,5055939977669       ,204
E1266BP/0,4,5055939977676       ,204
E1513BK/M-L,1,5055939930282       ,204
E3061W/3,1,5055205342467       ,204
E3061W/4,2,5055205342474       ,204
E3061W/5,2,5055205342481       ,204
E3061W/6,1,5055205342498       ,204
E3157BK/4,1,5055939941431       ,204
E3157BK/5,1,5055939941448       ,204
E3157BK/6,1,5055939941455       ,204
E3167BK/L-XL,3,5055939954127       ,204
E3167BK/S-M,2,5055939954110       ,204
E3167WH/L-XL,3,5055939954073       ,204
E3167WH/S-M,2,5055939954066       ,204
E3168BK/4,1,5055939954172       ,204
E3168BK/5,2,5055939954189       ,204
E3168BK/6,2,5055939954196       ,204
E3168BK/7,1,5055939954202       ,204
E3169BK/3,1,5055939954226       ,204
E3169BK/4,2,5055939954233       ,204
E3169BK/5,2,5055939954240       ,204
E3190CG/2,1,5055939974224       ,204
E3190CG/3,1,5055939974231       ,204
E3190CG/4,2,5055939974248       ,204
E3190CG/5,2,5055939974255       ,204
E3190CG/6,1,5055939974262       ,204
E3190CG/7,1,5055939974279       ,204
E3190PS/4,1,5055939974309       ,204
E3190PS/5,2,5055939974316       ,204
E3190PS/6,1,5055939974323       ,204
E3192BK/3,1,5055939974682       ,204
E3192BK/4,3,5055939974699       ,204
E3192BK/5,2,5055939974705       ,204
E3192BK/6,1,5055939974712       ,204
E3192BK/7,1,5055939974729       ,204
E3192GK/4,1,5055939974644       ,204
E3192GK/5,2,5055939974651       ,204
E3192GK/6,1,5055939974668       ,204
E3192WH/3,1,5055939974781       ,204
E3192WH/4,2,5055939974798       ,204
E3192WH/5,2,5055939974804       ,204
E3192WH/6,1,5055939974811       ,204
E3193BK/2,1,5055939975764       ,204
E3193BK/3,1,5055939975771       ,204
E3193BK/4,2,5055939975788       ,204
E3193BK/5,2,5055939975795       ,204
E3193BK/6,1,5055939975801       ,204
E4070BK/M3,1,5055939979199       ,204
E4070BK/M4,5,5055939979205       ,204
E4070BK/M5,5,5055939979212       ,204
E4070BK/M6,3,5055939979229       ,204
E4070BK/M7,1,5055939979236       ,204
E5069BK/2,1,5055939951560       ,204
E5069BK/3,1,5055939951577       ,204
E5069BK/4,3,5055939951584       ,204
E5069BK/5,2,5055939951591       ,204
E5069BK/6,1,5055939951607       ,204
E5069BK/7,1,5055939951614       ,204
E5069GK/3,1,5055939951638       ,204
E5069GK/4,2,5055939951645       ,204
E5069GK/5,2,5055939951652       ,204
E5069GK/6,1,5055939951669       ,204
E5069GK/7,1,5055939951676       ,204
E6124BK/3,1,5055939933009       ,204
E6124BK/4,2,5055939933016       ,204
E6124BK/5,2,5055939933023       ,204
E6124BK/6,1,5055939938233       ,204
E6127BK/3,2,5055939933320       ,204
E6127BK/4,2,5055939933337       ,204
E6132BK/3,1,5055939933726       ,204
E6132BK/4,2,5055939933733       ,204
E6132BK/5,2,5055939933740       ,204
E6132BK/6,1,5055939936314       ,204
E6140BK/2,1,5055939933993       ,204
E6140BK/3,2,5055939934006       ,204
E6140BK/4,2,5055939934013       ,204
E6140BK/5,1,5055939934020       ,204
E6173CV/2,1,5055939976051       ,204
E6173CV/3,1,5055939976068       ,204
E6173CV/4,1,5055939976075       ,204
E6174WH/2,1,5055939976150       ,204
E6174WH/3,1,5055939976167       ,204
E6174WH/4,1,5055939976174       ,204
E7117BK/3,1,5055939917016       ,204
E7117BK/4,2,5055939917023       ,204
E7117BK/5,2,5055939917030       ,204
E7117BK/6,1,5055939917047       ,204
E7117BK/7,1,5055939917054       ,204
E7117WH/4,1,5055939917078       ,204
E7117WH/5,2,5055939917085       ,204
E7117WH/6,1,5055939917092       ,204
E7118BK/4,2,5055939914886       ,204
E7118BK/5,2,5055939914893       ,204
E7118BK/6,2,5055939914909       ,204
E7118BK/7,1,5055939914916       ,204
E7128KH/0,1,5055939951324       ,204
E8064GC/4,3,5055939950976       ,204
E8064GC/5,3,5055939950983       ,204
E8064GC/6,1,5055939950990       ,204
E8064GC/7,1,5055939951003       ,204
E8064GC/8,1,5055939951010       ,204
E8064NA/3,1,5055939950891       ,204
E8064NA/4,3,5055939950907       ,204
E8064NA/5,3,5055939950914       ,204
E8064NA/6,2,5055939950921       ,204
E8064NA/7,1,5055939950938       ,204
E8088BK/4,1,5055939943169       ,204
E8088BK/5,2,5055939943176       ,204
E8088BK/6,1,5055939943183       ,204
E9106BV/4,3,5055939941387       ,204
E9106BV/5,3,5055939941394       ,204
E9106BV/6,2,5055939941400       ,204
E9106BV/7,1,5055939941417       ,204
E9106CG/4,3,5055939974972       ,204
E9106CG/5,5,5055939974989       ,204
E9106CG/6,5,5055939974996       ,204
E9106CG/7,1,5055939975009       ,204
E9106GV/4,3,5055939935317       ,204
E9106GV/5,3,5055939935324       ,204
E9106GV/6,2,5055939935331       ,204
E9106GV/7,1,5055939935348       ,204
E9151BK/2,1,5055939975887       ,204
E9151BK/3,1,5055939975894       ,204
E9151BK/4,2,5055939975900       ,204
E9151BK/5,2,5055939975917       ,204
E9151BK/6,1,5055939975924       ,204
