INVOICE,SIN445246
YOUR REF,SOR262918
DATE,04/01/2017
VALUE,149.8


SKU,Qty,Value,Name,Colour,Size
E7112BK/K11     ,1,11.20,Kids Nemo Glove,Black,11-12yrs
E1118BK/5       ,2,39.00,MT500 Overshoe II ,Black,L
E1118BK/4       ,1,19.50,MT500 Overshoe II ,Black,M
E0100BK/5       ,1,28.30,Luminite Thermal Glove,Black,L
E3072BK/4       ,1,20.90,Transrib L/S Baselayer,Black,M
E3072BK/6       ,1,20.90,Transrib L/S Baselayer,Black,XL
DEL10           ,1,10.00,Delivery - Euro                    ,,
