SKU,Maximum allowed,Barcode/EAN,Days left
E0073,6,5055205338118       ,145
E0110BK,4,5055205367224       ,145
E1038BK/L-XL,4,5055939906706       ,145
E1038BK/S-M,4,5055939906690       ,145
E1039BK/L-XL,6,5055939906720       ,145
E1039BK/S-M,6,5055939906713       ,145
E1043BK/L-XL,6,5055939923871       ,145
E1043BK/S-M,6,5055939923888       ,145
E1118BK/4,6,5055205389974       ,145
E1118BK/5,6,5055205389981       ,145
E1118BK/6,6,5055205389998       ,145
E1120BK/4,2,5055205390222       ,145
E1120BK/5,2,5055205390239       ,145
E1120BK/6,2,5055205390246       ,145
E1120WH/4,2,5055205390277       ,145
E1120WH/5,2,5055205390284       ,145
E1120WH/6,2,5055205390291       ,145
E1157BK/L-XL,2,5055939928418       ,145
E1157BK/S-M,2,5055939928425       ,145
E1158BK/L-XL,2,5055939928432       ,145
E1181BK/3,2,5055939942513       ,145
E1181BK/4,4,5055939942520       ,145
E1181BK/5,4,5055939942537       ,145
E1181BK/6,4,5055939942544       ,145
E1186BK/3,2,5055939944623       ,145
E1186BK/4,4,5055939944630       ,161
E1186BK/5,4,5055939944647       ,145
E1186BK/6,4,5055939944654       ,145
E1187BK/4,4,5055939944777       ,145
E1187BK/5,4,5055939944784       ,145
E1187BK/6,4,5055939944791       ,145
E1218BK/M-L,4,5055939958514       ,145
E1218BK/S-M,4,5055939958507       ,145
E1220BK/L-XL,4,5055939958569       ,145
E1220BK/S-M,4,5055939958552       ,145
E1226BK/0,4,5055939959399       ,145
E1227BK/L-XL,6,5055939966311       ,145
E1227BK/S-M,6,5055939959405       ,145
E3135BK/4,2,5055939924182       ,145
E3135BK/5,2,5055939924199       ,145
E3135BK/6,1,5055939924205       ,145
E3135BV/3,1,5055939941226       ,145
E3135BV/4,2,5055939941233       ,145
E3135BV/5,2,5055939941240       ,145
E3135BV/6,1,5055939941257       ,145
E3183BK/3,2,5055939959290       ,145
E3183BK/4,2,5055939959306       ,145
E3183BK/5,2,5055939959313       ,145
E3183GK/3,2,5055939960449       ,145
E3183GK/4,2,5055939960456       ,145
E3183GK/5,2,5055939960463       ,145
E5049BK/4,4,5055939924533       ,145
E5049BK/5,4,5055939924540       ,145
E5049BK/6,4,5055939924557       ,145
E5049BK/7,2,5055939924564       ,145
E6165BK/2,1,5055939959344       ,145
E9102BK/5,4,5055939925530       ,145
E9102BK/6,4,5055939925547       ,145
E9102BK/7,2,5055939925554       ,145
E9118PW/4,2,5055939942643       ,145
