SKU,Maximum allowed,Barcode/EAN,Days left
E1204BK/3,1,5055939950563       ,18
E1204BK/4,2,5055939950570       ,18
E1204BK/5,2,5055939950587       ,18
E1204BK/6,1,5055939950594       ,18
E1204BK/7,1,5055939950600       ,18
E1204GC/3,1,5055939950662       ,18
E1204GC/4,2,5055939950679       ,18
E1204GC/5,2,5055939950686       ,18
E1204GC/6,1,5055939950693       ,18
E1204GC/7,1,5055939950709       ,18
E6127BK/6,1,5055939936338       ,18
E0128BK/2,1,5055939904917       ,24
E0128BK/3,1,5055939904924       ,24
E0128BK/4,2,5055939904931       ,24
E0128BK/5,2,5055939904948       ,24
E0128BK/6,2,5055939904955       ,24
E0128BK/7,1,5055939904962       ,24
E1186BK/2,1,5055939945248       ,24
E1186BK/3,1,5055939944623       ,24
E1186BK/4,2,5055939944630       ,24
E1186BK/5,2,5055939944647       ,24
E1187BK/4,1,5055939944777       ,24
E1187BK/5,1,5055939944784       ,24
E1187BK/6,1,5055939944791       ,24
E1187BK/7,1,5055939944807       ,24
E1225BK/L-XL,2,5055939959207       ,24
E1225BK/M-L,1,5055939959191       ,24
E1225BK/S-M,1,5055939959184       ,24
E1225BK/XL-XXL,2,5055939966564       ,24
E3158BK/4,1,5055939942421       ,24
E3158BK/6,1,5055939942445       ,24
E3158BK/7,1,5055939942452       ,24
E3183BK/3,1,5055939959290       ,24
E3183BK/4,1,5055939959306       ,24
E3183BK/5,1,5055939959313       ,24
E3183BK/6,1,5055939959320       ,24
E3183BK/7,1,5055939959337       ,24
E3183RR/4,1,5055939960500       ,24
E3183RR/5,1,5055939960517       ,24
E3183RR/6,1,5055939960524       ,24
E3183RR/7,1,5055939960531       ,24
E5049BK/3,1,5055939924526       ,24
E5049BK/4,1,5055939924533       ,24
E5049BK/5,1,5055939924540       ,24
E5049BK/6,1,5055939924557       ,24
E5049BK/7,1,5055939924564       ,24
E6165BP/2,1,5055939960548       ,24
E6165BP/3,1,5055939960555       ,24
E6165BP/4,1,5055939960562       ,24
E6165BP/5,1,5055939960579       ,24
E6165BP/6,1,5055939960586       ,24
E8074BK/4,1,5055939924724       ,24
E8077BK/2,1,5055939924861       ,24
E8077BK/3,1,5055939924878       ,24
E8077BK/4,1,5055939924885       ,24
E8077BK/5,1,5055939924892       ,24
E9104CO/3,1,5055939925769       ,24
E9104CO/4,1,5055939925776       ,24
E9104CO/5,1,5055939925783       ,24
E1186BK/6,2,5055939944654       ,25
E1186BK/7,1,5055939944661       ,25
E8074BK/3,1,5055939924717       ,25
E8074BK/5,1,5055939924731       ,25
E8074BK/6,1,5055939924748       ,25
E8074BK/7,1,5055939924755       ,25
E1187BK/3,1,5055939944760       ,33
E9147GF/4,1,5055939959429       ,33
E9147GF/5,1,5055939959436       ,33
E9147GF/6,1,5055939959443       ,33
E9147RR/4,1,5055939959528       ,33
E9147RR/5,1,5055939959535       ,33
E9147RR/6,1,5055939959542       ,33
E9147RR/7,1,5055939959559       ,33
E9150GK/3,1,5055939960401       ,33
E9150GK/4,1,5055939960418       ,33
E9150GK/5,1,5055939960425       ,33
E9145BK/4,1,5055939959092       ,39
E9145BK/5,1,5055939959108       ,39
E9145BK/6,1,5055939959115       ,39
E9145BK/7,1,5055939959122       ,39
E9147GF/7,1,5055939959450       ,39
E3125BK/4,1,5055939915395       ,41
E3125BK/5,1,5055939915401       ,41
E3125BK/6,1,5055939915418       ,41
E6152CO/2,1,5055939951027       ,41
E6152CO/3,1,5055939951034       ,41
E6152CO/4,1,5055939951041       ,41
E6152CO/5,1,5055939951058       ,41
E7120BK/4,1,5055939915500       ,41
E7120BK/5,1,5055939915517       ,41
E9145BK/4,1,5055939959092       ,41
E8090AN/3,1,5055939944326       ,47
E8090AN/4,1,5055939944333       ,47
E8090AN/5,1,5055939944340       ,47
E8090AN/6,1,5055939944357       ,47
E8090AN/7,1,5055939944364       ,47
E9106BK/4,1,5055939935263       ,47
E9106BK/5,1,5055939935270       ,47
E9106BK/6,1,5055939935287       ,47
E9106BK/7,1,5055939935294       ,47
E9107BK/4,1,5055939935416       ,47
E9107BK/5,1,5055939935423       ,47
E9108CE/2,1,5055939935546       ,47
E9108CE/3,1,5055939935553       ,47
E9108CE/4,1,5055939935560       ,47
E9108CE/5,1,5055939935577       ,47
E9126BV/4,1,5055939943879       ,47
E9126BV/5,1,5055939943886       ,47
E9126BV/6,1,5055939943893       ,47
E9126BV/7,1,5055939943909       ,47
E9127YV/2,1,5055939943961       ,47
E9127YV/3,1,5055939943978       ,47
E9127YV/4,1,5055939943985       ,47
E9130NA/4,1,5055939943695       ,47
E0128BK/5,1,5055939904948       ,52
E1118BK/4,2,5055205389974       ,52
E1118BK/5,2,5055205389981       ,52
E1118BK/6,2,5055205389998       ,52
E1118BK/7,2,5055205390000       ,52
E1186BK/6,2,5055939944654       ,52
E1186BK/7,1,5055939944661       ,52
E1187BK/5,1,5055939944784       ,52
E6078BK/5,1,5055205386683       ,52
E6106BK/4,1,5055939919508       ,52
E6106BK/5,1,5055939919515       ,52
E8088BK/4,2,5055939943169       ,52
E9147RR/3,1,5055939959511       ,52
E9147RR/4,1,5055939959528       ,52
E9147RR/5,1,5055939959535       ,52
E3158BK/6,1,5055939942445       ,59
E8074BK/5,1,5055939924731       ,59
E8074BK/6,1,5055939924748       ,59
E8077BK/4,1,5055939924885       ,59
E9127YV/5,1,5055939943992       ,59
E8064BC/5,1,5055939936796       ,63
E8064NA/5,2,5055939950914       ,63
E8074BK/3,1,5055939924717       ,63
E8074BK/5,2,5055939924731       ,63
E8074BK/6,1,5055939924748       ,63
E1161BK/3,1,5055939928678       ,73
E1161BK/4,1,5055939928685       ,73
E1161BK/5,2,5055939928692       ,73
E1161BK/6,2,5055939928708       ,73
E1161BK/7,2,5055939928715       ,73
E1187BK/6,1,5055939944791       ,73
E1204BK/5,1,5055939950587       ,73
E1204BK/6,1,5055939950594       ,73
E1204GC/6,1,5055939950693       ,73
E5049BK/5,1,5055939924540       ,73
E5049BK/6,2,5055939924557       ,73
E8074BK/4,1,5055939924724       ,73
E8074BK/6,1,5055939924748       ,73
E6124BK/6,1,5055939938233       ,80
E7140GY/K11,1,5055939960678       ,80
E9117BK/3,1,5055939942162       ,80
E9117BK/4,1,5055939942179       ,88
E9117BK/5,1,5055939942186       ,88
E9117BK/6,1,5055939942193       ,88
E9117BK/7,1,5055939942209       ,88
E1161BK/5,1,5055939928692       ,91
E1161BK/6,2,5055939928708       ,91
E3072BK/4,1,5055205362151       ,91
E3161BK/4,1,5055939944968       ,91
E3183BK/4,2,5055939959306       ,91
E3183BK/5,2,5055939959313       ,91
E3183BK/6,1,5055939959320       ,91
E3183RR/4,1,5055939960500       ,91
E3183RR/5,2,5055939960517       ,91
E3183RR/6,1,5055939960524       ,91
E9107BK/6,1,5055939935430       ,91
E1186BK/3,1,5055939944623       ,108
E1186BK/4,1,5055939944630       ,108
E1186BK/5,2,5055939944647       ,108
E1186BK/7,1,5055939944661       ,108
E5066BK/4,1,5055939949253       ,108
E9147GF/5,2,5055939959436       ,108
E9147GF/6,1,5055939959443       ,108
E1186BK/4,1,5055939944630       ,109
E0073,4,5055205338118       ,117
E0128YV/3,1,5055939909615       ,117
E0128YV/5,2,5055939909639       ,117
E0128YV/6,2,5055939909646       ,117
E0128YV/7,1,5055939909653       ,117
E1117BK/3,1,5055205390116       ,117
E1117BK/4,2,5055205390123       ,117
E1117BK/5,2,5055205390130       ,117
E1117BK/6,2,5055205390147       ,117
E1117BK/7,1,5055205390154       ,117
E1166WH/2,1,5055939929231       ,117
E1166WH/4,2,5055939929255       ,117
E1166WH/5,2,5055939929262       ,117
E1166WH/6,1,5055939929279       ,117
E1166WH/7,1,5055939929286       ,117
E1186BK/4,2,5055939944630       ,117
E9106BK/5,1,5055939935270       ,117
E9106BK/6,1,5055939935287       ,117
E9150CV/6,1,5055939960388       ,122
E1161BK/6,1,5055939928708       ,123
E1161BK/7,1,5055939928715       ,123
E8070GF/6,1,5055939948478       ,123
E8088BK/5,1,5055939943176       ,123
E9145BK/6,1,5055939959115       ,123
E1118BK/6,2,5055205389998       ,129
E9107BK/7,1,5055939935447       ,129
E9127YV/6,2,5055939945200       ,137
E1118BK/6,1,5055205389998       ,144
E3125BK/7,1,5055939915425       ,144
E5066BK/5,1,5055939949260       ,144
E5066BK/7,1,5055939949284       ,144
E8085AN/4,1,5055939956190       ,144
E8085AN/5,1,5055939956206       ,144
E8085AN/7,1,5055939956220       ,144
E8085AN/3,1,5055939956183       ,151
E8074BK/3,2,5055939924717       ,154
E8074BK/4,2,5055939924724       ,154
E9120YV/8,1,5055939983110       ,154
E5056BK/8,1,5055939946443       ,164
E6146BK/5,1,5055939942100       ,164
E9150GK/6,1,5055939960432       ,168
E8085AN/6,1,5055939956213       ,181
E0128BK/5,3,5055939904948       ,186
E0128BK/6,1,5055939904955       ,186
E1186BK/6,1,5055939944654       ,186
E1186BK/7,1,5055939944661       ,186
E1160BK/2,1,5055939928487       ,208
E1160BK/6,2,5055939928524       ,208
E1160BK/7,1,5055939928531       ,208
E1160RD/2,1,5055939928609       ,208
E1160RD/3,1,5055939928616       ,208
E1160RD/4,1,5055939928623       ,208
E1160RD/7,1,5055939928654       ,208
E1161BK/2,1,5055939928661       ,208
E1161BK/3,1,5055939928678       ,208
E1161BK/4,2,5055939928685       ,208
E1161BK/5,2,5055939928692       ,208
E1161BK/6,2,5055939928708       ,208
E1161BK/7,1,5055939928715       ,208
E1161RD/3,1,5055939928739       ,208
E1161RD/4,1,5055939928746       ,208
E1161RD/5,1,5055939928753       ,208
E1161RD/7,1,5055939928777       ,208
E1166BK/2,1,5055939929057       ,208
E1166BK/3,1,5055939929064       ,208
E1166BK/4,2,5055939929071       ,208
E1166BK/5,2,5055939929088       ,208
E1166BK/6,2,5055939929095       ,208
E1166BK/7,2,5055939929101       ,208
E1166NA/2,1,5055939952710       ,208
E1166NA/3,1,5055939952727       ,208
E1166NA/4,2,5055939952734       ,208
E1166NA/5,2,5055939952741       ,208
E1166NA/6,2,5055939952758       ,208
E1166NA/7,1,5055939952765       ,208
E1166RR/2,1,5055939974897       ,208
E1166RR/3,1,5055939974903       ,208
E1166RR/4,1,5055939974910       ,208
E1166RR/5,1,5055939974927       ,208
E1166RR/6,1,5055939974934       ,208
E1166RR/7,1,5055939974941       ,208
E1166WH/2,1,5055939929231       ,208
E1166WH/3,1,5055939929248       ,208
E1166WH/4,1,5055939929255       ,208
E1166WH/5,1,5055939929262       ,208
E1166WH/6,1,5055939929279       ,208
E1166WH/7,1,5055939929286       ,208
E1258BK/3,1,5055939972602       ,208
E1258BK/4,2,5055939972619       ,208
E1258BK/5,2,5055939972626       ,208
E1258BK/6,2,5055939972633       ,208
E1258BK/7,1,5055939972640       ,208
E1258GF/4,1,5055939972664       ,208
E1258GF/5,1,5055939972671       ,208
E1258GF/6,1,5055939972688       ,208
E1258GF/7,1,5055939972695       ,208
E3167BK/L-XL,2,5055939954127       ,208
E3167BK/S-M,1,5055939954110       ,208
E3167WH/S-M,1,5055939954066       ,208
E3184BK/6,1,5055939970400       ,208
E3184OT/4,1,5055939970486       ,208
E3184OT/5,1,5055939970493       ,208
E3184OT/6,1,5055939970509       ,208
E3184OT/7,1,5055939970516       ,208
E3185LG/4,1,5055939978222       ,208
E3185LG/5,1,5055939978239       ,208
E3185LG/6,1,5055939978246       ,208
E3189BK/4,1,5055939972404       ,208
E3189BK/5,1,5055939972411       ,208
E3189BK/6,1,5055939972428       ,208
E3189BK/7,1,5055939972435       ,208
E3189CC/4,1,5055939972459       ,208
E3189CC/5,1,5055939972466       ,208
E3189CC/6,1,5055939972473       ,208
E3189CC/7,1,5055939972480       ,208
E3192BK/W4,1,5055939978789       ,208
E3192BK/W5,1,5055939978796       ,208
E3192BK/W6,1,5055939978802       ,208
E3192BK/W7,1,5055939978819       ,208
E3192GK/W4,1,5055939978734       ,208
E3192GK/W5,1,5055939978741       ,208
E3192GK/W6,1,5055939978758       ,208
E3192GK/W7,1,5055939978765       ,208
E3192RR/W4,1,5055939978833       ,208
E3192RR/W5,1,5055939978840       ,208
E3192RR/W6,1,5055939978857       ,208
E3192RR/W7,1,5055939978864       ,208
E5069BK/4,1,5055939951584       ,208
E5069BK/6,1,5055939951607       ,208
E5069BK/7,1,5055939951614       ,208
E5069GK/4,1,5055939951645       ,208
E5069GK/5,1,5055939951652       ,208
E5069GK/6,1,5055939951669       ,208
E6174CV/3,1,5055939976112       ,208
E6174CV/4,1,5055939976129       ,208
E6174CV/5,1,5055939976136       ,208
E6174CV/6,1,5055939976143       ,208
E6174WH/3,1,5055939976167       ,208
E6174WH/4,1,5055939976174       ,208
E6174WH/5,1,5055939976181       ,208
E6187CC/3,1,5055939977485       ,208
E6187CC/4,1,5055939977492       ,208
E6187CC/5,1,5055939977508       ,208
E6187CC/6,1,5055939977515       ,208
E6187GK/3,1,5055939977539       ,208
E6187GK/4,1,5055939977546       ,208
E6187GK/5,1,5055939977553       ,208
E6187GK/6,1,5055939977560       ,208
E8093BK/4,1,5055939948782       ,208
E8093BK/5,1,5055939948799       ,208
E8093BK/6,1,5055939948805       ,208
E8103GF/S4,1,5055939979083       ,208
E8103GF/S5,1,5055939979090       ,208
E8103GF/S6,1,5055939979106       ,208
E8103GF/S7,1,5055939979113       ,208
E8103OT/S4,1,5055939979038       ,208
E8103OT/S5,1,5055939979045       ,208
E8103OT/S6,1,5055939979052       ,208
E8103OT/S7,1,5055939979069       ,208
E9106WH/4,1,5055939935362       ,208
E9106WH/5,1,5055939935379       ,208
E9106WH/6,1,5055939935386       ,208
E9106WH/7,1,5055939935393       ,208
