SKU,Maximum allowed,Barcode/EAN,Days left
E0110BK,2,5055205367224       ,25
E0110UM,2,5055205367248       ,25
E0110YM/0,2,5055939959702       ,25
E0128BK/4,1,5055939904931       ,25
E0128BK/5,1,5055939904948       ,25
E0128BK/6,1,5055939904955       ,25
E1187BK/4,1,5055939944777       ,25
E1187BK/5,1,5055939944784       ,25
E1187BK/6,1,5055939944791       ,25
E1511KH/L-XL,2,5055939950402       ,25
E3134BK/4,1,5055939924380       ,25
E3134BK/5,1,5055939924397       ,25
E3134BK/6,1,5055939924403       ,25
E3134GV/5,1,5055939924441       ,25
E3134GV/6,1,5055939924458       ,25
E3134RD/4,1,5055939924335       ,25
E3134RD/5,1,5055939924342       ,25
E8073BK/4,1,5055939924670       ,25
E8073BK/5,1,5055939924687       ,25
E8073BK/6,1,5055939924694       ,25
E8085AN/5,1,5055939956206       ,25
E8085AN/6,1,5055939956213       ,25
E8100BK/5,1,5055939959153       ,25
E8100BK/6,1,5055939959160       ,25
E9117BK/6,1,5055939942193       ,25
E9119BA/6,1,5055939943008       ,25
E9119GF/5,1,5055939949000       ,25
E9119PW/4,1,5055939942933       ,25
E1223BK/L-XL,3,5055939958613       ,26
E1223BK/S-M,2,5055939958606       ,26
E1225BK/L-XL,2,5055939959207       ,26
E1225BK/XL-XXL,2,5055939966564       ,26
E3183BK/4,1,5055939959306       ,26
E3183BK/5,1,5055939959313       ,26
E3183BK/6,1,5055939959320       ,26
E3183GK/4,1,5055939960456       ,26
E3183GK/5,1,5055939960463       ,26
E3183GK/6,1,5055939960470       ,26
E3183RR/4,1,5055939960500       ,26
E3183RR/5,1,5055939960517       ,26
E3183RR/6,1,5055939960524       ,26
E1506BK/L-XL,1,5055939920061       ,27
E1506BK/S-M,1,5055939920047       ,27
E1506GF/M-L,1,5055939948966       ,27
E1506GF/S-M,1,5055939948959       ,27
E1506NA/S-M,1,5055939922836       ,27
E1506WH/M-L,1,5055939920085       ,27
E1506WH/S-M,1,5055939920078       ,27
E1511RR/M-L,1,5055939959627       ,27
E1511WH/M-L,1,5055939930190       ,27
E1511WH/S-M,1,5055939930206       ,27
E1512BK/M-L,1,5055939930220       ,27
E1513BV/M-L,1,5055939966588       ,27
E1513WH/S-M,1,5055939930350       ,27
E1511RR/S-M,1,5055939959610       ,46
E9117YM/5,1,5055939961002       ,46
E9147GF/5,1,5055939959436       ,46
E9147NA/4,1,5055939959474       ,46
E9145BK/5,1,5055939959108       ,52
E9145BK/6,1,5055939959115       ,52
E1506BK/M-L,1,5055939920054       ,56
E9117GF/6,1,5055939948171       ,60
E9117CC/5,1,5055939960944       ,75
E1506NA/M-L,1,5055939922843       ,87
E1512BK/L-XL,1,5055939930213       ,136
E3133AN/5,1,5055939957081       ,136
E3176NA/5,1,5055939957029       ,136
E5073BA/5,2,5055939949116       ,136
E5073GF/5,2,5055939949161       ,136
E5073RR/5,2,5055939949215       ,136
E8070GF/5,1,5055939948461       ,136
E1511BA/M-L,1,5055939971636       ,139
E1511BA/S-M,1,5055939971629       ,139
E1506BK/M-L,1,5055939920054       ,167
E3184BK/6,1,5055939970400       ,207
E3184GF/5,1,5055939970448       ,207
E3184OT/4,1,5055939970486       ,207
E3189BA/4,1,5055939972350       ,207
E3189BA/5,1,5055939972367       ,207
E3189BA/6,1,5055939972374       ,207
E3189BK/4,1,5055939972404       ,207
E3189BK/5,1,5055939972411       ,207
E3189BK/6,1,5055939972428       ,207
E3189CC/4,1,5055939972459       ,207
E3189CC/5,1,5055939972466       ,207
E3189CC/6,1,5055939972473       ,207
E3192BK/W6,1,5055939978802       ,207
E3192GK/W5,1,5055939978741       ,207
E3192RR/W4,1,5055939978833       ,207
E6187CC/5,1,5055939977508       ,207
E8084BK/5,1,5055939942384       ,207
E8084BK/6,1,5055939942391       ,207
E8092BK/5,1,5055939948362       ,207
E8092GF/4,1,5055939948409       ,207
E8104BK/5,1,5055939972084       ,207
E8104BK/6,1,5055939972091       ,207
