SKU,Maximum allowed,Barcode/EAN,Days left
E1048BK/L-XL,3,5055939928197       ,54
E1048BK/S-M,2,5055939928203       ,54
E1109BK/L-XL,2,5055205388014       ,54
E1186BK/3,2,5055939944623       ,54
E1186BK/4,3,5055939944630       ,54
E1186BK/5,4,5055939944647       ,54
E1196BK/M-L,2,5055939956510       ,54
E1202BK/L-XL,2,5055939949918       ,54
E1202BK/S-M,2,5055939949901       ,54
E1301BK/4,1,5055205363530       ,54
E3135BV/4,1,5055939941233       ,54
E3135BV/5,1,5055939941240       ,54
E3135BV/6,1,5055939941257       ,54
E9106BK/3,1,5055939935256       ,54
E9106BK/4,2,5055939935263       ,54
E9106BK/5,2,5055939935270       ,54
E9106BK/6,1,5055939935287       ,54
E9138GC/4,1,5055939949055       ,54
E9138GC/5,2,5055939949062       ,54
E9138GC/6,1,5055939949079       ,54
E9138GC/7,1,5055939949086       ,54
E9138RR/3,1,5055939960241       ,54
E9138RR/4,2,5055939960258       ,54
E9138RR/5,2,5055939960265       ,54
E9138RR/6,1,5055939960272       ,54
E1186BK/6,3,5055939944654       ,70
E9147RR/3,1,5055939959511       ,70
E9147RR/4,2,5055939959528       ,70
E9147RR/5,2,5055939959535       ,70
E9147RR/6,1,5055939959542       ,70
E9147GF/4,1,5055939959429       ,73
E9147GF/5,2,5055939959436       ,73
E9147GF/6,1,5055939959443       ,73
E9147GF/7,1,5055939959450       ,73
E1109BK/M-L,2,5055205388007       ,81
E1155BK/L-XL,1,5055939928388       ,84
E1155BK/S-M,2,5055939928395       ,84
E3109BK/5,2,5055939908977       ,84
E3109BK/7,1,5055939908991       ,84
E8081BK/5,1,5055939934976       ,84
E9119GF/5,1,5055939949000       ,84
E1196BK/L-XL,2,5055939948874       ,88
E8064BC/6,1,5055939936802       ,117
E8064BK/5,1,5055939915999       ,117
E8092BK/6,1,5055939948379       ,117
E9119GF/4,1,5055939948997       ,117
