SKU,Maximum allowed,Barcode/EAN,Days left
E0043GK/0,1,5055939961385       ,5
E1160BK/3,2,5055939928494       ,5
E1160BK/4,3,5055939928500       ,5
E1160BK/5,3,5055939928517       ,5
E1160BK/6,2,5055939928524       ,5
E1202BK/S-M,1,5055939949901       ,5
E1205NA/S-M,2,5055939951843       ,5
E7117WH/5,2,5055939917085       ,5
E7127RD/3,2,5055939934389       ,5
E7127RD/4,2,5055939934396       ,5
E7127RD/5,2,5055939934402       ,5
E1165BK/3,1,5055939928845       ,10
E1165BK/4,1,5055939928852       ,10
E1165BK/5,3,5055939928869       ,10
E1165BK/6,3,5055939928876       ,10
E1166WH/3,1,5055939929248       ,10
E1166WH/4,1,5055939929255       ,10
E1166WH/5,2,5055939929262       ,10
E1166WH/6,2,5055939929279       ,10
E3142NA/5,1,5055939952680       ,10
E4055BK/5,4,5055939953083       ,10
E4055BK/6,2,5055939953090       ,10
E4055BK/7,1,5055939953106       ,10
E7117NA/4,1,5055939955056       ,10
E7117WH/3,1,5055939917061       ,10
E7117WH/6,1,5055939917092       ,10
E8069NA/3,1,5055939919430       ,10
E8069NA/4,1,5055939919447       ,10
E8069NA/5,1,5055939919454       ,10
E8069NA/6,2,5055939919461       ,10
E8069NA/7,1,5055939919478       ,10
E1160BK/3,1,5055939928494       ,52
E1160RD/3,1,5055939928616       ,52
E1160RD/4,2,5055939928623       ,52
E1160RD/5,3,5055939928630       ,52
E3125NA/7,1,5055939950860       ,52
E3142BK/6,1,5055939931388       ,52
E4055BK/3,1,5055939953069       ,52
E4055BK/5,4,5055939953083       ,52
E4055BK/6,3,5055939953090       ,52
E6151GK/5,1,5055939950310       ,52
E6153BK/4,3,5055939953298       ,52
E6153BK/6,1,5055939953311       ,52
E7127RD/4,1,5055939934396       ,52
E7127RD/5,1,5055939934402       ,52
E8069NA/3,1,5055939919430       ,52
E8069NA/4,4,5055939919447       ,52
E0043GK/0,6,5055939961385       ,59
E0128BK/4,3,5055939904931       ,59
E0128BK/5,3,5055939904948       ,59
E0128BK/6,3,5055939904955       ,59
E0128BK/7,2,5055939904962       ,59
E0153BK/L-XL,4,5055939965970       ,59
E0153BK/S-M,4,5055939958132       ,59
E0154BK/L-XL,4,5055939965987       ,59
E0154BK/S-M,4,5055939958149       ,59
E1152BK/5,3,5055939923918       ,59
E1152BK/6,3,5055939923925       ,59
E1186BK/4,3,5055939944630       ,59
E1186BK/5,3,5055939944647       ,59
E1186BK/6,3,5055939944654       ,59
E1186BK/7,2,5055939944661       ,59
E1217BK/5,3,5055939958477       ,59
E1217BK/6,2,5055939958484       ,59
E1218BK/L-XL,2,5055939958521       ,59
E1218BK/M-L,3,5055939958514       ,59
E1218BK/S-M,2,5055939958507       ,59
E1219BK/L-XL,3,5055939958545       ,59
E1219BK/S-M,3,5055939958538       ,59
E1226GK/0,1,5055939960593       ,59
E5049BK/6,1,5055939924557       ,59
E6040BK/3,2,5055939904986       ,59
E6040BK/4,2,5055939904993       ,59
E6040BK/5,2,5055939905006       ,59
E6146BK/3,2,5055939942087       ,59
E6146BK/4,2,5055939942094       ,59
E6146BK/5,2,5055939942100       ,59
E6147CE/3,2,5055939945477       ,59
E6147CE/4,2,5055939945484       ,59
E6147CE/5,2,5055939945491       ,59
E9102BK/6,1,5055939925547       ,59
E1160RD/3,1,5055939928616       ,95
E1160RD/5,4,5055939928630       ,95
E1160RD/6,3,5055939928647       ,95
E1165BK/3,1,5055939928845       ,95
E1165BK/5,2,5055939928869       ,95
E1165BK/6,2,5055939928876       ,95
E1165BK/7,2,5055939928883       ,95
E4055BK/4,3,5055939953076       ,95
E5049BK/4,3,5055939924533       ,95
E5049BK/5,2,5055939924540       ,95
E5049BK/7,1,5055939924564       ,95
E6153BK/4,1,5055939953298       ,95
E6153BK/5,3,5055939953304       ,95
E9148BK/5,2,5055939960012       ,95
E1160BK/4,1,5055939928500       ,161
E1160BK/5,2,5055939928517       ,161
E1160BK/6,2,5055939928524       ,161
E1160BK/7,1,5055939928531       ,161
E1216BK/7,3,5055939958385       ,161
E1224BK/2,3,5055939958798       ,161
E1224BK/3,3,5055939958804       ,161
E1224BK/4,6,5055939966274       ,161
E1224BK/5,6,5055939966281       ,161
E1224BK/6,4,5055939966298       ,161
E1224BK/7,3,5055939966304       ,161
E4055BK/5,3,5055939953083       ,161
E5049BK/5,1,5055939924540       ,161
E6040BK/2,2,5055939904979       ,161
E6040BK/3,1,5055939904986       ,161
E6040BK/4,1,5055939904993       ,161
E6040BK/5,3,5055939905006       ,161
E6147CE/2,2,5055939945460       ,161
E6147CE/3,2,5055939945477       ,161
E6147CE/5,4,5055939945491       ,161
E9148BK/5,2,5055939960012       ,161
