SKU,Maximum allowed,Barcode/EAN,Days left
E1199RR/5,1,5055939949710       ,4
E1204BK/4,1,5055939950570       ,4
E1204BK/5,1,5055939950587       ,4
E3063W/6,1,5055205343655       ,4
E3168BK/4,1,5055939954172       ,4
E6152RD/5,1,5055939951102       ,4
E7118BK/6,1,5055939914909       ,4
E7128KH/0,2,5055939951324       ,4
E9099CO/3,1,5055939925318       ,4
E1511WH/M-L,2,5055939930190       ,10
E1511WH/S-M,1,5055939930206       ,10
E8064KH/4,1,5055939916064       ,10
E1511WH/M-L,2,5055939930190       ,11
E7128GY/0,7,5055939934426       ,11
E1511KH/S-M,1,5055939950389       ,16
E6153BK/5,2,5055939953304       ,16
E6153BK/6,2,5055939953311       ,16
E8070BK/4,1,5055939916729       ,16
E9117BK/4,1,5055939942179       ,16
E1158BK/L-XL,1,5055939928432       ,24
E1506GF/M-L,1,5055939948966       ,24
E7128KH/0,7,5055939951324       ,24
E9137RD/3,1,5055939946313       ,24
E0128YV/3,1,5055939909615       ,29
E0128YV/4,1,5055939909622       ,29
E0128YV/5,2,5055939909639       ,29
E0128YV/6,2,5055939909646       ,29
E0128YV/7,2,5055939909653       ,29
E0151GF/0,4,5055939960708       ,29
E0151RR/0,4,5055939960685       ,29
E0152BK/L-XL,2,5055939958125       ,29
E0152BK/S-M,1,5055939958118       ,29
E1039BK/L-XL,3,5055939906720       ,29
E1039BK/S-M,3,5055939906713       ,29
E1145BK/3,1,5055939908182       ,29
E1145BK/4,1,5055939908199       ,29
E1145BK/5,2,5055939908205       ,29
E1145BK/6,2,5055939908212       ,29
E1145BK/7,1,5055939910659       ,29
E1182BK/L-XL,3,5055939942629       ,29
E1182BK/S-M,3,5055939942612       ,29
E1223BK/L-XL,5,5055939958613       ,29
E1223BK/S-M,2,5055939958606       ,29
E1226BK/0,2,5055939959399       ,29
E1226GK/0,2,5055939960593       ,29
E1301BK/3,1,5055205363523       ,29
E1301BK/4,1,5055205363530       ,29
E1301BK/5,1,5055205363547       ,29
E1301BK/6,1,5055205363554       ,29
E1301BK/7,1,5055205363561       ,29
E3161BK/3,1,5055939944951       ,29
E3161BK/4,1,5055939944968       ,29
E3161BK/5,1,5055939944975       ,29
E3161BK/6,1,5055939944982       ,29
E3161BK/7,1,5055939944999       ,29
E3182AN/3,1,5055939959023       ,29
E3182AN/4,1,5055939959030       ,29
E3182AN/5,1,5055939959047       ,29
E3182AN/6,1,5055939959054       ,29
E3182AN/7,1,5055939959061       ,29
E3183BK/4,1,5055939959306       ,29
E3183BK/5,1,5055939959313       ,29
E3183BK/6,1,5055939959320       ,29
E3183BK/7,1,5055939959337       ,29
E3183GK/3,1,5055939960449       ,29
E3183GK/4,1,5055939960456       ,29
E3183GK/5,1,5055939960463       ,29
E3183GK/6,1,5055939960470       ,29
E3183RR/3,1,5055939960494       ,29
E3183RR/4,1,5055939960500       ,29
E3183RR/5,1,5055939960517       ,29
E3183RR/6,1,5055939960524       ,29
E5049BK/3,1,5055939924526       ,29
E5049BK/4,1,5055939924533       ,29
E5049BK/5,1,5055939924540       ,29
E5049BK/6,1,5055939924557       ,29
E5049BK/7,1,5055939924564       ,29
E6146BK/3,1,5055939942087       ,29
E6146BK/4,1,5055939942094       ,29
E6146BK/5,1,5055939942100       ,29
E6164GK/3,1,5055939958873       ,29
E6164GK/4,1,5055939958880       ,29
E6164GK/5,1,5055939958897       ,29
E6165BP/3,1,5055939960555       ,29
E6165BP/4,1,5055939960562       ,29
E6165BP/5,1,5055939960579       ,29
E6165BP/6,1,5055939960586       ,29
E8074BK/3,1,5055939924717       ,29
E8074BK/4,2,5055939924724       ,29
E8074BK/5,2,5055939924731       ,29
E8074BK/6,2,5055939924748       ,29
E8077BK/3,1,5055939924878       ,29
E8077BK/4,1,5055939924885       ,29
E8077BK/5,1,5055939924892       ,29
E8100BK/3,1,5055939959139       ,29
E8100BK/4,2,5055939959146       ,29
E8100BK/5,2,5055939959153       ,29
E8100BK/6,2,5055939959160       ,29
E8100BK/7,1,5055939959177       ,29
E9130NA/4,1,5055939943695       ,29
E9130NA/5,1,5055939943701       ,29
E9130NA/6,1,5055939943718       ,29
E9145BK/4,1,5055939959092       ,29
E9145BK/5,1,5055939959108       ,29
E9145BK/6,1,5055939959115       ,29
E9145BK/7,1,5055939959122       ,29
E9148BK/3,1,5055939959993       ,29
E9148BK/4,2,5055939960005       ,29
E9148BK/5,2,5055939960012       ,29
E9148BK/6,1,5055939960029       ,29
EM0053OM/4,1,5055939925905       ,29
EM0053OM/5,1,5055939925912       ,29
EM0053OM/6,1,5055939925929       ,29
E0128YV/2,1,5055939909608       ,30
E1518BK/M-L,3,5055939948898       ,30
E1518GF/M-L,1,5055939948928       ,30
E8074BK/7,1,5055939924755       ,30
E9142GK/4,1,5055939957418       ,30
E9142GK/5,1,5055939957425       ,30
E9142GK/6,1,5055939957432       ,30
E9142GK/7,1,5055939957449       ,30
E9145YM/3,1,5055939961125       ,30
E9145YM/4,1,5055939961132       ,30
E9145YM/5,1,5055939961149       ,30
E9145YM/6,1,5055939961156       ,30
E9146MY/3,1,5055939959252       ,30
E9146MY/4,1,5055939959269       ,30
E9146MY/5,1,5055939959276       ,30
E9146MY/6,1,5055939959283       ,30
E1109BK/L-XL,2,5055205388014       ,44
E1109BK/M-L,1,5055205388007       ,44
E1168BK/6,1,5055939929507       ,44
E1168BK/7,1,5055939929514       ,44
E3168BK/4,6,5055939954172       ,44
E3168BK/5,3,5055939954189       ,44
E3168BK/6,2,5055939954196       ,44
E3168BK/7,2,5055939954202       ,44
E8090AN/4,1,5055939944333       ,44
E8100BK/3,1,5055939959139       ,44
E8100BK/4,2,5055939959146       ,44
E8100BK/5,2,5055939959153       ,44
E9117YM/3,1,5055939960982       ,44
E9117YM/4,1,5055939960999       ,44
E9117YM/5,1,5055939961002       ,44
E9117YM/6,1,5055939961019       ,44
E9125MY/3,1,5055939944159       ,44
E9145BK/7,1,5055939959122       ,44
E9146MY/3,1,5055939959252       ,44
E9147GF/3,1,5055939959412       ,44
E9147GF/4,1,5055939959429       ,44
E9147GF/5,1,5055939959436       ,44
E9147GF/6,1,5055939959443       ,44
E9147GF/7,1,5055939959450       ,44
E9147RR/4,1,5055939959528       ,44
E9147RR/5,1,5055939959535       ,44
E9147RR/6,1,5055939959542       ,44
E9150GK/3,2,5055939960401       ,44
E9150GK/4,2,5055939960418       ,44
E9150GK/5,2,5055939960425       ,44
E9150GK/6,1,5055939960432       ,44
EM0053OM/3,1,5055939925899       ,44
EM0053OM/4,1,5055939925905       ,44
E1109BK/M-L,1,5055205388007       ,52
E1109BK/S-M,2,5055205387994       ,52
E0098YV/S-M,1,5055205359571       ,57
E0128YV/4,1,5055939909622       ,57
E1506GF/M-L,1,5055939948966       ,57
E1506NA/S-M,1,5055939922836       ,57
E5057BK/5,1,5055939942131       ,57
E6146BK/3,1,5055939942087       ,57
E6164GK/3,1,5055939958873       ,57
E8064GY/5,1,5055939916231       ,57
E9106BK/5,1,5055939935270       ,57
E9117YM/5,1,5055939961002       ,57
E9126YV/6,1,5055939943947       ,57
E9147GF/3,1,5055939959412       ,57
E1109BK/M-L,2,5055205388007       ,60
E1196BK/L-XL,1,5055939948874       ,60
E1196BK/M-L,1,5055939956510       ,60
E1301BK/4,1,5055205363530       ,60
E3169BK/3,2,5055939954226       ,60
E3169BK/4,7,5055939954233       ,60
E3169BK/5,3,5055939954240       ,60
E3169BK/6,4,5055939954257       ,60
E8070BK/5,1,5055939916736       ,60
E8074BK/4,2,5055939924724       ,60
E8074BK/7,1,5055939924755       ,60
E9147GF/7,1,5055939959450       ,66
E1511RR/S-M,1,5055939959610       ,71
E3161BK/6,1,5055939944982       ,71
E3183BK/3,1,5055939959290       ,71
E3183BK/4,1,5055939959306       ,71
E3183RR/3,1,5055939960494       ,71
E8074BK/4,1,5055939924724       ,71
E8077BK/5,1,5055939924892       ,71
E9148BK/6,1,5055939960029       ,71
E9117BK/5,1,5055939942186       ,74
E9117BK/7,1,5055939942209       ,74
E1251CL,10,5055939955803       ,85
E3183BK/5,1,5055939959313       ,85
E8077BK/5,1,5055939924892       ,85
E8100BK/4,2,5055939959146       ,85
E9117YM/4,1,5055939960999       ,85
E9142GK/4,1,5055939957418       ,85
E9146MY/5,1,5055939959276       ,85
E9147GF/4,1,5055939959429       ,85
E9150GK/4,1,5055939960418       ,85
E6146BK/4,1,5055939942094       ,92
E8064BK/6,1,5055939916002       ,92
E9125MY/4,1,5055939944166       ,92
E0110BK,2,5055205367224       ,99
E0110BP/0,1,5055939959726       ,99
E0110UM,2,5055205367248       ,99
E1182BK/S-M,2,5055939942612       ,99
E1511WH/L-XL,1,5055939930183       ,99
E8100BK/5,2,5055939959153       ,99
E0128YV/4,1,5055939909622       ,108
E0128YV/7,1,5055939909653       ,108
E1511KH/L-XL,1,5055939950402       ,108
E9125MY/5,1,5055939944173       ,113
E1181BK/6,1,5055939942544       ,129
E1301BK/4,1,5055205363530       ,129
E3178BK/5,1,5055939957883       ,145
E8064BK/4,1,5055939915982       ,145
E9099CC/4,1,5055939960319       ,145
E9117BK/4,1,5055939942179       ,145
E9117BK/5,1,5055939942186       ,145
E9142GK/5,1,5055939957425       ,145
E1511BK/L-XL,2,5055939930121       ,152
E1225BK/XL-XXL,1,5055939966564       ,166
E9117YM/4,1,5055939960999       ,166
E9145BK/5,1,5055939959108       ,166
E9145YM/5,1,5055939961149       ,166
E9145YM/6,1,5055939961156       ,166
E9145BK/6,1,5055939959115       ,169
E8077BK/3,1,5055939924878       ,173
E9150GK/6,1,5055939960432       ,173
E1160BK/3,2,5055939928494       ,198
E1160BK/4,2,5055939928500       ,198
E1160BK/5,2,5055939928517       ,198
E1160BK/6,2,5055939928524       ,198
E1160BK/7,2,5055939928531       ,198
E1160KH/3,2,5055939928555       ,198
E1160KH/4,2,5055939928562       ,198
E1160KH/5,2,5055939928579       ,198
E1160KH/6,2,5055939928586       ,198
E1160KH/7,2,5055939928593       ,198
E1253WH/L-XL,1,5055939971704       ,198
E1253WH/M-L,1,5055939971698       ,198
E1253WH/S-M,1,5055939971681       ,198
E1255BK/L-XL,1,5055939971827       ,198
E1255BK/M-L,2,5055939971810       ,198
E1255BK/S-M,1,5055939971803       ,198
E1256BK/L-XL,1,5055939971858       ,198
E1256BK/M-L,2,5055939971841       ,198
E1256BK/S-M,1,5055939971834       ,198
E1258BK/3,2,5055939972602       ,198
E1258BK/4,2,5055939972619       ,198
E1258BK/5,2,5055939972626       ,198
E1258BK/6,2,5055939972633       ,198
E1258BK/7,2,5055939972640       ,198
E1263BK/L-XL,2,5055939977584       ,198
E1263BK/S-M,1,5055939977577       ,198
E1263WH/L-XL,2,5055939978444       ,198
E1263WH/S-M,1,5055939978437       ,198
E1264GK/L-XL,2,5055939977645       ,198
E1264GK/S-M,1,5055939977638       ,198
E1264RR/L-XL,2,5055939978420       ,198
E1264RR/S-M,1,5055939978413       ,198
E1505KH/L-XL,1,5055939951317       ,198
E1505KH/M-L,2,5055939951300       ,198
E1505KH/S-M,1,5055939951294       ,198
E1505MB/L-XL,2,5055939904474       ,198
E1505MB/M-L,4,5055939904481       ,198
E1505MB/S-M,2,5055939904498       ,198
E1505RD/L-XL,1,5055939951287       ,198
E1505RD/M-L,2,5055939951270       ,198
E1505RD/S-M,1,5055939951263       ,198
E1511BA/L-XL,2,5055939971643       ,198
E1511BA/M-L,2,5055939971636       ,198
E1511BA/S-M,2,5055939971629       ,198
E1511BK/L-XL,3,5055939930121       ,198
E1511BK/M-L,4,5055939930138       ,198
E1511BK/S-M,3,5055939930145       ,198
E1511KH/L-XL,1,5055939950402       ,198
E1511KH/M-L,1,5055939950396       ,198
E1511KH/S-M,1,5055939950389       ,198
E1511RR/L-XL,1,5055939959634       ,198
E1511RR/M-L,2,5055939959627       ,198
E1511RR/S-M,1,5055939959610       ,198
E1511WH/L-XL,1,5055939930183       ,198
E1511WH/M-L,2,5055939930190       ,198
E1511WH/S-M,1,5055939930206       ,198
E3133AN/4,1,5055939957074       ,198
E3133AN/5,1,5055939957081       ,198
E3133AN/6,1,5055939957098       ,198
E3133AN/7,1,5055939957104       ,198
E3168BK/3,1,5055939954165       ,198
E3168BK/4,2,5055939954172       ,198
E3168BK/5,2,5055939954189       ,198
E3168BK/6,2,5055939954196       ,198
E3168BK/7,2,5055939954202       ,198
E3184BK/3,1,5055939970370       ,198
E3184BK/4,1,5055939970387       ,198
E3184BK/5,1,5055939970394       ,198
E3184BK/6,1,5055939970400       ,198
E3184BK/7,1,5055939970417       ,198
E3184OT/3,1,5055939970479       ,198
E3184OT/4,1,5055939970486       ,198
E3184OT/5,1,5055939970493       ,198
E3184OT/6,1,5055939970509       ,198
E3184OT/7,1,5055939970516       ,198
E3189BA/4,1,5055939972350       ,198
E3189BA/5,1,5055939972367       ,198
E3189BA/6,1,5055939972374       ,198
E3189BA/7,1,5055939972381       ,198
E3189BK/3,1,5055939972398       ,198
E3189BK/4,1,5055939972404       ,198
E3189BK/5,1,5055939972411       ,198
E3189BK/6,1,5055939972428       ,198
E3189BK/7,1,5055939972435       ,198
E4055BK/4,1,5055939953076       ,198
E4055BK/5,1,5055939953083       ,198
E4055BK/6,1,5055939953090       ,198
E4055BK/7,1,5055939953106       ,198
E5069PS/3,1,5055939974538       ,198
E5069PS/4,1,5055939974545       ,198
E5069PS/5,1,5055939974552       ,198
E5069PS/6,1,5055939974569       ,198
E6106BK/3,1,5055939919492       ,198
E6106BK/4,1,5055939919508       ,198
E6106BK/5,1,5055939919515       ,198
E6106BK/6,1,5055939919522       ,198
E6169BP/3,1,5055939973265       ,198
E6169BP/4,1,5055939973272       ,198
E6169BP/5,1,5055939973289       ,198
E6169BP/6,1,5055939973296       ,198
E6169CC/3,1,5055939973210       ,198
E6169CC/4,1,5055939973227       ,198
E6169CC/5,1,5055939973234       ,198
E6169CC/6,1,5055939973241       ,198
E6170BK/3,1,5055939973319       ,198
E6170BK/4,1,5055939973326       ,198
E6170BK/5,1,5055939973333       ,198
E6170BK/6,1,5055939973340       ,198
E6187GK/3,1,5055939977539       ,198
E6187GK/4,1,5055939977546       ,198
E6187GK/5,1,5055939977553       ,198
E7117BK/3,1,5055939917016       ,198
E7117BK/4,1,5055939917023       ,198
E7117BK/5,1,5055939917030       ,198
E7117BK/6,1,5055939917047       ,198
E7117BK/7,1,5055939917054       ,198
E7128BK/0,4,5055939934419       ,198
E7128GY/0,3,5055939934426       ,198
E7128KH/0,3,5055939951324       ,198
E7128OT/0,3,5055939977461       ,198
E7131BK/K11,1,5055939949970       ,198
E7131BK/K9,1,5055939949963       ,198
E7132BK/K11,1,5055939949994       ,198
E7132BK/K9,1,5055939949987       ,198
E7137BK/K11,1,5055939953762       ,198
E7137BK/K7,1,5055939953748       ,198
E7137BK/K9,1,5055939953755       ,198
E7143BC/K11,1,5055939981505       ,198
E7143BC/K7,1,5055939981482       ,198
E7143BC/K9,1,5055939981499       ,198
E8064CC/4,1,5055939972237       ,198
E8064CC/5,1,5055939972244       ,198
E8064CC/6,1,5055939972251       ,198
E8064CC/7,1,5055939972268       ,198
E8064GY/3,1,5055939916217       ,198
E8064GY/4,2,5055939916224       ,198
E8064GY/5,2,5055939916231       ,198
E8064GY/6,2,5055939916248       ,198
E8064GY/7,1,5055939916255       ,198
E8064GY/8,1,5055939916262       ,198
E8064NA/4,1,5055939950907       ,198
E8064NA/5,1,5055939950914       ,198
E8064NA/6,1,5055939950921       ,198
E8064NA/7,1,5055939950938       ,198
E8064NA/8,1,5055939950945       ,198
E8101CC/4,1,5055939970783       ,198
E8101CC/5,1,5055939970790       ,198
E8101CC/6,1,5055939970806       ,198
E9117CC/4,1,5055939960937       ,198
E9117CC/5,1,5055939960944       ,198
E9117CC/6,1,5055939960951       ,198
E9117CC/7,1,5055939960968       ,198
E9147NA/4,1,5055939959474       ,198
E9147NA/5,1,5055939959481       ,198
E9147NA/6,1,5055939959498       ,198
E1258GF/3,2,5055939972657       ,205
E1258GF/4,2,5055939972664       ,205
E1258GF/5,2,5055939972671       ,205
E1258GF/6,2,5055939972688       ,205
E1258GF/7,2,5055939972695       ,205
E1258OT/3,2,5055939972701       ,205
E1258OT/4,2,5055939972718       ,205
E1258OT/5,2,5055939972725       ,205
E1258OT/6,2,5055939972732       ,205
E1258OT/7,2,5055939972749       ,205
E8102BK/7,1,5055939971261       ,209
E8103OT/4,1,5055939971483       ,209
E8103OT/7,1,5055939971513       ,209
E3188BK/4,1,5055939971087       ,213
E3188BK/5,1,5055939971094       ,213
E3188BK/6,1,5055939971100       ,213
E3188BK/7,1,5055939971117       ,213
E3188LG/3,1,5055939971124       ,213
E3188LG/4,1,5055939971131       ,213
E3188LG/5,1,5055939971148       ,213
E3188LG/6,1,5055939971155       ,213
E3188LG/7,1,5055939971162       ,213
E5074BU/4,1,5055939975023       ,213
E5074BU/5,1,5055939975030       ,213
E5074BU/6,1,5055939975047       ,213
E5075PS/3,1,5055939975061       ,213
E5075PS/4,1,5055939975078       ,213
E5075PS/5,1,5055939975085       ,213
E5075PS/6,1,5055939975092       ,213
E6187GK/6,1,5055939977560       ,213
E7142OT/K11,1,5055939977324       ,213
E7142OT/K7,1,5055939977300       ,213
E7142OT/K9,1,5055939977317       ,213
E7144OT/K11,1,5055939977454       ,213
E7144OT/K7,1,5055939977430       ,213
E7144OT/K9,1,5055939977447       ,213
