SKU,Maximum allowed,Barcode/EAN,Days left
E1188GV/4,1,5055939944876       ,6
E6106CO/3,1,5055939951140       ,6
E8097NA/4,1,5055939950471       ,6
E8097NA/5,1,5055939950488       ,6
E8097NA/6,1,5055939950495       ,6
E6106CO/4,1,5055939951157       ,7
E8075BK/4,1,5055939924779       ,7
E8075BK/5,1,5055939924786       ,7
E0004/S-M,2,5055205300160       ,32
E0062/4,2,5055205323770       ,32
E3125NA/7,1,5055939950860       ,32
E3125RD/7,1,5055939919294       ,32
E0043GK/0,2,5055939961385       ,166
E0110BK,2,5055205367224       ,166
E0110BP/0,2,5055939959726       ,166
E0110RR/0,2,5055939959719       ,166
E0110YM/0,2,5055939959702       ,166
E0128BK/4,1,5055939904931       ,166
E0128BK/5,1,5055939904948       ,166
E0152BK/S-M,5,5055939958118       ,166
E0154BK/L-XL,5,5055939965987       ,166
E0154BK/S-M,5,5055939958149       ,166
E1038BK/L-XL,3,5055939906706       ,166
E1038BK/S-M,3,5055939906690       ,166
E1043BK/L-XL,2,5055939923871       ,166
E1043BK/S-M,1,5055939923888       ,166
E1117BK/4,1,5055205390123       ,166
E1117BK/5,1,5055205390130       ,166
E1117BK/6,1,5055205390147       ,166
E1117BK/7,1,5055205390154       ,166
E1118BK/4,2,5055205389974       ,166
E1118BK/5,2,5055205389981       ,166
E1118BK/6,2,5055205389998       ,166
E1118BK/7,2,5055205390000       ,166
E1182BK/L-XL,3,5055939942629       ,166
E1182BK/S-M,3,5055939942612       ,166
E1183BK/4,1,5055939944234       ,166
E1183BK/5,1,5055939944241       ,166
E1183BK/6,1,5055939944258       ,166
E1183BK/7,1,5055939944265       ,166
E1184BK/4,1,5055939944432       ,166
E1184BK/5,1,5055939944449       ,166
E1184BK/6,1,5055939944456       ,166
E1188GV/4,1,5055939944876       ,166
E1188GV/5,1,5055939944883       ,166
E1188GV/6,1,5055939944890       ,166
E1219BK/L-XL,2,5055939958545       ,166
E1219BK/S-M,1,5055939958538       ,166
E1220BK/L-XL,2,5055939958569       ,166
E1220BK/S-M,1,5055939958552       ,166
E1222BK/0,2,5055939958590       ,166
E1223BK/L-XL,2,5055939958613       ,166
E1223BK/S-M,2,5055939958606       ,166
E1224BK/3,1,5055939958804       ,166
E1224BK/4,3,5055939966274       ,166
E1224BK/5,3,5055939966281       ,166
E1224BK/6,3,5055939966298       ,166
E1224BK/7,3,5055939966304       ,166
E1225BK/L-XL,2,5055939959207       ,166
E1226BK/0,2,5055939959399       ,166
E1226GK/0,2,5055939960593       ,166
E1227BK/L-XL,1,5055939966311       ,166
E1227BK/S-M,1,5055939959405       ,166
E1227GK/L-XL,3,5055939966328       ,166
E1227RR/L-XL,3,5055939966335       ,166
E1250CL,4,5055939955797       ,166
E1251CL,4,5055939955803       ,166
E3135BK/5,1,5055939924199       ,166
E3135BK/6,1,5055939924205       ,166
E3183GK/3,1,5055939960449       ,166
E3183GK/4,1,5055939960456       ,166
E3183GK/5,1,5055939960463       ,166
E3183GK/6,1,5055939960470       ,166
E3183GK/7,1,5055939960487       ,166
E5049BK/3,1,5055939924526       ,166
E5049BK/4,1,5055939924533       ,166
E5049BK/5,1,5055939924540       ,166
E5049BK/6,1,5055939924557       ,166
E5056BK/3,1,5055939941820       ,166
E5056BK/4,1,5055939941837       ,166
E5056BK/5,1,5055939941844       ,166
E5056BK/6,1,5055939941851       ,166
E5056BK/7,1,5055939941868       ,166
E7110BK/K7,2,5055205387871       ,166
E7110BK/K9,2,5055205387888       ,166
E7113PV/K11,1,5055205392738       ,166
E7113PV/K7,1,5055205391274       ,166
E7113PV/K9,1,5055205391267       ,166
E7127RD/3,2,5055939934389       ,166
E7127RD/4,2,5055939934396       ,166
E7127RD/5,2,5055939934402       ,166
E7132BK/K11,2,5055939949994       ,166
E7139BK/K11,1,5055939959238       ,166
E7139BK/K7,1,5055939959214       ,166
E7139BK/K9,1,5055939959221       ,166
E8075BK/4,1,5055939924779       ,166
E8075BK/5,1,5055939924786       ,166
E8075BK/6,1,5055939924793       ,166
E8100BK/5,1,5055939959153       ,166
E9126BV/5,1,5055939943886       ,166
E9126BV/6,1,5055939943893       ,166
E9126BV/7,1,5055939943909       ,166
E9126BV/8,1,5055939945194       ,166
E9130NA/5,1,5055939943701       ,166
E9130NA/6,1,5055939943718       ,166
E9130NA/7,1,5055939943725       ,166
E9138RR/5,1,5055939960265       ,166
E9138RR/6,1,5055939960272       ,166
E9138RR/7,1,5055939960289       ,166
E9139BK/3,1,5055939953588       ,166
E9139BK/4,1,5055939953595       ,166
E9139BK/5,1,5055939953601       ,166
E9140BV/5,1,5055939953540       ,166
E9140BV/6,1,5055939953557       ,166
E9140BV/7,1,5055939953564       ,166
E9142GK/4,1,5055939957418       ,166
E9142GK/5,1,5055939957425       ,166
E9146MY/4,1,5055939959269       ,166
E9146MY/5,1,5055939959276       ,166
E1186GV/4,1,5055939944685       ,167
E9143GK/5,1,5055939957524       ,167
E9143GK/6,1,5055939957531       ,167
E9143GK/7,1,5055939957548       ,167
E3029/4,1,5055205304236       ,186
E3029/5,1,5055205304243       ,186
E3176NA/4,1,5055939957012       ,186
