SKU,Maximum allowed,Barcode/EAN,Days left
E1157BK/L-XL,2,5055939928418       ,31
E1157BK/S-M,2,5055939928425       ,31
E1202BK/S-M,1,5055939949901       ,31
E1505GY/M-L,1,5055939930107       ,31
E1505WH/M-L,1,5055939904559       ,31
E1505WH/S-M,1,5055939904566       ,31
E4055BK/4,1,5055939953076       ,31
E0127BK/3,1,5055939904818       ,43
E0127BK/4,2,5055939904825       ,43
E0127BK/5,2,5055939904832       ,43
E0127BK/6,2,5055939904849       ,43
E0127BK/7,1,5055939904856       ,43
E0128BK/3,1,5055939904924       ,43
E0128BK/4,1,5055939904931       ,43
E0128BK/5,2,5055939904948       ,43
E0128BK/6,1,5055939904955       ,43
E0128BK/7,1,5055939904962       ,43
E0128YV/4,1,5055939909622       ,43
E0128YV/5,2,5055939909639       ,43
E0128YV/6,1,5055939909646       ,43
E0128YV/7,1,5055939909653       ,43
E0154BK/L-XL,2,5055939965987       ,43
E0154BK/S-M,2,5055939958149       ,43
E1038BK/L-XL,2,5055939906706       ,43
E1038BK/S-M,2,5055939906690       ,43
E1039BK/L-XL,2,5055939906720       ,43
E1039BK/S-M,2,5055939906713       ,43
E1117BK/4,1,5055205390123       ,43
E1117BK/5,1,5055205390130       ,43
E1117BK/6,1,5055205390147       ,43
E1184BK/4,1,5055939944432       ,43
E1184BK/5,1,5055939944449       ,43
E1184BK/6,1,5055939944456       ,43
E1187BK/4,1,5055939944777       ,43
E1187BK/5,1,5055939944784       ,43
E1187BK/6,1,5055939944791       ,43
E1187BK/7,1,5055939944807       ,43
E1216BK/4,1,5055939958354       ,43
E1216BK/5,2,5055939958361       ,43
E1216BK/6,2,5055939958378       ,43
E1216BK/7,1,5055939958385       ,43
E3072BK/3,1,5055205362144       ,43
E3072BK/4,1,5055205362151       ,43
E3072BK/5,1,5055205362168       ,43
E3072BK/6,1,5055205362175       ,43
E3158BK/4,1,5055939942421       ,43
E3158BK/5,1,5055939942438       ,43
E3167BK/L-XL,2,5055939954127       ,43
E3167BK/S-M,1,5055939954110       ,43
E3167WH/L-XL,2,5055939954073       ,43
E3167WH/S-M,1,5055939954066       ,43
E3178BK/4,1,5055939957876       ,43
E5049BK/3,1,5055939924526       ,43
E5049BK/4,1,5055939924533       ,43
E5049BK/5,1,5055939924540       ,43
E5049BK/6,1,5055939924557       ,43
E5056BK/4,1,5055939941837       ,43
E5056BK/5,1,5055939941844       ,43
E8074BK/3,1,5055939924717       ,43
E8074BK/4,1,5055939924724       ,43
E9102RD/3,1,5055939925462       ,43
E9102RD/4,1,5055939925479       ,43
E9102RD/5,1,5055939925486       ,43
E9116CO/3,1,5055939942049       ,43
E9116CO/4,1,5055939942056       ,43
E9120YV/3,1,5055939943251       ,43
E9120YV/4,1,5055939943268       ,43
E9120YV/5,1,5055939943275       ,43
E9122BK/4,1,5055939945378       ,43
E9122BK/5,1,5055939945385       ,43
E9122BK/6,1,5055939945392       ,43
E9122BV/4,1,5055939945422       ,43
E9122BV/5,1,5055939945439       ,43
E9122BV/6,1,5055939945446       ,43
E9143GK/3,1,5055939957500       ,43
E9143GK/5,1,5055939957524       ,43
E9147GF/5,1,5055939959436       ,43
EM0057BK/5,1,5055939925967       ,43
E9117OM/4,1,5055939942278       ,56
E9143GK/4,1,5055939957517       ,62
E0035/3,2,5055205301440       ,70
E9103BK/5,1,5055939925639       ,70
E9134BK/4,2,5055939943411       ,70
E9134BK/5,2,5055939943428       ,70
E9134BK/6,2,5055939943435       ,70
E9122BK/4,1,5055939945378       ,86
EM0057BK/3,1,5055939925943       ,86
E9130AN/4,1,5055939945774       ,97
EM0057BU/6,1,5055939946108       ,97
E1117BK/6,2,5055205390147       ,127
E5049BK/4,1,5055939924533       ,127
E6155BK/2,1,5055939951188       ,127
E9103BK/5,1,5055939925639       ,127
E9134BK/4,1,5055939943411       ,127
E6146BK/3,1,5055939942087       ,140
E0035/3,2,5055205301440       ,177
E0035/5,2,5055205301457       ,177
E1117BK/6,2,5055205390147       ,177
E1216BK/6,1,5055939958378       ,177
E1506NA/M-L,1,5055939922843       ,177
E6146BK/3,1,5055939942087       ,177
E1137BK/0,1,5055939901350       ,204
E1138BK/0,1,5055939901367       ,204
E1138RD/0,1,5055939901381       ,204
E1138WH/0,1,5055939901374       ,204
E1160BK/3,1,5055939928494       ,204
E1160BK/4,2,5055939928500       ,204
E1160BK/5,2,5055939928517       ,204
E1160BK/6,1,5055939928524       ,204
E1165BK/3,1,5055939928845       ,204
E1165BK/4,2,5055939928852       ,204
E1165BK/5,2,5055939928869       ,204
E1165BK/6,1,5055939928876       ,204
E1165BK/7,1,5055939928883       ,204
E1165RD/3,1,5055939929002       ,204
E1165RD/4,2,5055939929019       ,204
E1165RD/5,2,5055939929026       ,204
E1165RD/6,1,5055939929033       ,204
E1165RD/7,1,5055939929040       ,204
E1166BK/4,1,5055939929071       ,204
E1166BK/5,2,5055939929088       ,204
E1166BK/6,1,5055939929095       ,204
E1166BK/7,1,5055939929101       ,204
E1166NA/4,1,5055939952734       ,204
E1166NA/5,1,5055939952741       ,204
E1166NA/6,1,5055939952758       ,204
E1166NA/7,1,5055939952765       ,204
E1166WH/4,1,5055939929255       ,204
E1166WH/5,2,5055939929262       ,204
E1166WH/6,1,5055939929279       ,204
E1166WH/7,1,5055939929286       ,204
E1168BK/4,1,5055939929484       ,204
E1168BK/5,1,5055939929491       ,204
E1168BK/6,1,5055939929507       ,204
E1168BK/7,1,5055939929514       ,204
E1168NA/4,1,5055939929583       ,204
E1168NA/5,1,5055939929590       ,204
E1168NA/6,1,5055939929606       ,204
E1168NA/7,1,5055939929613       ,204
E1171WH/0,1,5055939929866       ,204
E1205BK/L-XL,1,5055939951812       ,204
E1205BK/S-M,1,5055939951805       ,204
E1205NA/L-XL,1,5055939951850       ,204
E1258BK/4,1,5055939972619       ,204
E1258BK/5,1,5055939972626       ,204
E1258BK/7,1,5055939972640       ,204
E1264GK/L-XL,1,5055939977645       ,204
E1264GK/S-M,1,5055939977638       ,204
E1264RR/L-XL,1,5055939978420       ,204
E1264RR/S-M,1,5055939978413       ,204
E1505BA/L-XL,1,5055939978154       ,204
E1505BA/M-L,1,5055939978147       ,204
E1505BA/S-M,1,5055939978130       ,204
E1505GY/L-XL,1,5055939930091       ,204
E1505GY/M-L,1,5055939930107       ,204
E1505GY/S-M,1,5055939930114       ,204
E1505RD/L-XL,1,5055939951287       ,204
E1505RD/M-L,1,5055939951270       ,204
E1505RD/S-M,1,5055939951263       ,204
E1511BA/M-L,1,5055939971636       ,204
E1511BK/M-L,1,5055939930138       ,204
E1511WH/M-L,1,5055939930190       ,204
E3190CG/4,1,5055939974248       ,204
E3190CG/5,1,5055939974255       ,204
E3190CG/6,1,5055939974262       ,204
E3190PS/4,1,5055939974309       ,204
E3190PS/5,1,5055939974316       ,204
E3190PS/6,1,5055939974323       ,204
E3192BK/4,1,5055939974699       ,204
E3192BK/5,1,5055939974705       ,204
E3192BK/6,1,5055939974712       ,204
E3192BK/7,1,5055939974729       ,204
E3192GK/4,1,5055939974644       ,204
E3192GK/5,1,5055939974651       ,204
E3192WH/3,1,5055939974781       ,204
E3192WH/4,1,5055939974798       ,204
E3192WH/5,1,5055939974804       ,204
E3192WH/6,1,5055939974811       ,204
E4070BK/M4,1,5055939979205       ,204
E4070BK/M5,1,5055939979212       ,204
E4070BK/M6,1,5055939979229       ,204
E6126CE/3,1,5055939933207       ,204
E6126CE/4,1,5055939933214       ,204
E6126CE/5,1,5055939933221       ,204
E6175GY/4,1,5055939976235       ,204
E6175GY/5,1,5055939976242       ,204
E6176GY/3,1,5055939976280       ,204
E6176GY/4,1,5055939976297       ,204
E6176GY/5,1,5055939976303       ,204
E7117BK/3,1,5055939917016       ,204
E7117NA/3,1,5055939955049       ,204
E7117NA/4,1,5055939955056       ,204
E7117RD/3,1,5055939917887       ,204
E7117WH/3,1,5055939917061       ,204
E7117WH/4,1,5055939917078       ,204
E7117WH/5,1,5055939917085       ,204
E7117WH/6,1,5055939917092       ,204
E8064BC/3,1,5055939936772       ,204
E8064BC/4,1,5055939936789       ,204
E8064BC/5,1,5055939936796       ,204
E8064BC/6,1,5055939936802       ,204
E8104BK/4,1,5055939972077       ,204
E8104BK/5,1,5055939972084       ,204
E8104BK/6,1,5055939972091       ,204
E9151YV/3,1,5055939975955       ,204
E9151YV/4,1,5055939975962       ,204
E9151YV/5,1,5055939975979       ,204
E9151YV/6,1,5055939975986       ,204
E1258BK/6,1,5055939972633       ,213
E3185BK/4,1,5055939970530       ,213
E3185BK/5,1,5055939970547       ,213
E7117BK/4,1,5055939917023       ,213
E8103BK/4,1,5055939971438       ,213
E8103BK/5,1,5055939971445       ,213
E8103GF/4,1,5055939971537       ,213
E8103GF/5,1,5055939971544       ,213
E9126YV/6,1,5055939943947       ,213
