INVOICE,SIN525747
YOUR REF,SOR315399
DATE,12/03/2018
VALUE,4297.63


SKU,Qty,Value,Name,Colour,Size
E9061YV/2       ,1,14.63,Pakagilet,Hi-Viz Yellow,XS
E4031BK/3       ,1,68.30,Pro SL Bibshort II (medium-pad),Black,S
E4031BK/4       ,1,68.30,Pro SL Bibshort II (medium-pad),Black,M
E4031BK/5       ,1,68.30,Pro SL Bibshort II (medium-pad),Black,L
E4031BK/6       ,1,68.30,Pro SL Bibshort II (medium-pad),Black,XL
E4031BK/7       ,1,68.30,Pro SL Bibshort II (medium-pad),Black,XXL
E9106BK/3       ,1,43.90,FS260-Pro Adrenaline Race Cape II,Black,S
E9106BK/4       ,1,43.90,FS260-Pro Adrenaline Race Cape II,Black,M
E9106BK/5       ,1,43.90,FS260-Pro Adrenaline Race Cape II,Black,L
E9106BK/6       ,1,43.90,FS260-Pro Adrenaline Race Cape II,Black,XL
E9106BK/7       ,1,43.90,FS260-Pro Adrenaline Race Cape II,Black,XXL
E3142BK/4       ,1,33.20,FS260-Pro S/S Jersey,Black,M
E3142BK/5       ,1,33.20,FS260-Pro S/S Jersey,Black,L
E3142BK/6       ,1,33.20,FS260-Pro S/S Jersey,Black,XL
E3142BK/7       ,1,33.20,FS260-Pro S/S Jersey,Black,XXL
E7125BK/3       ,1,48.80,FS260-Pro Thermo Bibknicker,Black,S
E7125BK/4       ,2,97.60,FS260-Pro Thermo Bibknicker,Black,M
E7125BK/5       ,2,97.60,FS260-Pro Thermo Bibknicker,Black,L
E7125BK/6       ,2,97.60,FS260-Pro Thermo Bibknicker,Black,XL
E7125BK/7       ,1,48.80,FS260-Pro Thermo Bibknicker,Black,XXL
E7117BK/4       ,1,48.80,FS260-Pro Bibshort,Black,M
E7117BK/5       ,1,48.80,FS260-Pro Bibshort,Black,L
E7117BK/6       ,1,48.80,FS260-Pro Bibshort,Black,XL
E7117BK/7       ,1,48.80,FS260-Pro Bibshort,Black,XXL
E4028BK/4       ,1,33.20,Hyperon II Short,Black,M
E4028BK/5       ,1,33.20,Hyperon II Short,Black,L
E4028BK/6       ,1,33.20,Hyperon II Short,Black,XL
E4028BK/7       ,1,33.20,Hyperon II Short,Black,XXL
E4029RD/3       ,1,39.00,Hyperon II Bibshort,Red,S
E4029RD/4       ,1,39.00,Hyperon II Bibshort,Red,M
E4029RD/5       ,1,39.00,Hyperon II Bibshort,Red,L
E4029RD/6       ,1,39.00,Hyperon II Bibshort,Red,XL
E4029RD/7       ,1,39.00,Hyperon II Bibshort,Red,XXL
E3102RD/3       ,1,26.80,Hyperon Jersey,Red,S
E3102RD/4       ,1,26.80,Hyperon Jersey,Red,M
E3102RD/5       ,1,26.80,Hyperon Jersey,Red,L
E3102RD/6       ,1,26.80,Hyperon Jersey,Red,XL
E3109YV/3       ,1,24.40,Pakajak II,Hi-Viz Yellow,S
E3109YV/4       ,1,24.40,Pakajak II,Hi-Viz Yellow,M
E3109YV/5       ,1,24.40,Pakajak II,Hi-Viz Yellow,L
E3109YV/6       ,1,24.40,Pakajak II,Hi-Viz Yellow,XL
E3109YV/7       ,1,24.40,Pakajak II,Hi-Viz Yellow,XXL
E9095YV/3       ,1,19.50,Pakagilet II,Hi-Viz Yellow,S
E9095YV/4       ,1,19.50,Pakagilet II,Hi-Viz Yellow,M
E9095YV/5       ,1,19.50,Pakagilet II,Hi-Viz Yellow,L
E9095YV/6       ,1,19.50,Pakagilet II,Hi-Viz Yellow,XL
E9095YV/7       ,1,19.50,Pakagilet II,Hi-Viz Yellow,XXL
E8080BK/4       ,1,61.00,SingleTrack Lite Short II with Liner,Black,M
E8080BK/5       ,1,61.00,SingleTrack Lite Short II with Liner,Black,L
E8080BK/6       ,1,61.00,SingleTrack Lite Short II with Liner,Black,XL
E8064BC/3       ,1,34.20,Hummvee Short II with liner,Black Camo,S
E8064BC/4       ,1,34.20,Hummvee Short II with liner,Black Camo,M
E8064BC/5       ,1,34.20,Hummvee Short II with liner,Black Camo,L
E8064BC/6       ,1,34.20,Hummvee Short II with liner,Black Camo,XL
E8064BC/7       ,1,34.20,Hummvee Short II with liner,Black Camo,XXL
E1023BK/3       ,1,16.10,Engineered Padded Boxer,Black,S
E1023BK/4       ,1,16.10,Engineered Padded Boxer,Black,M
E1023BK/5       ,1,16.10,Engineered Padded Boxer,Black,L
E1023BK/6       ,1,16.10,Engineered Padded Boxer,Black,XL
E1023BK/7       ,1,16.10,Engineered Padded Boxer,Black,XXL
E6090WB/3       ,1,29.30,Wms Hyperon S/S Jersey ,White,S
E6090WB/4       ,1,29.30,Wms Hyperon S/S Jersey ,White,M
E6090WB/5       ,1,29.30,Wms Hyperon S/S Jersey ,White,L
E6095BK/3       ,1,33.20,Wms Hyperon II Short,Black,S
E6095BK/4       ,1,33.20,Wms Hyperon II Short,Black,M
E6095BK/5       ,1,33.20,Wms Hyperon II Short,Black,L
E6095BK/6       ,1,33.20,Wms Hyperon II Short,Black,XL
E6126WH/2       ,1,12.20,Women's Xtract Cycling Mitt II ,White,XS
E6126WH/3       ,1,12.20,Women's Xtract Cycling Mitt II ,White,S
E6126WH/4       ,1,12.20,Women's Xtract Cycling Mitt II ,White,M
E6126WH/5       ,1,12.20,Women's Xtract Cycling Mitt II ,White,L
E6104BK/3       ,1,24.40,Wms Pakajak II,Black,S
E6104BK/4       ,1,24.40,Wms Pakajak II,Black,M
E6104BK/5       ,1,24.40,Wms Pakajak II,Black,L
E6104CO/3       ,1,24.40,Wms Pakajak II,Cobalt Blue,S
E6104CO/4       ,1,24.40,Wms Pakajak II,Cobalt Blue,M
E6104CO/5       ,1,24.40,Wms Pakajak II,Cobalt Blue,L
E6104CO/6       ,1,24.40,Wms Pakajak II,Cobalt Blue,XL
E1108BK/S-M     ,1,29.30,SingleTrack Knee Protector,Black,S-M
E1108BK/L-XL    ,1,29.30,SingleTrack Knee Protector,Black,L-XL
E1109BK/S-M     ,1,26.80,SingleTrack Elbow Protector,Black,S-M
E1109BK/M-L     ,1,26.80,SingleTrack Elbow Protector,Black,M-L
E1109BK/L-XL    ,1,26.80,SingleTrack Elbow Protector,Black,L-XL
E1157BK/S-M     ,1,26.80,SingleTrack Lite Knee Protector,Black,S-M
E1157BK/L-XL    ,1,26.80,SingleTrack Lite Knee Protector,Black,L-XL
E1158BK/S-M     ,1,24.40,SingleTrack Lite Elbow Protector,Black,S-M
E1158BK/L-XL    ,1,24.40,SingleTrack Lite Elbow Protector,Black,L-XL
E1150BK/0       ,6,58.80,FS260-Pro Jersey Wallet,Black,One size
E1149BK/0       ,6,58.80,FS260-Pro Tool Roll,Black,One size
E3070WH/S-M     ,5,85.50,Fishnet S/L Baselayer,White,S-M
E3070WH/L-XL    ,5,85.50,Fishnet S/L Baselayer,White,L-XL
E0003/S-M       ,2,24.40,Thermo Arm Warmer,Black/None,S-M
E0003/M-L       ,2,24.40,Thermo Arm Warmer,Black/None,M-L
E0003/L-XL      ,2,24.40,Thermo Arm Warmer,Black/None,L-XL
E0005/S-M       ,2,23.40,Thermo Knee Warmer,Black/None,S-M
E0005/L-XL      ,2,23.40,Thermo Knee Warmer,Black/None,L-XL
E0004/S-M       ,2,29.20,Thermo Leg Warmer,Black/None,S-M
E0004/L-XL      ,2,29.20,Thermo Leg Warmer,Black/None,L-XL
E1035BK/S-M     ,2,32.20,Windchill II Arm Warmer,Black,S-M
E1035BK/M-L     ,2,32.20,Windchill II Arm Warmer,Black,M-L
E1035BK/L-XL    ,2,32.20,Windchill II Arm Warmer,Black,L-XL
E1036BK/S-M     ,2,32.20,Windchill II Knee Warmer,Black,S-M
E1036BK/L-XL    ,2,32.20,Windchill II Knee Warmer,Black,L-XL
E1037BK/S-M     ,2,43.80,Windchill II Leg Warmer,Black,S-M
E1037BK/M-L     ,2,43.80,Windchill II Leg Warmer,Black,M-L
E1037BK/L-XL    ,2,43.80,Windchill II Leg Warmer,Black,L-XL
E1166BK/3       ,1,19.50,FS260-Pro Aerogel Cycling Mitt II,Black,S
E1166BK/4       ,1,19.50,FS260-Pro Aerogel Cycling Mitt II,Black,M
E1166BK/5       ,1,19.50,FS260-Pro Aerogel Cycling Mitt II,Black,L
E1166BK/6       ,1,19.50,FS260-Pro Aerogel Cycling Mitt II,Black,XL
E1166BK/7       ,1,19.50,FS260-Pro Aerogel Cycling Mitt II,Black,XXL
E1165BK/3       ,1,12.20,Xtract Mitt II,Black,S
E1165BK/4       ,1,12.20,Xtract Mitt II,Black,M
E1165BK/5       ,1,12.20,Xtract Mitt II,Black,L
E1165BK/6       ,1,12.20,Xtract Mitt II,Black,XL
E1165BK/7       ,1,12.20,Xtract Mitt II,Black,XXL
E1165RD/3       ,1,12.20,Xtract Mitt II,Red,S
E1165RD/4       ,1,12.20,Xtract Mitt II,Red,M
E1165RD/5       ,1,12.20,Xtract Mitt II,Red,L
E1165RD/6       ,1,12.20,Xtract Mitt II,Red,XL
E1165RD/7       ,1,12.20,Xtract Mitt II,Red,XXL
E1168BK/3       ,1,17.60,SingleTrack Glove,Black,S
E1168BK/4       ,1,17.60,SingleTrack Glove,Black,M
E1168BK/5       ,1,17.60,SingleTrack Glove,Black,L
E1168BK/6       ,1,17.60,SingleTrack Glove,Black,XL
E1168BK/7       ,1,17.60,SingleTrack Glove,Black,XXL
E1132BK/S-M     ,5,41.50,Pro SL Sock (Single),Black,S-M
E1132BK/L-XL    ,5,41.50,Pro SL Sock (Single),Black,L-XL
E1132WH/S-M     ,5,41.50,Pro SL Sock (Single),White,S-M
E1132WH/L-XL    ,5,41.50,Pro SL Sock (Single),White,L-XL
