SKU,Maximum allowed,Barcode/EAN,Days left
E0043GK/0,1,5055939961385       ,45
E0110BK,1,5055205367224       ,45
E0110BP/0,1,5055939959726       ,45
E0128BK/4,1,5055939904931       ,45
E0128BK/5,1,5055939904948       ,45
E0151GC/0,1,5055939960715       ,45
E0152BK/L-XL,1,5055939958125       ,45
E0152BK/S-M,1,5055939958118       ,45
E0154BK/L-XL,1,5055939965987       ,45
E0154BK/S-M,1,5055939958149       ,45
E1052BK/S-M,1,5055939958026       ,45
E1145BK/5,1,5055939908205       ,45
E1145BK/6,1,5055939908212       ,45
E1218BK/L-XL,1,5055939958521       ,45
E1218BK/S-M,1,5055939958507       ,45
E1219BK/L-XL,1,5055939958545       ,45
E1219BK/S-M,1,5055939958538       ,45
E1220BK/L-XL,1,5055939958569       ,45
E1220BK/S-M,1,5055939958552       ,45
E1223BK/L-XL,1,5055939958613       ,45
E1226BK/0,1,5055939959399       ,45
E1227BK/L-XL,2,5055939966311       ,45
E1234BK/L-XL,2,5055939966823       ,45
E1513WH/M-L,1,5055939930343       ,45
E3123GF/4,1,5055939948508       ,45
E3173BK/4,1,5055939949604       ,45
E3176NA/2,1,5055939956992       ,45
E3176NA/3,1,5055939957005       ,45
E3177BK/2,1,5055939966182       ,45
E3177BK/3,1,5055939957708       ,45
E3177BK/4,1,5055939957715       ,45
E3183BK/4,1,5055939959306       ,45
E3183BK/5,1,5055939959313       ,45
E3183BK/6,1,5055939959320       ,45
E9106BK/6,1,5055939935287       ,45
E9122BK/3,1,5055939945361       ,45
E9122BK/4,1,5055939945378       ,45
E9122BK/5,1,5055939945385       ,45
E9142BK/3,1,5055939957357       ,45
E9143BK/2,1,5055939966236       ,45
E9143BK/3,1,5055939957456       ,45
E9143BK/4,1,5055939957463       ,45
E9143BK/5,1,5055939957470       ,45
E9144BK/2,1,5055939966250       ,45
E9144BK/3,1,5055939957555       ,45
E9144BK/4,1,5055939957562       ,45
E9144BK/5,1,5055939957579       ,45
E9144BV/6,1,5055939957630       ,45
E3181BK/3,1,5055939958187       ,51
E3181BK/4,1,5055939958194       ,51
E9145BK/3,1,5055939959085       ,51
E1054BK/S-M,1,5055939958088       ,58
E6140BK/3,1,5055939934006       ,106
