SKU,Maximum allowed,Barcode/EAN,Days left
E0066BK,1,5055205340234       ,15
E0066MB,1,5055939901312       ,15
E0066OR,1,5055939900032       ,15
E0114YV/L-XL,3,5055205380063       ,15
E0114YV/S-M,3,5055205380056       ,15
E1138BK/0,2,5055939901367       ,15
E1138RD/0,1,5055939901381       ,15
E1138WH/0,2,5055939901374       ,15
E1157BK/L-XL,2,5055939928418       ,15
E1157BK/S-M,2,5055939928425       ,15
E1158BK/L-XL,2,5055939928432       ,15
E1158BK/S-M,2,5055939928449       ,15
E1160BK/3,1,5055939928494       ,15
E1160BK/4,1,5055939928500       ,15
E1160BK/5,2,5055939928517       ,15
E1160BK/6,2,5055939928524       ,15
E1160BK/7,1,5055939928531       ,15
E1165BK/4,1,5055939928852       ,15
E1165BK/5,2,5055939928869       ,15
E1165BK/6,2,5055939928876       ,15
E1165BK/7,1,5055939928883       ,15
E3142BK/3,1,5055939931357       ,15
E3142BK/4,2,5055939931364       ,15
E3142BK/5,2,5055939931371       ,15
E3142BK/6,1,5055939931388       ,15
E3167WH/L-XL,2,5055939954073       ,15
E3167WH/S-M,2,5055939954066       ,15
E6132BK/2,1,5055939933719       ,15
E6132BK/3,1,5055939933726       ,15
E6132BK/4,2,5055939933733       ,15
E6132BK/5,2,5055939933740       ,15
E6132BK/6,1,5055939936314       ,15
E6152CO/3,1,5055939951034       ,15
E6152CO/4,2,5055939951041       ,15
E6152CO/5,1,5055939951058       ,15
E7117BK/3,1,5055939917016       ,15
E7117BK/4,2,5055939917023       ,15
E7117BK/5,2,5055939917030       ,15
E7117BK/6,2,5055939917047       ,15
E7117BK/7,1,5055939917054       ,15
E8064GY/3,1,5055939916217       ,15
E8064GY/4,2,5055939916224       ,15
E8064GY/5,2,5055939916231       ,15
E8064GY/6,1,5055939916248       ,15
E8065GY/3,1,5055939916286       ,15
E8065GY/4,2,5055939916293       ,15
E8065GY/5,2,5055939916309       ,15
E8065GY/6,1,5055939916316       ,15
E9106WH/3,1,5055939935355       ,15
E9106WH/4,2,5055939935362       ,15
E9106WH/5,2,5055939935379       ,15
E9106WH/6,2,5055939935386       ,15
