SKU,Maximum allowed,Barcode/EAN,Days left
E0066BK,3,5055205340234       ,21
E0110BP/0,2,5055939959726       ,21
E0110PK,1,5055205367231       ,21
E0110RR/0,2,5055939959719       ,21
E0128YV/5,1,5055939909639       ,21
E0128YV/6,1,5055939909646       ,21
E1118BK/6,1,5055205389998       ,21
E1155BK/S-M,1,5055939928395       ,21
E1168BK/4,1,5055939929484       ,21
E1168BK/6,1,5055939929507       ,21
E1183BK/5,1,5055939944241       ,21
E1183BK/6,1,5055939944258       ,21
E1506BK/M-L,1,5055939920054       ,21
E9148BK/4,1,5055939960005       ,21
E9148BK/5,1,5055939960012       ,21
E9148BK/6,1,5055939960029       ,21
EM0057BK/3,1,5055939925943       ,21
EM0057BK/4,2,5055939925950       ,21
EM0057BK/5,2,5055939925967       ,21
EM0057BK/6,2,5055939925974       ,21
EU8045BK/6,2,5055205339092       ,21
E5056BK/4,2,5055939941837       ,59
E3167BK/S-M,1,5055939954110       ,85
E3167WH/L-XL,1,5055939954073       ,85
E0128BK/5,1,5055939904948       ,98
E1120BK/6,2,5055205390246       ,98
E1227RR/L-XL,2,5055939966335       ,98
E1227RR/S-M,1,5055939960609       ,98
E7140GY/K7,1,5055939960654       ,98
E0066MB,3,5055939901312       ,130
E0066BK,3,5055205340234       ,205
E0066MB,3,5055939901312       ,205
E1137BK/0,2,5055939901350       ,205
E1137WH/0,2,5055939901343       ,205
E1161RD/3,1,5055939928739       ,205
E1161RD/4,2,5055939928746       ,205
E1161RD/5,1,5055939928753       ,205
E1161RD/6,1,5055939928760       ,205
E1170GY/0,3,5055939929835       ,205
E1170YV/0,2,5055939929842       ,205
E1253LG/L-XL,2,5055939971735       ,205
E1253LG/M-L,2,5055939971728       ,205
E1253LG/S-M,1,5055939971711       ,205
E1253OT/L-XL,2,5055939971766       ,205
E1253OT/M-L,2,5055939971759       ,205
E1253OT/S-M,1,5055939971742       ,205
E3193YV/3,1,5055939975832       ,205
E3193YV/4,2,5055939975849       ,205
E3193YV/5,2,5055939975856       ,205
E3193YV/6,1,5055939975863       ,205
E6184BP/2,1,5055939976860       ,205
E6184BP/3,1,5055939976877       ,205
E6184CV/2,1,5055939976914       ,205
E6184CV/3,1,5055939976921       ,205
E8064CC/3,1,5055939972220       ,205
E8064CC/4,1,5055939972237       ,205
E8064CC/5,1,5055939972244       ,205
E8064CC/6,1,5055939972251       ,205
E8064GC/3,1,5055939950969       ,205
E8064GC/4,1,5055939950976       ,205
E8064GC/5,1,5055939950983       ,205
E8064GC/6,1,5055939950990       ,205
E8066GC/6,2,5055939972329       ,205
E8066KH/6,1,5055939916415       ,205
E8101CC/3,1,5055939970776       ,205
E8101CC/4,2,5055939970783       ,205
E8101CC/5,2,5055939970790       ,205
E8101CC/6,1,5055939970806       ,205
E1258OT/3,1,5055939972701       ,206
E1258OT/4,1,5055939972718       ,206
E1258OT/5,1,5055939972725       ,206
E1258OT/6,1,5055939972732       ,206
