SKU,Maximum allowed,Barcode/EAN,Days left
E7117BK/5,1,5055939917030       ,32
E0073,6,5055205338118       ,200
E1186BK/3,3,5055939944623       ,200
E1186BK/4,6,5055939944630       ,200
E1186BK/5,6,5055939944647       ,200
E1186BK/6,3,5055939944654       ,200
E1218BK/L-XL,3,5055939958521       ,200
E1218BK/M-L,3,5055939958514       ,200
E1218BK/S-M,3,5055939958507       ,200
E1219BK/L-XL,3,5055939958545       ,200
E1219BK/S-M,3,5055939958538       ,200
E1505GV/M-L,1,5055939904450       ,200
E1505KH/M-L,2,5055939951300       ,200
E1505MB/L-XL,1,5055939904474       ,200
E1505MB/M-L,1,5055939904481       ,200
E1505OR/M-L,1,5055939904511       ,200
E1505OR/S-M,1,5055939904528       ,200
E1505RD/M-L,2,5055939951270       ,200
E1505WH/M-L,2,5055939904559       ,200
E1513BV/M-L,2,5055939966588       ,200
E1513BV/S-M,1,5055939966571       ,200
E1513GV/L-XL,1,5055939930305       ,200
E1513GV/M-L,2,5055939930312       ,200
E1513RD/M-L,3,5055939955025       ,200
E3063W/2,3,5055205358031       ,200
E3063W/3,3,5055205343624       ,200
E3063W/4,3,5055205343631       ,200
E3063W/5,3,5055205343648       ,200
E3063W/6,3,5055205343655       ,200
E3158BK/3,3,5055939942414       ,200
E3158BK/4,3,5055939942421       ,200
E3167BK/L-XL,3,5055939954127       ,200
E3167BK/S-M,3,5055939954110       ,200
E3167WH/L-XL,6,5055939954073       ,200
E3167WH/S-M,6,5055939954066       ,200
E3181BK/3,1,5055939958187       ,200
E3181BK/4,2,5055939958194       ,200
E3181BK/5,2,5055939958200       ,200
E3181BK/6,1,5055939958217       ,200
E3181NA/3,1,5055939958231       ,200
E3181NA/4,2,5055939958248       ,200
E3181NA/5,2,5055939958255       ,200
E3181NA/6,1,5055939958262       ,200
E4041BK/3,2,5055939924472       ,200
E4041BK/4,2,5055939924489       ,200
E4041BK/5,2,5055939924496       ,200
E5049BK/3,3,5055939924526       ,200
E5049BK/4,3,5055939924533       ,200
E5049BK/5,3,5055939924540       ,200
E5056BK/3,2,5055939941820       ,200
E5056BK/4,3,5055939941837       ,200
E5056BK/5,2,5055939941844       ,200
E5056BK/6,2,5055939941851       ,200
E9095BK/2,2,5055939918044       ,200
E9095BK/3,3,5055939918051       ,200
E9095BK/4,3,5055939918068       ,200
E9095BK/5,3,5055939918075       ,200
E9095BK/6,2,5055939918082       ,200
E9095YV/2,1,5055939918105       ,200
E9095YV/4,3,5055939918129       ,200
E9095YV/5,3,5055939918136       ,200
E9095YV/6,1,5055939918143       ,200
E9107BK/4,3,5055939935416       ,200
E9107BK/5,3,5055939935423       ,200
E9144BK/4,2,5055939957562       ,200
E9144BK/5,2,5055939957579       ,200
E9144BV/3,1,5055939957609       ,200
E9144BV/4,1,5055939957616       ,200
E9148BK/3,3,5055939959993       ,202
E9148BK/5,3,5055939960012       ,207
