INVOICE,SIN547749
YOUR REF,SS19 SMS
DATE,11/06/2018
VALUE,150.24


SKU,Qty,Value,Name,Colour,Size
E8092BK/4       ,1,43.90,MT500 Burner Short II,Black,M
E1506GF/M-L     ,1,78.10,MT500 Helmet,Forest Green,M-L
E1197GC/0       ,1,21.90,DuraPak,Grey Camo,One size
E1197GC/0       ,1,21.90,DuraPak,Grey Camo,One size
E8095AN/3       ,1,42.90,Women's Singletrack Lite 3/4,Anthracite,S
E8064GC/4       ,1,31.80,Hummvee Short II with liner,Grey Camo,M
E8097NA/4       ,1,31.80,Hummvee Chino Short with Liner Short,Navy,M
