SKU,Maximum allowed,Barcode/EAN,Days left
E1166WH/5,1,5055939929262       ,81
E1505GV/M-L,1,5055939904450       ,81
E3073BK/5,1,5055205360980       ,81
E3075WH/5,1,5055205361307       ,81
E9078BK/5,1,5055205389783       ,81
E0062/3,1,5055205323763       ,83
E0062/4,1,5055205323770       ,83
E0062/5,1,5055205323787       ,83
E0062/6,1,5055205323794       ,83
E0132BK/3,1,5055939915005       ,83
E0132BK/4,1,5055939915012       ,83
E0132BK/5,1,5055939915029       ,83
E0132BK/6,1,5055939915036       ,83
E0132MB/4,1,5055939922027       ,83
E0132MB/5,1,5055939922034       ,83
E0132MB/6,1,5055939922041       ,83
E0150BK/0,1,5055939936925       ,83
E0150NA/0,1,5055939936932       ,83
E0151KH/0,2,5055939936963       ,83
E0151MY/0,2,5055939936956       ,83
E0151PT/0,2,5055939936949       ,83
E1040BK/0,2,5055939916842       ,83
E1041WH/0,2,5055939919881       ,83
E1125MB/3,1,5055939928234       ,83
E1125MB/4,2,5055939928241       ,83
E1125MB/5,2,5055939928258       ,83
E1125MB/6,1,5055939928265       ,83
E1125MB/7,1,5055939928272       ,83
E1125PT/3,1,5055939928333       ,83
E1125PT/4,1,5055939928340       ,83
E1125PT/5,1,5055939928357       ,83
E1125PT/6,1,5055939928364       ,83
E1128BK/L-XL,2,5055205398617       ,83
E1128BK/S-M,1,5055205399164       ,83
E1130WH/L-XL,1,5055205398655       ,83
E1130WH/S-M,1,5055205399621       ,83
E1131BK/L-XL,2,5055205398662       ,83
E1131BK/S-M,2,5055205398679       ,83
E1157BK/L-XL,2,5055939928418       ,83
E1157BK/S-M,2,5055939928425       ,83
E1158BK/L-XL,2,5055939928432       ,83
E1158BK/S-M,2,5055939928449       ,83
E1160BK/3,1,5055939928494       ,83
E1160BK/4,1,5055939928500       ,83
E1160BK/5,1,5055939928517       ,83
E1160BK/6,1,5055939928524       ,83
E1165BK/3,1,5055939928845       ,83
E1165BK/4,2,5055939928852       ,83
E1165BK/5,2,5055939928869       ,83
E1165BK/6,2,5055939928876       ,83
E1165BK/7,1,5055939928883       ,83
E1165GV/4,1,5055939928906       ,83
E1165GV/5,1,5055939928913       ,83
E1165GV/6,1,5055939928920       ,83
E1166BK/4,1,5055939929071       ,83
E1166BK/5,1,5055939929088       ,83
E1166BK/6,1,5055939929095       ,83
E1168BK/4,1,5055939929484       ,83
E1168BK/5,1,5055939929491       ,83
E1168BK/6,1,5055939929507       ,83
E1168BK/7,1,5055939929514       ,83
E1168NA/3,1,5055939929576       ,83
E1168NA/4,1,5055939929583       ,83
E1168NA/5,1,5055939929590       ,83
E1168NA/6,1,5055939929606       ,83
E1172BK/L-XL,3,5055939929897       ,83
E1172BK/S-M,2,5055939929903       ,83
E1172MY/L-XL,3,5055939929873       ,83
E1172MY/S-M,2,5055939929880       ,83
E1172PT/L-XL,3,5055939929910       ,83
E1172PT/S-M,2,5055939929927       ,83
E1173CO/0,1,5055939929941       ,83
E1173MY/0,1,5055939929965       ,83
E1505GV/L-XL,1,5055939904443       ,83
E1505GV/M-L,1,5055939904450       ,83
E1505GY/L-XL,1,5055939930091       ,83
E1505GY/M-L,1,5055939930107       ,83
E1505GY/S-M,1,5055939930114       ,83
E1505MB/L-XL,1,5055939904474       ,83
E1505MB/M-L,1,5055939904481       ,83
E1505OR/L-XL,1,5055939904504       ,83
E1505OR/M-L,1,5055939904511       ,83
E1511BK/L-XL,1,5055939930121       ,83
E1511BK/M-L,1,5055939930138       ,83
E1511PT/L-XL,1,5055939930152       ,83
E3125BK/3,1,5055939915388       ,83
E3125BK/4,1,5055939915395       ,83
E3125BK/5,1,5055939915401       ,83
E3125BK/6,1,5055939915418       ,83
E3125BK/7,1,5055939915425       ,83
E3125RD/4,1,5055939919263       ,83
E3125RD/5,1,5055939919270       ,83
E3125RD/6,1,5055939919287       ,83
E3133GY/5,1,5055939924298       ,83
E3133GY/6,1,5055939924304       ,83
E3138GY/4,1,5055939930893       ,83
E3138GY/5,1,5055939930909       ,83
E3138GY/6,1,5055939930916       ,83
E3142BK/4,1,5055939931364       ,83
E3142BK/5,1,5055939931371       ,83
E3142BK/6,1,5055939931388       ,83
E4013BK/5,1,5055205333885       ,83
E4013BK/6,1,5055205333892       ,83
E4013BK/7,1,5055205333908       ,83
E4014BK/4,1,5055205333922       ,83
E4014BK/5,1,5055205333939       ,83
E4014BK/6,1,5055205333946       ,83
E6110CO/2,1,5055939919751       ,83
E6110CO/3,1,5055939919768       ,83
E6110CR/2,1,5055939915852       ,83
E6110CR/3,1,5055939915869       ,83
E6126BK/3,1,5055939933160       ,83
E6126BK/4,1,5055939933177       ,83
E6126CO/3,1,5055939933245       ,83
E6126CO/4,1,5055939933252       ,83
E7128BK/0,1,5055939934419       ,83
E7128GY/0,1,5055939934426       ,83
E8064BK/4,2,5055939915982       ,83
E8064BK/5,2,5055939915999       ,83
E8064BK/6,2,5055939916002       ,83
E8064BK/7,1,5055939916019       ,83
E8064GY/4,1,5055939916224       ,83
E8064GY/5,1,5055939916231       ,83
E8064GY/6,1,5055939916248       ,83
E8065GY/4,1,5055939916293       ,83
E8065GY/5,1,5055939916309       ,83
E8065GY/6,1,5055939916316       ,83
E8067BK/4,1,5055939916453       ,83
E8067BK/5,1,5055939916460       ,83
E8067BK/6,1,5055939916477       ,83
E8067OC/4,1,5055939916514       ,83
E8067OC/5,1,5055939916521       ,83
E8067OC/6,1,5055939916538       ,83
E8081BK/3,2,5055939934952       ,83
E8081BK/4,4,5055939934969       ,83
E8081BK/5,4,5055939934976       ,83
E8081BK/6,4,5055939934983       ,83
E8081BK/7,2,5055939934990       ,83
E1511PT/M-L,1,5055939930169       ,88
E3133GY/4,1,5055939924281       ,88
E7128BK/0,5,5055939934419       ,90
E7128GY/0,5,5055939934426       ,90
E8064BK/3,1,5055939915975       ,91
E3142GV/4,1,5055939931418       ,102
E3142GV/5,1,5055939931425       ,102
E3142GV/6,1,5055939931432       ,102
E4013BK/4,1,5055205333878       ,102
E0073,1,5055205338118       ,132
E1021BK/4,1,5055205371870       ,132
EM0053NA/7,1,5055939907963       ,132
E3133GY/5,1,5055939924298       ,138
E6110CO/4,1,5055939919775       ,138
E0003/L-XL,1,5055205300122       ,164
E0003/M-L,1,5055205300139       ,164
E0004/L-XL,1,5055205300153       ,164
E0004/S-M,1,5055205300160       ,164
E0006/3,1,5055205300184       ,164
E0006/5,2,5055205313610       ,164
E0052,2,5055205317632       ,164
E0068BK/4,1,5055205367705       ,164
E0068BK/5,1,5055205367712       ,164
E0068BK/6,1,5055205367729       ,164
E0110BK,2,5055205367224       ,164
E0110PK,1,5055205367231       ,164
E0110UM,1,5055205367248       ,164
E0114GV/L-XL,1,5055205380087       ,164
E0114GV/S-M,1,5055205380070       ,164
E0116PK,2,5055205381046       ,164
E0128YV/4,1,5055939909622       ,164
E0128YV/5,1,5055939909639       ,164
E0128YV/6,1,5055939909646       ,164
E1005BK/L-XL,2,5055205359458       ,164
E1005BK/S-M,1,5055205359441       ,164
E1036BK/L-XL,1,5055939905099       ,164
E1036BK/S-M,1,5055939905082       ,164
E1037BK/L-XL,1,5055939905129       ,164
E1037BK/M-L,1,5055939905112       ,164
E1038BK/L-XL,3,5055939906706       ,164
E1038BK/S-M,3,5055939906690       ,164
E1043BK/L-XL,1,5055939923871       ,164
E1043BK/S-M,1,5055939923888       ,164
E1117BK/4,1,5055205390123       ,164
E1117BK/5,1,5055205390130       ,164
E1118BK/3,1,5055205389967       ,164
E1118BK/4,2,5055205389974       ,164
E1118BK/5,2,5055205389981       ,164
E1118BK/6,2,5055205389998       ,164
E1145GV/3,1,5055939910673       ,164
E1145GV/4,1,5055939910680       ,164
E1145GV/5,1,5055939910697       ,164
E1145GV/6,1,5055939910703       ,164
E1146BK/L-XL,2,5055939909721       ,164
E1146BK/S-M,2,5055939909714       ,164
E1182BK/L-XL,2,5055939942629       ,164
E1182BK/S-M,2,5055939942612       ,164
E1185GV/4,1,5055939944586       ,164
E1185GV/5,1,5055939944593       ,164
E1185GV/6,1,5055939944609       ,164
E3108BK/3,1,5055939909288       ,164
E3108BK/4,1,5055939909295       ,164
E3108BK/5,1,5055939909301       ,164
E3108BK/6,1,5055939909318       ,164
E3143AN/6,1,5055939936123       ,164
E5049BK/3,1,5055939924526       ,164
E5049BK/4,1,5055939924533       ,164
E5049BK/5,1,5055939924540       ,164
E5049BK/6,1,5055939924557       ,164
E6040BK/2,1,5055939904979       ,164
E6040BK/3,1,5055939904986       ,164
E6040BK/4,1,5055939904993       ,164
E8073BK/3,1,5055939924663       ,164
E8073BK/4,1,5055939924670       ,164
E8073BK/5,1,5055939924687       ,164
E8073BK/6,1,5055939924694       ,164
E8076BK/3,1,5055939924816       ,164
E8076BK/4,1,5055939924823       ,164
E8076BK/5,1,5055939924830       ,164
E8076BK/6,1,5055939924847       ,164
E8088BK/4,1,5055939943169       ,164
E8088BK/5,1,5055939943176       ,164
E8088BK/6,1,5055939943183       ,164
E9102BK/4,1,5055939925523       ,164
E9102BK/5,1,5055939925530       ,164
E9102BK/6,1,5055939925547       ,164
E9102RD/4,1,5055939925479       ,164
E9102RD/5,1,5055939925486       ,164
E9102RD/6,1,5055939925493       ,164
E9114GV/4,1,5055939941684       ,164
E9114GV/5,1,5055939941691       ,164
E9114GV/6,1,5055939941707       ,164
E9128GY/4,1,5055939943565       ,164
E9128GY/5,1,5055939943572       ,164
E9128GY/6,1,5055939943589       ,164
E5056BK/3,1,5055939941820       ,166
E5056BK/4,2,5055939941837       ,166
E5056BK/5,2,5055939941844       ,166
E5056BK/6,2,5055939941851       ,166
E5056BK/7,1,5055939941868       ,166
E9126YV/4,1,5055939943923       ,166
E9126YV/5,1,5055939943930       ,166
E9126YV/6,1,5055939943947       ,166
E9120BK/4,1,5055939943213       ,172
E9120BK/5,1,5055939943220       ,172
E9120BK/6,1,5055939943237       ,172
E9122BV/4,1,5055939945422       ,178
E9122BV/5,1,5055939945439       ,178
E9122BV/6,1,5055939945446       ,178
E1186GV/3,1,5055939944678       ,183
E1186GV/4,1,5055939944685       ,183
E1186GV/5,1,5055939944692       ,183
E1186GV/6,1,5055939944708       ,183
E6147CE/2,1,5055939945460       ,183
E6147CE/3,1,5055939945477       ,183
E6147CE/4,1,5055939945484       ,183
E3143AN/4,1,5055939936109       ,199
E3143AN/5,1,5055939936116       ,199
