INVOICE,SIN588212
YOUR REF,BAZ
DATE,08/02/2019
VALUE,13.32


SKU,Qty,Value,Name,Colour,Size
E1146BK/S-M     ,1,7.30,Baabaa Merino Winter Sock II,Black,S-M
ET6062MV/S-M    ,2,3.80,Movistar Team Race Sock 2015 (Single),Movistar Team,S-M
