INVOICE,SIN593429
YOUR REF,SS2019
DATE,05/03/2019
VALUE,457


SKU,Qty,Value,Name,Colour,Size
E5072NA/3       ,1,28.01,PT Scatter S/S Jersey LTD,Navy,S
E5072NA/4       ,1,28.01,PT Scatter S/S Jersey LTD,Navy,M
E5072NA/5       ,1,28.01,PT Scatter S/S Jersey LTD,Navy,L
E8064BC/4       ,1,29.89,Hummvee Short II with liner,Black Camo,M
E8064BC/5       ,1,29.89,Hummvee Short II with liner,Black Camo,L
E4058NA/3       ,1,40.04,PT Scatter Bibshort LTD,Navy,S
E4058NA/4       ,1,40.04,PT Scatter Bibshort LTD,Navy,M
E4058NA/5       ,1,40.04,PT Scatter Bibshort LTD,Navy,L
E1208NA/S-M     ,2,14.48,PT Scatter Sock LTD,Navy,S-M
E1208NA/L-XL    ,2,14.48,PT Scatter Sock LTD,Navy,L-XL
E4058NA/6       ,1,40.04,PT Scatter Bibshort LTD,Navy,XL
E5072NA/6       ,1,28.01,PT Scatter S/S Jersey LTD,Navy,XL
E5072NA/7       ,1,28.01,PT Scatter S/S Jersey LTD,Navy,XXL
E6158GK/4       ,1,28.01,Wms PT Scatter S/S Jersey LTD,Kingfisher,M
E6161GK/4       ,1,40.04,Wms PT Scatter Bibshort LTD,Kingfisher,M
