SKU,Maximum allowed,Barcode/EAN,Days left
E0040ST,3,5055205301914       ,3
E1102,6,5055205353814       ,3
E4013BK/5,2,5055205333885       ,3
E8064BK/3,1,5055939915975       ,3
E8064BK/6,1,5055939916002       ,3
E8064KH/5,1,5055939916071       ,3
E8064KH/6,1,5055939916088       ,3
E0040CL,2,5055205301877       ,10
E0040SM,2,5055205301907       ,10
E0040ST,1,5055205301914       ,10
E0045,2,5055205315935       ,10
E1120BK/4,1,5055205390222       ,10
E6061PV/4,1,5055205352299       ,10
E7117BK/5,2,5055939917030       ,10
E8064BK/3,1,5055939915975       ,10
E8064KH/4,1,5055939916064       ,10
E0040CL,2,5055205301877       ,11
E0040SM,1,5055205301907       ,11
E0105BK/L-XL,4,5055205359823       ,11
E4013BK/4,2,5055205333878       ,11
E8064BK/3,1,5055939915975       ,11
E8064BK/4,2,5055939915982       ,11
E8064BK/5,1,5055939915999       ,11
E0105BK/L-XL,4,5055205359823       ,12
E3102WH/4,1,5055939900209       ,12
E3140OC/7,1,5055939931173       ,18
E4013BK/3,2,5055205333861       ,22
E1102,4,5055205353814       ,25
E3140OC/5,1,5055939931159       ,25
E4013BK/3,2,5055205333861       ,25
E4013BK/4,4,5055205333878       ,25
E8064BK/4,2,5055939915982       ,25
E0045,1,5055205315935       ,44
E1102,3,5055205353814       ,44
E4013BK/4,3,5055205333878       ,44
E4013BK/5,2,5055205333885       ,44
E4013BK/7,1,5055205333908       ,44
E8064BK/5,2,5055939915999       ,44
E8064KH/5,2,5055939916071       ,44
E0045,1,5055205315935       ,53
E1102,6,5055205353814       ,53
E4013BK/4,2,5055205333878       ,53
E6091BK/3,2,5055205399089       ,53
E6124BK/3,1,5055939933009       ,53
E7117BK/4,2,5055939917023       ,53
E1102,3,5055205353814       ,74
E1120BK/4,1,5055205390222       ,74
E1120BK/5,3,5055205390239       ,74
E7117BK/4,1,5055939917023       ,74
E8064BK/5,5,5055939915999       ,74
E3140BK/7,1,5055939931128       ,78
E7117BK/7,1,5055939917054       ,78
E0003/L-XL,2,5055205300122       ,81
E0003/M-L,2,5055205300139       ,81
E0004/L-XL,2,5055205300153       ,81
E0004/S-M,1,5055205300160       ,81
E0005/L-XL,1,5055205341781       ,81
E1038BK/L-XL,4,5055939906706       ,81
E1038BK/S-M,2,5055939906690       ,81
E1120BK/5,1,5055205390239       ,81
E7125BK/4,1,5055939924625       ,81
E0042/3,2,5055205311937       ,84
E0042/4,12,5055205311944       ,84
E0042/5,12,5055205311951       ,84
E0042/6,8,5055205311968       ,84
E0042/7,4,5055205311975       ,84
E0068BK/4,2,5055205367705       ,84
E0068BK/5,4,5055205367712       ,84
E0068BK/6,2,5055205367729       ,84
E0128BK/4,12,5055939904931       ,84
E0128BK/5,6,5055939904948       ,84
E0128BK/6,6,5055939904955       ,84
E0128BK/7,4,5055939904962       ,84
E0128YV/3,2,5055939909615       ,84
E0128YV/4,4,5055939909622       ,84
E0128YV/5,6,5055939909639       ,84
E0128YV/6,2,5055939909646       ,84
E1187BK/4,4,5055939944777       ,84
E1187BK/5,4,5055939944784       ,84
E1187BK/6,2,5055939944791       ,84
E3119BK/4,1,5055939924083       ,84
E3119BK/5,1,5055939924090       ,84
E3119BK/6,1,5055939924106       ,84
E3119BV/4,1,5055939941288       ,84
E3119BV/5,1,5055939941295       ,84
E3119BV/6,1,5055939941301       ,84
E3134BK/3,2,5055939924373       ,84
E3134BK/4,2,5055939924380       ,84
E3134BK/5,2,5055939924397       ,84
E3158BK/4,2,5055939942421       ,84
E3158BK/5,2,5055939942438       ,84
E3158BK/6,2,5055939942445       ,84
E4013BK/4,6,5055205333878       ,84
E4013BK/5,4,5055205333885       ,84
E5049BK/4,2,5055939924533       ,84
E5049BK/5,2,5055939924540       ,84
E5049BK/6,2,5055939924557       ,84
E5056BK/3,2,5055939941820       ,84
E5056BK/4,2,5055939941837       ,84
E5056BK/5,2,5055939941844       ,84
E5056BK/6,2,5055939941851       ,84
E6040BK/2,2,5055939904979       ,84
E6040BK/3,4,5055939904986       ,84
E6040BK/4,2,5055939904993       ,84
E6040BK/5,2,5055939905006       ,84
E6040YV/3,4,5055939909745       ,84
E6040YV/4,4,5055939909752       ,84
E6067BK/2,2,5055205367644       ,84
E6067BK/3,4,5055205367651       ,84
E6067BK/4,2,5055205367668       ,84
E6086BK/2,2,5055205389554       ,84
E6086BK/3,2,5055205389561       ,84
E6086BK/4,2,5055205389578       ,84
E6091BK/3,4,5055205399089       ,84
E6091BK/4,2,5055205399096       ,84
E8062BK/3,2,5055205398587       ,84
E8062BK/4,2,5055205398594       ,84
E8062BK/5,2,5055205398600       ,84
E8064BK/4,4,5055939915982       ,84
E8064BK/5,4,5055939915999       ,84
E8064BK/6,2,5055939916002       ,84
E8087BK/4,2,5055939943114       ,84
E8087BK/5,2,5055939943121       ,84
E8087BK/6,2,5055939943138       ,84
E9098BK/3,1,5055939942872       ,84
E9098BK/4,2,5055939942889       ,84
E9098BK/5,2,5055939942896       ,84
E9098BK/6,1,5055939942902       ,84
E9098CT/4,2,5055939925219       ,84
E9098CT/6,1,5055939925233       ,84
E9105BK/4,2,5055939925806       ,84
E9105BK/5,2,5055939925813       ,84
E9114BK/4,2,5055939941738       ,84
E9114BK/5,2,5055939941745       ,84
E9114BK/6,2,5055939941752       ,84
E9114BV/3,1,5055939941776       ,84
E9114BV/4,2,5055939941783       ,84
E9114BV/5,2,5055939941790       ,84
E9114BV/6,1,5055939941806       ,84
E9116CE/3,1,5055939942001       ,84
E9116CE/4,1,5055939942018       ,84
E9116CO/4,2,5055939942056       ,84
E9116CO/5,2,5055939942063       ,84
E9120BK/4,2,5055939943213       ,84
E9120BK/5,2,5055939943220       ,84
E9120BK/6,2,5055939943237       ,84
E9120KH/3,1,5055939943305       ,84
E9120KH/4,2,5055939943312       ,84
E9120KH/5,1,5055939943329       ,84
E9120YV/4,2,5055939943268       ,84
E9120YV/5,2,5055939943275       ,84
E9120YV/6,2,5055939943282       ,84
E9129BP/3,1,5055939943619       ,84
E9129BP/4,1,5055939943626       ,84
E9129YV/3,2,5055939943657       ,84
E9129YV/4,2,5055939943664       ,84
E1120BK/6,1,5055205390246       ,94
E9106BV/7,1,5055939941417       ,94
E0006/3,2,5055205300184       ,106
E0062/4,1,5055205323770       ,106
E6040BK/4,1,5055939904993       ,106
E6067BK/4,1,5055205367668       ,106
E6067BK/5,1,5055205367675       ,106
E1102,2,5055205353814       ,116
E6040BK/3,1,5055939904986       ,116
E6040BK/4,1,5055939904993       ,116
E7117BK/5,1,5055939917030       ,116
E7117BK/6,1,5055939917047       ,116
E8064BK/3,1,5055939915975       ,116
E8064BK/7,1,5055939916019       ,116
E8089BK/5,1,5055939944395       ,116
E0062/5,1,5055205323787       ,124
E6067BK/2,1,5055205367644       ,124
E6067BK/3,1,5055205367651       ,124
E0040YL,1,5055205301921       ,137
E3069BV/5,1,5055939941349       ,137
E6040YV/2,2,5055939909738       ,137
E6091BK/3,1,5055205399089       ,137
E6091BK/4,1,5055205399096       ,137
E6091BK/5,1,5055205399102       ,137
E7128BK/0,1,5055939934419       ,137
E7128GY/0,1,5055939934426       ,137
E9114BV/6,1,5055939941806       ,137
E5022BK/5,1,5055205360874       ,143
E5049BK/4,1,5055939924533       ,143
E5056BK/4,1,5055939941837       ,143
E9114BV/5,1,5055939941790       ,143
E0052,1,5055205317632       ,155
E1192BK/0,1,5055939945316       ,155
E3069BV/6,1,5055939941356       ,155
E5022BK/6,1,5055205360881       ,155
E0042/5,3,5055205311951       ,178
E0042/6,3,5055205311968       ,178
E0128BK/6,2,5055939904955       ,178
E1023BK/4,1,5055205372402       ,178
E1038BK/L-XL,1,5055939906706       ,178
E1038BK/S-M,1,5055939906690       ,178
E5022BK/6,1,5055205360881       ,178
E6040BK/4,1,5055939904993       ,178
E7124BK/3,2,5055939923017       ,178
E7124BK/4,2,5055939923024       ,178
E7124BK/5,2,5055939923031       ,178
E9120YV/4,1,5055939943268       ,178
E5049BK/3,1,5055939924526       ,179
E5055BK/3,1,5055939941479       ,179
E0006/5,2,5055205313610       ,184
E0128BK/5,2,5055939904948       ,184
E0128BK/6,2,5055939904955       ,184
E0128YV/6,1,5055939909646       ,184
E1187BK/6,1,5055939944791       ,184
E5056BK/4,1,5055939941837       ,184
E9098NA/5,1,5055939925271       ,184
E3119BV/5,1,5055939941295       ,185
E1120BK/5,1,5055205390239       ,200
E1187BK/4,1,5055939944777       ,200
E1188BK/5,1,5055939944838       ,200
E5056BK/3,1,5055939941820       ,200
E9120YV/4,1,5055939943268       ,200
E0128BK/4,1,5055939904931       ,207
E0128BK/5,3,5055939904948       ,207
E0128BK/6,1,5055939904955       ,207
E0128YV/5,2,5055939909639       ,207
E1120BK/3,1,5055205390215       ,207
E1185BK/5,1,5055939944548       ,207
E9120YV/4,1,5055939943268       ,207
E9120YV/5,1,5055939943275       ,207
E0110UM,1,5055205367248       ,211
E1185BK/5,1,5055939944548       ,211
