INVOICE,SIN587632
YOUR REF,2549
DATE,07/02/2019
VALUE,94.62


SKU,Qty,Value,Name,Colour,Size
E1183BK/4       ,1,16.15,Urban Luminite Overshoe,Black,M
E1183BK/5       ,1,16.15,Urban Luminite Overshoe,Black,L
E1183BK/6       ,1,16.15,Urban Luminite Overshoe,Black,XL
E1118BK/5       ,1,15.20,MT500 Overshoe II ,Black,L
E1118BK/6       ,1,15.20,MT500 Overshoe II ,Black,XL
