SKU,Maximum allowed,Barcode/EAN,Days left
E1204GC/4,2,5055939950679       ,2
E1204GC/5,2,5055939950686       ,2
E1204GC/6,2,5055939950693       ,2
E1505OR/S-M,1,5055939904528       ,10
E3063W/5,1,5055205343648       ,10
E3123OM/4,1,5055939930534       ,10
E7128KH/0,2,5055939951324       ,10
E7136WH/0,2,5055939948942       ,95
E1042BK/S-M,1,5055939923864       ,124
E1043BK/S-M,1,5055939923888       ,124
E1112BK/S-M,1,5055205384672       ,124
E3063W/4,2,5055205343631       ,124
E5067BK/4,1,5055939950723       ,124
E8085AN/4,1,5055939956190       ,124
