INVOICE,SIN642177
YOUR REF,SOR394174
DATE,01/11/2019
VALUE,482.6


SKU,Qty,Value,Name,Colour,Size
E8093BK/3       ,2,68.40,MT500 Protector Undershorts II,Black,S
E8093BK/4       ,2,68.40,MT500 Protector Undershorts II,Black,M
E8093BK/5       ,1,34.20,MT500 Protector Undershorts II,Black,L
E8093BK/6       ,1,34.20,MT500 Protector Undershorts II,Black,XL
E1181BK/3       ,2,48.80,MT500 Waterproof Glove,Black,S
E1119BK/3       ,4,68.00,WP Gaiter Overshoe,Black,S
E1227GK/S-M     ,3,21.90,BaaBaa Merino Winter Sock (Single),Kingfisher,S-M
E1227GK/L-XL    ,3,21.90,BaaBaa Merino Winter Sock (Single),Kingfisher,L-XL
E1112BK/S-M     ,2,58.40,SingleTrack Shin Protector,Black,S-M
E1112BK/L-XL    ,2,58.40,SingleTrack Shin Protector,Black,L-XL
