INVOICE,SIN631376
YOUR REF,SOR388253
DATE,23/09/2019
VALUE,202.8


SKU,Qty,Value,Name,Colour,Size
E1219BK/L-XL    ,1,19.50,FS260-Pro Thermo Leg Warmer,Black,L-XL
E9119PW/4       ,1,61.00,SingleTrack Softshell II,Pewter Grey,M
E8089BK/3       ,1,28.30,SingleTrack Sport Pant,Black,S
E1205BK/S-M     ,2,17.60,Pro SL Sock II,Black,S-M
E1205RD/S-M     ,2,17.60,Pro SL Sock II,Red,S-M
E7117BK/4       ,1,48.80,FS260-Pro Bibshort,Black,M
DEL10           ,1,10.00,Delivery - Euro                    ,,
