SKU,Maximum allowed,Barcode/EAN,Days left
E1109BK/M-L,3,5055205388007       ,195
E1170GY/0,1,5055939929835       ,195
E1171BK/0,1,5055939929859       ,195
E1195BK/S-M,3,5055939948829       ,195
E1196BK/S-M,3,5055939948867       ,195
E1197GC/0,1,5055939949031       ,195
E1202BK/L-XL,1,5055939949918       ,195
E1506GF/M-L,1,5055939948966       ,195
