INVOICE,SIN595346
YOUR REF,SS19
DATE,14/03/2019
VALUE,1448.01


SKU,Qty,Value,Name,Colour,Size
E8064BC/4       ,1,30.53,Hummvee Short II with liner,Black Camo,M
E8064BC/5       ,1,30.53,Hummvee Short II with liner,Black Camo,L
E8064BC/6       ,1,30.53,Hummvee Short II with liner,Black Camo,XL
E7117BK/4       ,1,46.85,FS260-Pro Bibshort,Black,M
E7117BK/5       ,2,93.70,FS260-Pro Bibshort,Black,L
E7117BK/6       ,1,46.85,FS260-Pro Bibshort,Black,XL
E7117WH/3       ,1,46.85,FS260-Pro Bibshort,White,S
E7117WH/4       ,1,46.85,FS260-Pro Bibshort,White,M
E7117WH/5       ,1,46.85,FS260-Pro Bibshort,White,L
E7117WH/6       ,1,46.85,FS260-Pro Bibshort,White,XL
E7117WH/7       ,1,46.85,FS260-Pro Bibshort,White,XXL
E6132BK/2       ,1,37.44,Women's FS260-Pro Short,Black,XS
E6132BK/3       ,1,37.44,Women's FS260-Pro Short,Black,S
E6132BK/4       ,1,37.44,Women's FS260-Pro Short,Black,M
E7118BK/4       ,2,74.88,FS260-Pro Short,Black,M
E7118BK/5       ,2,74.88,FS260-Pro Short,Black,L
E7118BK/6       ,2,74.88,FS260-Pro Short,Black,XL
E7118BK/7       ,1,37.44,FS260-Pro Short,Black,XXL
E7110BK/K7      ,1,18.72,Kids Xtract Gel Short,Black,7-8yrs
E7110BK/K9      ,1,18.72,Kids Xtract Gel Short,Black,9-10yrs
E7110BK/K11     ,1,18.72,Kids Xtract Gel Short,Black,11-12yrs
E7128BK/0       ,3,54.72,Hummvee Youth Helmet,Black,One size
E5054BK/4       ,2,145.15,QDC Tri Suit ,Black,M
E5054BK/5       ,1,72.58,QDC Tri Suit ,Black,L
E1165BK/5       ,3,35.14,Xtract Mitt II,Black,L
E7131BK/K9      ,2,51.46,SingleTrack Youth Knee Protector,Black,9-10yrs
E7131BK/K11     ,2,51.46,SingleTrack Youth Knee Protector,Black,11-12yrs
E7132BK/K9      ,2,46.85,SingleTrack Youth Elbow Protector,Black,9-10yrs
E7132BK/K11     ,2,46.85,SingleTrack Youth Elbow Protector,Black,11-12yrs
