SKU,Maximum allowed,Barcode/EAN,Days left
E1165BK/5,3,5055939928869       ,12
E5054BK/4,2,5055939940342       ,12
E5054BK/5,1,5055939940359       ,12
E6132BK/2,1,5055939933719       ,12
E6132BK/3,1,5055939933726       ,12
E6132BK/4,1,5055939933733       ,12
E7110BK/K11,1,5055205387895       ,12
E7110BK/K7,1,5055205387871       ,12
E7110BK/K9,1,5055205387888       ,12
E7117BK/4,1,5055939917023       ,12
E7117BK/5,2,5055939917030       ,12
E7117BK/6,1,5055939917047       ,12
E7117WH/3,1,5055939917061       ,12
E7117WH/4,1,5055939917078       ,12
E7117WH/5,1,5055939917085       ,12
E7117WH/6,1,5055939917092       ,12
E7117WH/7,1,5055939917108       ,12
E7118BK/4,2,5055939914886       ,12
E7118BK/5,2,5055939914893       ,12
E7118BK/6,2,5055939914909       ,12
E7118BK/7,1,5055939914916       ,12
E7128BK/0,3,5055939934419       ,12
E7131BK/K11,2,5055939949970       ,12
E7131BK/K9,2,5055939949963       ,12
E7132BK/K11,2,5055939949994       ,12
E7132BK/K9,2,5055939949987       ,12
E8064BC/4,1,5055939936789       ,12
E8064BC/5,1,5055939936796       ,12
E8064BC/6,1,5055939936802       ,12
E6097BK/2,1,5055939901206       ,20
E6097BK/3,1,5055939901213       ,20
E6097BK/4,1,5055939901220       ,20
E6097BK/5,1,5055939901237       ,20
E1505WH/L-XL,1,5055939904542       ,27
E1505WH/M-L,1,5055939904559       ,27
E8064BK/3,1,5055939915975       ,27
E1505MB/L-XL,1,5055939904474       ,206
E1505MB/M-L,2,5055939904481       ,206
E1505MB/S-M,1,5055939904498       ,206
E1505WH/L-XL,1,5055939904542       ,206
E1505WH/M-L,2,5055939904559       ,206
E1505WH/S-M,1,5055939904566       ,206
E3135BK/5,1,5055939924199       ,206
E3158BK/4,1,5055939942421       ,206
E3158BK/6,1,5055939942445       ,206
E5049BK/4,2,5055939924533       ,206
E5049BK/5,2,5055939924540       ,206
E5049BK/6,2,5055939924557       ,206
E5055BK/4,1,5055939941486       ,206
E5055BK/5,1,5055939941493       ,206
E5055BK/6,1,5055939941509       ,206
E8074BK/4,2,5055939924724       ,206
E8074BK/5,2,5055939924731       ,206
E8074BK/6,1,5055939924748       ,206
E9140BK/4,1,5055939953489       ,206
E9140BK/5,1,5055939953496       ,206
E9140BK/6,1,5055939953502       ,206
E9140BV/4,1,5055939953533       ,206
E9140BV/5,1,5055939953540       ,206
E9140BV/6,1,5055939953557       ,206
