INVOICE,SCR090004
YOUR REF,
DATE,05/02/2020
VALUE,274.4


SKU,Qty,Value,Name,Colour,Size
E0128YV/4       ,1,-16.72,Strike II Glove  ,Hi-Viz Yellow,M
E2010BK/3       ,1,-27.36,Wms Luminite Tight,Black,S
E3109BK/5       ,3,-58.56,Pakajak II,Black,L
E3177BK/4       ,1,-39.04,Pro SL L/S Jersey II,Black,M
E9146MY/4       ,1,-78.08,Women's Urban 3 in 1 Jacket,Mulberry,M
E9150GK/4       ,1,-54.64,Women's SingleTrack Jacket,Kingfisher,M
