INVOICE,SIN509443
YOUR REF,SOR303378
DATE,28/11/2017
VALUE,571.2


SKU,Qty,Value,Name,Colour,Size
E8060BK/4       ,1,74.90,MT500 Waterproof Trouser II,Black,M
E0128YV/4       ,1,22.40,Strike II Glove  ,Hi-Viz Yellow,M
E4014RD/4       ,2,69.80,Xtract Gel Bib Short,Red,M
E5049BK/4       ,1,59.90,FS260-Pro Thermo Bibtight,Black,M
E9098NA/5       ,1,69.90,SingleTrack Jacket II,Navy,L
E3110NA/5       ,1,64.90,SingleTrack Softshell Jacket ,Navy,L
E3032/4         ,2,54.80,BaaBaa Merino S/S Baselayer,Black/None,M
E3029/4         ,1,29.90,BaaBaa Merino L/S Baselayer,Black/None,M
E0042/5         ,1,19.90,Dexter Glove,Black/None,L
EU8047BU/5      ,1,59.90,Urban Jean,Blue,L
EU8045BK/5      ,1,44.90,Urban Stretch Trouser,Black,L
