SKU,Maximum allowed,Barcode/EAN,Days left
E0128BK/3,2,5055939904924       ,52
E0128BK/4,8,5055939904931       ,52
E0128BK/5,6,5055939904948       ,52
E0128BK/6,2,5055939904955       ,52
E0128YV/3,1,5055939909615       ,52
E0128YV/4,3,5055939909622       ,52
E0128YV/5,3,5055939909639       ,52
E0128YV/6,1,5055939909646       ,52
E1039BK/L-XL,1,5055939906720       ,52
E1039BK/S-M,1,5055939906713       ,52
E1043BK/L-XL,1,5055939923871       ,52
E1043BK/S-M,1,5055939923888       ,52
E1052BK/S-M,1,5055939958026       ,52
E1118BK/4,1,5055205389974       ,52
E1118BK/5,1,5055205389981       ,52
E1118BK/6,1,5055205389998       ,52
E1186BK/4,2,5055939944630       ,52
E5049BK/3,1,5055939924526       ,52
E5049BK/4,6,5055939924533       ,52
E5049BK/5,3,5055939924540       ,52
E5049BK/6,1,5055939924557       ,52
E5056BK/3,1,5055939941820       ,52
E5056BK/4,2,5055939941837       ,52
E5056BK/5,2,5055939941844       ,52
E5056BK/6,1,5055939941851       ,52
E9106BK/4,1,5055939935263       ,52
E9106RD/4,1,5055939958644       ,52
E9106RD/5,1,5055939958651       ,52
E9148BK/4,1,5055939960005       ,52
E9148BK/3,1,5055939959993       ,54
E9148BK/5,1,5055939960012       ,54
E1053BK/L-XL,1,5055939958071       ,65
E1053BK/M-L,1,5055939958064       ,65
E1052BK/L-XL,1,5055939958040       ,72
E1052BK/M-L,1,5055939958033       ,72
E1053BK/S-M,1,5055939958057       ,72
E0128BK/4,1,5055939904931       ,80
E9103GV/4,1,5055939925677       ,82
E1118BK/4,1,5055205389974       ,164
E1118BK/5,2,5055205389981       ,164
E1118BK/6,2,5055205389998       ,164
E5049BK/6,1,5055939924557       ,164
E5049BK/7,1,5055939924564       ,164
E1205BK/L-XL,1,5055939951812       ,205
E1205BK/S-M,1,5055939951805       ,205
E1205PS/L-XL,2,5055939974590       ,205
E1205PS/S-M,2,5055939974583       ,205
E1259BK/3,1,5055939975597       ,205
E1259BK/4,2,5055939975603       ,205
E1259BK/5,2,5055939975610       ,205
E1259BK/6,1,5055939975627       ,205
E1259PS/3,1,5055939975719       ,205
E1259PS/4,2,5055939975726       ,205
E1259PS/5,2,5055939975733       ,205
E1259PS/6,1,5055939975740       ,205
E1266BP/0,2,5055939977676       ,205
E1513BK/M-L,1,5055939930282       ,205
E3167BK/L-XL,2,5055939954127       ,205
E3167BK/S-M,1,5055939954110       ,205
E3167WH/L-XL,2,5055939954073       ,205
E3167WH/S-M,1,5055939954066       ,205
E3190CG/3,1,5055939974231       ,205
E3190CG/4,1,5055939974248       ,205
E3190PS/4,1,5055939974309       ,205
E3190PS/5,1,5055939974316       ,205
E3191GK/3,1,5055939974415       ,205
E3191GK/4,1,5055939974422       ,205
E3191GK/5,1,5055939974439       ,205
E3191PS/3,1,5055939974477       ,205
E3191PS/4,1,5055939974484       ,205
E3191PS/5,1,5055939974491       ,205
E4068GY/3,1,5055939975412       ,205
E4068GY/4,2,5055939975429       ,205
E4068GY/5,2,5055939975436       ,205
E4068GY/6,1,5055939975443       ,205
E4070BK/M4,1,5055939979205       ,205
E4070BK/M5,1,5055939979212       ,205
E6169BP/2,1,5055939973258       ,205
E6169BP/3,1,5055939973265       ,205
E6170GK/2,1,5055939973357       ,205
E6170GK/3,1,5055939973364       ,205
E6170GK/4,1,5055939973371       ,205
E6174CV/2,1,5055939976105       ,205
E6174CV/3,1,5055939976112       ,205
E6177BP/3,1,5055939976389       ,205
E6177BP/4,1,5055939976396       ,205
E6177CV/2,1,5055939976426       ,205
E6177CV/3,1,5055939976433       ,205
E6177CV/4,1,5055939976440       ,205
E6186GY/2,1,5055939976488       ,205
E6186GY/3,1,5055939976495       ,205
E6186GY/4,1,5055939976501       ,205
E7117BK/4,1,5055939917023       ,205
E7117BK/5,1,5055939917030       ,205
E7117BK/6,1,5055939917047       ,205
E7117WH/3,1,5055939917061       ,205
E7117WH/4,1,5055939917078       ,205
