E1102,4
E0062/4,1
E0132MB/6,2
E0115BK/L-XL,2
E1160BK/5,2
E1161BK/5,1
E7117BK/5,1
E7117RD/4,1
E1166BK/4,1
E1166GV/5,1
E1132BK/L-XL,1
E1165RD/7,1
E0132NA/5,1
E1160RD/5,1
E6109BK/5,1
E0115BK/S-M,1
E1125CM/3,1
E3140RD/5,1
E3140RD/6,1
E3142RD/5,1
E4013BK/5,1
E1124BK/4,1
E1160BK/6,1
E1166BK/6,1
E1168PT/6,1
E1161RD/5,1
E6126BK/2,1
E1165RD/6,1
E1161BK/7,1
E1160RD/6,1
E3132MY/6,1
E3142RD/4,1
E3142RD/6,1
E8062BK/4,1
