E7118BK/5,2
E4031BK/4,1
E8066BK/4,1
E3125KH/5,1
E8064KH/4,1
E4015BK/4,2
E9073BK/4,2
E0115BK/L-XL,2
E1125CM/6,1
E1160BK/6,1
E1166GV/4,1
E1168PT/6,1
E1161RD/4,1
E1160RD/5,1
E1132WH/L-XL,1
E1131BK/L-XL,2
E6051R/3,1
E7117BK/5,1
E6106BK/3,1
E3145NA/7,1
E1166BK/4,2
E1175NA/S-M,1
E1165RD/7,1
E1102,1
E1161BK/6,2
