E8064GY/5,2
E8064GC/5,1
E8064GC/3,1
E8064GC/7,1
E3142NA/6,1
E7120BK/6,1
E8098BK/3,1
E1166BK/3,1
E1165BK/6,1
E0063/3,1
E0040CL,1
E1201GF/S-M,1
E1205BK/S-M,1
E7117NA/4,1
E7117BK/5,1
E3142NA/5,1
E3142BK/5,1
E8064BC/6,1
E4054RD/5,1
E8064BK/4,1
E1160RD/4,1
E5073RR/5,1
E4027BK/4,1
E1204BK/4,1
E1204BK/5,1
E1205NA/L-XL,1
E1201GF/L-XL,1
E4027BK/5,1
