SKU,Name,Color,Size,Qty,Value,
E7117BK/5,FS260-Pro Bibshort,Black,L,8,386.73,
E8064BK/4,Hummvee Short II with liner,Black,M,9,314.10,
E8025/5,Hummvee Short,Black/None,L,10,324.00,
E1505MB/M-L,Hummvee Helmet,Matt Black,M-L,12,298.79,
E7117BK/4,FS260-Pro Bibshort,Black,M,6,299.40,
E8025/4,Hummvee Short,Black/None,M,9,291.59,
E9071BK/4,Xtract Jacket,Black,M,7,279.30,
E9071BK/5,Xtract Jacket,Black,L,6,239.41,
E1505MB/L-XL,Hummvee Helmet,Matt Black,L-XL,8,199.19,
E8025C/4,Hummvee Short,C*,M,5,174.51,
E9071YV/4,Xtract Jacket,Hi-Viz Yellow,M,4,159.60,
E7117BK/3,FS260-Pro Bibshort,Black,S,3,149.70,
E6078BK/4,Wms MT500 Spray Baggy Short,Black,M,3,149.70,
E9071YV/5,Xtract Jacket,Hi-Viz Yellow,L,4,149.63,
E7117BK/6,FS260-Pro Bibshort,Black,XL,3,149.69,
E8064BK/5,Hummvee Short II with liner,Black,L,4,139.60,
E8025C/5,Hummvee Short,C*,L,4,139.60,
E8014/5,MT500 Spray Baggy Short,Black/None,L,3,137.24,
E8025/3,Hummvee Short,Black/None,S,4,129.60,
E9071YV/3,Xtract Jacket,Hi-Viz Yellow,S,3,119.70,
E9071BK/3,Xtract Jacket,Black,S,3,119.70,
E9075WH/4,Wms FS260-Pro Adrenaline Race Cape,White,M,3,107.76,
E8070BK/4,MT500 Spray Baggy Short II,Black,M,2,99.79,
E3116BK/7,Pro SL Biblong (wide-pad),Black,XXL,1,99.90,
E8070BK/5,MT500 Spray Baggy Short II,Black,L,2,99.80,
E6078BK/5,Wms MT500 Spray Baggy Short,Black,L,2,99.80,
E6078BK/3,Wms MT500 Spray Baggy Short,Black,S,2,99.80,
E1505MB/S-M,Hummvee Helmet,Matt Black,S-M,4,99.59,
E8025/6,Hummvee Short,Black/None,XL,3,97.19,
E9062BK/4,Wms Pakagilet,Black,M,6,89.52,
E9071BK/6,Xtract Jacket,Black,XL,2,79.80,
E9071YV/6,Xtract Jacket,Hi-Viz Yellow,XL,2,79.80,
E9062BK/3,Wms Pakagilet,Black,S,5,74.60,
E9072BK/3,Wms Xtract Jacket,Black,S,2,77.81,
E9072BK/4,Wms Xtract Jacket,Black,M,2,75.82,
E8065BK/3,Hummvee Lite Short II with liner,Black,S,2,69.80,
E4031BK/5,Pro SL Bibshort II (medium-pad),Black,L,1,69.90,
E8064BK/6,Hummvee Short II with liner,Black,XL,2,69.80,
E8025C/3,Hummvee Short,C*,S,2,69.81,
E9061BK/5,Pakagilet,Black,L,4,64.67,
E9083BK/4,SingleTrack Jacket,Black,M,1,64.90,
EP0063BK/5,Endura Hoodie,Black,L,2,61.09,
E9095BK/4,Pakagilet II,Black,M,3,59.70,
E7117BK/7,FS260-Pro Bibshort,Black,XXL,1,49.90,
E7125BK/4,FS260-Pro Thermo Bibknicker,Black,M,1,54.90,
E8070BK/3,MT500 Spray Baggy Short II,Black,S,2,49.90,
E9074YV/4,Wms Gridlock Gilet,Hi-Viz Yellow,M,2,49.80,
E5003SP/4,THERMOLITEŽ Bibknicker,Black,M,1,50.00,
E5003SP/6,THERMOLITEŽ Bibknicker,Black,XL,1,50.00,
E8014/3,MT500 Spray Baggy Short,Black/None,S,1,49.90,
E8014/4,MT500 Spray Baggy Short,Black/None,M,1,49.90,
E8014/6,MT500 Spray Baggy Short,Black/None,XL,1,49.90,
E9062BK/5,Wms Pakagilet,Black,L,3,44.77,
E9120YV/5,Hummvee Waterproof Jacket ,Hi-Viz Yellow,L,1,47.40,
E9069YV/4,Wms Gridlock II Jacket,Hi-Viz Yellow,M,1,44.90,
E9095BK/3,Pakagilet II,Black,S,2,39.80,
E9072PV/3,Wms Xtract Jacket,Hi-Viz Pink,S,2,39.90,
E9072PV/4,Wms Xtract Jacket,Hi-Viz Pink,M,1,39.90,
E9072UM/4,Wms Xtract Jacket,Ultramarine,M,1,39.90,
E9072UM/5,Wms Xtract Jacket,Ultramarine,L,1,39.90,
E9072BK/6,Wms Xtract Jacket,Black,XL,1,37.91,
E9072BK/5,Wms Xtract Jacket,Black,L,1,37.91,
E8065BK/4,Hummvee Lite Short II with liner,Black,M,1,34.89,
E8025C/7,Hummvee Short,C*,XXL,1,34.90,
E9075WH/5,Wms FS260-Pro Adrenaline Race Cape,White,L,1,35.92,
E9075WH/3,Wms FS260-Pro Adrenaline Race Cape,White,S,1,35.92,
E1112BK/L-XL,SingleTrack Shin Protector,Black,L-XL,1,34.90,
E9061BK/4,Pakagilet,Black,M,2,34.82,
E8064BK/3,Hummvee Short II with liner,Black,S,1,34.90,
E8065BK/5,Hummvee Lite Short II with liner,Black,L,1,34.90,
E8065BK/6,Hummvee Lite Short II with liner,Black,XL,1,34.90,
E8025/7,Hummvee Short,Black/None,XXL,1,32.40,
E3123KH/5,MT500 Burner L/S Jersey ,Khaki,L,1,29.90,
E9073YV/4,Gridlock Gilet,Hi-Viz Yellow,M,1,24.90,
E9074YV/3,Wms Gridlock Gilet,Hi-Viz Yellow,S,1,24.90,
E9074YV/5,Wms Gridlock Gilet,Hi-Viz Yellow,L,1,24.90,
E1505GV/M-L,Hummvee Helmet,Hi-Viz Green,M-L,1,24.90,
E9095BK/5,Pakagilet II,Black,L,1,19.90,
E9095YV/3,Pakagilet II,Hi-Viz Yellow,S,1,19.90,
E1004BK/L-XL,Windchill Headband,Black,L-XL,2,19.80,
E1004BK/S-M,Windchill Headband,Black,S-M,2,19.80,
E9095BK/6,Pakagilet II,Black,XL,1,19.90,
E9061YV/4,Pakagilet,Hi-Viz Yellow,M,1,19.91,
E9061YV/5,Pakagilet,Hi-Viz Yellow,L,1,19.91,
E9061YV/6,Pakagilet,Hi-Viz Yellow,XL,1,19.91,
E9061YV/7,Pakagilet,Hi-Viz Yellow,XXL,1,19.91,
E9062BK/6,Wms Pakagilet,Black,XL,1,14.92,
