SKU,Maximum allowed,Barcode/EAN,Days left
E1165BK/3,2,5055939928845       ,5
E1165BK/4,2,5055939928852       ,5
E1165BK/5,1,5055939928869       ,5
E1165BK/6,2,5055939928876       ,5
E1166BK/2,1,5055939929057       ,5
E1166BK/3,2,5055939929064       ,5
E1166BK/5,2,5055939929088       ,5
E1166WH/2,1,5055939929231       ,5
E1166WH/3,2,5055939929248       ,5
E1166WH/4,2,5055939929255       ,5
E1166WH/6,2,5055939929279       ,5
E4055BK/3,1,5055939953069       ,5
E4055BK/4,1,5055939953076       ,5
E4055BK/6,2,5055939953090       ,5
E9106BK/2,1,5055939936239       ,5
E9106BK/3,1,5055939935256       ,5
E9106BK/4,2,5055939935263       ,5
E9106BK/5,1,5055939935270       ,5
E9106BK/6,1,5055939935287       ,5
E9106WH/2,1,5055939936253       ,5
E9106WH/3,1,5055939935355       ,5
E9106WH/4,2,5055939935362       ,5
E9106WH/5,1,5055939935379       ,5
E9106WH/6,1,5055939935386       ,5
E8064BK/3,1,5055939915975       ,10
E3169BK/4,2,5055939954233       ,23
E6152CO/5,1,5055939951058       ,23
E8064BK/3,2,5055939915975       ,23
E8064GY/4,1,5055939916224       ,23
E8064GY/5,1,5055939916231       ,23
E9108CE/4,2,5055939935560       ,24
E9108CE/5,2,5055939935577       ,24
E1165BK/2,2,5055939936352       ,37
E4054BK/5,3,5055939953182       ,37
E6153BK/2,1,5055939953274       ,37
E6153BK/5,2,5055939953304       ,37
E6153BK/6,1,5055939953311       ,37
E6153BK/7,2,5055939953328       ,37
E0128BK/3,1,5055939904924       ,43
E0128BK/4,1,5055939904931       ,43
E0128BK/5,1,5055939904948       ,43
E0128BK/6,1,5055939904955       ,43
E0128BK/7,1,5055939904962       ,43
E0128YV/3,1,5055939909615       ,43
E0128YV/5,2,5055939909639       ,43
E0128YV/6,2,5055939909646       ,43
E0128YV/7,1,5055939909653       ,43
E0132BK/5,1,5055939915029       ,43
E1039BK/L-XL,3,5055939906720       ,43
E1039BK/S-M,2,5055939906713       ,43
E1120BK/4,1,5055205390222       ,43
E1120BK/5,2,5055205390239       ,43
E1120BK/6,2,5055205390246       ,43
E1120BK/7,2,5055205390253       ,43
E1183BK/4,1,5055939944234       ,43
E1183BK/5,2,5055939944241       ,43
E1183BK/6,2,5055939944258       ,43
E1183BK/7,2,5055939944265       ,43
E1186GV/3,1,5055939944678       ,43
E1186GV/4,1,5055939944685       ,43
E1186GV/5,2,5055939944692       ,43
E1186GV/6,2,5055939944708       ,43
E1186GV/7,1,5055939944715       ,43
E1187BK/4,1,5055939944777       ,43
E1187BK/6,2,5055939944791       ,43
E1187BK/7,2,5055939944807       ,43
E1216BK/4,1,5055939958354       ,43
E1216BK/5,1,5055939958361       ,43
E1216BK/6,1,5055939958378       ,43
E1216BK/7,1,5055939958385       ,43
E3177BK/3,1,5055939957708       ,43
E3177BK/4,1,5055939957715       ,43
E3177BK/5,1,5055939957722       ,43
E3177BK/6,1,5055939957739       ,43
E3177GK/3,1,5055939957753       ,43
E3177GK/4,1,5055939957760       ,43
E3177GK/5,4,5055939957777       ,43
E3177GK/6,1,5055939957784       ,43
E3177GK/7,1,5055939957791       ,43
E3178BK/5,1,5055939957883       ,43
E3178BK/6,1,5055939957890       ,43
E5049BK/3,1,5055939924526       ,43
E5049BK/4,1,5055939924533       ,43
E5049BK/5,1,5055939924540       ,43
E5049BK/6,1,5055939924557       ,43
E6146BK/2,1,5055939942070       ,43
E6146BK/3,1,5055939942087       ,43
E6146BK/4,1,5055939942094       ,43
E8074BK/4,1,5055939924724       ,43
E8074BK/5,1,5055939924731       ,43
E8074BK/6,1,5055939924748       ,43
E8100BK/4,1,5055939959146       ,43
E8100BK/5,1,5055939959153       ,43
E8100BK/6,1,5055939959160       ,43
E9102BK/3,1,5055939925516       ,43
E9102BK/4,1,5055939925523       ,43
E9102BK/5,1,5055939925530       ,43
E9102BK/7,1,5055939925554       ,43
E9102GV/3,1,5055939925561       ,43
E9102GV/4,1,5055939925578       ,43
E9102GV/5,1,5055939925585       ,43
E9102GV/6,1,5055939925592       ,43
E9107BK/2,2,5055939936277       ,43
E9113BK/3,1,5055939941127       ,43
E9113BK/4,2,5055939941134       ,43
E9113BK/5,1,5055939941141       ,43
E9113GK/3,1,5055939957302       ,43
E9113GK/4,1,5055939957319       ,43
E9113GK/5,1,5055939957326       ,43
E9116CE/3,1,5055939942001       ,43
E9116CE/4,1,5055939942018       ,43
E9116CE/5,1,5055939942025       ,43
E9121YV/4,1,5055939945828       ,43
E9121YV/5,1,5055939945835       ,43
E9121YV/6,1,5055939945842       ,43
E9122BK/3,1,5055939945361       ,43
E9122BK/4,1,5055939945378       ,43
E9122BK/5,1,5055939945385       ,43
E9122BK/6,1,5055939945392       ,43
E9122BV/4,1,5055939945422       ,43
E9122BV/5,1,5055939945439       ,43
E9144BK/3,1,5055939957555       ,43
E9144BK/4,1,5055939957562       ,43
E9144BK/5,1,5055939957579       ,43
E9144BK/6,1,5055939957586       ,43
E9145YM/3,1,5055939961125       ,43
E9145YM/4,1,5055939961132       ,43
E4043BK/5,1,5055939931845       ,51
E1187BK/5,2,5055939944784       ,52
E1188BK/4,3,5055939944821       ,58
E1188BK/5,2,5055939944838       ,58
E3125RD/7,1,5055939919294       ,58
E9116CE/2,1,5055939941998       ,58
E9116CE/4,1,5055939942018       ,58
E9116CE/5,1,5055939942025       ,58
E9116CE/6,1,5055939945101       ,58
E0099YV,3,5055205363356       ,60
E5049BK/6,1,5055939924557       ,64
E5049BK/7,1,5055939924564       ,64
E6146BK/5,2,5055939942100       ,64
E7112BK/K9,3,5055205390635       ,64
E9102GV/4,1,5055939925578       ,64
E9102GV/5,2,5055939925585       ,64
E9102GV/6,2,5055939925592       ,64
E9121YV/4,1,5055939945828       ,64
E9121YV/5,2,5055939945835       ,64
E9121YV/6,2,5055939945842       ,64
E9121YV/7,1,5055939945859       ,64
E0098YV/S-M,1,5055205359571       ,66
E8098BK/4,2,5055939953359       ,66
E8098BK/5,2,5055939953366       ,66
E8098BK/6,2,5055939953373       ,66
E5049BK/4,1,5055939924533       ,67
E5049BK/5,3,5055939924540       ,67
E6164RR/3,1,5055939958927       ,68
E6164RR/4,1,5055939958934       ,68
E6164RR/5,1,5055939958941       ,68
E7125BK/5,1,5055939924632       ,68
E8098BK/3,1,5055939953342       ,68
E9145BK/4,1,5055939959092       ,68
E9145BK/5,1,5055939959108       ,68
E9145BK/6,1,5055939959115       ,68
E1183BK/4,2,5055939944234       ,71
E1183BK/5,3,5055939944241       ,71
E1183BK/6,2,5055939944258       ,71
E1216BK/3,2,5055939958347       ,71
E1216BK/4,3,5055939958354       ,71
E1216BK/5,3,5055939958361       ,71
E1216BK/6,4,5055939958378       ,71
E1216BK/7,2,5055939958385       ,71
E7125BK/5,1,5055939924632       ,71
E7125BK/6,2,5055939924649       ,71
E7125BK/7,2,5055939924656       ,71
E9121YV/3,1,5055939945811       ,71
E9121YV/4,3,5055939945828       ,71
E9121YV/5,3,5055939945835       ,71
E9121YV/6,3,5055939945842       ,71
E9121YV/7,1,5055939945859       ,71
E3169BK/4,4,5055939954233       ,75
E3178BK/3,1,5055939957869       ,75
E3178BK/4,1,5055939957876       ,75
E7112BK/K11,3,5055205390642       ,75
E7125BK/4,1,5055939924625       ,75
E8074BK/5,1,5055939924731       ,75
E8074BK/6,2,5055939924748       ,75
E8074BK/7,1,5055939924755       ,75
E9144BK/3,1,5055939957555       ,75
E1054BK/L-XL,1,5055939958101       ,78
E3029/3,2,5055205304229       ,78
E3029/4,3,5055205304236       ,78
E3029/6,1,5055205304250       ,78
E6032/2,1,5055205307251       ,78
E6032/3,2,5055205307268       ,78
E6032/4,2,5055205307275       ,78
E6032/5,2,5055205307282       ,78
E8074BK/4,2,5055939924724       ,78
E8074BK/5,1,5055939924731       ,78
E8074BK/6,1,5055939924748       ,78
E9102BK/6,1,5055939925547       ,78
E9117GF/5,1,5055939948164       ,94
E0128BK/4,1,5055939904931       ,101
E0128BK/5,2,5055939904948       ,101
E0128BK/6,1,5055939904955       ,101
E1187BK/4,2,5055939944777       ,101
E1187BK/5,2,5055939944784       ,101
E1250CL,2,5055939955797       ,101
E1251CL,1,5055939955803       ,101
E9113BK/5,1,5055939941141       ,101
E9113BK/6,1,5055939941158       ,101
E9113GK/4,1,5055939957319       ,101
E9113GK/5,1,5055939957326       ,101
E9113GK/6,1,5055939957333       ,101
E9113GK/7,1,5055939957340       ,101
E8100BK/5,2,5055939959153       ,102
E9145BK/5,1,5055939959108       ,102
E9145YM/6,1,5055939961156       ,102
E1187BK/3,2,5055939944760       ,103
E9143BK/5,1,5055939957470       ,103
E0128YV/4,1,5055939909622       ,107
E1042BK/L-XL,2,5055939923857       ,107
E1042BK/S-M,1,5055939923864       ,107
E1043BK/L-XL,2,5055939923871       ,107
E1043BK/S-M,1,5055939923888       ,107
E1183BK/6,2,5055939944258       ,107
E1188BK/6,2,5055939944845       ,107
E8070BK/4,3,5055939916729       ,107
E8070BK/5,3,5055939916736       ,107
E0128YV/4,4,5055939909622       ,108
E1120BK/5,2,5055205390239       ,113
E1120BK/6,1,5055205390246       ,113
E9145YM/5,2,5055939961149       ,113
E9106CG/4,1,5055939974972       ,114
E1039BK/L-XL,6,5055939906720       ,115
E1039BK/S-M,4,5055939906713       ,115
E1042BK/L-XL,2,5055939923857       ,115
E8100BK/4,2,5055939959146       ,115
E8100BK/5,1,5055939959153       ,115
E9122BK/7,1,5055939945408       ,115
E9144BK/5,2,5055939957579       ,115
E9144BK/6,1,5055939957586       ,115
E1118BK/4,1,5055205389974       ,121
E1118BK/5,3,5055205389981       ,121
E1118BK/6,3,5055205389998       ,121
E3178BK/4,1,5055939957876       ,121
E3178BK/5,1,5055939957883       ,121
E0128YV/7,2,5055939909653       ,127
E6066BK/4,1,5055205363745       ,127
E8084BK/3,1,5055939942360       ,127
E8084BK/4,5,5055939942377       ,127
E8084BK/5,3,5055939942384       ,127
E9122BV/4,1,5055939945422       ,127
E9124PW/6,1,5055939944074       ,127
E9145YM/6,1,5055939961156       ,127
E0128YV/6,2,5055939909646       ,130
E3177BK/4,1,5055939957715       ,130
E3178BK/4,2,5055939957876       ,130
E7120BK/4,1,5055939915500       ,130
E9095BK/7,1,5055939918099       ,134
E1053BK/M-L,1,5055939958064       ,136
E1120BK/6,2,5055205390246       ,136
E8083BK/4,2,5055939942322       ,136
E8085AN/4,1,5055939956190       ,136
E1120BK/4,1,5055205390222       ,148
E1120BK/5,2,5055205390239       ,148
E9120YV/8,1,5055939983110       ,149
E3178BK/7,1,5055939957906       ,152
E9113BK/5,2,5055939941141       ,152
E1043BK/L-XL,2,5055939923871       ,156
E6146BK/3,2,5055939942087       ,156
E6146BK/4,2,5055939942094       ,156
E1188BK/4,2,5055939944821       ,163
E1188BK/5,3,5055939944838       ,163
E1188BK/6,1,5055939944845       ,163
E8074BK/4,1,5055939924724       ,179
E1039BK/L-XL,3,5055939906720       ,183
E1042BK/S-M,2,5055939923864       ,183
E1161BK/5,1,5055939928692       ,183
E6124BK/4,1,5055939933016       ,183
E8090AN/7,1,5055939944364       ,183
E9145YM/6,1,5055939961156       ,183
E3183BK/6,1,5055939959320       ,192
E3183BK/7,1,5055939959337       ,192
E6140BK/2,2,5055939933993       ,192
E1188BK/4,3,5055939944821       ,194
E1188BK/6,3,5055939944845       ,194
E3178BK/7,1,5055939957906       ,194
E8085AN/5,2,5055939956206       ,200
