INVOICE,SIN612680
YOUR REF,
DATE,12/06/2019
VALUE,101.87


SKU,Qty,Value,Name,Colour,Size
E0003/S-M       ,1,10.98,Thermo Arm Warmer,Black/None,S-M
E0006/5         ,1,6.12,Thermo Skullcap,Black/None,L
E1036BK/L-XL    ,1,14.49,Windchill II Knee Warmer,Black,L-XL
E1186BK/4       ,1,17.55,Windchill Glove,Black,M
E5049BK/3       ,1,52.73,FS260-Pro Thermo Bibtight,Black,S
