SKU,Maximum allowed,Barcode/EAN,Days left
E1218BK/M-L,1,5055939958514       ,28
E1504GV/L-XL,1,5055205389707       ,28
E3142NA/5,1,5055939952680       ,28
E0043GK/0,1,5055939961385       ,44
E0151GC/0,1,5055939960715       ,44
E1043BK/S-M,1,5055939923888       ,44
E1117BK/5,1,5055205390130       ,44
E1117BK/6,2,5055205390147       ,44
E1145BK/4,1,5055939908199       ,44
E1145BK/5,1,5055939908205       ,44
E1145BK/6,1,5055939908212       ,44
E1188BK/4,1,5055939944821       ,44
E1188BK/5,1,5055939944838       ,44
E1188BK/6,1,5055939944845       ,44
E1216BK/5,1,5055939958361       ,44
E1216BK/6,1,5055939958378       ,44
E1216BK/7,1,5055939958385       ,44
E1219BK/S-M,1,5055939958538       ,44
E1223BK/L-XL,1,5055939958613       ,44
E1223BK/S-M,1,5055939958606       ,44
E1224BK/4,1,5055939966274       ,44
E1224BK/5,1,5055939966281       ,44
E1224BK/6,1,5055939966298       ,44
E3072BK/4,1,5055205362151       ,44
E3072BK/5,1,5055205362168       ,44
E3072BK/6,1,5055205362175       ,44
E5049BK/4,1,5055939924533       ,44
E5049BK/5,2,5055939924540       ,44
E9106RD/4,1,5055939958644       ,44
E9106RD/5,1,5055939958651       ,44
E9148BK/4,1,5055939960005       ,44
E9148BK/5,1,5055939960012       ,46
E9148BK/6,1,5055939960029       ,46
E9143GK/4,1,5055939957517       ,59
E9143GK/5,1,5055939957524       ,59
E0062/4,1,5055205323770       ,65
E0062/5,1,5055205323787       ,65
E1102,2,5055205353814       ,65
E1120BK/3,1,5055205390215       ,65
E3061W/2,1,5055205358024       ,65
E5049BK/6,1,5055939924557       ,65
E8081BK/5,1,5055939934976       ,65
E1166BK/4,1,5055939929071       ,212
E1166BK/5,1,5055939929088       ,212
E1166BK/6,1,5055939929095       ,212
E1166WH/4,1,5055939929255       ,212
E1166WH/5,1,5055939929262       ,212
E1166WH/6,1,5055939929279       ,212
E1218BK/L-XL,1,5055939958521       ,212
E1218BK/M-L,1,5055939958514       ,212
E1218BK/S-M,1,5055939958507       ,212
E1219BK/L-XL,1,5055939958545       ,212
E1219BK/S-M,1,5055939958538       ,212
E1234BK/L-XL,1,5055939966823       ,212
E1234BK/S-M,1,5055939966816       ,212
E1234GF/L-XL,1,5055939966847       ,212
E1234GF/S-M,1,5055939966830       ,212
E1234RD/L-XL,1,5055939966861       ,212
E1234RD/S-M,1,5055939966854       ,212
E1258BK/4,1,5055939972619       ,212
E1258BK/5,1,5055939972626       ,212
E1258BK/6,1,5055939972633       ,212
E3061W/4,1,5055205342474       ,212
E3061W/5,1,5055205342481       ,212
E3061W/6,1,5055205342498       ,212
E3063W/4,1,5055205343631       ,212
E3063W/5,1,5055205343648       ,212
E3063W/6,1,5055205343655       ,212
E3170BK/3,1,5055939954264       ,212
E3170BK/4,1,5055939954271       ,212
E3170BK/5,1,5055939954288       ,212
E3188LG/4,1,5055939971131       ,212
E3190CG/3,1,5055939974231       ,212
E3190CG/4,1,5055939974248       ,212
E3190CG/5,1,5055939974255       ,212
E4068BV/3,1,5055939975474       ,212
E4068BV/4,1,5055939975481       ,212
E4068BV/5,1,5055939975498       ,212
E4068BV/6,1,5055939975504       ,212
E4070BK/M5,1,5055939979212       ,212
E5075PS/3,1,5055939975061       ,212
E6132BK/3,1,5055939933726       ,212
E6174WH/3,1,5055939976167       ,212
E7117NA/3,1,5055939955049       ,212
E8102GF/3,1,5055939971278       ,212
E8102GF/4,1,5055939971285       ,212
E8102GF/5,1,5055939971292       ,212
E9107WH/4,1,5055939935461       ,212
E9107WH/5,1,5055939935478       ,212
