SKU,Maximum allowed,Barcode/EAN,Days left
E0003/M-L,3,5055205300139       ,107
E0003/S-M,3,5055205300146       ,107
E0004/S-M,3,5055205300160       ,107
E0005/S-M,2,5055205341774       ,107
E0007,4,5055205300191       ,107
E0042/3,2,5055205311937       ,107
E0042/4,3,5055205311944       ,107
E0042/5,3,5055205311951       ,107
E0042/6,2,5055205311968       ,107
E0110PK,2,5055205367231       ,107
E0110UM,2,5055205367248       ,107
E0120GV/S-M,1,5055205390956       ,107
E0120PV/S-M,1,5055205390987       ,107
E0120YV/S-M,1,5055205391182       ,107
E0128BK/3,1,5055939904924       ,107
E0128BK/4,2,5055939904931       ,107
E0128BK/5,2,5055939904948       ,107
E0128BK/6,2,5055939904955       ,107
E1038BK/L-XL,2,5055939906706       ,107
E1038BK/S-M,2,5055939906690       ,107
E1039BK/L-XL,2,5055939906720       ,107
E1039BK/S-M,2,5055939906713       ,107
E1117BK/4,1,5055205390123       ,107
E1117BK/5,2,5055205390130       ,107
E1117BK/6,2,5055205390147       ,107
E1117BK/7,1,5055205390154       ,107
E1118BK/4,1,5055205389974       ,135
E1118BK/5,1,5055205389981       ,135
E1118BK/6,1,5055205389998       ,135
E1118BK/7,1,5055205390000       ,135
E1185BK/4,1,5055939944531       ,107
E1185BK/5,2,5055939944548       ,107
E1185BK/6,2,5055939944555       ,107
E1185BK/7,1,5055939944562       ,107
E1185GV/4,1,5055939944586       ,107
E1185GV/5,1,5055939944593       ,107
E1185GV/6,1,5055939944609       ,107
E3025/3,1,5055205303871       ,107
E3025/4,1,5055205303888       ,107
E3025/5,1,5055205303895       ,107
E3063W/3,1,5055205343624       ,107
E3063W/4,1,5055205343631       ,107
E3069BV/3,1,5055939941325       ,122
E3069BV/4,1,5055939941332       ,122
E3069BV/5,1,5055939941349       ,107
E3069BV/6,1,5055939941356       ,107
E3069OV/3,1,5055939926797       ,121
E3069OV/4,1,5055939926803       ,121
E3072BK/3,1,5055205362144       ,107
E3072BK/4,1,5055205362151       ,107
E3072BK/5,1,5055205362168       ,107
E3078BK/3,1,5055205369730       ,107
E3078BK/4,1,5055205369747       ,107
E3078BK/5,1,5055205369754       ,107
E3078BK/6,1,5055205369761       ,107
E5049BK/3,1,5055939924526       ,107
E5049BK/4,2,5055939924533       ,107
E5049BK/5,2,5055939924540       ,107
E5049BK/6,1,5055939924557       ,107
E6147CE/3,1,5055939945477       ,107
E6147CE/4,2,5055939945484       ,107
E6147CE/5,1,5055939945491       ,107
E8062BK/3,1,5055205398587       ,107
E8062BK/4,1,5055205398594       ,107
E8062BK/5,1,5055205398600       ,107
E9122BV/4,1,5055939945422       ,107
E9122BV/5,1,5055939945439       ,107
E9122BV/6,1,5055939945446       ,107
E9134BK/3,1,5055939943404       ,107
E9134BK/4,1,5055939943411       ,107
E9134YV/3,1,5055939943350       ,107
E9134YV/4,1,5055939943367       ,107
