SKU,Maximum allowed,Barcode/EAN,Days left
E0128BK/4,1,5055939904931       ,23
E0128BK/5,1,5055939904948       ,23
E0128BK/6,1,5055939904955       ,23
E0128BK/7,1,5055939904962       ,23
E1005BK/L-XL,1,5055205359458       ,23
E1005BK/S-M,1,5055205359441       ,23
E1042BK/L-XL,1,5055939923857       ,23
E1042BK/S-M,1,5055939923864       ,23
E8087BK/5,1,5055939943121       ,23
E8087BK/6,1,5055939943138       ,23
E9102GV/6,1,5055939925592       ,23
E9120YV/4,1,5055939943268       ,23
E9120YV/5,1,5055939943275       ,23
E9120YV/6,1,5055939943282       ,23
E1505GV/L-XL,1,5055939904443       ,30
E1505GV/M-L,1,5055939904450       ,30
E1505GV/S-M,1,5055939904467       ,30
E1505GY/M-L,1,5055939930107       ,30
E1505MB/L-XL,1,5055939904474       ,30
E1505MB/M-L,1,5055939904481       ,30
E1505WH/M-L,1,5055939904559       ,30
E1505WH/S-M,1,5055939904566       ,30
E1505KH/L-XL,1,5055939951317       ,108
E1505KH/M-L,1,5055939951300       ,108
E1183BK/5,1,5055939944241       ,109
E1183BK/6,1,5055939944258       ,109
E1183BK/7,1,5055939944265       ,109
