INVOICE,SIN606553
YOUR REF,6843
DATE,10/05/2019
VALUE,96.84


SKU,Qty,Value,Name,Colour,Size
E1167WH/2       ,1,12.30,Hyperon Mitt II,White,XS
E1167WH/4       ,1,12.30,Hyperon Mitt II,White,M
E1167WH/6       ,1,12.30,Hyperon Mitt II,White,XL
E1165BK/4       ,1,9.70,Xtract Mitt II,Black,M
E1165BK/5       ,1,9.70,Xtract Mitt II,Black,L
E1165BK/6       ,1,9.70,Xtract Mitt II,Black,XL
E1165BK/7       ,1,9.70,Xtract Mitt II,Black,XXL
DEL             ,1,5.00,Delivery -Mainland UK (up to 30kgs),,
