INVOICE,SIN657208
YOUR REF,SOR403634
DATE,21/01/2020
VALUE,16639.77


SKU,Qty,Value,Name,Colour,Size
E9077GV/5       ,1,1049,Wms Luminite DL Jacket,Hi-Viz Green,L
E9077PV/4       ,1,1049,Wms Luminite DL Jacket,Hi-Viz Pink,M
E9076GV/4       ,1,1124,Luminite DL Jacket,Hi-Viz Green,M
E3123GF/4       ,1,489,MT500 Burner L/S Jersey ,Forest Green,M
E3123OM/3       ,1,489,MT500 Burner L/S Jersey ,Mango,S
E6108BK/4       ,1,699,Women's Hummvee Lite Short II with liner,Black,M
E6119CO/3       ,1,489,Wms SingleTrack Lite Jersey,Cobalt Blue,S
E6119MY/4       ,1,489,Wms SingleTrack Lite Jersey,Mulberry,M
E6110BK/5       ,1,699,Wms SingleTrack Lite Short II,Black,L
E6110CR/4       ,1,699,Wms SingleTrack Lite Short II,Coral,M
E6151GK/4       ,1,349,Wms SingleTrack Core Print T,Kingfisher,M
E8065CM/4       ,1,499,Hummvee Lite Short II with liner,Camouflage,M
E1173CO/0       ,1,119,Wms SingleTrack Sock,Cobalt Blue,One size
E1173MY/0       ,1,119,Wms SingleTrack Sock,Mulberry,One size
E1154BK/L-XL    ,1,397,MT500 Plus Overshoe,Black,L-XL
E1154BK/M-L     ,1,397,MT500 Plus Overshoe,Black,M-L
E9128GY/4       ,1,1049,Hummvee Windproof Fleece ,Grey ,M
E6042BK/3       ,1,302,Wms V Sport T,Black,S
E6151GK/3       ,1,349,Wms SingleTrack Core Print T,Kingfisher,S
E6108TL/3       ,1,699,Women's Hummvee Lite Short II with liner,Teal,S
E8070GF/3       ,1,909,MT500 Spray Baggy Short II,Forest Green,S
E8070GF/5       ,1,909,MT500 Spray Baggy Short II,Forest Green,L
E1505BA/L-XL    ,1,549,Hummvee Helmet,Azure Blue,L-XL
E9147GF/4       ,1,1329,SingleTrack Jacket,Forest Green,M
E6043BK/3       ,1,185,Wms Spaghetti Support Vest,Black,S
E8067NA/4       ,1,599,SingleTrack Lite Short II,Navy,M
E8067NA/5       ,1,599,SingleTrack Lite Short II,Navy,L
