INVOICE,SIN656121
YOUR REF,SOR403722
DATE,15/01/2020
VALUE,1168.41


SKU,Qty,Value,Name,Colour,Size
E5056BK/3       ,1,38.03,Xtract Bibtight,Black,S
E5056BK/4       ,1,38.03,Xtract Bibtight,Black,M
E5056BK/5       ,2,76.05,Xtract Bibtight,Black,L
E5056BK/6       ,2,76.05,Xtract Bibtight,Black,XL
E0089BK/4       ,1,13.36,Compression Sock (Twin Pack),Black,M
E0110BP/0       ,2,19.11,BaaBaa Merino Tech Multitube,Pacific Blue,One size
E0110UM         ,2,19.11,BaaBaa Merino Tech Multitube,Ultramarine,One size
E0110YM/0       ,2,19.11,BaaBaa Merino Tech Multitube,Mustard,One size
E0110PK         ,1,9.56,BaaBaa Merino Tech Multitube,Pink,One size
E3158BK/4       ,1,47.58,MT500 Thermo L/S Jersey,Black,M
E3158BK/5       ,1,47.58,MT500 Thermo L/S Jersey,Black,L
E3158BK/6       ,1,47.58,MT500 Thermo L/S Jersey,Black,XL
E9138GC/5       ,1,42.80,SingleTrack DuraJak,Grey Camo,L
E9138RR/4       ,1,42.80,SingleTrack DuraJak,Rust Red,M
E9120BK/6       ,2,85.61,Hummvee Waterproof Jacket ,Black,XL
E9120KH/5       ,2,85.61,Hummvee Waterproof Jacket ,Khaki,L
E9120YV/4       ,1,42.80,Hummvee Waterproof Jacket ,Hi-Viz Yellow,M
E3123GF/5       ,1,18.76,MT500 Burner L/S Jersey ,Forest Green,L
E3123GF/6       ,1,18.76,MT500 Burner L/S Jersey ,Forest Green,XL
E3123NA/4       ,1,26.13,MT500 Burner L/S Jersey ,Navy,M
E3123OM/4       ,1,18.76,MT500 Burner L/S Jersey ,Mango,M
E1504GV/M-L     ,1,35.69,Luminite Helmet,Hi-Viz Green,M-L
E9134YV/4       ,1,21.35,Hummvee Gilet,Hi-Viz Yellow,M
E9134YV/5       ,2,42.71,Hummvee Gilet,Hi-Viz Yellow,L
E9134YV/6       ,1,21.35,Hummvee Gilet,Hi-Viz Yellow,XL
E9134BK/4       ,1,21.35,Hummvee Gilet,Black,M
E8066GC/4       ,1,35.69,Hummvee 3/4 Short II with liner,Grey Camo,M
E8098BK/3       ,1,28.57,Women's Xtract Knicker II,Black,S
E8098BK/4       ,1,28.57,Women's Xtract Knicker II,Black,M
E8098BK/5       ,1,28.57,Women's Xtract Knicker II,Black,L
E3133GY/4       ,1,35.69,Hummvee Hoodie,Grey,M
E3133AN/5       ,1,35.69,Hummvee Hoodie,Anthracite,L
