SKU,Maximum allowed,Barcode/EAN,Days left
E0132MB/2,1,5055939922003       ,17
E0132MB/4,1,5055939922027       ,17
E0132MB/5,1,5055939922034       ,17
E0132MB/6,1,5055939922041       ,17
E0132MB/7,1,5055939922058       ,17
E1040BK/0,8,5055939916842       ,17
E1043BK/L-XL,2,5055939923871       ,17
E1043BK/S-M,2,5055939923888       ,17
E1102,15,5055205353814       ,17
E1109BK/L-XL,1,5055205388014       ,17
E1109BK/M-L,1,5055205388007       ,17
E1109BK/S-M,1,5055205387994       ,17
E1112BK/L-XL,2,5055205384689       ,17
E1112BK/S-M,2,5055205384672       ,17
E1131BK/L-XL,9,5055205398662       ,17
E1131BK/S-M,9,5055205398679       ,17
E1134BK/0,4,5055939902470       ,17
E1134BU/0,1,5055205399225       ,17
E1158BK/S-M,1,5055939928449       ,17
E1165BK/2,1,5055939936352       ,17
E1165BK/3,1,5055939928845       ,17
E1165BK/4,1,5055939928852       ,17
E1165BK/5,3,5055939928869       ,17
E1165BK/6,3,5055939928876       ,17
E1165BK/7,2,5055939928883       ,17
E1165OC/3,1,5055939928944       ,17
E1165OC/5,1,5055939928968       ,17
E1165OC/6,1,5055939928975       ,17
E1165RD/3,1,5055939929002       ,17
E1165RD/4,2,5055939929019       ,17
E1165RD/5,2,5055939929026       ,17
E1165RD/6,1,5055939929033       ,17
E1181BK/3,1,5055939942513       ,17
E1181BK/4,1,5055939942520       ,17
E1181BK/5,1,5055939942537       ,17
E1181BK/6,1,5055939942544       ,17
E1202BK/L-XL,2,5055939949918       ,17
E1202BK/S-M,2,5055939949901       ,17
E1204BK/3,1,5055939950563       ,17
E1204BK/4,1,5055939950570       ,17
E1204BK/5,1,5055939950587       ,17
E1204BK/6,1,5055939950594       ,17
E1204BK/7,1,5055939950600       ,17
E1505KH/M-L,1,5055939951300       ,17
E1505KH/S-M,1,5055939951294       ,17
E1505MB/L-XL,1,5055939904474       ,17
E1505MB/M-L,2,5055939904481       ,17
E1505MB/S-M,1,5055939904498       ,17
E1505RD/M-L,1,5055939951270       ,17
E1505RD/S-M,1,5055939951263       ,17
E1506GF/M-L,1,5055939948966       ,17
E1506GF/S-M,1,5055939948959       ,17
E1511BK/L-XL,2,5055939930121       ,17
E1511BK/M-L,2,5055939930138       ,17
E1511BK/S-M,1,5055939930145       ,17
E1511PT/M-L,3,5055939930169       ,17
E1511PT/S-M,2,5055939930176       ,17
E1513WH/M-L,1,5055939930343       ,17
E1513WH/S-M,1,5055939930350       ,17
E3063W/2,1,5055205358031       ,17
E3063W/3,2,5055205343624       ,17
E3063W/4,3,5055205343631       ,17
E3063W/5,3,5055205343648       ,17
E3063W/6,3,5055205343655       ,17
E3063W/7,2,5055205343662       ,17
E3123BK/3,1,5055939915326       ,17
E3123BK/4,1,5055939915333       ,17
E3123BK/5,1,5055939915340       ,17
E3123BK/6,1,5055939915357       ,17
E3168BK/3,2,5055939954165       ,17
E3168BK/4,3,5055939954172       ,17
E3168BK/5,3,5055939954189       ,17
E3168BK/6,2,5055939954196       ,17
E3168BK/7,2,5055939954202       ,17
E3169BK/2,2,5055939954219       ,17
E3169BK/3,4,5055939954226       ,17
E3169BK/4,4,5055939954233       ,17
E3169BK/5,3,5055939954240       ,17
E3169BK/6,2,5055939954257       ,17
E3173BK/3,1,5055939949598       ,17
E3173BK/4,1,5055939949604       ,17
E3173BK/6,1,5055939949628       ,17
E3173GF/4,1,5055939949659       ,17
E3173GF/5,1,5055939949666       ,17
E3173GF/6,1,5055939949673       ,17
E5067BK/3,1,5055939950716       ,17
E5067BK/4,1,5055939950723       ,17
E5067BK/5,1,5055939950730       ,17
E5067BK/6,1,5055939950747       ,17
E5067BK/7,1,5055939950754       ,17
E5067NA/6,1,5055939950792       ,17
E6095BK/2,1,5055939901114       ,17
E6095BK/3,1,5055939901121       ,17
E6095BK/4,1,5055939901138       ,17
E6095BK/5,1,5055939901145       ,17
E6095BK/6,1,5055939901152       ,17
E6110BK/2,2,5055939914664       ,17
E6110BK/3,2,5055939914671       ,17
E6110BK/4,2,5055939914688       ,17
E6110BK/5,2,5055939914695       ,17
E6110BK/6,2,5055939922331       ,17
E6120BK/2,1,5055939932750       ,17
E6120BK/3,2,5055939932767       ,17
E6120BK/4,2,5055939932774       ,17
E6120BK/5,1,5055939932781       ,17
E6126BK/2,1,5055939933153       ,17
E6126BK/3,2,5055939933160       ,17
E6126BK/4,2,5055939933177       ,17
E6126BK/5,2,5055939933184       ,17
E6126BK/6,1,5055939936383       ,17
E6126CO/2,1,5055939933238       ,17
E6126CO/3,2,5055939933245       ,17
E6126CO/4,2,5055939933252       ,17
E6126CO/5,1,5055939933269       ,17
E6126WH/2,1,5055939933276       ,17
E6126WH/3,1,5055939933283       ,17
E6126WH/4,2,5055939933290       ,17
E6126WH/5,2,5055939933306       ,17
E6126WH/6,1,5055939936413       ,17
E6151BK/2,1,5055939950327       ,17
E6151BK/5,1,5055939950358       ,17
E6151GK/2,1,5055939950280       ,17
E6151GK/5,1,5055939950310       ,17
E6152CO/4,1,5055939951041       ,17
E6152RD/4,2,5055939951096       ,17
E7117BK/5,1,5055939917030       ,17
E7120BK/4,1,5055939915500       ,17
E7120BK/5,1,5055939915517       ,17
E7127BK/3,1,5055939934358       ,17
E7127BK/4,2,5055939934365       ,17
E7127BK/5,2,5055939934372       ,17
E7128BK/0,2,5055939934419       ,17
E7128KH/0,4,5055939951324       ,17
E7130AN/3,1,5055939953830       ,17
E7130AN/4,2,5055939953847       ,17
E7130AN/5,2,5055939953854       ,17
E7130AN/6,2,5055939953861       ,17
E7130AN/7,1,5055939953878       ,17
E7131BK/K11,1,5055939949970       ,17
E7132BK/K11,1,5055939949994       ,17
E7132BK/K9,1,5055939949987       ,17
E8064BK/4,1,5055939915982       ,17
E8064BK/5,1,5055939915999       ,17
E8064BK/6,1,5055939916002       ,17
E8064BK/7,1,5055939916019       ,17
E8064GY/4,1,5055939916224       ,17
E8064GY/5,1,5055939916231       ,17
E8064GY/6,1,5055939916248       ,17
E8065CM/4,1,5055939919201       ,17
E8065CM/5,1,5055939919218       ,17
E8065CM/6,1,5055939919225       ,17
E8065GY/4,1,5055939916293       ,17
E8067BK/3,1,5055939916446       ,17
E8067BK/4,1,5055939916453       ,17
E8067BK/6,1,5055939916477       ,17
E8067NA/4,1,5055939949307       ,17
E8067NA/5,1,5055939949314       ,17
E8067NA/6,1,5055939949321       ,17
E8070BK/3,1,5055939916712       ,17
E8070BK/4,1,5055939916729       ,17
E8070BK/5,1,5055939916736       ,17
E8070BK/7,1,5055939916750       ,17
E8083BK/4,1,5055939942322       ,17
E8083BK/6,1,5055939942346       ,17
E8087BK/7,1,5055939943145       ,17
E8088BK/4,1,5055939943169       ,17
E8088BK/6,1,5055939943183       ,17
E8092GF/3,1,5055939948393       ,17
E8092GF/4,1,5055939948409       ,17
E8092GF/5,1,5055939948416       ,17
E8092GF/6,1,5055939948423       ,17
E8093BK/3,1,5055939948775       ,17
E8094AN/3,1,5055939949390       ,17
E8094AN/4,2,5055939949406       ,17
E8094AN/5,2,5055939949413       ,17
E8094AN/6,1,5055939949420       ,17
E8094AN/7,1,5055939949437       ,17
E8098BK/3,1,5055939953342       ,17
E8098BK/5,1,5055939953366       ,17
E9098CM/3,1,5055939925158       ,17
E9098CM/4,1,5055939925165       ,17
E9098CM/5,1,5055939925172       ,17
E9098CM/6,1,5055939925189       ,17
E9098CT/3,1,5055939925202       ,17
E9098CT/4,1,5055939925219       ,17
E9098CT/5,1,5055939925226       ,17
E9098CT/6,1,5055939925233       ,17
E9098NA/3,1,5055939925257       ,17
E9098NA/4,1,5055939925264       ,17
E9098NA/6,1,5055939925288       ,17
E9098NA/7,1,5055939925295       ,17
E9099BK/3,1,5055939942841       ,17
E9099BK/4,1,5055939942858       ,17
E9100MY/2,1,5055939943022       ,17
E9100MY/3,1,5055939943039       ,17
E9100MY/4,1,5055939943046       ,17
E9100MY/5,1,5055939943053       ,17
E9106BV/5,1,5055939941394       ,17
E9106BV/6,1,5055939941400       ,17
E9108CE/5,1,5055939935577       ,17
E9117BK/3,1,5055939942162       ,17
E9117BK/5,1,5055939942186       ,17
E9117GF/5,1,5055939948164       ,17
E9117GF/6,1,5055939948171       ,17
E9120BK/3,1,5055939943206       ,17
E9120BK/5,1,5055939943220       ,17
E9120BK/6,1,5055939943237       ,17
E9120BK/7,1,5055939943244       ,17
E9120KH/4,1,5055939943312       ,17
E9120KH/5,1,5055939943329       ,17
E9129BP/2,1,5055939943602       ,17
E9129BP/3,2,5055939943619       ,17
E9129BP/4,2,5055939943626       ,17
E9129BP/5,1,5055939943633       ,17
E8093BK/6,1,5055939948805       ,40
E0132MB/2,1,5055939922003       ,75
E0132MB/3,3,5055939922010       ,75
E0132MB/4,5,5055939922027       ,75
E0132MB/5,5,5055939922034       ,75
E0132MB/6,3,5055939922041       ,75
E0132MB/7,1,5055939922058       ,75
E0132NA/3,1,5055939915067       ,75
E0132NA/4,2,5055939915074       ,75
E0132NA/5,2,5055939915081       ,75
E0132NA/6,2,5055939915098       ,75
E0132NA/7,1,5055939915104       ,75
E1040BK/0,3,5055939916842       ,75
E1043BK/L-XL,1,5055939923871       ,75
E1043BK/S-M,1,5055939923888       ,75
E1108BK/L-XL,3,5055205387987       ,75
E1108BK/S-M,3,5055205387970       ,75
E1109BK/L-XL,3,5055205388014       ,75
E1109BK/M-L,3,5055205388007       ,75
E1109BK/S-M,1,5055205387994       ,75
E1112BK/L-XL,3,5055205384689       ,75
E1112BK/S-M,3,5055205384672       ,75
E1134BK/0,2,5055939902470       ,75
E1135BK/0,1,5055205399249       ,75
E1155BK/L-XL,4,5055939928388       ,75
E1155BK/S-M,4,5055939928395       ,75
E1157BK/L-XL,4,5055939928418       ,75
E1157BK/S-M,4,5055939928425       ,75
E1158BK/L-XL,4,5055939928432       ,75
E1158BK/S-M,4,5055939928449       ,75
E1160KH/3,2,5055939928555       ,75
E1160KH/4,2,5055939928562       ,75
E1160KH/5,2,5055939928579       ,75
E1160KH/6,1,5055939928586       ,75
E1165BK/3,1,5055939928845       ,75
E1165BK/4,2,5055939928852       ,75
E1165BK/5,2,5055939928869       ,75
E1165BK/6,1,5055939928876       ,75
E1181BK/3,1,5055939942513       ,75
E1181BK/4,1,5055939942520       ,75
E1181BK/5,1,5055939942537       ,75
E1181BK/6,1,5055939942544       ,75
E1195BK/L-XL,3,5055939948836       ,75
E1195BK/S-M,3,5055939948829       ,75
E1202GF/L-XL,2,5055939949932       ,75
E1202GF/S-M,2,5055939949925       ,75
E1204BK/3,1,5055939950563       ,75
E1204BK/4,2,5055939950570       ,75
E1204BK/5,2,5055939950587       ,75
E1204BK/6,1,5055939950594       ,75
E1506GF/M-L,1,5055939948966       ,75
E1511KH/M-L,1,5055939950396       ,75
E3063W/4,1,5055205343631       ,75
E3063W/5,1,5055205343648       ,75
E3063W/6,1,5055205343655       ,75
E3133GY/4,1,5055939924281       ,75
E3133GY/5,1,5055939924298       ,75
E3133GY/6,1,5055939924304       ,75
E3168BK/3,1,5055939954165       ,75
E3168BK/4,1,5055939954172       ,75
E3168BK/5,1,5055939954189       ,75
E3168BK/6,1,5055939954196       ,75
E3169BK/2,2,5055939954219       ,75
E3169BK/3,2,5055939954226       ,75
E3169BK/4,3,5055939954233       ,75
E3169BK/5,2,5055939954240       ,75
E3173BK/3,1,5055939949598       ,75
E3173BK/4,3,5055939949604       ,75
E3173BK/5,3,5055939949611       ,75
E3173BK/6,1,5055939949628       ,75
E3173GF/3,2,5055939949642       ,75
E3173GF/4,3,5055939949659       ,75
E3173GF/5,3,5055939949666       ,75
E3173GF/6,1,5055939949673       ,75
E6110BK/3,1,5055939914671       ,75
E6110BK/4,1,5055939914688       ,75
E6120BK/2,1,5055939932750       ,75
E6120BK/3,2,5055939932767       ,75
E6120BK/4,2,5055939932774       ,75
E6120BK/5,2,5055939932781       ,75
E6151GK/2,1,5055939950280       ,75
E6151GK/3,3,5055939950297       ,75
E6151GK/4,3,5055939950303       ,75
E6151GK/5,1,5055939950310       ,75
E6155BK/2,1,5055939951188       ,75
E6155BK/3,2,5055939951195       ,75
E6155BK/4,2,5055939951201       ,75
E7120BK/4,1,5055939915500       ,75
E7120BK/5,1,5055939915517       ,75
E7130AN/3,2,5055939953830       ,75
E7130AN/4,2,5055939953847       ,75
E7130AN/5,2,5055939953854       ,75
E7130AN/6,1,5055939953861       ,75
E7131BK/K11,1,5055939949970       ,75
E7132BK/K11,1,5055939949994       ,75
E7132BK/K9,1,5055939949987       ,75
E8065GY/4,1,5055939916293       ,75
E8067BK/3,1,5055939916446       ,75
E8067BK/4,1,5055939916453       ,75
E8070GF/3,1,5055939948447       ,75
E8070GF/4,1,5055939948454       ,75
E8070GF/5,1,5055939948461       ,75
E8070GF/6,1,5055939948478       ,75
E8088BK/4,1,5055939943169       ,75
E8092BK/4,1,5055939948355       ,75
E8092BK/5,1,5055939948362       ,75
E8093BK/3,1,5055939948775       ,75
E8093BK/4,3,5055939948782       ,75
E8093BK/5,3,5055939948799       ,75
E8093BK/6,1,5055939948805       ,75
E9098CM/3,1,5055939925158       ,75
E9098CM/4,1,5055939925165       ,75
E9098CM/5,1,5055939925172       ,75
E9098CM/6,1,5055939925189       ,75
E9098CT/3,1,5055939925202       ,75
E9098CT/4,1,5055939925219       ,75
E9098CT/5,1,5055939925226       ,75
E9098CT/6,1,5055939925233       ,75
E9099BK/3,1,5055939942841       ,75
E9099BK/4,1,5055939942858       ,75
E9100MY/3,1,5055939943039       ,75
E9100MY/4,1,5055939943046       ,75
E9100MY/5,1,5055939943053       ,75
E9117GF/5,1,5055939948164       ,75
E9137AN/4,1,5055939946276       ,75
E9137AN/5,1,5055939946283       ,75
E3168BK/3,1,5055939954165       ,103
E3168BK/4,2,5055939954172       ,103
E3168BK/5,3,5055939954189       ,103
E3168BK/6,2,5055939954196       ,103
E3169BK/2,1,5055939954219       ,103
E3169BK/3,3,5055939954226       ,103
E3169BK/4,3,5055939954233       ,103
E3169BK/5,2,5055939954240       ,103
E3169BK/6,1,5055939954257       ,103
E1109BK/M-L,1,5055205388007       ,107
E1109BK/S-M,1,5055205387994       ,107
E1112BK/L-XL,1,5055205384689       ,107
E1112BK/S-M,1,5055205384672       ,107
E3168BK/4,2,5055939954172       ,107
E3168BK/5,2,5055939954189       ,107
E3168BK/6,1,5055939954196       ,107
E6078BK/3,1,5055205386669       ,107
E6078BK/5,1,5055205386683       ,107
E9098CM/3,1,5055939925158       ,107
E9098CM/4,1,5055939925165       ,107
E9098CM/5,1,5055939925172       ,107
E9098CT/4,2,5055939925219       ,107
E9098CT/5,2,5055939925226       ,107
E9098NA/3,1,5055939925257       ,107
E9098NA/5,2,5055939925271       ,107
E1518BK/S-M,1,5055939948881       ,161
E8081BK/3,2,5055939934952       ,169
E8081BK/4,3,5055939934969       ,169
E8081BK/5,3,5055939934976       ,169
E8081BK/6,1,5055939934983       ,169
E0073,1,5055205338118       ,183
E1152BK/4,1,5055939923901       ,183
E1152BK/5,1,5055939923918       ,183
E9106GV/4,1,5055939935317       ,183
E9106GV/5,3,5055939935324       ,183
E9106GV/6,1,5055939935331       ,183
