INVOICE,SIN559368
YOUR REF,SOR338728
DATE,13/09/2018
VALUE,41.8


SKU,Qty,Value,Name,Colour,Size
E8064GY/4       ,1,31.80,Hummvee Short II with liner,Grey,M
DEL10           ,1,10.00,Delivery - Euro                    ,,
