SKU,Maximum allowed,Barcode/EAN,Days left
E0060/3,1,5055205323671       ,90
E0060/4,1,5055205323688       ,90
E0060/5,1,5055205323695       ,90
E0060/6,1,5055205323701       ,90
E0060/7,1,5055205323718       ,90
E0061/3,1,5055205323732       ,90
E0061/4,1,5055205323749       ,90
E0061/5,1,5055205323756       ,90
E6106BK/3,1,5055939919492       ,90
E6106BK/4,1,5055939919508       ,90
E6106BK/5,1,5055939919515       ,90
E6106BK/6,1,5055939919522       ,90
E6106PU/3,1,5055939919546       ,90
E6106PU/4,1,5055939919553       ,90
E6106PU/5,1,5055939919560       ,90
E7128BK/0,1,5055939934419       ,90
E7128GY/0,1,5055939934426       ,90
E8064BK/3,1,5055939915975       ,90
E8064BK/4,1,5055939915982       ,90
E8064BK/5,1,5055939915999       ,90
E8064BK/6,1,5055939916002       ,90
E8064BK/7,1,5055939916019       ,90
E8064BK/8,1,5055939916026       ,90
E6108BK/3,1,5055939919591       ,138
E6108BK/4,1,5055939919607       ,138
E6110BK/3,1,5055939914671       ,138
E6110BK/4,1,5055939914688       ,138
E6119MY/2,1,5055939932712       ,138
E6119MY/3,1,5055939932729       ,138
E8069BK/4,1,5055939916569       ,138
E8069BK/5,1,5055939916576       ,138
E8069NA/4,1,5055939919447       ,138
E8069NA/5,1,5055939919454       ,138
EM0054BK/3,1,5055939918723       ,138
EM0054NA/3,1,5055939916668       ,138
EM0054NA/4,1,5055939916675       ,138
EM0054NA/5,1,5055939916682       ,138
