SKU,Maximum allowed,Barcode/EAN,Days left
E1138RD/0,1,5055939901381       ,34
E1138WH/0,1,5055939901374       ,34
E1174BK/0,1,5055939929972       ,34
E1174GY/0,1,5055939929989       ,34
E1505GY/L-XL,1,5055939930091       ,34
E1505GY/M-L,2,5055939930107       ,34
E1505RD/L-XL,1,5055939951287       ,34
E1505RD/M-L,2,5055939951270       ,34
E1505WH/L-XL,1,5055939904542       ,34
E1505WH/M-L,2,5055939904559       ,34
E1506WH/M-L,1,5055939920085       ,34
E1513RD/L-XL,1,5055939952833       ,34
E1513RD/M-L,2,5055939955025       ,34
E1513WH/L-XL,1,5055939930336       ,34
E1513WH/M-L,2,5055939930343       ,34
E7128BK/0,1,5055939934419       ,34
E7128GY/0,2,5055939934426       ,34
E1505GY/L-XL,1,5055939930091       ,60
E1505GY/M-L,1,5055939930107       ,60
E1505GY/S-M,1,5055939930114       ,60
E1505MB/M-L,1,5055939904481       ,60
E1505MB/S-M,1,5055939904498       ,60
E1505WH/M-L,1,5055939904559       ,60
E1505WH/S-M,1,5055939904566       ,60
E5073BA/3,1,5055939949093       ,60
E5073GF/3,1,5055939949147       ,60
E5073RR/3,1,5055939949192       ,60
E8075BK/3,2,5055939924762       ,60
E9113GK/4,1,5055939957319       ,60
E3174WH/3,1,5055939952857       ,75
E8064KH/5,1,5055939916071       ,75
E0110BK,1,5055205367224       ,86
E0110BP/0,1,5055939959726       ,86
E0110PK,1,5055205367231       ,86
E0110RR/0,1,5055939959719       ,86
E0110YM/0,1,5055939959702       ,86
E0128BK/4,1,5055939904931       ,86
E0128BK/5,2,5055939904948       ,86
E0128BK/6,2,5055939904955       ,86
E0128BK/7,1,5055939904962       ,86
E0151GC/0,1,5055939960715       ,86
E0151RR/0,1,5055939960685       ,86
E1117BK/4,1,5055205390123       ,86
E1117BK/5,1,5055205390130       ,86
E1117BK/6,1,5055205390147       ,86
E1117BK/7,1,5055205390154       ,86
E1186BK/4,1,5055939944630       ,86
E1186BK/5,2,5055939944647       ,86
E1186BK/6,2,5055939944654       ,86
E1186BK/7,1,5055939944661       ,86
E1188BK/3,1,5055939944814       ,86
E1188BK/4,1,5055939944821       ,86
E1188BK/5,1,5055939944838       ,86
E1188BK/6,1,5055939944845       ,86
E1223BK/L-XL,2,5055939958613       ,86
E1223BK/S-M,2,5055939958606       ,86
E3161BK/4,1,5055939944968       ,86
E3161BK/5,1,5055939944975       ,86
E3161BK/6,1,5055939944982       ,86
E3161BK/7,1,5055939944999       ,86
E5056BK/4,1,5055939941837       ,86
E5056BK/5,1,5055939941844       ,86
E5056BK/6,1,5055939941851       ,86
E5056BK/7,1,5055939941868       ,86
E6146BK/4,1,5055939942094       ,86
E6146BK/5,1,5055939942100       ,86
E9102BK/3,1,5055939925516       ,86
E9102BK/4,1,5055939925523       ,86
E9102BK/5,1,5055939925530       ,86
E9102BK/6,1,5055939925547       ,86
E9114GV/4,1,5055939941684       ,86
E9114GV/5,1,5055939941691       ,86
E9114GV/6,1,5055939941707       ,86
E9116CO/3,1,5055939942049       ,86
E9116CO/4,1,5055939942056       ,86
E9116CO/5,1,5055939942063       ,86
E9120YV/4,1,5055939943268       ,86
E9120YV/5,1,5055939943275       ,86
E9120YV/6,1,5055939943282       ,86
E9148BK/3,1,5055939959993       ,86
E9148BK/4,1,5055939960005       ,86
E9148BK/5,1,5055939960012       ,86
E9148BK/6,1,5055939960029       ,86
E0043GK/0,1,5055939961385       ,94
E0062/5,1,5055205323787       ,94
E0073,1,5055205338118       ,94
E0110BK,1,5055205367224       ,94
E0110RR/0,1,5055939959719       ,94
E1039BK/L-XL,1,5055939906720       ,94
E1043BK/L-XL,1,5055939923871       ,94
E1048BK/S-M,1,5055939928203       ,94
E1050BK/S-M,1,5055939928227       ,94
E1052BK/S-M,1,5055939958026       ,94
E1053BK/S-M,1,5055939958057       ,94
E1054BK/S-M,1,5055939958088       ,94
E1152BK/5,1,5055939923918       ,94
E1162BK/5,2,5055939928814       ,94
E1187BK/5,1,5055939944784       ,94
E1188BK/5,1,5055939944838       ,94
E1194BU/L-XL,1,5055939946146       ,94
E1205BK/L-XL,1,5055939951812       ,94
E1205BV/L-XL,1,5055939951836       ,94
E1205GK/L-XL,1,5055939956565       ,94
E1205NA/L-XL,1,5055939951850       ,94
E1205PS/L-XL,1,5055939974590       ,94
E1205RD/L-XL,1,5055939951874       ,94
E1205WH/L-XL,1,5055939956541       ,94
E1216BK/5,1,5055939958361       ,94
E1224BK/5,1,5055939966281       ,94
E1227GK/L-XL,2,5055939966328       ,94
E3063W/3,2,5055205343624       ,94
E3072BK/3,1,5055205362144       ,94
E3156BU/3,1,5055939939513       ,94
E3161BK/3,2,5055939944951       ,94
E3167BK/S-M,1,5055939954110       ,94
E3167WH/S-M,1,5055939954066       ,94
E3178BK/3,2,5055939957869       ,94
E3179BK/3,1,5055939957920       ,94
E3181NA/3,1,5055939958231       ,94
E3183BK/3,1,5055939959290       ,94
E4031BK/3,3,5055939916965       ,94
E4043BK/3,1,5055939931821       ,94
E5069GK/3,1,5055939951638       ,94
E6146BK/3,1,5055939942087       ,94
E9103GV/3,1,5055939925660       ,94
E9111BK/3,1,5055939935676       ,94
E9113BV/3,1,5055939941172       ,94
E9141BK/3,1,5055939951515       ,94
E9141BV/3,1,5055939951454       ,94
E9142BK/3,1,5055939957357       ,94
E9142GK/3,1,5055939957401       ,94
E9143GK/3,1,5055939957500       ,94
E9144BV/3,1,5055939957609       ,94
E3177BK/3,1,5055939957708       ,107
E3177GK/3,1,5055939957753       ,107
E1259GK/5,1,5055939975672       ,158
E1259PS/5,1,5055939975733       ,158
E3190CG/3,1,5055939974231       ,158
E3190PS/3,1,5055939974293       ,158
E3191GK/3,1,5055939974415       ,158
E3191PS/3,1,5055939974477       ,158
E5069PS/3,1,5055939974538       ,158
