SKU,Maximum allowed,Barcode/EAN,Days left
E3183RR/4,1,5055939960500       ,17
E8084CC/3,1,5055939961033       ,17
E8084CC/4,1,5055939961040       ,17
E9117BK/4,1,5055939942179       ,31
E1518GF/M-L,2,5055939948928       ,39
E3176NA/6,2,5055939957036       ,39
E1518GF/L-XL,1,5055939948935       ,44
E0073,10,5055205338118       ,58
E0152BK/L-XL,3,5055939958125       ,58
E0152BK/S-M,4,5055939958118       ,58
E1039BK/L-XL,5,5055939906720       ,58
E1039BK/S-M,3,5055939906713       ,58
E1152BK/7,1,5055939923932       ,58
E1158BK/L-XL,2,5055939928432       ,58
E1185BK/4,2,5055939944531       ,58
E1195BK/L-XL,2,5055939948836       ,58
E1195BK/M-L,2,5055939956503       ,58
E1202BK/L-XL,2,5055939949918       ,58
E1202BK/S-M,2,5055939949901       ,58
E1216BK/3,2,5055939958347       ,58
E1216BK/4,4,5055939958354       ,58
E1216BK/5,4,5055939958361       ,58
E1216BK/6,4,5055939958378       ,58
E1216BK/7,2,5055939958385       ,58
E1224BK/3,2,5055939958804       ,58
E1224BK/4,4,5055939966274       ,58
E1224BK/5,4,5055939966281       ,58
E1224BK/6,4,5055939966298       ,58
E1224BK/7,2,5055939966304       ,58
E5049BK/3,2,5055939924526       ,58
E5049BK/4,4,5055939924533       ,58
E5049BK/5,4,5055939924540       ,58
E9111BK/4,1,5055939935683       ,58
E9111BK/5,1,5055939935690       ,58
E9111BK/6,1,5055939935706       ,58
E9122BK/3,1,5055939945361       ,58
E9147GF/3,1,5055939959412       ,58
E9147GF/4,1,5055939959429       ,58
E9147GF/5,1,5055939959436       ,58
E9147GF/6,1,5055939959443       ,58
E0152BK/L-XL,3,5055939958125       ,59
E1109BK/L-XL,2,5055205388014       ,59
E1109BK/M-L,2,5055205388007       ,59
E1109BK/S-M,1,5055205387994       ,59
E1195BK/S-M,1,5055939948829       ,59
E3181BK/3,1,5055939958187       ,59
E3181BK/4,1,5055939958194       ,59
E3181BK/7,1,5055939958224       ,59
E0099YV,5,5055205363356       ,71
E1158BK/S-M,2,5055939928449       ,87
E3176NA/4,2,5055939957012       ,186
E6130GY/4,2,5055939933610       ,186
E9117BK/4,1,5055939942179       ,212
