SKU,Maximum allowed,Barcode/EAN,Days left
E1225BK/L-XL,1,5055939959207       ,54
E1225BK/XL-XXL,1,5055939966564       ,54
E1225BK/L-XL,1,5055939959207       ,58
E1511RR/L-XL,1,5055939959634       ,58
E1511RR/M-L,1,5055939959627       ,58
E1511WH/S-M,1,5055939930206       ,58
E1225BK/M-L,1,5055939959191       ,62
E1225BK/XL-XXL,1,5055939966564       ,62
E1119BK/7,1,5055205390574       ,99
E8081BK/5,1,5055939934976       ,99
E8083BK/4,1,5055939942322       ,99
E8083BK/5,1,5055939942339       ,99
E9117YM/4,1,5055939960999       ,99
EM0053OM/4,1,5055939925905       ,99
EM0053OM/5,1,5055939925912       ,99
EM0053OM/6,1,5055939925929       ,99
E8084BK/5,2,5055939942384       ,113
E9117CC/5,1,5055939960944       ,113
E0114YV/S-M,1,5055205380056       ,117
E1119BK/6,1,5055205390567       ,117
E1511RR/M-L,1,5055939959627       ,117
EM0053GF/5,1,5055939951416       ,117
EM0057BU/6,1,5055939946108       ,117
E8083BK/4,1,5055939942322       ,125
EM0053OM/6,1,5055939925929       ,133
EM0053OM/7,1,5055939925936       ,133
E9147NA/6,1,5055939959498       ,154
EM0053OM/6,2,5055939925929       ,154
E8084BK/6,1,5055939942391       ,160
E9117CC/5,1,5055939960944       ,160
E7140GV/K9,1,5055939977843       ,163
E8084BK/4,1,5055939942377       ,163
E8084BK/5,1,5055939942384       ,163
E1506NA/M-L,1,5055939922843       ,195
E1225BK/XL-XXL,1,5055939966564       ,201
E1251CL,2,5055939955803       ,201
E1252CL,4,5055939955810       ,201
E9117YM/5,1,5055939961002       ,201
E8074BK/4,2,5055939924724       ,204
E8074BK/5,2,5055939924731       ,204
E8083BK/4,2,5055939942322       ,209
E8083BK/5,2,5055939942339       ,209
E8083BK/6,3,5055939942346       ,209
E8083BK/7,1,5055939942353       ,211
