SKU,Maximum allowed,Barcode/EAN,Days left
E0003/L-XL,2,5055205300122       ,61
E0003/M-L,2,5055205300139       ,61
E0003/S-M,1,5055205300146       ,61
E0004/L-XL,2,5055205300153       ,61
E0004/S-M,2,5055205300160       ,61
E0006/3,2,5055205300184       ,61
E0006/5,2,5055205313610       ,61
E1038BK/L-XL,2,5055939906706       ,61
E1038BK/S-M,2,5055939906690       ,61
E1505GV/M-L,1,5055939904450       ,61
E1505GY/L-XL,1,5055939930091       ,61
E1505GY/M-L,1,5055939930107       ,61
E1505MB/M-L,1,5055939904481       ,61
E1505OR/M-L,1,5055939904511       ,61
E1505WH/L-XL,1,5055939904542       ,61
E1505WH/M-L,1,5055939904559       ,61
E1505WH/S-M,1,5055939904566       ,61
E1513GV/L-XL,1,5055939930305       ,61
E1513GV/M-L,1,5055939930312       ,61
E1513WH/S-M,1,5055939930350       ,61
E3109BK/3,1,5055939908953       ,61
E3109BK/4,1,5055939908960       ,61
E3109BK/5,1,5055939908977       ,61
E3109BK/6,1,5055939908984       ,61
E3109RD/3,1,5055939909059       ,61
E3109RD/4,1,5055939909066       ,61
E3109RD/5,1,5055939909073       ,61
E3109RD/6,1,5055939909080       ,61
E7128BK/0,1,5055939934419       ,61
E7128GY/0,1,5055939934426       ,61
E0076BK/3,1,5055205338064       ,66
E0076BK/4,1,5055205338071       ,66
E0076BK/5,1,5055205338088       ,66
E0076BK/6,1,5055205338095       ,66
E0128BK/3,1,5055939904924       ,66
E0128BK/4,1,5055939904931       ,66
E0128BK/5,1,5055939904948       ,66
E0128BK/6,1,5055939904955       ,66
E0128BK/7,1,5055939904962       ,66
E3108GV/3,1,5055939909332       ,66
E3108GV/4,1,5055939909349       ,66
E3108GV/5,1,5055939909356       ,66
E3108GV/6,1,5055939909363       ,66
E5049BK/3,1,5055939924526       ,66
E5049BK/4,2,5055939924533       ,66
E5049BK/5,2,5055939924540       ,66
E5049BK/6,1,5055939924557       ,66
E5056BK/3,1,5055939941820       ,66
E5056BK/5,1,5055939941844       ,66
E6146BK/3,1,5055939942087       ,66
E6146BK/4,1,5055939942094       ,66
E6146BK/5,1,5055939942100       ,66
E9102RD/3,1,5055939925462       ,66
E9102RD/4,1,5055939925479       ,66
E9102RD/5,1,5055939925486       ,66
E9102RD/6,1,5055939925493       ,66
E9114BK/3,1,5055939941721       ,66
E9120KH/3,1,5055939943305       ,66
E9120KH/4,1,5055939943312       ,66
E9120KH/5,1,5055939943329       ,66
E9120KH/6,1,5055939943336       ,66
E9114BK/4,1,5055939941738       ,71
E9114GV/3,1,5055939941677       ,71
E0043BC,2,5055205324494       ,81
E0043WC,2,5055205324500       ,81
E0151MY/0,2,5055939936956       ,81
E1028BK/0,2,5055205385952       ,81
E7128BK/0,2,5055939934419       ,81
E7128GY/0,5,5055939934426       ,81
E5056BK/4,1,5055939941837       ,95
E5056BK/6,1,5055939941851       ,95
E9114BK/5,1,5055939941745       ,95
E9114BK/6,1,5055939941752       ,95
E9114GV/4,1,5055939941684       ,95
E9114GV/5,1,5055939941691       ,95
E9114GV/6,1,5055939941707       ,95
E7128KH/0,3,5055939951324       ,109
E1186BK/3,1,5055939944623       ,129
E1186BK/4,1,5055939944630       ,129
E1186BK/5,1,5055939944647       ,129
E1186BK/6,1,5055939944654       ,129
E1186BK/7,1,5055939944661       ,129
E0006/3,2,5055205300184       ,163
E0006/5,4,5055205313610       ,163
E0128BK/4,1,5055939904931       ,163
E0128BK/5,1,5055939904948       ,163
E0128BK/6,1,5055939904955       ,163
E1108BK/L-XL,2,5055205387987       ,163
E1108BK/S-M,2,5055205387970       ,163
E1118BK/4,1,5055205389974       ,163
E1118BK/5,1,5055205389981       ,163
E1118BK/6,1,5055205389998       ,163
E1157BK/L-XL,2,5055939928418       ,163
E1157BK/S-M,2,5055939928425       ,163
E1158BK/L-XL,2,5055939928432       ,163
E1158BK/S-M,2,5055939928449       ,163
E1186BK/3,1,5055939944623       ,163
E1186BK/4,2,5055939944630       ,163
E1186BK/5,1,5055939944647       ,163
E1511BK/L-XL,1,5055939930121       ,163
E1511BK/M-L,1,5055939930138       ,163
E1511BK/S-M,1,5055939930145       ,163
E1511WH/L-XL,1,5055939930183       ,163
E1511WH/M-L,1,5055939930190       ,163
E3109RD/4,1,5055939909066       ,163
E3109YV/4,1,5055939909011       ,163
E3109YV/5,1,5055939909028       ,163
E6146BK/4,1,5055939942094       ,163
E6146BK/5,1,5055939942100       ,163
E9114GV/5,1,5055939941691       ,163
E1202BK/L-XL,2,5055939949918       ,193
E1202BK/S-M,2,5055939949901       ,193
