SKU,Maximum allowed,Barcode/EAN,Days left
E1205BK/L-XL,4,5055939951812       ,8
E1205BK/S-M,4,5055939951805       ,8
E5066BK/6,1,5055939949277       ,8
E0116PK,5,5055205381046       ,36
E1038BK/L-XL,3,5055939906706       ,36
E1038BK/S-M,3,5055939906690       ,36
E1117BK/3,1,5055205390116       ,36
E1186BK/3,1,5055939944623       ,36
E1186BK/4,1,5055939944630       ,36
E1186BK/5,2,5055939944647       ,36
E1202BK/L-XL,2,5055939949918       ,36
E1202BK/S-M,2,5055939949901       ,36
E1234BK/L-XL,3,5055939966823       ,36
E1234BK/S-M,3,5055939966816       ,36
E1234RD/L-XL,3,5055939966861       ,36
E1234RD/S-M,3,5055939966854       ,36
E3133AN/3,1,5055939957067       ,36
E3133AN/4,1,5055939957074       ,36
E3133AN/5,1,5055939957081       ,36
E3133AN/6,1,5055939957098       ,36
E3133GF/3,1,5055939957128       ,36
E3133GF/4,1,5055939957135       ,36
E3133GF/5,1,5055939957142       ,36
E3133GF/6,1,5055939957159       ,36
E3158BK/3,1,5055939942414       ,36
E3158BK/4,1,5055939942421       ,36
E3158BK/5,1,5055939942438       ,36
E3158BK/6,1,5055939942445       ,36
E3178BK/3,1,5055939957869       ,36
E3178BK/4,1,5055939957876       ,36
E3178BK/5,1,5055939957883       ,36
E3178BK/6,1,5055939957890       ,36
E5049BK/3,1,5055939924526       ,36
E5049BK/4,2,5055939924533       ,36
E5049BK/5,2,5055939924540       ,36
E5049BK/6,1,5055939924557       ,36
E5049BK/7,1,5055939924564       ,36
E6146BK/2,1,5055939942070       ,36
E6146BK/3,1,5055939942087       ,36
E6146BK/4,1,5055939942094       ,36
E6146BK/5,1,5055939942100       ,36
E6147CE/2,1,5055939945460       ,36
E6147CE/3,1,5055939945477       ,36
E6147CE/4,1,5055939945484       ,36
E6147CE/5,1,5055939945491       ,36
E6164GK/3,1,5055939958873       ,36
E6164GK/4,1,5055939958880       ,36
E6165BP/2,1,5055939960548       ,36
E6165BP/3,1,5055939960555       ,36
E6165BP/4,1,5055939960562       ,36
E6165BP/5,1,5055939960579       ,36
E7112BK/K11,1,5055205390642       ,36
E7112BK/K7,1,5055205390659       ,36
E7139BK/K11,1,5055939959238       ,36
E7139BK/K7,1,5055939959214       ,36
E7139BK/K9,1,5055939959221       ,36
E7140GY/K11,1,5055939960678       ,36
E7140GY/K7,1,5055939960654       ,36
E7140GY/K9,1,5055939960661       ,36
E8074BK/4,1,5055939924724       ,36
E8077BK/3,1,5055939924878       ,36
E8077BK/4,1,5055939924885       ,36
E9107BK/3,1,5055939935409       ,36
E9107BK/4,1,5055939935416       ,36
E9107BK/5,1,5055939935423       ,36
E9107BK/6,1,5055939935430       ,36
E9122BK/3,1,5055939945361       ,36
E9122BK/4,1,5055939945378       ,36
E9122BK/5,1,5055939945385       ,36
E9122BK/6,1,5055939945392       ,36
E9144BK/3,1,5055939957555       ,36
E9144BK/4,1,5055939957562       ,36
E9144BK/5,1,5055939957579       ,36
E9144BK/6,1,5055939957586       ,36
E9145BK/2,1,5055939959078       ,36
E9148BK/4,1,5055939960005       ,36
E9148BK/5,1,5055939960012       ,36
E9148BK/6,1,5055939960029       ,36
EM0057BK/3,1,5055939925943       ,36
EM0057BK/4,1,5055939925950       ,36
EM0057BK/5,1,5055939925967       ,36
EM0057BK/6,1,5055939925974       ,36
E0153BK/L-XL,5,5055939965970       ,37
E0153BK/S-M,5,5055939958132       ,37
E1117BK/4,2,5055205390123       ,37
E1117BK/5,2,5055205390130       ,37
E1117BK/6,2,5055205390147       ,37
E1117BK/7,2,5055205390154       ,37
E1157BK/L-XL,2,5055939928418       ,37
E1157BK/S-M,2,5055939928425       ,37
E1158BK/L-XL,2,5055939928432       ,37
E1186BK/6,2,5055939944654       ,37
E1186BK/7,1,5055939944661       ,37
E1195BK/M-L,2,5055939956503       ,37
E1218BK/L-XL,3,5055939958521       ,37
E1218BK/M-L,3,5055939958514       ,37
E1218BK/S-M,3,5055939958507       ,37
E3170BK/4,3,5055939954271       ,37
E3170BK/5,3,5055939954288       ,37
E3170BK/6,2,5055939954295       ,37
E3181NA/5,1,5055939958255       ,37
E6163BK/2,1,5055939958811       ,37
E6163BK/3,1,5055939958828       ,37
E6163BK/4,1,5055939958835       ,37
E7112BK/K9,1,5055205390635       ,37
E8064GY/2,1,5055939916200       ,37
E8074BK/5,1,5055939924731       ,37
E8074BK/6,1,5055939924748       ,37
E9106GV/4,2,5055939935317       ,37
E9138GC/3,1,5055939949048       ,37
E9138GC/4,1,5055939949055       ,37
E8074BK/5,5,5055939924731       ,40
E9117YM/3,1,5055939960982       ,44
E9117YM/4,1,5055939960999       ,44
E9117YM/5,1,5055939961002       ,44
E9117YM/6,1,5055939961019       ,44
E9147GF/3,1,5055939959412       ,44
E9150GK/2,1,5055939960395       ,44
E9150GK/3,1,5055939960401       ,44
E9150GK/4,1,5055939960418       ,44
E9150GK/5,1,5055939960425       ,44
E3181BK/3,1,5055939958187       ,51
E3181BK/4,1,5055939958194       ,51
E3181BK/5,1,5055939958200       ,51
E3181BK/6,1,5055939958217       ,51
E3181RR/4,1,5055939958293       ,51
E6164GK/2,1,5055939958866       ,51
E6164GK/5,1,5055939958897       ,51
E9145BK/3,1,5055939959085       ,51
E9145BK/4,1,5055939959092       ,51
E9145BK/5,1,5055939959108       ,51
E9145BK/6,1,5055939959115       ,51
E9148BK/3,1,5055939959993       ,54
E1220BK/L-XL,3,5055939958569       ,60
E1220BK/S-M,4,5055939958552       ,60
E7125BK/4,2,5055939924625       ,60
E7125BK/5,2,5055939924632       ,60
E7125BK/6,1,5055939924649       ,60
E7125BK/7,1,5055939924656       ,60
E9106GV/6,2,5055939935331       ,60
E1109BK/M-L,3,5055205388007       ,64
E1155BK/L-XL,4,5055939928388       ,64
E3161BK/4,5,5055939944968       ,64
E1195BK/L-XL,2,5055939948836       ,65
E3181BK/3,2,5055939958187       ,65
E3181BK/4,3,5055939958194       ,65
E3181BK/5,2,5055939958200       ,65
E3183BK/3,1,5055939959290       ,65
E4041BK/4,1,5055939924489       ,65
E3158BK/5,1,5055939942438       ,67
E6163BK/5,1,5055939958842       ,67
E7125BK/3,1,5055939924618       ,67
E7125BK/4,3,5055939924625       ,67
E8074BK/3,2,5055939924717       ,67
E8074BK/4,4,5055939924724       ,67
E8074BK/6,3,5055939924748       ,67
E1109BK/L-XL,3,5055205388014       ,80
E1109BK/M-L,2,5055205388007       ,80
E1109BK/S-M,1,5055205387994       ,80
E1223BK/L-XL,2,5055939958613       ,80
E3158BK/5,2,5055939942438       ,80
E8077BK/5,1,5055939924892       ,80
E9106GV/4,2,5055939935317       ,80
E9144BK/3,2,5055939957555       ,80
E9144BK/4,2,5055939957562       ,80
E9144BK/5,1,5055939957579       ,80
E1117BK/5,5,5055205390130       ,94
E3181BK/5,2,5055939958200       ,94
E3181BK/6,1,5055939958217       ,94
E6130GY/3,1,5055939933603       ,94
E6130GY/4,1,5055939933610       ,94
E6130GY/5,1,5055939933627       ,94
EM0057BK/5,1,5055939925967       ,94
EM0057BK/6,1,5055939925974       ,94
E0154BK/L-XL,3,5055939965987       ,100
E0154BK/S-M,2,5055939958149       ,100
E1186GV/4,3,5055939944685       ,100
E1186GV/7,1,5055939944715       ,100
E3161BK/3,3,5055939944951       ,100
E3161BK/5,3,5055939944975       ,100
E3161BK/6,2,5055939944982       ,100
E1053BK/L-XL,2,5055939958071       ,108
E1053BK/M-L,1,5055939958064       ,108
E1053BK/S-M,2,5055939958057       ,108
E9144BK/7,1,5055939957593       ,108
E9147GF/3,1,5055939959412       ,108
E9147GF/4,1,5055939959429       ,108
E9148BK/4,1,5055939960005       ,108
E9148BK/6,1,5055939960029       ,108
E0154BK/L-XL,5,5055939965987       ,134
E0154BK/S-M,2,5055939958149       ,134
E1103BK,1,5055205360058       ,134
E4041BK/3,1,5055939924472       ,163
E8092BK/4,1,5055939948355       ,163
E8074BK/4,5,5055939924724       ,165
E0061/3,1,5055205323732       ,170
E0061/4,1,5055205323749       ,170
E3161BK/4,2,5055939944968       ,170
E3170BK/4,1,5055939954271       ,170
E3170BK/6,2,5055939954295       ,170
E3181BK/7,1,5055939958224       ,170
E4041BK/4,2,5055939924489       ,170
EM0057BU/5,1,5055939946092       ,170
E1117BK/5,2,5055205390130       ,176
E1117BK/6,2,5055205390147       ,176
E1117BK/7,2,5055205390154       ,176
E9144BK/4,1,5055939957562       ,176
E0073,5,5055205338118       ,183
E3158BK/5,2,5055939942438       ,183
E0073,5,5055205338118       ,205
E1102,5,5055205353814       ,205
E1205BK/L-XL,5,5055939951812       ,205
E1205BK/S-M,5,5055939951805       ,205
E1205PS/L-XL,5,5055939974590       ,205
E1205PS/S-M,5,5055939974583       ,205
E1263BK/L-XL,5,5055939977584       ,205
E1263BK/S-M,5,5055939977577       ,205
E1263WH/L-XL,5,5055939978444       ,205
E1263WH/S-M,5,5055939978437       ,205
E1264GK/L-XL,5,5055939977645       ,205
E1264GK/S-M,5,5055939977638       ,205
E1265BP/0,10,5055939977669       ,205
E1266BP/0,10,5055939977676       ,205
E3061W/2,1,5055205358024       ,205
E3061W/3,2,5055205342467       ,205
E3061W/4,2,5055205342474       ,205
E3061W/5,2,5055205342481       ,205
E3061W/6,2,5055205342498       ,205
E3061W/7,1,5055205342504       ,205
E3133AN/2,1,5055939957050       ,205
E3133AN/3,2,5055939957067       ,205
E3133AN/4,2,5055939957074       ,205
E3133AN/5,2,5055939957081       ,205
E3133AN/6,1,5055939957098       ,205
E3133AN/7,1,5055939957104       ,205
E3167WH/L-XL,3,5055939954073       ,205
E3167WH/S-M,3,5055939954066       ,205
E3169BK/2,1,5055939954219       ,205
E3169BK/3,2,5055939954226       ,205
E3169BK/4,2,5055939954233       ,205
E3169BK/5,1,5055939954240       ,205
E3169BK/6,1,5055939954257       ,205
E3184BK/4,1,5055939970387       ,205
E3184BK/5,1,5055939970394       ,205
E3184BK/6,1,5055939970400       ,205
E3184BK/7,1,5055939970417       ,205
E3184OT/3,1,5055939970479       ,205
E3184OT/4,1,5055939970486       ,205
E3184OT/5,1,5055939970493       ,205
E3184OT/6,1,5055939970509       ,205
E3189BA/3,1,5055939972343       ,205
E3189BA/4,1,5055939972350       ,205
E3189BA/5,1,5055939972367       ,205
E3189BA/6,1,5055939972374       ,205
E3189BA/7,1,5055939972381       ,205
E3189BK/3,1,5055939972398       ,205
E3189BK/4,1,5055939972404       ,205
E3189BK/5,1,5055939972411       ,205
E3189BK/6,1,5055939972428       ,205
E3189BK/7,1,5055939972435       ,205
E3190CG/3,1,5055939974231       ,205
E3190CG/4,1,5055939974248       ,205
E3190CG/5,1,5055939974255       ,205
E3190CG/6,1,5055939974262       ,205
E3190CG/7,1,5055939974279       ,205
E3190PS/2,1,5055939974286       ,205
E3190PS/3,1,5055939974293       ,205
E3190PS/4,1,5055939974309       ,205
E3190PS/5,1,5055939974316       ,205
E3190PS/6,1,5055939974323       ,205
E4070BK/M3,2,5055939979199       ,205
E4070BK/M4,2,5055939979205       ,205
E4070BK/M5,2,5055939979212       ,205
E4070BK/M6,1,5055939979229       ,205
E4070BK/M7,1,5055939979236       ,205
E5069BK/2,1,5055939951560       ,205
E5069BK/3,1,5055939951577       ,205
E5069BK/4,1,5055939951584       ,205
E5069BK/5,1,5055939951591       ,205
E5069BK/6,1,5055939951607       ,205
E5069BK/7,1,5055939951614       ,205
E6124BK/2,1,5055939932996       ,205
E6124BK/3,1,5055939933009       ,205
E6124BK/4,1,5055939933016       ,205
E6124BK/5,1,5055939933023       ,205
E6132BK/2,1,5055939933719       ,205
E6132BK/3,1,5055939933726       ,205
E6132BK/4,1,5055939933733       ,205
E6132BK/5,1,5055939933740       ,205
E6132BK/6,1,5055939936314       ,205
E6169BP/2,1,5055939973258       ,205
E6169BP/3,1,5055939973265       ,205
E6169BP/4,1,5055939973272       ,205
E6169BP/5,1,5055939973289       ,205
E6169CC/2,1,5055939973203       ,205
E6169CC/3,1,5055939973210       ,205
E6169CC/4,1,5055939973227       ,205
E6169CC/5,1,5055939973234       ,205
E6170BK/3,2,5055939973319       ,205
E6170BK/4,2,5055939973326       ,205
E6170BK/5,1,5055939973333       ,205
E6171BK/2,1,5055939973555       ,205
E6171BK/3,1,5055939973562       ,205
E6171BK/4,1,5055939973579       ,205
E6171BK/5,1,5055939973586       ,205
E6171BP/2,1,5055939973609       ,205
E6171BP/3,1,5055939973616       ,205
E6171BP/4,1,5055939973623       ,205
E6171BP/5,1,5055939973630       ,205
E7117NA/3,2,5055939955049       ,205
E7117NA/4,2,5055939955056       ,205
E7117NA/5,2,5055939955063       ,205
E7117NA/6,1,5055939955070       ,205
E7128BK/0,1,5055939934419       ,205
E7128GY/0,1,5055939934426       ,205
E7128KH/0,1,5055939951324       ,205
E7128OT/0,1,5055939977461       ,205
E7136BA/0,1,5055939977393       ,205
E7136WH/0,1,5055939948942       ,205
E7143BC/K11,2,5055939981505       ,205
E7143BC/K7,2,5055939981482       ,205
E7143BC/K9,2,5055939981499       ,205
E7145BA/K11,1,5055939978123       ,205
E7145BA/K7,1,5055939978109       ,205
E7145BA/K9,1,5055939978116       ,205
E7145OT/K11,1,5055939978093       ,205
E7145OT/K7,1,5055939978079       ,205
E7145OT/K9,1,5055939978086       ,205
E8064BK/2,1,5055939915968       ,205
E8064BK/3,1,5055939915975       ,205
E8064BK/4,1,5055939915982       ,205
E8064BK/5,1,5055939915999       ,205
E8064BK/6,1,5055939916002       ,205
E8064BK/7,1,5055939916019       ,205
E8064GC/2,1,5055939950952       ,205
E8064GC/3,1,5055939950969       ,205
E8064GC/4,1,5055939950976       ,205
E8064GC/5,1,5055939950983       ,205
E8064GC/6,1,5055939950990       ,205
E8064GC/7,1,5055939951003       ,205
E8064NA/2,1,5055939950884       ,205
E8064NA/3,1,5055939950891       ,205
E8064NA/4,1,5055939950907       ,205
E8064NA/5,1,5055939950914       ,205
E8064NA/6,1,5055939950921       ,205
E8064NA/7,1,5055939950938       ,205
E8069BK/4,2,5055939916569       ,205
E8069BK/5,2,5055939916576       ,205
E8069BK/6,1,5055939916583       ,205
E8069BK/7,1,5055939916590       ,205
E8092BK/3,1,5055939948348       ,205
E8092BK/4,1,5055939948355       ,205
E8092BK/5,1,5055939948362       ,205
E8092BK/6,1,5055939948379       ,205
E8093BK/3,1,5055939948775       ,205
E8093BK/4,1,5055939948782       ,205
E8093BK/5,1,5055939948799       ,205
E8093BK/6,1,5055939948805       ,205
E9099CC/3,1,5055939960302       ,205
E9099CC/4,1,5055939960319       ,205
E9099CC/5,1,5055939960326       ,205
E9106CG/2,1,5055939974958       ,205
E9106CG/3,2,5055939974965       ,205
E9106CG/4,2,5055939974972       ,205
E9106CG/5,2,5055939974989       ,205
E9106CG/6,1,5055939974996       ,205
E9106CG/7,1,5055939975009       ,205
E9107BK/2,1,5055939936277       ,205
E9107BK/3,2,5055939935409       ,205
E9107BK/4,2,5055939935416       ,205
E9107BK/5,2,5055939935423       ,205
E9107BK/6,1,5055939935430       ,205
E9107BK/7,1,5055939935447       ,205
E9108CE/2,1,5055939935546       ,205
E9108CE/3,1,5055939935553       ,205
E9108CE/4,1,5055939935560       ,205
E9117CC/4,1,5055939960937       ,205
E9117CC/6,1,5055939960951       ,205
