SKU,Maximum allowed,Barcode/EAN,Days left
E0003/L-XL,4,5055205300122       ,26
E0003/M-L,7,5055205300139       ,26
E0003/S-M,4,5055205300146       ,26
E0004/L-XL,8,5055205300153       ,26
E0004/S-M,8,5055205300160       ,26
E0006/3,10,5055205300184       ,26
E0006/5,10,5055205313610       ,26
E0073,12,5055205338118       ,26
E0076BK/3,2,5055205338064       ,26
E0076BK/4,6,5055205338071       ,26
E0076BK/5,8,5055205338088       ,26
E0076BK/6,6,5055205338095       ,26
E0076BK/7,2,5055205338101       ,26
E0105BK/L-XL,20,5055205359823       ,26
E0105BK/S-M,20,5055205359816       ,26
E0128BK/3,1,5055939904924       ,26
E0128BK/4,5,5055939904931       ,26
E0128BK/5,8,5055939904948       ,26
E0128BK/6,7,5055939904955       ,26
E0128BK/7,3,5055939904962       ,26
E1004BK/L-XL,10,5055205359434       ,26
E1004BK/S-M,10,5055205359427       ,26
E1039BK/L-XL,11,5055939906720       ,26
E1039BK/S-M,11,5055939906713       ,26
E1043BK/L-XL,6,5055939923871       ,26
E1043BK/S-M,6,5055939923888       ,26
E1108BK/L-XL,4,5055205387987       ,26
E1108BK/S-M,4,5055205387970       ,26
E1109BK/L-XL,4,5055205388014       ,26
E1109BK/M-L,4,5055205388007       ,26
E1109BK/S-M,4,5055205387994       ,26
E1112BK/L-XL,4,5055205384689       ,26
E1112BK/S-M,4,5055205384672       ,26
E1118BK/4,6,5055205389974       ,26
E1118BK/5,5,5055205389981       ,26
E1118BK/6,4,5055205389998       ,26
E1120BK/4,6,5055205390222       ,26
E1120BK/5,7,5055205390239       ,26
E1120BK/6,4,5055205390246       ,26
E1182BK/L-XL,10,5055939942629       ,26
E1182BK/S-M,10,5055939942612       ,26
E1186BK/3,2,5055939944623       ,26
E1186BK/4,6,5055939944630       ,26
E1186BK/5,8,5055939944647       ,26
E1186BK/6,6,5055939944654       ,26
E1186BK/7,2,5055939944661       ,26
E1505GY/L-XL,2,5055939930091       ,26
E1505GY/M-L,8,5055939930107       ,26
E1505GY/S-M,6,5055939930114       ,26
E1505MB/L-XL,2,5055939904474       ,26
E1505MB/M-L,8,5055939904481       ,26
E1505MB/S-M,6,5055939904498       ,26
E1511BK/L-XL,1,5055939930121       ,26
E1511BK/M-L,7,5055939930138       ,26
E1511BK/S-M,4,5055939930145       ,26
E3069BK/3,3,5055939904733       ,26
E3069BK/4,5,5055939904740       ,26
E3069BK/5,5,5055939904757       ,26
E3069BK/6,3,5055939904764       ,26
E3119BK/3,4,5055939924076       ,26
E3119BK/4,4,5055939924083       ,26
E3119BK/5,4,5055939924090       ,26
E3119BK/6,4,5055939924106       ,26
E3134BK/3,4,5055939924373       ,26
E3134BK/4,6,5055939924380       ,26
E3134BK/5,5,5055939924397       ,26
E3134BK/6,4,5055939924403       ,26
E3158BK/3,3,5055939942414       ,26
E3158BK/4,5,5055939942421       ,26
E3158BK/5,5,5055939942438       ,26
E3158BK/6,3,5055939942445       ,26
E7125BK/3,2,5055939924618       ,26
E7125BK/4,4,5055939924625       ,26
E7125BK/5,4,5055939924632       ,26
E7125BK/6,2,5055939924649       ,26
E7128GY/0,8,5055939934426       ,26
E8064BC/3,2,5055939936772       ,26
E8064BC/4,4,5055939936789       ,26
E8064BC/5,4,5055939936796       ,26
E8064BC/6,2,5055939936802       ,26
E8065GY/3,2,5055939916286       ,26
E8065GY/4,4,5055939916293       ,26
E8065GY/5,4,5055939916309       ,26
E8065GY/6,2,5055939916316       ,26
E8087BK/3,2,5055939943107       ,26
E8087BK/4,4,5055939943114       ,26
E8087BK/5,4,5055939943121       ,26
E8087BK/6,2,5055939943138       ,26
E9098BK/3,3,5055939942872       ,26
E9098BK/4,5,5055939942889       ,26
E9098BK/5,5,5055939942896       ,26
E9098BK/6,3,5055939942902       ,26
E9102BK/3,3,5055939925516       ,26
E9102BK/4,5,5055939925523       ,26
E9102BK/5,6,5055939925530       ,26
E9102BK/6,4,5055939925547       ,26
E9103BK/3,4,5055939925615       ,26
E9103BK/4,7,5055939925622       ,26
E9103BK/5,6,5055939925639       ,26
E9103BK/6,4,5055939925646       ,26
EM0057BK/3,3,5055939925943       ,26
EM0057BK/4,5,5055939925950       ,26
EM0057BK/5,5,5055939925967       ,26
EM0057BK/6,3,5055939925974       ,26
E9122BV/3,2,5055939945415       ,35
E9122BV/5,4,5055939945439       ,35
E9122BV/6,1,5055939945446       ,35
E5056BK/3,2,5055939941820       ,48
E5056BK/4,2,5055939941837       ,48
E5056BK/5,2,5055939941844       ,48
E5056BK/6,2,5055939941851       ,48
E5056BK/3,2,5055939941820       ,49
E5056BK/4,3,5055939941837       ,49
E5056BK/5,3,5055939941844       ,49
E5056BK/6,2,5055939941851       ,49
E9137RD/3,2,5055939946313       ,54
E9137RD/4,4,5055939946320       ,54
E9137RD/5,4,5055939946337       ,54
E9137RD/6,2,5055939946344       ,54
E9118PW/3,4,5055939942636       ,64
E9118PW/4,5,5055939942643       ,64
E9118PW/5,5,5055939942650       ,64
E9118PW/6,4,5055939942667       ,64
E9122BV/4,4,5055939945422       ,79
E9122BV/6,1,5055939945446       ,79
E0061/2,4,5055205323725       ,212
E0061/3,4,5055205323732       ,212
E0061/4,4,5055205323749       ,212
E0061/5,4,5055205323756       ,212
E0120PV/M-L,8,5055205390970       ,212
E0120PV/S-M,4,5055205390987       ,212
E0120YV/L-XL,4,5055205391205       ,212
E0120YV/M-L,8,5055205391199       ,212
E0120YV/S-M,4,5055205391182       ,212
E1108BK/L-XL,8,5055205387987       ,212
E1108BK/S-M,8,5055205387970       ,212
E1109BK/L-XL,8,5055205388014       ,212
E1109BK/M-L,8,5055205388007       ,212
E1131BK/L-XL,12,5055205398662       ,212
E1131BK/S-M,12,5055205398679       ,212
E1160BK/4,8,5055939928500       ,212
E1160BK/5,12,5055939928517       ,212
E1160BK/6,8,5055939928524       ,212
E1160BK/7,4,5055939928531       ,212
E1161BK/4,8,5055939928685       ,212
E1161BK/5,12,5055939928692       ,212
E1161BK/6,8,5055939928708       ,212
E1161BK/7,4,5055939928715       ,212
E1505MB/L-XL,4,5055939904474       ,212
E1505MB/M-L,6,5055939904481       ,212
E1505MB/S-M,4,5055939904498       ,212
E1505OR/L-XL,4,5055939904504       ,212
E1505OR/M-L,6,5055939904511       ,212
E1505OR/S-M,4,5055939904528       ,212
E1511KH/L-XL,4,5055939950402       ,212
E1511KH/M-L,6,5055939950396       ,212
E1511KH/S-M,4,5055939950389       ,212
E1511WH/L-XL,4,5055939930183       ,212
E1511WH/M-L,6,5055939930190       ,212
E1511WH/S-M,4,5055939930206       ,212
E3109BK/3,4,5055939908953       ,212
E3109BK/4,5,5055939908960       ,212
E3109BK/5,6,5055939908977       ,212
E3109BK/6,4,5055939908984       ,212
E3109BK/7,3,5055939908991       ,212
E3109OC/3,4,5055939909103       ,212
E3109OC/4,5,5055939909110       ,212
E3109OC/5,6,5055939909127       ,212
E3109OC/6,4,5055939909134       ,212
E3109OC/7,2,5055939909141       ,212
E3125KH/3,3,5055939919317       ,212
E3125KH/4,4,5055939919324       ,212
E3125KH/5,4,5055939919331       ,212
E3125KH/6,1,5055939919348       ,212
E3140BK/3,1,5055939931081       ,212
E3140BK/4,1,5055939931098       ,212
E3140BK/5,2,5055939931104       ,212
E3140BK/6,1,5055939931111       ,212
E3140BK/7,1,5055939931128       ,212
E3140OC/3,3,5055939931135       ,212
E3140OC/4,4,5055939931142       ,212
E3140OC/5,4,5055939931159       ,212
E3140OC/6,3,5055939931166       ,212
E3173BK/4,1,5055939949604       ,212
E3173BK/5,7,5055939949611       ,212
E3173BK/6,4,5055939949628       ,212
E3173GF/3,4,5055939949642       ,212
E3173GF/4,6,5055939949659       ,212
E3173GF/6,4,5055939949673       ,212
E4054BK/3,4,5055939953168       ,212
E4054BK/4,6,5055939953175       ,212
E4054BK/5,6,5055939953182       ,212
E4054BK/6,4,5055939953199       ,212
E4054BK/7,2,5055939953205       ,212
E5067NA/4,5,5055939950778       ,212
E5067NA/5,7,5055939950785       ,212
E5067NA/6,4,5055939950792       ,212
E6106BK/2,4,5055939919485       ,212
E6106BK/3,6,5055939919492       ,212
E6106BK/4,6,5055939919508       ,212
E6106BK/5,4,5055939919515       ,212
E6151BK/2,4,5055939950327       ,212
E6151BK/3,6,5055939950334       ,212
E6151BK/4,6,5055939950341       ,212
E6151BK/5,4,5055939950358       ,212
E6153BK/3,5,5055939953281       ,212
E6153BK/4,7,5055939953298       ,212
E6153BK/5,4,5055939953304       ,212
E6153BK/6,2,5055939953311       ,212
E7110BK/K11,6,5055205387895       ,212
E7110BK/K7,6,5055205387871       ,212
E7110BK/K9,8,5055205387888       ,212
E7117BK/3,1,5055939917016       ,212
E7117BK/4,1,5055939917023       ,212
E7117BK/5,1,5055939917030       ,212
E7117BK/6,1,5055939917047       ,212
E7118BK/3,4,5055939914879       ,212
E7118BK/4,6,5055939914886       ,212
E7118BK/5,5,5055939914893       ,212
E7118BK/6,4,5055939914909       ,212
E7118BK/7,3,5055939914916       ,212
E7120BK/3,4,5055939915494       ,212
E7120BK/4,4,5055939915500       ,212
E7120BK/5,4,5055939915517       ,212
E7120BK/6,4,5055939915524       ,212
E7128KH/0,8,5055939951324       ,212
E8064BC/3,1,5055939936772       ,212
E8064BC/4,6,5055939936789       ,212
E8064BC/5,6,5055939936796       ,212
E8064BC/6,4,5055939936802       ,212
E8064KH/3,4,5055939916057       ,212
E8064KH/4,6,5055939916064       ,212
E8064KH/5,6,5055939916071       ,212
E8064KH/6,4,5055939916088       ,212
E8064NA/3,4,5055939950891       ,212
E8064NA/4,6,5055939950907       ,212
E8064NA/5,6,5055939950914       ,212
E8064NA/6,4,5055939950921       ,212
E8070BK/3,4,5055939916712       ,212
E8070BK/4,4,5055939916729       ,212
E8070BK/5,4,5055939916736       ,212
E8070BK/6,4,5055939916743       ,212
E9118PW/4,2,5055939942643       ,212
E9118PW/5,2,5055939942650       ,212
E9118PW/6,2,5055939942667       ,212
