INVOICE,SIN541276
YOUR REF,SOR325098
DATE,25/05/2018
VALUE,73.5


SKU,Qty,Value,Name,Colour,Size
E3142BK/6       ,1,34.20,FS260-Pro S/S Jersey,Black,XL
E3139BK/5       ,1,29.30,Hummvee Ray Jersey,Black,L
DEL10           ,1,10.00,Delivery - Euro                    ,,
