SKU,Maximum allowed,Barcode/EAN,Days left
E0048,1,5055205315966       ,21
E8064BC/4,1,5055939936789       ,21
E8064BC/5,1,5055939936796       ,21
E8064BC/6,2,5055939936802       ,21
E8064BK/4,2,5055939915982       ,21
E8064BK/5,1,5055939915999       ,21
E0035/3,1,5055205301440       ,73
E0110BK,1,5055205367224       ,73
E1505MB/M-L,1,5055939904481       ,73
E1505OR/L-XL,1,5055939904504       ,73
E1505RD/L-XL,1,5055939951287       ,73
E1505WH/M-L,1,5055939904559       ,73
E3183BK/3,1,5055939959290       ,73
E5049BK/6,1,5055939924557       ,73
E5049BK/7,1,5055939924564       ,73
E1118BK/5,1,5055205389981       ,167
E1118BK/6,2,5055205389998       ,167
E1505KH/L-XL,1,5055939951317       ,167
E1505KH/M-L,1,5055939951300       ,167
E1505MB/L-XL,1,5055939904474       ,167
E1505MB/M-L,1,5055939904481       ,167
E1505RD/L-XL,1,5055939951287       ,167
E1505RD/M-L,1,5055939951270       ,167
E5049BK/6,1,5055939924557       ,167
E5049BK/7,1,5055939924564       ,167
E0048,1,5055205315966       ,178
E0050MS,1,5055205317625       ,178
E0066BK,1,5055205340234       ,178
E0066MB,1,5055939901312       ,178
E0066OR,1,5055939900032       ,178
E1504GV/L-XL,1,5055205389707       ,178
E1505GY/L-XL,1,5055939930091       ,178
E1505GY/M-L,1,5055939930107       ,178
E1505KH/L-XL,2,5055939951317       ,178
E1505KH/M-L,2,5055939951300       ,178
E1505MB/L-XL,2,5055939904474       ,178
E1505MB/M-L,1,5055939904481       ,178
