SKU,Maximum allowed,Barcode/EAN,Days left
E0132BK/6,1,5055939915036       ,10
E0132MB/4,1,5055939922027       ,10
E0132MB/5,1,5055939922034       ,10
E0132MB/6,1,5055939922041       ,10
E1108BK/L-XL,2,5055205387987       ,10
E1109BK/L-XL,2,5055205388014       ,10
E1157BK/L-XL,1,5055939928418       ,10
E1157BK/S-M,1,5055939928425       ,10
E1160BK/5,1,5055939928517       ,10
E1165BK/4,1,5055939928852       ,10
E1165BK/5,1,5055939928869       ,10
E1165BK/6,1,5055939928876       ,10
E1165RD/4,1,5055939929019       ,10
E1165RD/5,1,5055939929026       ,10
E1165RD/6,1,5055939929033       ,10
E1195BK/L-XL,2,5055939948836       ,10
E1196BK/L-XL,2,5055939948874       ,10
E1202BK/L-XL,1,5055939949918       ,10
E1202BK/S-M,1,5055939949901       ,10
E1505KH/L-XL,1,5055939951317       ,10
E1505KH/M-L,1,5055939951300       ,10
E1505KH/S-M,1,5055939951294       ,10
E1505MB/M-L,2,5055939904481       ,10
E1505RD/L-XL,1,5055939951287       ,10
E1505RD/M-L,2,5055939951270       ,10
E3138GY/5,1,5055939930909       ,10
E3138GY/6,1,5055939930916       ,10
E3138GY/7,1,5055939930923       ,10
E3173BK/5,1,5055939949611       ,10
E3173BK/6,1,5055939949628       ,10
E6106CO/4,1,5055939951157       ,10
E6126CE/3,1,5055939933207       ,10
E6126CE/4,1,5055939933214       ,10
E6126WH/3,1,5055939933283       ,10
E6126WH/4,1,5055939933290       ,10
E6151GK/3,1,5055939950297       ,10
E6151GK/4,1,5055939950303       ,10
E7128KH/0,8,5055939951324       ,10
E8064BC/5,1,5055939936796       ,10
E8064BC/6,1,5055939936802       ,10
E8064BK/5,1,5055939915999       ,10
E8064BK/7,1,5055939916019       ,10
E8064GC/4,1,5055939950976       ,10
E8064GC/6,1,5055939950990       ,10
E8065BK/4,1,5055939919157       ,10
E8065BK/7,1,5055939919188       ,10
E8065GY/5,1,5055939916309       ,10
E8065GY/6,1,5055939916316       ,10
E8093BK/4,1,5055939948782       ,10
E8093BK/5,1,5055939948799       ,10
EM0055BK/6,1,5055939918808       ,10
E8064BK/3,1,5055939915975       ,74
E8064BK/4,1,5055939915982       ,74
E9095BK/5,2,5055939918075       ,74
E3138GY/3,1,5055939930886       ,99
E8094AN/3,1,5055939949390       ,99
