SKU,Maximum allowed,Barcode/EAN,Days left
E0040SM,3,5055205301907       ,10
E0062/6,2,5055205323794       ,10
E0091BK,2,5055205344072       ,10
E1041WH/0,2,5055939919881       ,10
E1108BK/S-M,1,5055205387970       ,10
E1171BK/0,3,5055939929859       ,10
E4030BK/4,1,5055939917481       ,10
E6124BK/4,2,5055939933016       ,10
E7117BK/4,2,5055939917023       ,10
E7117BK/6,2,5055939917047       ,10
E7117WH/5,1,5055939917085       ,10
E0062/4,2,5055205323770       ,27
E7117BK/5,2,5055939917030       ,27
E0040SM,1,5055205301907       ,31
E0132MB/5,1,5055939922034       ,31
E1112BK/S-M,1,5055205384672       ,31
E3140BK/5,1,5055939931104       ,31
E3140BK/6,1,5055939931111       ,31
E3140BK/7,1,5055939931128       ,31
E3143AN/3,2,5055939936093       ,31
E4031BK/4,2,5055939916972       ,31
E6140BK/4,1,5055939934013       ,31
E6153BK/2,1,5055939953274       ,31
E6153BK/3,1,5055939953281       ,31
E7117BK/5,1,5055939917030       ,31
E9128GY/6,1,5055939943589       ,31
E0132BK/3,1,5055939915005       ,58
E0132BK/4,1,5055939915012       ,58
E0132BK/5,2,5055939915029       ,58
E0132BK/6,2,5055939915036       ,58
E0132BK/7,1,5055939915043       ,58
E1118BK/4,1,5055205389974       ,58
E1118BK/5,2,5055205389981       ,58
E1118BK/6,2,5055205389998       ,58
E1118BK/7,1,5055205390000       ,58
E1157BK/L-XL,1,5055939928418       ,58
E1157BK/S-M,1,5055939928425       ,58
E1158BK/L-XL,1,5055939928432       ,58
E1184BK/3,1,5055939944425       ,58
E1184BK/4,1,5055939944432       ,58
E1184BK/5,2,5055939944449       ,58
E1184BK/6,2,5055939944456       ,58
E1184BK/7,1,5055939944463       ,58
E1511BK/M-L,2,5055939930138       ,58
E1511RR/M-L,1,5055939959627       ,58
E1511RR/S-M,1,5055939959610       ,58
E1513BK/L-XL,2,5055939930275       ,58
E1513BK/M-L,2,5055939930282       ,58
E1513BK/S-M,1,5055939930299       ,58
E1513WH/L-XL,2,5055939930336       ,58
E1513WH/S-M,1,5055939930350       ,58
E5049BK/3,1,5055939924526       ,58
E5049BK/4,1,5055939924533       ,58
E5049BK/5,1,5055939924540       ,58
E6146BK/3,1,5055939942087       ,58
E6146BK/4,1,5055939942094       ,58
E8064BK/6,1,5055939916002       ,58
E8070BK/5,1,5055939916736       ,58
E8070BK/6,1,5055939916743       ,58
E8088BK/4,1,5055939943169       ,58
E8088BK/5,1,5055939943176       ,58
E8088BK/6,1,5055939943183       ,58
E9102BK/5,1,5055939925530       ,58
E9102GV/4,1,5055939925578       ,58
E9102RD/4,1,5055939925479       ,58
E9102RD/5,1,5055939925486       ,58
E9103BK/4,1,5055939925622       ,58
E9103BK/5,1,5055939925639       ,58
E9106WH/6,1,5055939935386       ,58
E9138GC/4,1,5055939949055       ,58
E9138GC/5,1,5055939949062       ,58
E9138GC/6,1,5055939949079       ,58
E9138RR/3,1,5055939960241       ,58
E9138RR/4,1,5055939960258       ,58
E9138RR/5,1,5055939960265       ,58
E9139BK/3,1,5055939953588       ,58
E9139BK/4,1,5055939953595       ,58
E9139BK/5,1,5055939953601       ,58
E9140BK/4,1,5055939953489       ,58
E9140BK/5,1,5055939953496       ,58
E9140BK/6,1,5055939953502       ,58
E0152BK/L-XL,1,5055939958125       ,59
E0152BK/S-M,1,5055939958118       ,59
E1511BK/L-XL,2,5055939930121       ,59
E1513WH/M-L,2,5055939930343       ,59
E3123BK/4,1,5055939915333       ,59
E3123BK/5,1,5055939915340       ,59
E3123BK/6,1,5055939915357       ,59
E3123GF/3,1,5055939948492       ,59
E3123GF/4,1,5055939948508       ,59
E3123GF/5,1,5055939948515       ,59
E3183BK/4,1,5055939959306       ,59
E3183BK/5,2,5055939959313       ,59
E3183BK/6,1,5055939959320       ,59
E6165BK/3,1,5055939959351       ,59
E6165BK/4,1,5055939959368       ,59
E6165BK/5,1,5055939959375       ,59
E8064GC/4,1,5055939950976       ,59
E8064GC/5,1,5055939950983       ,59
E8070BK/3,1,5055939916712       ,59
E8070BK/4,1,5055939916729       ,59
E8064BK/4,1,5055939915982       ,68
E8064BK/5,2,5055939915999       ,68
E9147GF/4,1,5055939959429       ,80
E9147GF/5,1,5055939959436       ,80
E9147GF/6,1,5055939959443       ,80
E9150GK/3,1,5055939960401       ,80
E9150GK/4,1,5055939960418       ,80
E9150GK/5,1,5055939960425       ,80
E3181BK/3,1,5055939958187       ,86
E3181BK/4,1,5055939958194       ,86
E3181BK/5,1,5055939958200       ,86
E3181BK/6,1,5055939958217       ,86
E8064GC/6,1,5055939950990       ,106
E8088BK/3,1,5055939943152       ,106
E0062/4,2,5055205323770       ,138
E0062/5,3,5055205323787       ,138
E0062/6,2,5055205323794       ,138
E0062/7,1,5055205323800       ,138
E0062/8,1,5055205343792       ,138
E1038BK/S-M,2,5055939906690       ,138
E1188RD/5,1,5055939958767       ,138
E3133AN/3,3,5055939957067       ,138
E3133AN/4,2,5055939957074       ,138
E3133AN/5,1,5055939957081       ,138
E3142BK/4,1,5055939931364       ,138
E3142BK/5,1,5055939931371       ,138
E6124BK/6,1,5055939938233       ,138
E1158BK/S-M,1,5055939928449       ,144
