SKU,Maximum allowed,Barcode/EAN,Days left
E1048BK/L-XL,1,5055939928197       ,87
E1048BK/S-M,1,5055939928203       ,87
E8064BC/6,1,5055939936802       ,87
E8064BK/4,1,5055939915982       ,87
E9117GF/4,1,5055939948157       ,87
E9117GF/5,1,5055939948164       ,87
E9140BK/5,1,5055939953496       ,87
EM0054BK/5,1,5055939918747       ,87
E8064BC/4,1,5055939936789       ,90
E8064BC/5,1,5055939936796       ,90
E0128BK/2,1,5055939904917       ,101
E0128BK/3,1,5055939904924       ,101
E0128BK/4,1,5055939904931       ,101
E0128BK/5,1,5055939904948       ,101
E0128BK/6,1,5055939904955       ,101
E9144BK/2,1,5055939966250       ,101
E9144BK/5,1,5055939957579       ,101
E9144BK/6,1,5055939957586       ,101
E0128BK/6,1,5055939904955       ,110
E1043BK/L-XL,1,5055939923871       ,110
E1043BK/S-M,1,5055939923888       ,110
E1118BK/5,1,5055205389981       ,110
E1120BK/6,1,5055205390246       ,110
E1182BK/L-XL,1,5055939942629       ,110
E1182BK/S-M,1,5055939942612       ,110
E9144BK/5,1,5055939957579       ,110
E9145BK/4,1,5055939959092       ,110
E9145BK/5,1,5055939959108       ,110
E0128BK/2,1,5055939904917       ,124
E0128BK/5,2,5055939904948       ,124
E0128BK/6,1,5055939904955       ,124
E1120BK/5,2,5055205390239       ,124
E1223BK/L-XL,1,5055939958613       ,124
E1227BK/L-XL,1,5055939966311       ,124
E9143BK/2,1,5055939966236       ,124
E9144BK/6,1,5055939957586       ,124
E0128YV/6,1,5055939909646       ,156
E1505GY/M-L,1,5055939930107       ,156
E1505MB/L-XL,1,5055939904474       ,156
E1505MB/M-L,1,5055939904481       ,156
E8064GY/3,1,5055939916217       ,156
