E1124RD/4,1
E1124RD/6,1
E8081BK/4,1
E6095BK/6,1
E7118BK/7,1
E4027BK/6,1
E1124RD/5,1
E1124BK/4,1
E1124BK/5,1
E1023BK/5,1
E6090CE/5,1
E4033BK/3,1
E4033BK/4,1
E4033BK/5,1
E1123RD/4,2
E4033BK/6,1
E8067BK/4,1
