SKU,Maximum allowed,Barcode/EAN,Days left
E1199RR/6,2,5055939949727       ,14
E8064CM/4,2,5055939916149       ,14
E8064CM/5,1,5055939916156       ,14
E8064CM/6,1,5055939916163       ,14
E8066CM/4,2,5055939919102       ,14
E8066CM/5,1,5055939919119       ,14
E8066CM/6,1,5055939919126       ,14
E9117GF/4,1,5055939948157       ,29
E9117GF/5,2,5055939948164       ,29
E7127BK/3,2,5055939934358       ,82
E7127RD/4,2,5055939934396       ,82
E7127RD/5,2,5055939934402       ,82
E8066CM/6,3,5055939919126       ,82
E8066CM/7,1,5055939919133       ,82
E9117GF/6,1,5055939948171       ,82
E0066OR,1,5055939900032       ,103
E1134BU/0,1,5055205399225       ,103
E1135BK/0,1,5055205399249       ,103
E1166BK/5,1,5055939929088       ,103
E1166BK/6,2,5055939929095       ,103
E1166BK/7,2,5055939929101       ,103
E1166NA/5,2,5055939952741       ,103
E1166NA/6,2,5055939952758       ,103
E1166NA/7,1,5055939952765       ,103
E1202GF/L-XL,2,5055939949932       ,103
E1202GF/S-M,2,5055939949925       ,103
E1251CL,3,5055939955803       ,103
E1166BK/3,1,5055939929064       ,128
E1166BK/4,3,5055939929071       ,128
E1166BK/5,3,5055939929088       ,128
E1166NA/3,1,5055939952727       ,128
E1166NA/4,3,5055939952734       ,128
E3069BV/4,1,5055939941332       ,128
E1166BK/5,2,5055939929088       ,131
E1166BK/6,2,5055939929095       ,131
E3174NA/6,1,5055939952949       ,131
E7117BK/4,1,5055939917023       ,131
E7117BK/5,1,5055939917030       ,131
E7117WH/5,1,5055939917085       ,131
E9129BP/5,1,5055939943633       ,131
E3142NA/6,1,5055939952697       ,132
E7117NA/5,1,5055939955063       ,132
E0132MB/5,2,5055939922034       ,138
E0132MB/6,2,5055939922041       ,138
E0132NA/5,2,5055939915081       ,138
E3069BV/5,2,5055939941349       ,138
E3069BV/6,1,5055939941356       ,138
