SKU,Maximum allowed,Barcode/EAN,Days left
E1125MB/5,1,5055939928258       ,27
E1125MB/6,1,5055939928265       ,27
E1125MB/7,1,5055939928272       ,27
E1157BK/L-XL,1,5055939928418       ,27
E1157BK/S-M,1,5055939928425       ,27
E1165BK/4,1,5055939928852       ,27
E1165BK/5,1,5055939928869       ,27
E1165BK/6,1,5055939928876       ,27
E1165BK/7,1,5055939928883       ,27
E1166BK/4,1,5055939929071       ,27
E1166BK/5,1,5055939929088       ,27
E1166BK/6,1,5055939929095       ,27
E1166BK/7,1,5055939929101       ,27
E1168NA/4,1,5055939929583       ,27
E1168NA/5,1,5055939929590       ,27
E1168NA/6,1,5055939929606       ,27
E3070WH/L-XL,1,5055205361178       ,34
E4042BK/3,1,5055939931760       ,27
E4043BK/4,1,5055939931838       ,27
E4043BK/5,1,5055939931845       ,27
E4043BK/6,1,5055939931852       ,27
E6110CO/3,1,5055939919768       ,27
E6110CO/4,1,5055939919775       ,27
E6131CO/4,1,5055939933696       ,27
E6132BK/3,1,5055939933726       ,27
E6132BK/4,1,5055939933733       ,27
E8080OC/4,1,5055939934914       ,27
E8080OC/5,1,5055939934921       ,27
