E0035/5,1
E0116PK,1
E1038BK/L-XL,2
E1038BK/S-M,2
E1039BK/L-XL,2
E1042BK/L-XL,1
E1042BK/S-M,1
E1043BK/L-XL,1
E1146BK/L-XL,2
E1146BK/S-M,2
E1157BK/L-XL,1
E1157BK/S-M,1
E1184NA/3,1
E1184NA/4,1
E1184NA/6,1
E1186BK/5,2
E1186BK/6,1
E1187BK/5,1
E6040BK/4,1
E6147BK/4,1
E6147BK/5,1
E6040BK/3,1
E1005BK/L-XL,1
E1120BK/4,1
E1120BK/5,2
E1120BK/6,2
E6040BK/3,2
