E1131BK/S-M,1
E3168BK/3,1
E3168BK/4,1
E3169BK/3,1
E4055BK/5,2
E6110BK/3,1
E6110BK/5,1
E6120PU/3,1
E6124BK/5,1
E6132BK/3,1
E6132BK/4,1
E6132BK/5,1
E6152CO/5,1
E6153BK/4,1
E7117BK/4,1
E7117BK/5,1
E7130AN/4,1
E9106BV/6,1
