E0132GF/3,1
E1128WH/S-M,1
E1131BK/S-M,1
E1165RD/5,1
E1166BK/6,1
E1167WH/6,1
E1204GF/5,2
E3142NA/5,1
E4027BK/5,1
E4031BK/5,1
E4055BK/4,1
E4055BK/5,1
E6124BK/3,1
E8064GY/4,1
E8064KH/5,1
E9095YV/2,1
E9117BK/4,1
