SKU,Maximum allowed,Barcode/EAN,Days left
E0128BK/4,2,5055939904931       ,24
E0128BK/5,2,5055939904948       ,24
E0128BK/6,2,5055939904955       ,24
E0128BK/7,1,5055939904962       ,24
E0128YV/4,2,5055939909622       ,24
E0128YV/5,2,5055939909639       ,24
E0128YV/6,2,5055939909646       ,24
E0128YV/7,1,5055939909653       ,24
E1145BK/5,2,5055939908205       ,24
E1145BK/6,2,5055939908212       ,24
E1145BK/7,2,5055939910659       ,24
E1186BK/4,2,5055939944630       ,24
E1186BK/5,2,5055939944647       ,24
E1186BK/6,2,5055939944654       ,24
E1186BK/7,1,5055939944661       ,24
E1186GV/4,2,5055939944685       ,24
E1186GV/5,2,5055939944692       ,24
E1186GV/6,2,5055939944708       ,24
E6040BK/3,3,5055939904986       ,24
E6040BK/4,2,5055939904993       ,24
E6040BK/5,1,5055939905006       ,24
E1186GV/7,1,5055939944715       ,26
E1223BK/L-XL,2,5055939958613       ,88
E1223BK/S-M,2,5055939958606       ,88
E1223BK/L-XL,3,5055939958613       ,144
E1223BK/S-M,2,5055939958606       ,144
E1165BK/3,1,5055939928845       ,178
E1165BK/4,1,5055939928852       ,178
E1165BK/5,2,5055939928869       ,178
E1165BK/6,3,5055939928876       ,178
E1165BK/7,2,5055939928883       ,178
E1165GV/3,1,5055939928890       ,178
E1165GV/4,2,5055939928906       ,178
E1165GV/5,2,5055939928913       ,178
E1165GV/6,1,5055939928920       ,178
E1165GV/7,1,5055939928937       ,178
E1165RD/2,1,5055939928999       ,178
E1165RD/3,2,5055939929002       ,178
E1165RD/4,2,5055939929019       ,178
E1165RD/5,1,5055939929026       ,178
E1168BK/3,1,5055939929477       ,178
E1168BK/4,2,5055939929484       ,178
E1168BK/5,2,5055939929491       ,178
E1168BK/6,2,5055939929507       ,178
E1168BK/7,1,5055939929514       ,178
E1258BK/3,1,5055939972602       ,178
E1258BK/4,2,5055939972619       ,178
E1258BK/5,2,5055939972626       ,178
E1258BK/6,2,5055939972633       ,178
E1258BK/7,1,5055939972640       ,178
