SKU,Maximum allowed,Barcode/EAN,Days left
E0132MB/4,1,5055939922027       ,50
E0132MB/5,1,5055939922034       ,50
E0132MB/6,1,5055939922041       ,50
E1112BK/L-XL,1,5055205384689       ,50
E1112BK/S-M,1,5055205384672       ,50
E1160BK/3,1,5055939928494       ,50
E1160BK/4,1,5055939928500       ,50
E1160BK/5,1,5055939928517       ,50
E1160BK/6,1,5055939928524       ,50
E1202BK/L-XL,4,5055939949918       ,50
E1202BK/S-M,4,5055939949901       ,50
E1202GF/L-XL,3,5055939949932       ,50
E1202GF/S-M,3,5055939949925       ,50
E1204BK/4,1,5055939950570       ,50
E1204BK/5,1,5055939950587       ,50
E1204BK/6,1,5055939950594       ,50
E1215GF/0,10,5055939957173       ,149
E1506BK/M-L,1,5055939920054       ,50
E1506BK/S-M,1,5055939920047       ,129
E1506GF/L-XL,2,5055939948973       ,149
E1506GF/S-M,2,5055939948959       ,129
E1506WH/M-L,1,5055939920085       ,50
E1506WH/S-M,1,5055939920078       ,129
E1511BK/L-XL,1,5055939930121       ,129
E1511BK/M-L,1,5055939930138       ,129
E1511BK/S-M,1,5055939930145       ,129
E1511PT/M-L,1,5055939930169       ,129
E1511PT/S-M,2,5055939930176       ,129
E1511RR/M-L,1,5055939959627       ,167
E1511RR/S-M,1,5055939959610       ,167
E3123BK/3,2,5055939915326       ,50
E3123BK/4,3,5055939915333       ,50
E3123BK/5,4,5055939915340       ,50
E3123BK/6,1,5055939915357       ,50
E3123BK/7,1,5055939915364       ,50
E3123GF/3,1,5055939948492       ,50
E3123GF/4,2,5055939948508       ,50
E3123GF/5,2,5055939948515       ,50
E3123GF/6,1,5055939948522       ,50
E3123GF/7,1,5055939948539       ,211
E3123KH/3,1,5055939930473       ,50
E3123KH/4,2,5055939930480       ,50
E3123KH/5,4,5055939930497       ,50
E3143AN/4,1,5055939936109       ,50
E3143AN/5,1,5055939936116       ,50
E3143AN/6,1,5055939936123       ,50
E3173BK/4,1,5055939949604       ,50
E3173BK/5,1,5055939949611       ,50
E3173BK/6,1,5055939949628       ,50
E3173GF/3,1,5055939949642       ,50
E3173GF/4,2,5055939949659       ,50
E3173GF/5,2,5055939949666       ,50
E3173GF/6,1,5055939949673       ,50
E3173GF/7,1,5055939949680       ,50
E4055BK/3,1,5055939953069       ,50
E4055BK/4,1,5055939953076       ,50
E4055BK/5,2,5055939953083       ,50
E4055BK/6,1,5055939953090       ,50
E4055BK/7,1,5055939953106       ,50
E5049BK/6,1,5055939924557       ,207
E6106BK/1,1,5055939920177       ,129
E6106BK/3,1,5055939919492       ,129
E6106BK/4,1,5055939919508       ,129
E6106BK/5,1,5055939919515       ,129
E6106PU/1,1,5055939920191       ,129
E6106PU/2,1,5055939919539       ,129
E6106PU/3,2,5055939919546       ,129
E6106PU/4,2,5055939919553       ,129
E6152RD/2,1,5055939951072       ,129
E6152RD/3,1,5055939951089       ,129
E6152RD/4,1,5055939951096       ,129
E7117BK/3,1,5055939917016       ,50
E7117BK/4,3,5055939917023       ,50
E7117BK/5,2,5055939917030       ,50
E7117BK/6,1,5055939917047       ,149
E7120BK/4,2,5055939915500       ,129
E7120BK/5,2,5055939915517       ,129
E7120BK/6,2,5055939915524       ,129
E7120BK/7,1,5055939915531       ,129
E8064BC/4,2,5055939936789       ,129
E8064BC/5,2,5055939936796       ,129
E8064BC/6,3,5055939936802       ,129
E8064BC/7,1,5055939936819       ,129
E8064BK/4,2,5055939915982       ,157
E8064BK/5,1,5055939915999       ,149
E8064BK/6,1,5055939916002       ,149
E8064GY/4,1,5055939916224       ,149
E8064GY/5,1,5055939916231       ,149
E8064GY/6,1,5055939916248       ,149
E8066BK/4,1,5055939916347       ,50
E8066BK/5,1,5055939916354       ,50
E8066BK/6,1,5055939916361       ,50
E8066BK/7,1,5055939916378       ,50
E8066CM/4,1,5055939919102       ,50
E8066CM/5,1,5055939919119       ,50
E8066CM/6,1,5055939919126       ,50
E8075BK/3,1,5055939924762       ,50
E8075BK/4,1,5055939924779       ,50
E8075BK/5,1,5055939924786       ,50
E8091BK/3,1,5055939948249       ,50
E8091BK/4,1,5055939948256       ,50
E8091BK/5,1,5055939948263       ,50
E8091BK/6,1,5055939948270       ,50
E8092BK/4,2,5055939948355       ,50
E8092BK/5,2,5055939948362       ,50
E8092BK/6,1,5055939948379       ,50
E8092GF/4,2,5055939948409       ,50
E8092GF/5,2,5055939948416       ,50
E8092GF/6,1,5055939948423       ,50
E8093BK/3,1,5055939948775       ,75
E8093BK/4,3,5055939948782       ,75
E8093BK/5,1,5055939948799       ,75
E8093BK/6,1,5055939948805       ,75
