INVOICE,SIN489365
YOUR REF,AW17
DATE,11/09/2017
VALUE,832.5


SKU,Qty,Value,Name,Colour,Size
E9026BK/5       ,1,41.71,FS260-Pro Adrenaline Race Cape,Black,L
E9085NA/4       ,1,81.13,Pro SL Thermal Windproof Jacket,Navy,M
E9085NA/5       ,1,81.13,Pro SL Thermal Windproof Jacket,Navy,L
E9085NA/6       ,1,81.13,Pro SL Thermal Windproof Jacket,Navy,XL
E5049BK/4       ,2,106.59,FS260-Pro Thermo Biblong,Black,M
E5049BK/5       ,2,106.59,FS260-Pro Thermo Biblong,Black,L
E5049BK/6       ,2,106.59,FS260-Pro Thermo Biblong,Black,XL
E0006/3         ,1,6.46,Thermo Skullcap,Black/None,S
E0006/5         ,1,6.46,Thermo Skullcap,Black/None,L
E0095/3         ,1,17.58,FS260-Pro Nemo Glove,Black/None,S
E0095/4         ,2,35.15,FS260-Pro Nemo Glove,Black/None,M
E0095/5         ,2,35.15,FS260-Pro Nemo Glove,Black/None,L
E0095/6         ,2,35.15,FS260-Pro Nemo Glove,Black/None,XL
E0095/7         ,1,17.58,FS260-Pro Nemo Glove,Black/None,XXL
E1118BK/5       ,2,37.05,MT500 Overshoe II ,Black,L
E1118BK/6       ,2,37.05,MT500 Overshoe II ,Black,XL
