E0006/3,2
E0006/5,1
E0095/6,1
E0128BK/4,1
E0128BK/5,1
E0128BK/6,1
E1030BK/M-L,2
E1117BK/6,1
E1181BK/3,1
E1184NA/5,1
E1186GV/6,2
E1187BK/3,1
E1187BK/5,2
E3025/6,1
E4014BK/4,1
E7125BK/5,1
E8091BK/3,1
E8091BK/4,1
E8091BK/5,1
E8091BK/6,1
E9120YV/3,1
E9127YV/4,1
