E5056BK/3,1
E5056BK/4,1
E5056BK/5,1
E5056BK/6,1
E3115BK/3,1
E3115BK/4,1
E3115BK/5,1
E3115BK/6,1
E8089BK/3,1
E8089BK/4,1
E8089BK/5,1
E8089BK/6,1
E7125BK/3,1
E7125BK/4,1
E7125BK/5,1
E7125BK/6,1
E8087BK/3,1
E8087BK/4,1
E8087BK/5,1
E8087BK/6,1
E8064BK/3,1
E8064BK/4,1
E8064BK/5,1
E8064BK/6,1
E8064BK/7,1
E1301BK/5,1
E1301BK/4,1
E1301BK/3,1
E1301BK/6,1
E8062BK/2,1
E8062BK/3,1
E8062BK/4,1
E8062BK/5,1
E6146BK/2,1
E6146BK/3,1
E6146BK/4,1
E6146BK/5,1
E6078BK/2,1
E6078BK/3,1
E6078BK/4,1
E6078BK/5,1
E6066BK/2,1
E6066BK/3,1
E6066BK/4,1
E6066BK/5,1
E9127YV/2,1
E9127YV/3,1
E9127YV/4,1
E9127YV/5,1
E9125MY/2,1
E9125MY/3,1
E9125MY/4,1
E9125MY/5,1
E9120YV/3,1
E9120YV/4,1
E9120YV/5,1
E9120YV/6,1
E9120YV/7,1
E3134RD/3,1
E3134RD/4,1
E3134RD/5,1
E3134RD/6,1
E9098NA/3,1
E9098NA/4,1
E9098NA/5,1
E9098NA/6,1
E9124PW/3,1
E9124PW/4,1
E9124PW/5,1
E9124PW/6,1
E3133GY/3,1
E3133GY/4,1
E3133GY/5,1
E3133GY/6,1
E0043WC,1
E1028UM/0,1
E1028PU/0,1
E1028BK/0,1
E0007,2
E0006/3,2
E0006/5,2
E1187BK/3,1
E1187BK/4,1
E1187BK/5,1
E1187BK/6,1
E1181BK/3,1
E1181BK/4,1
E1181BK/5,1
E1181BK/6,1
E0095/2,1
E0095/3,1
E0095/4,2
E0095/5,2
E0095/6,2
E0095/7,1
E1120BK/4,2
E1120BK/6,1
E1184NA/3,1
E1184NA/4,1
E1184NA/5,1
E1184NA/6,1
E1152BK/3,1
E1152BK/4,1
E1152BK/5,1
E1152BK/6,1
E1117BK/3,1
E1117BK/4,1
E1117BK/5,1
E1117BK/6,1
E1191NA/0,1
E1189GY/0,1
E1190KH/0,1
E9116CO/2,1
E9116CO/3,1
E9116CO/4,1
E9116CO/5,1
E0128BK/3,1
E0128BK/4,2
E0128BK/5,2
E0128BK/6,2
E0128BK/7,1
E1186GV/3,1
E1186GV/4,2
E1186GV/5,2
E1186GV/6,1
E1186GV/7,1
E9122BV/3,1
E9122BV/4,1
E9122BV/5,1
E9122BV/6,1
E4032BK/7,1
E9106WH/6,1
E9114BV/7,1
E9104CR/2,1
E9104CR/3,1
E9104CR/4,1
E9104CR/5,1
