E0128BK/7,1
E1102,2
E1120BK/6,1
E1184NA/5,1
E1187BK/5,1
E1187BK/6,1
E1223BK/S-M,1
E4055BK/4,1
E4055BK/5,1
E5056BK/4,1
E9129YV/4,1
E1042BK/L-XL,1
E1187BK/5,1
E3178BK/6,1
E5049BK/5,1
E8074BK/4,1
E9120BK/3,1
E9120YV/6,1
E9142BK/5,1
