E1128BK/S-M,1
E1165BK/7,1
E6126BK/6,1
E6126BK/5,1
E1165BK/5,1
E1131BK/S-M,1
E6126BK/3,1
E0110BK,1
E8064BK/3,1
E8064BK/4,2
E8064BK/7,1
E8064BK/5,1
E4031BK/4,1
E0110UM,1
E8064NA/5,1
E8064NA/7,1
E8064NA/3,1
E4055BK/4,1
E4055BK/3,2
E6153BK/3,1
E1204GC/4,1
E1204GC/6,1
E1204GC/7,1
E3125NA/3,1
