INVOICE,SIN524716
YOUR REF,SOR315091
DATE,07/03/2018
VALUE,418.41


SKU,Qty,Value,Name,Colour,Size
E3057BK/2       ,1,24.30,Roubaix Jacket,Black,XS
E9078BK/5       ,1,114.90,MT500 Waterproof Jacket II,Black,L
E7117BK/5       ,3,149.70,FS260-Pro Bibshort,Black,L
E0038BK/6       ,1,9.92,Xtract Mitt,Black,XL
E0150BK/0       ,2,14.80,MT500 Multitube,Black,One size
E1502MK/M-L     ,1,34.93,SingleTrack Helmet,Black,M-L
E1502MW/M-L     ,1,34.93,SingleTrack Helmet,White,M-L
E1502MW/L-XL    ,1,34.93,SingleTrack Helmet,White,L-XL
