SKU,Maximum allowed,Barcode/EAN,Days left
E3125RD/5,1,5055939919270       ,8
E4031BK/4,1,5055939916972       ,8
E8094AN/3,1,5055939949390       ,8
E8094AN/4,2,5055939949406       ,8
E8094AN/5,1,5055939949413       ,8
E8084BK/5,1,5055939942384       ,11
E0043GK/0,2,5055939961385       ,23
E0110BK,2,5055205367224       ,23
E0110BP/0,2,5055939959726       ,23
E0110RR/0,2,5055939959719       ,23
E3134BK/3,1,5055939924373       ,23
E3134BK/7,1,5055939924410       ,23
E3158BK/4,1,5055939942421       ,23
E3158BK/5,1,5055939942438       ,23
E3158BK/6,1,5055939942445       ,23
E6078BK/5,1,5055205386683       ,23
E6164GK/4,1,5055939958880       ,23
E6164GK/5,1,5055939958897       ,23
E7140BA/K7,1,5055939960623       ,23
E7140BA/K9,1,5055939960630       ,23
E8100BK/4,1,5055939959146       ,23
E8100BK/5,1,5055939959153       ,23
E8100BK/6,1,5055939959160       ,23
E9113GK/4,1,5055939957319       ,23
E9113GK/5,1,5055939957326       ,23
E9113GK/6,1,5055939957333       ,23
E9125MY/3,1,5055939944159       ,23
E9125MY/4,1,5055939944166       ,23
E9125MY/5,1,5055939944173       ,23
E9130NA/4,1,5055939943695       ,23
E9130NA/5,1,5055939943701       ,23
E9130NA/6,1,5055939943718       ,23
E9130NA/7,1,5055939943725       ,23
E9139BK/3,1,5055939953588       ,23
E9139BK/4,1,5055939953595       ,23
E9139BK/5,1,5055939953601       ,23
E9143BK/4,1,5055939957463       ,23
E9143BK/5,1,5055939957470       ,23
E9143BK/6,1,5055939957487       ,23
E9143BK/7,1,5055939957494       ,23
E9144BV/5,1,5055939957623       ,23
E9144BV/6,1,5055939957630       ,23
E9144BV/7,1,5055939957647       ,23
E9145BK/4,1,5055939959092       ,23
E9145BK/5,1,5055939959108       ,23
E9149BP/4,1,5055939960067       ,23
E9149BP/5,1,5055939960074       ,23
E9149BP/6,1,5055939960081       ,23
E1188RD/4,1,5055939958750       ,25
E1188RD/5,1,5055939958767       ,25
E1188RD/6,1,5055939958774       ,25
E3142BK/3,1,5055939931357       ,25
E3178BK/4,1,5055939957876       ,25
E3178BK/5,1,5055939957883       ,25
E3178BK/6,1,5055939957890       ,25
E3183BK/3,1,5055939959290       ,25
E3183BK/4,1,5055939959306       ,25
E3183BK/5,1,5055939959313       ,25
E3183BK/6,1,5055939959320       ,25
E3183GK/4,1,5055939960456       ,25
E3183GK/5,1,5055939960463       ,25
E3183GK/6,1,5055939960470       ,25
E5069BK/4,1,5055939951584       ,25
E6078BK/2,1,5055205386652       ,25
E6078BK/3,1,5055205386669       ,25
E6078BK/4,1,5055205386676       ,25
E6165BP/3,1,5055939960555       ,25
E6165BP/4,1,5055939960562       ,25
E6165BP/5,1,5055939960579       ,25
E6165BP/6,1,5055939960586       ,25
E7125BK/6,1,5055939924649       ,25
E7125BK/7,1,5055939924656       ,25
E7139BK/K11,1,5055939959238       ,25
E7139BK/K7,1,5055939959214       ,25
E7139BK/K9,1,5055939959221       ,25
E8084CC/4,1,5055939961040       ,25
E8084CC/5,1,5055939961057       ,25
E9106BK/6,1,5055939935287       ,25
E9146MY/3,1,5055939959252       ,25
E9146MY/4,1,5055939959269       ,25
E9146MY/5,1,5055939959276       ,25
E9146MY/6,1,5055939959283       ,25
E9148BK/4,1,5055939960005       ,25
E9148BK/5,1,5055939960012       ,25
E9148BK/6,1,5055939960029       ,25
E3181NA/4,1,5055939958248       ,31
E3181NA/5,1,5055939958255       ,31
E3181NA/6,1,5055939958262       ,31
E1119BK/6,2,5055205390567       ,37
E3142NA/5,1,5055939952680       ,37
E3178BK/5,1,5055939957883       ,37
E5050BK/4,1,5055939927718       ,37
E5050BK/6,1,5055939927732       ,37
E6119MY/3,1,5055939932729       ,37
E6119MY/4,1,5055939932736       ,37
E3178BK/7,1,5055939957906       ,39
E6078BK/3,1,5055205386669       ,39
E6146BK/4,1,5055939942094       ,39
E7125BK/4,1,5055939924625       ,39
E7125BK/5,1,5055939924632       ,39
E8074BK/4,2,5055939924724       ,39
E9119BA/5,1,5055939942995       ,39
E9119BA/6,1,5055939943008       ,39
E9145BK/6,1,5055939959115       ,39
E5069BK/6,1,5055939951607       ,43
E5069BK/7,1,5055939951614       ,43
E8074BK/3,1,5055939924717       ,43
E9117YM/4,1,5055939960999       ,43
E9117YM/5,1,5055939961002       ,43
E3134BK/5,1,5055939924397       ,46
E6110BK/3,1,5055939914671       ,46
E6110BK/4,1,5055939914688       ,46
E7117RD/4,1,5055939917894       ,46
E9149BP/3,1,5055939960050       ,47
E6078BK/3,1,5055205386669       ,51
E6164GK/3,1,5055939958873       ,51
E6164GK/4,1,5055939958880       ,51
E8083BK/5,1,5055939942339       ,51
E0098YV/S-M,2,5055205359571       ,59
E3142NA/6,1,5055939952697       ,59
E5050BK/5,1,5055939927725       ,59
E7125BK/4,2,5055939924625       ,59
E7125BK/5,1,5055939924632       ,59
E9117CC/5,1,5055939960944       ,73
E9117CC/6,1,5055939960951       ,73
E8084BK/4,2,5055939942377       ,74
E9148BK/4,1,5055939960005       ,74
E3183BK/4,1,5055939959306       ,80
E5050BK/4,2,5055939927718       ,80
E6067BK/4,1,5055205367668       ,80
E6165BP/3,1,5055939960555       ,80
E6165BP/4,2,5055939960562       ,80
E6165BP/5,1,5055939960579       ,80
EM0057BU/6,1,5055939946108       ,80
E5049BK/6,1,5055939924557       ,94
E5050BK/4,2,5055939927718       ,94
E6067BK/2,1,5055205367644       ,101
E6067BK/4,1,5055205367668       ,101
E3123GF/6,1,5055939948522       ,108
E3156BU/6,1,5055939939544       ,108
E3156BU/7,1,5055939939551       ,108
E9116CE/2,1,5055939941998       ,108
E9116CE/3,1,5055939942001       ,108
E1119BK/4,3,5055205390543       ,127
E1119BK/5,3,5055205390550       ,127
E4041BK/4,1,5055939924489       ,127
E0098YV/S-M,4,5055205359571       ,137
E9122BV/7,1,5055939945453       ,163
E9145BK/5,1,5055939959108       ,163
E8083BK/4,1,5055939942322       ,170
E8083BK/5,1,5055939942339       ,170
E8083BK/6,1,5055939942346       ,170
E5057BK/5,1,5055939942131       ,177
E1183BK/5,1,5055939944241       ,199
E1205GK/L-XL,1,5055939956565       ,199
E1205GK/S-M,1,5055939956558       ,199
E1205NA/L-XL,1,5055939951850       ,199
E1205NA/S-M,1,5055939951843       ,199
E4041BK/4,1,5055939924489       ,199
E1166BK/2,1,5055939929057       ,205
E1166BK/3,1,5055939929064       ,205
E1166BK/4,2,5055939929071       ,205
E1166BK/5,2,5055939929088       ,205
E1166BK/6,2,5055939929095       ,205
E1166BK/7,1,5055939929101       ,205
E1166PS/2,1,5055939974835       ,205
E1166PS/3,2,5055939974842       ,205
E1166PS/4,2,5055939974859       ,205
E1166PS/5,1,5055939974866       ,205
E1202BK/L-XL,1,5055939949918       ,205
E1202BK/S-M,1,5055939949901       ,205
E1202GF/L-XL,1,5055939949932       ,205
E1253WH/L-XL,1,5055939971704       ,205
E1253WH/M-L,1,5055939971698       ,205
E1253WH/S-M,1,5055939971681       ,205
E1257BK/L-XL,1,5055939971940       ,205
E1257BK/M-L,1,5055939971933       ,205
E1257BK/S-M,1,5055939971926       ,205
E1506GF/M-L,2,5055939948966       ,205
E1506GF/S-M,1,5055939948959       ,205
E1506WH/M-L,1,5055939920085       ,205
E1506WH/S-M,2,5055939920078       ,205
E3177GK/4,1,5055939957760       ,205
E3177GK/5,1,5055939957777       ,205
E3177GK/6,1,5055939957784       ,205
E3184GF/4,2,5055939970431       ,205
E3184GF/5,1,5055939970448       ,205
E3189BK/3,1,5055939972398       ,205
E3189BK/4,1,5055939972404       ,205
E3189BK/5,1,5055939972411       ,205
E3190CG/4,1,5055939974248       ,205
E3190CG/5,1,5055939974255       ,205
E3190CG/6,1,5055939974262       ,205
E3191GK/4,1,5055939974422       ,205
E3191GK/5,1,5055939974439       ,205
E3191GK/6,1,5055939974446       ,205
E3192RR/4,1,5055939974743       ,205
E3192RR/5,1,5055939974750       ,205
E3192RR/6,1,5055939974767       ,205
E3192RR/7,1,5055939974774       ,205
E3192WH/4,1,5055939974798       ,205
E3192WH/5,1,5055939974804       ,205
E3192WH/6,1,5055939974811       ,205
E4070BK/M3,1,5055939979199       ,205
E4070BK/M4,1,5055939979205       ,205
E4070BK/M5,1,5055939979212       ,205
E4070BK/M6,1,5055939979229       ,205
E5073GF/3,1,5055939949147       ,205
E5073GF/4,1,5055939949154       ,205
E5073GF/5,1,5055939949161       ,205
E6130CC/3,1,5055939973517       ,205
E6130CC/4,1,5055939973524       ,205
E6169CC/3,1,5055939973210       ,205
E6169CC/4,1,5055939973227       ,205
E6169CC/5,1,5055939973234       ,205
E6169CC/6,1,5055939973241       ,205
E6170BK/3,1,5055939973319       ,205
E6170BK/4,1,5055939973326       ,205
E6171BK/3,1,5055939973562       ,205
E6171BK/4,1,5055939973579       ,205
E6171BK/5,1,5055939973586       ,205
E6171BK/6,1,5055939973593       ,205
E6174CV/3,1,5055939976112       ,205
E6174CV/4,1,5055939976129       ,205
E6174CV/5,1,5055939976136       ,205
E6185CV/2,1,5055939977010       ,205
E6185CV/3,1,5055939977027       ,205
E6185CV/4,1,5055939977034       ,205
E6185CV/5,1,5055939977041       ,205
E6187CC/4,1,5055939977492       ,205
E6187CC/5,1,5055939977508       ,205
E6187CC/6,1,5055939977515       ,205
E8064BK/3,1,5055939915975       ,205
E8064BK/4,1,5055939915982       ,205
E8064BK/5,1,5055939915999       ,205
E8064BK/6,1,5055939916002       ,205
E8064BK/7,1,5055939916019       ,205
E9106CG/2,2,5055939974958       ,205
E9106CG/3,1,5055939974965       ,205
E9106CG/4,2,5055939974972       ,205
E9106CG/5,2,5055939974989       ,205
E9106CG/6,1,5055939974996       ,205
E9106CG/7,1,5055939975009       ,205
E9119PW/4,1,5055939942933       ,205
E9119PW/5,1,5055939942940       ,205
E9119PW/6,1,5055939942957       ,205
E6067BK/2,2,5055205367644       ,208
E6165BP/4,1,5055939960562       ,208
E1258GF/4,1,5055939972664       ,212
E1258GF/5,1,5055939972671       ,212
E1258GF/6,1,5055939972688       ,212
E6172CC/3,1,5055939973821       ,212
E6172CC/4,1,5055939973838       ,212
E6172CC/5,1,5055939973845       ,212
