SKU,Maximum allowed,Barcode/EAN,Days left
E1301BK/5,2,5055205363547       ,189
E1301BK/6,2,5055205363554       ,189
E3125BK/3,1,5055939915388       ,189
E3125BK/6,1,5055939915418       ,189
E3125BK/7,1,5055939915425       ,189
E3125NA/4,2,5055939950839       ,189
E3125NA/6,1,5055939950853       ,189
E3125NA/7,1,5055939950860       ,189
E3168BK/3,1,5055939954165       ,189
E3168BK/4,2,5055939954172       ,189
E3168BK/5,2,5055939954189       ,189
E3168BK/6,2,5055939954196       ,189
E3168BK/7,1,5055939954202       ,189
E3184OT/5,2,5055939970493       ,189
E3184OT/6,2,5055939970509       ,189
E3189BA/4,1,5055939972350       ,189
E3189BA/7,1,5055939972381       ,189
E3189CC/7,1,5055939972480       ,189
E3193YV/3,1,5055939975832       ,189
E3193YV/4,2,5055939975849       ,189
E3193YV/5,2,5055939975856       ,189
E3193YV/6,1,5055939975863       ,189
E3193YV/7,1,5055939975870       ,189
E4027BK/3,1,5055205398259       ,189
E4027BK/4,2,5055205398266       ,189
E4027BK/5,3,5055205398273       ,189
E4027BK/6,2,5055205398280       ,189
E4027BK/7,1,5055205398297       ,189
E6066BK/3,1,5055205363738       ,189
E6066BK/4,1,5055205363745       ,189
E6066BK/5,1,5055205363752       ,189
E6106BK/1,1,5055939920177       ,189
E6106BK/2,2,5055939919485       ,189
E6106BK/3,2,5055939919492       ,189
E6106BK/4,2,5055939919508       ,189
E6106BK/5,1,5055939919515       ,189
E6106BK/6,1,5055939919522       ,189
E6153BK/3,1,5055939953281       ,189
E6162MY/2,1,5055939956916       ,189
E6162MY/3,1,5055939956923       ,189
E6162MY/4,1,5055939956930       ,189
E6162MY/5,1,5055939956947       ,189
E6184BP/3,1,5055939976877       ,189
E6184BP/4,1,5055939976884       ,189
E6184BP/5,1,5055939976891       ,189
E6184BP/6,1,5055939976907       ,189
E8064BK/2,1,5055939915968       ,189
E8064BK/8,1,5055939916026       ,189
E8064BK/9,1,5055939916033       ,189
E8064GY/7,1,5055939916255       ,189
E8064GY/8,1,5055939916262       ,189
E8064NA/5,1,5055939950914       ,189
E8064NA/6,1,5055939950921       ,189
E8064NA/7,1,5055939950938       ,189
E8066BK/3,1,5055939916330       ,189
E8066BK/4,2,5055939916347       ,189
E8066BK/5,2,5055939916354       ,189
E8066BK/6,2,5055939916361       ,189
E8069NA/3,1,5055939919430       ,189
E8069NA/4,1,5055939919447       ,189
E8069NA/5,2,5055939919454       ,189
E8069NA/6,1,5055939919461       ,189
E8069NA/7,1,5055939919478       ,189
E8075BK/6,1,5055939924793       ,189
E8104BK/4,2,5055939972077       ,189
E8104BK/5,2,5055939972084       ,189
E9114BK/4,2,5055939941738       ,189
E9114BK/5,2,5055939941745       ,189
E9114BK/6,2,5055939941752       ,189
E9114BK/7,1,5055939941769       ,189
E9114GV/4,2,5055939941684       ,189
E9114GV/5,2,5055939941691       ,189
E9114GV/6,2,5055939941707       ,189
E9114GV/7,1,5055939941714       ,189
E9115CO/3,1,5055939941882       ,189
E9115CO/4,1,5055939941899       ,189
E9115CO/5,1,5055939941905       ,189
E9115CO/6,1,5055939945088       ,189
E9134YV/4,1,5055939943367       ,189
E9134YV/6,1,5055939943381       ,189
E3125BK/4,2,5055939915395       ,192
E3125BK/5,2,5055939915401       ,192
E8064GY/3,1,5055939916217       ,193
E8064GY/5,2,5055939916231       ,193
E1258BA/4,2,5055939972565       ,207
E1258BA/5,2,5055939972572       ,207
E1258BA/6,2,5055939972589       ,207
E1258BA/7,1,5055939972596       ,207
E1258GF/4,2,5055939972664       ,207
E1258GF/5,2,5055939972671       ,207
E1258GF/6,2,5055939972688       ,207
E1258GF/7,1,5055939972695       ,207
E3185LG/4,1,5055939978222       ,211
E3185LG/5,2,5055939978239       ,211
E3185LG/6,2,5055939978246       ,211
E3185LG/7,1,5055939978253       ,211
E3188LG/4,1,5055939971131       ,211
E3188LG/5,1,5055939971148       ,211
E3188LG/6,2,5055939971155       ,211
E3188LG/7,1,5055939971162       ,211
E3188NA/4,1,5055939971186       ,211
E3188NA/5,1,5055939971193       ,211
E3188NA/6,1,5055939971209       ,211
E3188NA/7,1,5055939971216       ,211
E3188OT/3,1,5055939978161       ,211
E3188OT/4,1,5055939978178       ,211
E3188OT/5,2,5055939978185       ,211
E3188OT/6,1,5055939978192       ,211
E3188OT/7,1,5055939978208       ,211
E6168CV/3,1,5055939973166       ,211
E6168CV/4,1,5055939973173       ,211
E6168CV/5,1,5055939973180       ,211
E6168GK/3,1,5055939978376       ,211
E6168GK/4,1,5055939978383       ,211
E6168GK/5,1,5055939978390       ,211
