SKU,Maximum allowed,Barcode/EAN,Days left
E1506NA/S-M,1,5055939922836       ,17
E8066BK/4,1,5055939916347       ,73
E7136WH/0,2,5055939948942       ,103
E0114GV/L-XL,1,5055205380087       ,130
E0114YV/L-XL,1,5055205380063       ,130
E3173GF/6,2,5055939949673       ,130
E7117RD/4,1,5055939917894       ,170
E8092GF/7,1,5055939948430       ,170
E3173GF/7,1,5055939949680       ,185
