SKU,Maximum allowed,Barcode/EAN,Days left
E0043BC,3,5055205324494       ,135
E0048,1,5055205315966       ,135
E0073,4,5055205338118       ,135
E0086W,1,5055205343075       ,135
E0128BK/4,1,5055939904931       ,135
E0128BK/5,1,5055939904948       ,135
E0128BK/6,1,5055939904955       ,135
E1028BK/0,2,5055205385952       ,135
E1125CM/7,1,5055939923116       ,135
E1137BK/0,1,5055939901350       ,135
E1138BK/0,1,5055939901367       ,135
E1138WH/0,1,5055939901374       ,135
E3069BK/4,1,5055939904740       ,135
E3069BV/4,1,5055939941332       ,135
E8064BC/4,1,5055939936789       ,135
E8064BK/3,2,5055939915975       ,135
E8064BK/4,2,5055939915982       ,135
E8064BK/5,3,5055939915999       ,135
E8064BK/6,1,5055939916002       ,135
E9098CM/6,2,5055939925189       ,135
E0040SM,1,5055205301907       ,156
E0040ST,1,5055205301914       ,156
E0040YL,1,5055205301921       ,156
E0041,1,5055205301938       ,156
E0048,1,5055205315966       ,156
E1112BK/L-XL,1,5055205384689       ,156
E1137WH/0,1,5055939901343       ,156
E1138BK/0,2,5055939901367       ,156
E1138RD/0,1,5055939901381       ,156
E1138WH/0,1,5055939901374       ,156
E1158BK/L-XL,1,5055939928432       ,156
E1170GY/0,1,5055939929835       ,156
E1171BK/0,1,5055939929859       ,156
EU8045BK/6,1,5055205339092       ,172
E9139BK/3,1,5055939953588       ,206
E9139BK/4,1,5055939953595       ,206
