SKU,Maximum allowed,Barcode/EAN,Days left
E0035/3,1,5055205301440       ,110
E0035/5,1,5055205301457       ,110
E0128BK/3,1,5055939904924       ,110
E0128BK/4,1,5055939904931       ,110
E0128BK/5,1,5055939904948       ,110
E0128YV/4,1,5055939909622       ,110
E0128YV/5,1,5055939909639       ,110
E0128YV/6,1,5055939909646       ,110
E1171WH/0,1,5055939929866       ,110
E5049BK/3,1,5055939924526       ,110
E5049BK/4,1,5055939924533       ,110
E5049BK/5,1,5055939924540       ,110
E5049BK/6,1,5055939924557       ,110
E5056BK/3,1,5055939941820       ,110
E5056BK/4,1,5055939941837       ,110
E5056BK/5,1,5055939941844       ,110
E5056BK/6,1,5055939941851       ,110
E9102BK/4,1,5055939925523       ,110
E9102BK/5,1,5055939925530       ,110
E9102BK/6,1,5055939925547       ,110
E9102RD/3,1,5055939925462       ,110
E9102RD/4,1,5055939925479       ,110
E9102RD/5,1,5055939925486       ,110
E9122BV/5,1,5055939945439       ,110
