INVOICE,SIN629013
YOUR REF,SS 2019
DATE,10/09/2019
VALUE,288.82


SKU,Qty,Value,Name,Colour,Size
E1518GF/M-L     ,2,192.55,MT500 Full Face Helmet,Forest Green,M-L
E1518GF/L-XL    ,1,96.27,MT500 Full Face Helmet,Forest Green,L-XL
