SKU,Maximum allowed,Barcode/EAN,Days left
E9108CE/5,1,5055939935577       ,14
E1518BK/M-L,1,5055939948898       ,28
E8090AN/4,1,5055939944333       ,30
E0098YV/S-M,6,5055205359571       ,66
E0099YV,6,5055205363356       ,66
E0128BK/4,3,5055939904931       ,66
E0128BK/5,4,5055939904948       ,66
E1117BK/4,1,5055205390123       ,66
E1117BK/5,3,5055205390130       ,66
E1117BK/6,2,5055205390147       ,66
E1117BK/7,1,5055205390154       ,66
E1145BK/3,1,5055939908182       ,66
E1145BK/4,3,5055939908199       ,66
E1145BK/5,4,5055939908205       ,66
E1145BK/6,2,5055939908212       ,66
E1183BK/4,2,5055939944234       ,66
E1183BK/5,2,5055939944241       ,66
E1183BK/6,2,5055939944258       ,66
E1184BK/3,2,5055939944425       ,66
E1184BK/4,3,5055939944432       ,66
E1184BK/5,4,5055939944449       ,66
E1184BK/6,3,5055939944456       ,66
E1184BK/7,2,5055939944463       ,66
E1222BK/0,6,5055939958590       ,66
E1223BK/L-XL,6,5055939958613       ,66
E1223BK/S-M,3,5055939958606       ,66
E1224BK/2,2,5055939958798       ,66
E1224BK/3,3,5055939958804       ,66
E1224BK/4,5,5055939966274       ,66
E1224BK/5,6,5055939966281       ,66
E1224BK/6,3,5055939966298       ,66
E1224BK/7,1,5055939966304       ,66
E3158BK/3,1,5055939942414       ,66
E3158BK/4,1,5055939942421       ,66
E3158BK/5,1,5055939942438       ,66
E3158BK/6,1,5055939942445       ,66
E3158BK/7,1,5055939942452       ,66
E3177BK/3,1,5055939957708       ,66
E3177BK/4,1,5055939957715       ,66
E3177BK/5,1,5055939957722       ,66
E3177BK/6,1,5055939957739       ,66
E3177GK/3,1,5055939957753       ,66
E3177GK/4,1,5055939957760       ,66
E3177GK/5,1,5055939957777       ,66
E3177GK/6,1,5055939957784       ,66
E3178BK/3,1,5055939957869       ,66
E3178BK/4,2,5055939957876       ,66
E3178BK/5,2,5055939957883       ,66
E3178BK/6,1,5055939957890       ,66
E8074BK/3,1,5055939924717       ,66
E8074BK/4,3,5055939924724       ,66
E8074BK/5,4,5055939924731       ,66
E8074BK/6,1,5055939924748       ,66
E8077BK/2,1,5055939924861       ,66
E8077BK/3,2,5055939924878       ,66
E8077BK/4,2,5055939924885       ,66
E8077BK/5,1,5055939924892       ,66
E9102BK/3,1,5055939925516       ,66
E9102BK/4,1,5055939925523       ,66
E9102BK/5,1,5055939925530       ,66
E9103BK/3,1,5055939925615       ,66
E9103BK/4,1,5055939925622       ,66
E9103BK/5,1,5055939925639       ,66
E9103BK/6,1,5055939925646       ,66
E9116CE/2,1,5055939941998       ,66
E9116CE/3,1,5055939942001       ,66
E9116CE/4,1,5055939942018       ,66
E9116CE/5,1,5055939942025       ,66
E9143BK/2,1,5055939966236       ,66
E9143BK/3,2,5055939957456       ,66
E9143BK/4,2,5055939957463       ,66
E9143BK/5,2,5055939957470       ,66
E9143BK/6,1,5055939957487       ,66
E9143GK/3,1,5055939957500       ,66
E9143GK/4,1,5055939957517       ,66
E9143GK/5,1,5055939957524       ,66
E9143GK/6,1,5055939957531       ,66
E9144BK/2,1,5055939966250       ,66
E9144BK/3,1,5055939957555       ,66
E9144BK/4,3,5055939957562       ,66
E9144BK/5,3,5055939957579       ,66
E9144BK/6,2,5055939957586       ,66
E9144BV/3,1,5055939957609       ,66
E9144BV/4,1,5055939957616       ,66
E9144BV/5,1,5055939957623       ,66
E9144BV/6,1,5055939957630       ,66
E9145BK/3,1,5055939959085       ,66
E9145BK/4,2,5055939959092       ,66
E9145BK/5,1,5055939959108       ,66
E9145BK/6,1,5055939959115       ,66
E9149BP/2,1,5055939960043       ,66
E9149BP/3,2,5055939960050       ,66
E9149BP/4,2,5055939960067       ,66
E9149BP/5,1,5055939960074       ,66
E1518GF/L-XL,1,5055939948935       ,74
E1518GF/M-L,2,5055939948928       ,74
E1108BK/S-M,2,5055205387970       ,102
E1112BK/L-XL,1,5055205384689       ,102
E1196BK/L-XL,2,5055939948874       ,102
E1196BK/S-M,2,5055939948867       ,102
E9125MY/2,1,5055939944142       ,102
E9125MY/3,2,5055939944159       ,102
E9150GK/3,2,5055939960401       ,102
E9150GK/4,2,5055939960418       ,102
E9150GK/5,1,5055939960425       ,102
EM0057BU/5,1,5055939946092       ,102
EM0057BU/6,2,5055939946108       ,102
EM0057BU/7,1,5055939946115       ,102
E1196BK/M-L,4,5055939956510       ,104
E1108BK/L-XL,2,5055205387987       ,109
E1112BK/L-XL,1,5055205384689       ,109
E1112BK/S-M,2,5055205384672       ,109
E0153BK/L-XL,10,5055939965970       ,124
E0153BK/S-M,10,5055939958132       ,124
E0154BK/L-XL,15,5055939965987       ,124
E0154BK/S-M,10,5055939958149       ,124
E1223BK/L-XL,6,5055939958613       ,124
E1223BK/S-M,6,5055939958606       ,124
E8074BK/4,2,5055939924724       ,124
E8074BK/5,3,5055939924731       ,124
E8074BK/6,2,5055939924748       ,124
E8074BK/7,1,5055939924755       ,124
E8077BK/5,1,5055939924892       ,124
E9117YM/4,1,5055939960999       ,124
E9117YM/5,1,5055939961002       ,124
E9117YM/6,1,5055939961019       ,124
E9145YM/3,1,5055939961125       ,124
E9145YM/4,1,5055939961132       ,124
E9145YM/5,1,5055939961149       ,124
E9145YM/6,1,5055939961156       ,124
E9145YM/7,1,5055939961163       ,124
EM0057BU/5,1,5055939946092       ,124
EM0057BU/6,1,5055939946108       ,124
EM0057BU/7,1,5055939946115       ,124
E9125MY/4,2,5055939944166       ,133
E1202BK/S-M,5,5055939949901       ,139
E8085AN/6,1,5055939956213       ,139
E8088BK/4,1,5055939943169       ,139
E8088BK/5,2,5055939943176       ,139
E8088BK/6,1,5055939943183       ,139
E8090AN/4,2,5055939944333       ,139
E8090AN/5,2,5055939944340       ,139
E8090AN/6,1,5055939944357       ,139
E8090AN/7,1,5055939944364       ,139
