SKU,Maximum allowed,Barcode/EAN,Days left
E1216BK/3,2,5055939958347       ,46
E1216BK/4,2,5055939958354       ,46
E1216BK/5,3,5055939958361       ,46
E1216BK/6,3,5055939958378       ,46
E1216BK/7,2,5055939958385       ,46
E3178BK/4,1,5055939957876       ,46
E3178BK/5,1,5055939957883       ,46
E3178BK/6,1,5055939957890       ,46
E5049BK/4,2,5055939924533       ,46
E5049BK/5,2,5055939924540       ,46
E5049BK/6,1,5055939924557       ,46
E5055BK/5,1,5055939941493       ,46
E5055BK/6,1,5055939941509       ,46
E8088BK/4,1,5055939943169       ,46
E8088BK/5,1,5055939943176       ,46
E9116CO/3,1,5055939942049       ,46
E9120YV/4,1,5055939943268       ,46
E9120YV/6,1,5055939943282       ,46
E9124PW/5,1,5055939944067       ,46
E9143BK/5,1,5055939957470       ,46
E9143BK/6,1,5055939957487       ,46
E9143BK/7,1,5055939957494       ,46
E1216BK/4,2,5055939958354       ,100
E5049BK/6,2,5055939924557       ,100
E9120YV/5,1,5055939943275       ,100
