SKU,Maximum allowed,Barcode/EAN,Days left
E1108BK/L-XL,1,5055205387987       ,6
E1108BK/S-M,1,5055205387970       ,6
E1151BK/3,2,5055939920108       ,6
E1155BK/L-XL,2,5055939928388       ,6
E1155BK/S-M,1,5055939928395       ,6
E1157BK/L-XL,1,5055939928418       ,6
E1157BK/S-M,1,5055939928425       ,6
E1158BK/L-XL,2,5055939928432       ,6
E1158BK/S-M,2,5055939928449       ,6
E1165BK/3,2,5055939928845       ,6
E1165BK/4,2,5055939928852       ,6
E1165BK/5,2,5055939928869       ,6
E1165BK/6,2,5055939928876       ,6
E1165RD/3,2,5055939929002       ,6
E1165RD/4,2,5055939929019       ,6
E1165RD/5,2,5055939929026       ,6
E1165RD/6,2,5055939929033       ,6
E1166BK/3,1,5055939929064       ,6
E1166BK/4,1,5055939929071       ,6
E1166BK/5,1,5055939929088       ,6
E1166BK/6,1,5055939929095       ,6
E1166RD/3,1,5055939929187       ,6
E1166RD/4,1,5055939929194       ,6
E1166RD/5,1,5055939929200       ,6
E1166RD/6,1,5055939929217       ,6
E1168BK/3,1,5055939929477       ,6
E1168BK/4,1,5055939929484       ,6
E1168BK/5,1,5055939929491       ,6
E1168BK/6,1,5055939929507       ,6
E1168BK/7,1,5055939929514       ,6
E1171BK/0,1,5055939929859       ,6
E1171WH/0,1,5055939929866       ,6
E1174BK/0,1,5055939929972       ,6
E1174GY/0,1,5055939929989       ,6
E1174PT/0,1,5055939929996       ,6
E1195BK/L-XL,1,5055939948836       ,6
E1195BK/S-M,1,5055939948829       ,6
E1196BK/L-XL,2,5055939948874       ,6
E1196BK/S-M,2,5055939948867       ,6
E1202BK/L-XL,2,5055939949918       ,6
E1202BK/S-M,2,5055939949901       ,6
E1202GF/L-XL,2,5055939949932       ,6
E1202GF/S-M,2,5055939949925       ,6
E1204BK/3,1,5055939950563       ,6
E1204BK/4,1,5055939950570       ,6
E1204BK/5,1,5055939950587       ,6
E1204BK/6,1,5055939950594       ,6
E1204BK/7,1,5055939950600       ,6
E1205BV/L-XL,2,5055939951836       ,6
E1205BV/S-M,2,5055939951829       ,6
E1205RD/L-XL,2,5055939951874       ,6
E1205RD/S-M,2,5055939951867       ,6
E1505KH/L-XL,1,5055939951317       ,6
E1505KH/M-L,1,5055939951300       ,6
E1505MB/L-XL,1,5055939904474       ,6
E1505MB/M-L,1,5055939904481       ,6
E1505MB/S-M,1,5055939904498       ,6
E1505OR/L-XL,1,5055939904504       ,6
E1505OR/M-L,1,5055939904511       ,6
E1505OR/S-M,1,5055939904528       ,6
E1505RD/L-XL,1,5055939951287       ,6
E1505RD/M-L,1,5055939951270       ,6
E1505RD/S-M,1,5055939951263       ,6
E1506BK/M-L,1,5055939920054       ,6
E1506GF/M-L,1,5055939948966       ,6
E1506WH/L-XL,1,5055939920092       ,6
E1506WH/M-L,1,5055939920085       ,6
E1511BK/M-L,1,5055939930138       ,6
E3109BK/2,1,5055939909790       ,6
E3109RD/5,1,5055939909073       ,6
E3109RD/6,1,5055939909080       ,6
E3109YV/4,1,5055939909011       ,6
E3109YV/5,1,5055939909028       ,6
E3141BV/3,1,5055939951751       ,6
E3141BV/4,1,5055939951768       ,6
E3141BV/5,1,5055939951775       ,6
E3142NA/4,1,5055939952673       ,6
E3142NA/5,1,5055939952680       ,6
E3142NA/6,1,5055939952697       ,6
E3142NA/7,1,5055939952703       ,6
E3142RR/4,1,5055939952628       ,6
E3142RR/5,1,5055939952635       ,6
E3142RR/6,1,5055939952642       ,6
E3142RR/7,1,5055939952659       ,6
E3167WH/L-XL,3,5055939954073       ,6
E3167WH/S-M,3,5055939954066       ,6
E3170BK/3,1,5055939954264       ,6
E3170BK/4,1,5055939954271       ,6
E3170BK/5,1,5055939954288       ,6
E3170BK/6,1,5055939954295       ,6
E3170BK/7,1,5055939954301       ,6
E3171BK/2,1,5055939954318       ,6
E3171BK/3,1,5055939954325       ,6
E3171BK/4,1,5055939954332       ,6
E3171BK/5,1,5055939954349       ,6
E3173GF/3,1,5055939949642       ,6
E3173GF/4,1,5055939949659       ,6
E3173GF/5,1,5055939949666       ,6
E3173GF/6,1,5055939949673       ,6
E4054BK/3,1,5055939953168       ,6
E4054BK/4,1,5055939953175       ,6
E4054BK/5,1,5055939953182       ,6
E4054BK/6,1,5055939953199       ,6
E4054BK/7,1,5055939953205       ,6
E4054RD/3,1,5055939953212       ,6
E4054RD/4,1,5055939953229       ,6
E4054RD/5,1,5055939953236       ,6
E4054RD/6,1,5055939953243       ,6
E4054RD/7,1,5055939953250       ,6
E4055BK/3,1,5055939953069       ,6
E4055BK/4,1,5055939953076       ,6
E4055BK/5,1,5055939953083       ,6
E4055BK/6,1,5055939953090       ,6
E5066BK/3,1,5055939949246       ,6
E5066BK/4,1,5055939949253       ,6
E5066BK/5,1,5055939949260       ,6
E5066BK/6,1,5055939949277       ,6
E6097BK/2,2,5055939901206       ,6
E6097BK/3,2,5055939901213       ,6
E6097BK/4,2,5055939901220       ,6
E6106BK/2,1,5055939919485       ,6
E6106BK/3,1,5055939919492       ,6
E6106BK/4,1,5055939919508       ,6
E6110BK/2,1,5055939914664       ,6
E6110BK/3,1,5055939914671       ,6
E6110BK/4,1,5055939914688       ,6
E6126BK/2,1,5055939933153       ,6
E6126BK/3,1,5055939933160       ,6
E6126BK/4,1,5055939933177       ,6
E6126BK/5,1,5055939933184       ,6
E6126CE/2,1,5055939933191       ,6
E6126CE/3,1,5055939933207       ,6
E6126CE/4,1,5055939933214       ,6
E6126CE/5,1,5055939933221       ,6
E6127BK/2,1,5055939933313       ,6
E6127BK/3,1,5055939933320       ,6
E6127BK/4,1,5055939933337       ,6
E6132BK/2,1,5055939933719       ,6
E6132BK/3,1,5055939933726       ,6
E6132BK/4,1,5055939933733       ,6
E6151GK/2,1,5055939950280       ,6
E6151GK/3,1,5055939950297       ,6
E6151GK/4,1,5055939950303       ,6
E6153BK/2,1,5055939953274       ,6
E6153BK/3,1,5055939953281       ,6
E6153BK/4,1,5055939953298       ,6
E6153BK/5,1,5055939953304       ,6
E7117BK/3,1,5055939917016       ,6
E7117BK/4,1,5055939917023       ,6
E7117BK/5,1,5055939917030       ,6
E7117BK/6,1,5055939917047       ,6
E7117BK/7,1,5055939917054       ,6
E7117RD/3,1,5055939917887       ,6
E7117RD/4,1,5055939917894       ,6
E7117RD/5,1,5055939917900       ,6
E7117RD/6,1,5055939917917       ,6
E7117RD/7,1,5055939917924       ,6
E7120BK/3,1,5055939915494       ,6
E7120BK/4,1,5055939915500       ,6
E7120BK/5,1,5055939915517       ,6
E7120BK/6,1,5055939915524       ,6
E7128BK/0,1,5055939934419       ,6
E7128GY/0,1,5055939934426       ,6
E7131BK/K11,1,5055939949970       ,6
E7131BK/K9,1,5055939949963       ,6
E7132BK/K11,1,5055939949994       ,6
E7132BK/K9,1,5055939949987       ,6
E8064BC/3,1,5055939936772       ,6
E8064BC/4,1,5055939936789       ,6
E8064BC/5,1,5055939936796       ,6
E8064BC/6,1,5055939936802       ,6
E8065BK/4,1,5055939919157       ,6
E8065BK/5,1,5055939919164       ,6
E8065BK/6,1,5055939919171       ,6
E8065BK/7,1,5055939919188       ,6
E8067BK/3,1,5055939916446       ,6
E8067BK/4,1,5055939916453       ,6
E8067BK/5,1,5055939916460       ,6
E8067BK/6,1,5055939916477       ,6
E8093BK/3,1,5055939948775       ,6
E8093BK/4,1,5055939948782       ,6
E8093BK/5,1,5055939948799       ,6
E9095BK/2,1,5055939918044       ,6
E9095BK/3,1,5055939918051       ,6
E9095BK/4,1,5055939918068       ,6
E9095BK/5,1,5055939918075       ,6
E9095BK/6,1,5055939918082       ,6
E9095RD/3,1,5055939918174       ,6
E9095RD/5,1,5055939918198       ,6
E9095RD/6,1,5055939918204       ,6
E9095YV/4,1,5055939918129       ,6
E9095YV/5,1,5055939918136       ,6
E9106BK/3,1,5055939935256       ,6
E9106BK/4,1,5055939935263       ,6
E9106BK/5,1,5055939935270       ,6
E9106BK/7,1,5055939935294       ,6
E9107BK/3,1,5055939935409       ,6
E9107BK/5,1,5055939935423       ,6
E9107BK/6,1,5055939935430       ,6
E9108BK/3,1,5055939935515       ,6
E9109BK/2,1,5055939935584       ,6
E9138GC/4,1,5055939949055       ,6
E9138GC/5,1,5055939949062       ,6
E9138GC/6,1,5055939949079       ,6
E9140BK/4,1,5055939953489       ,6
E9140BK/5,1,5055939953496       ,6
E9140BK/6,1,5055939953502       ,6
E9140BV/4,1,5055939953533       ,6
E9140BV/5,1,5055939953540       ,6
E9140BV/6,1,5055939953557       ,6
E6132BK/5,1,5055939933740       ,18
E1202BK/S-M,2,5055939949901       ,67
E7117BK/4,2,5055939917023       ,67
E7117RD/4,1,5055939917894       ,67
E7117RD/6,1,5055939917917       ,67
E6127BK/3,1,5055939933320       ,71
E1166BK/6,1,5055939929095       ,103
E1518BK/M-L,1,5055939948898       ,134
E1165BK/5,1,5055939928869       ,160
E1165BK/6,2,5055939928876       ,160
E1165BK/7,2,5055939928883       ,160
E1165RD/4,1,5055939929019       ,160
E1165RD/5,1,5055939929026       ,160
E1165RD/6,1,5055939929033       ,160
E1165RD/7,1,5055939929040       ,160
E7117BK/4,1,5055939917023       ,160
E7117BK/5,1,5055939917030       ,160
E7117BK/6,1,5055939917047       ,160
E7117RD/3,1,5055939917887       ,160
E7117RD/4,1,5055939917894       ,160
E7117RD/5,1,5055939917900       ,160
E1165BK/5,1,5055939928869       ,185
E7117BK/4,1,5055939917023       ,185
E7117BK/6,2,5055939917047       ,185
E9095BK/4,1,5055939918068       ,185
E9095BK/5,1,5055939918075       ,185
E0128YV/4,1,5055939909622       ,206
E0128YV/5,1,5055939909639       ,206
E1043BK/L-XL,1,5055939923871       ,206
E1043BK/S-M,1,5055939923888       ,206
E1048BK/L-XL,2,5055939928197       ,206
E1048BK/S-M,2,5055939928203       ,206
E1050BK/L-XL,2,5055939928210       ,206
E1050BK/S-M,2,5055939928227       ,206
E1108BK/L-XL,2,5055205387987       ,206
E1108BK/S-M,1,5055205387970       ,206
E1109BK/L-XL,1,5055205388014       ,206
E1109BK/M-L,1,5055205388007       ,206
E1109BK/S-M,1,5055205387994       ,206
E1157BK/L-XL,1,5055939928418       ,206
E1157BK/S-M,1,5055939928425       ,206
E1158BK/L-XL,1,5055939928432       ,206
E1183BK/4,1,5055939944234       ,206
E1183BK/5,1,5055939944241       ,206
E1183BK/6,1,5055939944258       ,206
E1183BK/7,1,5055939944265       ,206
E1185BK/4,1,5055939944531       ,206
E1185BK/5,1,5055939944548       ,206
E1185BK/6,1,5055939944555       ,206
E1185BK/7,1,5055939944562       ,206
E1186BK/3,1,5055939944623       ,206
E1186BK/4,2,5055939944630       ,206
E1186BK/5,2,5055939944647       ,206
E1186BK/6,2,5055939944654       ,206
E1186BK/7,1,5055939944661       ,206
E1187BK/3,1,5055939944760       ,206
E1187BK/4,1,5055939944777       ,206
E1187BK/5,1,5055939944784       ,206
E1195BK/M-L,1,5055939956503       ,206
E1196BK/M-L,1,5055939956510       ,206
E1202BK/L-XL,1,5055939949918       ,206
E1202BK/S-M,1,5055939949901       ,206
E1202GF/L-XL,1,5055939949932       ,206
E1202GF/S-M,1,5055939949925       ,206
E1218BK/L-XL,2,5055939958521       ,206
E1218BK/M-L,2,5055939958514       ,206
E1218BK/S-M,2,5055939958507       ,206
E1219BK/L-XL,2,5055939958545       ,206
E1219BK/S-M,2,5055939958538       ,206
E1224BK/3,1,5055939958804       ,206
E1224BK/4,1,5055939966274       ,206
E1224BK/5,1,5055939966281       ,206
E1224BK/6,1,5055939966298       ,206
E1234BK/L-XL,2,5055939966823       ,206
E1234BK/S-M,2,5055939966816       ,206
E1234RD/L-XL,2,5055939966861       ,206
E1234RD/S-M,2,5055939966854       ,206
E1505KH/L-XL,1,5055939951317       ,206
E1505KH/M-L,1,5055939951300       ,206
E1505MB/L-XL,1,5055939904474       ,206
E1505MB/M-L,1,5055939904481       ,206
E1505MB/S-M,1,5055939904498       ,206
E1505RD/L-XL,1,5055939951287       ,206
E1505RD/M-L,1,5055939951270       ,206
E1511BK/M-L,1,5055939930138       ,206
E1511RR/M-L,1,5055939959627       ,206
E1513BK/L-XL,1,5055939930275       ,206
E1513BK/M-L,1,5055939930282       ,206
E1513RD/M-L,1,5055939955025       ,206
E1513RD/S-M,1,5055939952826       ,206
E1518BK/M-L,1,5055939948898       ,206
E3181RR/3,1,5055939958286       ,206
E3181RR/4,1,5055939958293       ,206
E3181RR/5,1,5055939958309       ,206
E3181RR/6,1,5055939958316       ,206
E3183BK/3,1,5055939959290       ,206
E3183BK/4,1,5055939959306       ,206
E3183BK/5,1,5055939959313       ,206
E3183BK/6,1,5055939959320       ,206
E3183BK/7,1,5055939959337       ,206
E5049BK/3,1,5055939924526       ,206
E5049BK/4,1,5055939924533       ,206
E5049BK/5,1,5055939924540       ,206
E5049BK/6,1,5055939924557       ,206
E5056BK/3,1,5055939941820       ,206
E5056BK/4,1,5055939941837       ,206
E5056BK/5,1,5055939941844       ,206
E6110BK/2,1,5055939914664       ,206
E6110BK/3,1,5055939914671       ,206
E6110BK/4,1,5055939914688       ,206
E6146BK/2,1,5055939942070       ,206
E6146BK/3,1,5055939942087       ,206
E6146BK/4,1,5055939942094       ,206
E6147BK/2,1,5055939944722       ,206
E6147BK/3,1,5055939944739       ,206
E6147BK/4,1,5055939944746       ,206
E6147BK/5,1,5055939944753       ,206
E6147CE/2,1,5055939945460       ,206
E6147CE/3,1,5055939945477       ,206
E6147CE/4,1,5055939945484       ,206
E6147CE/5,1,5055939945491       ,206
E7112BK/K11,1,5055205390642       ,206
E7112BK/K7,1,5055205390659       ,206
E7112BK/K9,1,5055205390635       ,206
E7128BK/0,1,5055939934419       ,206
E7128GY/0,1,5055939934426       ,206
E7128KH/0,1,5055939951324       ,206
E8091BK/4,1,5055939948256       ,206
E8091BK/5,1,5055939948263       ,206
E8092BK/3,1,5055939948348       ,206
E8092BK/4,1,5055939948355       ,206
E8092BK/5,1,5055939948362       ,206
E8092BK/6,1,5055939948379       ,206
E8093BK/4,1,5055939948782       ,206
E8093BK/5,1,5055939948799       ,206
E8098BK/2,1,5055939953335       ,206
E8098BK/3,1,5055939953342       ,206
E8098BK/4,1,5055939953359       ,206
E8098BK/5,1,5055939953366       ,206
E9102BK/4,1,5055939925523       ,206
E9102BK/5,1,5055939925530       ,206
E9102BK/6,1,5055939925547       ,206
E9106BK/3,1,5055939935256       ,206
E9106BK/4,1,5055939935263       ,206
E9106BK/6,1,5055939935287       ,206
E9108BK/2,1,5055939935508       ,206
E9108BK/3,1,5055939935515       ,206
E9108BK/4,1,5055939935522       ,206
E9122BK/3,1,5055939945361       ,206
E9122BK/4,1,5055939945378       ,206
E9122BK/6,1,5055939945392       ,206
E9138GC/4,1,5055939949055       ,206
E9138GC/5,1,5055939949062       ,206
E9138GC/6,1,5055939949079       ,206
E9138RR/4,1,5055939960258       ,206
E9138RR/5,1,5055939960265       ,206
E9138RR/6,1,5055939960272       ,206
E9140BK/3,1,5055939953472       ,206
E9140BK/4,1,5055939953489       ,206
E9140BK/5,1,5055939953496       ,206
E9140BK/6,1,5055939953502       ,206
E9143BK/4,1,5055939957463       ,206
E9143BK/5,1,5055939957470       ,206
E9143BK/6,1,5055939957487       ,206
E9144BV/4,1,5055939957616       ,206
E9147GF/3,1,5055939959412       ,206
E9147GF/4,1,5055939959429       ,206
E9147GF/5,1,5055939959436       ,206
E9147GF/6,1,5055939959443       ,206
E9147RR/3,1,5055939959511       ,206
E9147RR/4,1,5055939959528       ,206
E9147RR/5,1,5055939959535       ,206
E9147RR/6,1,5055939959542       ,206
E9148BK/4,1,5055939960005       ,206
E9148BK/5,1,5055939960012       ,206
E9148BK/6,1,5055939960029       ,206
EM0057BK/4,1,5055939925950       ,206
EM0057BK/5,1,5055939925967       ,206
EM0057BK/6,1,5055939925974       ,206
E1195BK/L-XL,1,5055939948836       ,207
E1195BK/S-M,1,5055939948829       ,207
E1196BK/L-XL,1,5055939948874       ,207
E1196BK/S-M,1,5055939948867       ,207
E3072BK/3,1,5055205362144       ,207
E3072BK/4,1,5055205362151       ,207
E3072BK/5,1,5055205362168       ,207
E3072BK/6,1,5055205362175       ,209
E3072BK/7,1,5055205362182       ,209
E5056BK/6,1,5055939941851       ,209
E9144BK/3,1,5055939957555       ,209
E9144BK/4,1,5055939957562       ,209
E9144BK/5,1,5055939957579       ,209
E9144BK/6,1,5055939957586       ,209
E9144BV/5,1,5055939957623       ,209
