SKU,Maximum allowed,Barcode/EAN,Days left
E0043GK/0,1,5055939961385       ,74
E0128BK/4,1,5055939904931       ,74
E0128BK/5,1,5055939904948       ,74
E0128BK/6,2,5055939904955       ,74
E0128BK/7,1,5055939904962       ,74
E0151GC/0,1,5055939960715       ,74
E0151RR/0,1,5055939960685       ,74
E1117BK/4,1,5055205390123       ,74
E1117BK/5,2,5055205390130       ,74
E1117BK/6,2,5055205390147       ,74
E1117BK/7,1,5055205390154       ,74
E1118BK/5,2,5055205389981       ,74
E1118BK/6,2,5055205389998       ,74
E1118BK/7,2,5055205390000       ,74
E1145BK/5,1,5055939908205       ,74
E1215GF/0,1,5055939957173       ,74
E1223BK/L-XL,2,5055939958613       ,74
E1223BK/S-M,2,5055939958606       ,74
E1227BK/L-XL,1,5055939966311       ,74
E1227GK/L-XL,1,5055939966328       ,74
E1227GK/S-M,1,5055939960616       ,74
E1227RR/L-XL,1,5055939966335       ,74
E1227RR/S-M,1,5055939960609       ,74
E1505RD/L-XL,1,5055939951287       ,74
E3181BK/5,1,5055939958200       ,74
E3181BK/6,1,5055939958217       ,74
E3183BK/4,1,5055939959306       ,74
E3183BK/5,1,5055939959313       ,74
E3183BK/6,1,5055939959320       ,74
E5049BK/5,1,5055939924540       ,74
E5050BK/5,1,5055939927725       ,74
E5050BK/7,1,5055939927749       ,74
E9102BK/4,1,5055939925523       ,74
E1227BK/S-M,1,5055939959405       ,82
E5056BK/6,1,5055939941851       ,82
E6163BK/5,1,5055939958842       ,82
E6124BK/3,1,5055939933009       ,96
E6124BK/4,1,5055939933016       ,96
E9122BK/4,1,5055939945378       ,96
E9122BK/7,1,5055939945408       ,96
E9106BK/6,1,5055939935287       ,143
E9106RD/6,1,5055939958668       ,149
