INVOICE,SIN657476
YOUR REF,CS#FBC708604
DATE,22/01/2020
VALUE,470.49


SKU,Qty,Value,Name,Colour,Size
E0040SM         ,1,11.59,Spectral Glasses,Smoke,One size
E1038BK/L-XL    ,1,15.30,THERMOLITEŽ II Sock (Twin pack),Black,L-XL
E0130BK/6       ,1,16.25,Adrenaline Shell Glove,Black,XL
E9102RD/5       ,1,53.30,Windchill Jacket,Red,L
E8073BK/4       ,1,43.99,SingleTrack Trouser,Black,M
E3142BK/3       ,1,23.24,FS260-Pro S/S Jersey,Black,S
E6091BK/7       ,1,10.98,Wms Xtract Short II,Black,XXL
E8064BK/9       ,1,30.21,Hummvee Short II with liner,Black,XXXXL
E8064GY/9       ,1,30.21,Hummvee Short II with liner,Grey,XXXXL
E1184GF/4       ,1,17.58,SingleTrack Windproof Glove,Forest Green,M
E1227BK/L-XL    ,1,8.36,BaaBaa Merino Winter Sock (Single),Black,L-XL
E1234RD/S-M     ,1,5.51,BaaBaa Merino Stripe Sock,Red,S-M
E9117YM/5       ,1,106.59,MT500 Waterproof Jacket,Mustard,L
E9145BK/4       ,1,81.13,MT500 Freezing Point Jacket,Black,M
E1188RD/7       ,1,16.25,FS260-Pro Slick Overshoe II,Red,XXL
