SKU,Maximum allowed,Barcode/EAN,Days left
E0072BK/4,4,5055205335407       ,183
E0072BK/5,2,5055205335414       ,183
E0072BK/6,2,5055205335421       ,183
E0073,5,5055205338118       ,183
E1048BK/L-XL,4,5055939928197       ,183
E1048BK/S-M,4,5055939928203       ,183
E3061W/3,2,5055205342467       ,183
E3061W/4,2,5055205342474       ,183
E3061W/5,2,5055205342481       ,183
E3061W/6,2,5055205342498       ,183
E3063W/3,4,5055205343624       ,183
E3063W/4,4,5055205343631       ,183
E3063W/5,4,5055205343648       ,183
E3063W/6,4,5055205343655       ,183
E3109YV/3,1,5055939909004       ,183
E3109YV/4,1,5055939909011       ,183
E3109YV/5,1,5055939909028       ,183
E3109YV/6,2,5055939909035       ,183
E3109YV/7,1,5055939909042       ,183
E6105CE/2,2,5055939918396       ,183
E6105CE/3,3,5055939918402       ,183
E6105CE/4,1,5055939918419       ,183
E6105WH/2,2,5055939918433       ,183
E6105WH/3,2,5055939918440       ,183
E6105WH/4,2,5055939918457       ,183
E9073BK/3,2,5055205371054       ,183
E9073BK/4,2,5055205371061       ,183
E9073BK/5,2,5055205371078       ,183
E9073BK/6,2,5055205371085       ,183
E9095YV/3,2,5055939918112       ,183
E9095YV/4,2,5055939918129       ,183
E9095YV/5,2,5055939918136       ,183
E9095YV/6,2,5055939918143       ,183
E0004/L-XL,2,5055205300153       ,199
E0004/S-M,2,5055205300160       ,199
E0072BK/4,2,5055205335407       ,199
E0072BK/5,6,5055205335414       ,199
E0072BK/6,6,5055205335421       ,199
E3070WH/L-XL,4,5055205361178       ,199
E3070WH/S-M,4,5055205361154       ,199
