INVOICE,SIN603415
YOUR REF,Tim 23.4.19
DATE,24/04/2019
VALUE,695.89


SKU,Qty,Value,Name,Colour,Size
E5049BK/5       ,2,97.80,FS260-Pro Thermo Bibtight,Black,L
E1505GV/M-L     ,2,36.20,Hummvee Helmet,Hi-Viz Green,M-L
E7125BK/4       ,1,43.80,FS260-Pro Thermo Bibknicker,Black,M
E7125BK/6       ,1,43.80,FS260-Pro Thermo Bibknicker,Black,XL
E4029BK/3       ,1,34.20,Hyperon II Bibshort,Black,S
EM0055BK/5      ,1,17.00,MTR Glove II,Black,L
E1160BK/5       ,1,12.30,Hummvee Plus Glove II,Black,L
E1165BK/4       ,1,9.70,Xtract Mitt II,Black,M
E1166RD/4       ,1,17.00,FS260-Pro Aerogel Mitt,Red,M
E1166RD/5       ,1,17.00,FS260-Pro Aerogel Mitt,Red,L
E8064BK/4       ,1,29.20,Hummvee Short II with liner,Black,M
E8064BK/5       ,2,58.40,Hummvee Short II with liner,Black,L
E7118BK/5       ,1,34.20,FS260-Pro Short,Black,L
E1038BK/S-M     ,1,13.80,THERMOLITEŽ II Sock (Twin pack),Black,S-M
E9120YV/5       ,1,39.20,Hummvee Waterproof Jacket ,Hi-Viz Yellow,L
E6106BK/3       ,2,58.40,Women's Hummvee Short II,Black,S
E9069YV/3       ,1,23.94,Wms Gridlock II Jacket,Hi-Viz Yellow,S
