SKU,Maximum allowed,Barcode/EAN,Days left
E9137RD/3,1,5055939946313       ,17
E1043BK/L-XL,1,5055939923871       ,24
EP0055/4,1,5055205343488       ,66
EP0055/5,1,5055205343495       ,66
E6110BK/2,1,5055939914664       ,88
E6110BK/3,1,5055939914671       ,88
E6110BK/4,1,5055939914688       ,88
E6110BK/5,1,5055939914695       ,88
E6131BK/2,1,5055939933634       ,88
E6131BK/3,1,5055939933641       ,88
E6131BK/4,1,5055939933658       ,88
E6131BK/5,1,5055939933665       ,88
E8067BK/3,1,5055939916446       ,88
E8067BK/4,1,5055939916453       ,88
E8067BK/5,1,5055939916460       ,88
E8067BK/6,1,5055939916477       ,88
E8067BK/7,1,5055939916484       ,88
E9099BK/3,1,5055939942841       ,88
E9099BK/4,1,5055939942858       ,88
E9099BK/5,1,5055939942865       ,88
E9117BK/3,1,5055939942162       ,88
E9117BK/4,1,5055939942179       ,88
E9117BK/5,1,5055939942186       ,88
E9117BK/6,1,5055939942193       ,88
E9117BK/7,1,5055939942209       ,88
E1121BK/0,1,5055205393278       ,114
E1506GF/M-L,1,5055939948966       ,132
E1506GF/S-M,1,5055939948959       ,132
E1158BK/S-M,1,5055939928449       ,158
E1181BK/3,1,5055939942513       ,163
E3133GY/3,1,5055939924274       ,163
E3133GY/5,1,5055939924298       ,163
E3173BK/4,1,5055939949604       ,163
E3173BK/7,1,5055939949635       ,163
E3173GF/4,1,5055939949659       ,163
E3173GF/7,1,5055939949680       ,163
E5066BK/4,1,5055939949253       ,163
E5073BA/4,2,5055939949109       ,163
E5073GF/4,2,5055939949154       ,163
E8070GF/4,1,5055939948454       ,163
E8074BK/4,2,5055939924724       ,163
E9141BK/2,1,5055939951508       ,163
E9141BK/5,1,5055939951539       ,163
EM0054KH/4,1,5055939935737       ,163
EM0054KH/7,1,5055939935768       ,163
E8092GF/4,1,5055939948409       ,172
E5057BK/3,1,5055939942117       ,186
E1042BK/S-M,1,5055939923864       ,207
E1511WH/M-L,1,5055939930190       ,207
E3133GF/4,1,5055939957135       ,207
E3133GY/3,1,5055939924274       ,207
E3133GY/4,3,5055939924281       ,207
E3133GY/5,1,5055939924298       ,207
E3168BK/4,1,5055939954172       ,207
E3168BK/5,1,5055939954189       ,207
E3176NA/3,1,5055939957005       ,207
E3176NA/4,1,5055939957012       ,207
E3176NA/5,1,5055939957029       ,207
E5066BK/4,1,5055939949253       ,207
E5073BA/4,1,5055939949109       ,207
E5073GF/4,1,5055939949154       ,207
E8070GF/4,1,5055939948454       ,207
E9100MY/3,1,5055939943039       ,207
E9128GY/4,1,5055939943565       ,207
EM0054KH/4,1,5055939935737       ,207
E1204BK/4,1,5055939950570       ,211
