SKU,Maximum allowed,Barcode/EAN,Days left
E4027BK/4,3,5055205398266       ,23
E0110BK,6,5055205367224       ,43
E0110UM,2,5055205367248       ,43
E0128BK/5,3,5055939904948       ,43
E0128BK/6,3,5055939904955       ,43
E0128BK/7,2,5055939904962       ,43
E0153BK/L-XL,4,5055939965970       ,43
E0154BK/L-XL,8,5055939965987       ,43
E1038BK/L-XL,4,5055939906706       ,43
E1145BK/5,3,5055939908205       ,43
E1145BK/6,3,5055939908212       ,43
E1183BK/5,2,5055939944241       ,43
E1183BK/7,2,5055939944265       ,43
E1186BK/3,1,5055939944623       ,43
E1186BK/4,2,5055939944630       ,43
E1186BK/5,2,5055939944647       ,43
E1186BK/6,2,5055939944654       ,43
E1186BK/7,1,5055939944661       ,43
E1186GV/5,1,5055939944692       ,43
E1186GV/6,1,5055939944708       ,43
E1187BK/6,2,5055939944791       ,43
E1224BK/2,1,5055939958798       ,43
E1224BK/6,1,5055939966298       ,43
E1226BK/0,10,5055939959399       ,43
E1227BK/L-XL,6,5055939966311       ,43
E6147BK/3,1,5055939944739       ,43
E6147BK/5,1,5055939944753       ,43
E1119BK/3,2,5055205390536       ,46
E1119BK/5,2,5055205390550       ,46
E1119BK/6,2,5055205390567       ,46
E1119BK/7,1,5055205390574       ,46
E1226GK/0,3,5055939960593       ,46
E6106CO/3,1,5055939951140       ,46
E8088BK/4,3,5055939943169       ,46
E8088BK/5,3,5055939943176       ,46
E1119BK/4,2,5055205390543       ,53
E8088BK/6,2,5055939943183       ,68
E8088BK/3,1,5055939943152       ,75
E1119BK/4,1,5055205390543       ,79
E1119BK/7,1,5055205390574       ,79
E1224BK/4,2,5055939966274       ,79
E1227BK/S-M,2,5055939959405       ,79
E8088BK/5,2,5055939943176       ,79
E8088BK/6,3,5055939943183       ,79
E9098BK/5,1,5055939942896       ,79
E9147GF/3,1,5055939959412       ,79
E9147GF/4,2,5055939959429       ,79
E9147GF/5,1,5055939959436       ,79
E9147GF/6,3,5055939959443       ,79
E9147GF/7,1,5055939959450       ,85
E0153BK/L-XL,3,5055939965970       ,100
E1227BK/L-XL,2,5055939966311       ,100
E6147BK/3,1,5055939944739       ,100
E1186BK/5,2,5055939944647       ,122
E1186BK/6,2,5055939944654       ,122
E8088BK/3,2,5055939943152       ,127
E1119BK/4,1,5055205390543       ,143
E1119BK/5,1,5055205390550       ,143
E1119BK/6,1,5055205390567       ,143
E1227BK/S-M,3,5055939959405       ,143
E1227GK/S-M,1,5055939960616       ,143
E1227RR/S-M,1,5055939960609       ,143
E8088BK/5,2,5055939943176       ,143
E8088BK/6,1,5055939943183       ,143
E9147GF/4,1,5055939959429       ,143
E9147GF/5,1,5055939959436       ,143
E0132BK/5,1,5055939915029       ,176
E8088BK/4,2,5055939943169       ,176
