E0038BK/5,2
ET8139CB/5,1
E6110CR/3,1
E6114CO/4,1
E9098CT/7,1
E6120PU/3,1
E6127BK/2,1
E1166WH/4,1
E1160RD/5,1
E6140BK/3,1
E8064GY/2,1
E7117RD/5,1
E3123NA/4,1
E8070BK/4,1
E8065CM/5,1
E0038BK/7,1
E0063/3,1
EU8045BK/6,1
E1504YV/M-L,1
E9026LG/5,1
E5023BK/3,1
E3072BK/5,1
E6067PV/5,1
E3084UM/3,1
E7105BK/5,1
E7107PU/5,1
E1019RD/6,1
E1019WH/6,1
E1505WH/S-M,1
E4027BK/6,1
