E6048/4,21
E0060/4,12
E3066R/4,6
E1123BK/6,6
E9058PK/4,5
E4013BK/4,5
E8064BK/4,4
E9058PK/5,4
E6048/2,4
EU3058ST/4,4
E9058PU/4,4
E6047BK/2,3
E0060/5,3
E0035/3,2
E0062/5,2
E6051BK/5,2
E6074CR/3,2
E6074CR/5,2
E1128BK/L-XL,2
E1505OR/M-L,2
E1128WH/L-XL,1
E1019BK/6,1
E9058PU/3,1
E3084RD/5,1
E3084UM/4,1
E1023BK/6,1
E0063/3,1
E0062/4,1
E8064BC/6,1
E1506NA/L-XL,1
E1157BK/S-M,1
E1167WH/4,1
E4041BK/4,1
ET7100MV/4,1
E6028/2,1
