E8064BK/4,20
E4013BK/4,9
E1023BK/3,8
E1023BK/4,8
E1023BK/5,8
E8064BK/5,8
E0062/4,8
E0062/6,5
E0060/5,5
E0061/3,4
E1024BK/5,4
E0066MB,4
E0040BL,4
E8006/3,4
E0035/5,3
E8064BK/6,3
E7118BK/3,3
E1146BK/S-M,3
E1023BK/6,3
E1024BK/2,3
E1024BK/3,2
E1024BK/4,2
E6060BK/3,2
E3084UM/6,2
E6069BK/4,2
E4013BK/3,2
E0060/6,2
E4013BK/6,2
E1128WH/S-M,2
E1024BK/6,2
E1019RD/4,2
E7118BK/5,2
E8064BK/7,2
E8064GY/8,2
E6106BK/5,2
E0063/4,2
E3125BK/7,2
E3013/5,2
E1157BK/S-M,2
E1165OC/6,1
E3142GV/4,1
E9107BK/7,1
E8076BK/4,1
E3013/6,1
E0045,1
E8066BK/5,1
E0035/3,1
E9098NA/5,1
E6120PU/3,1
E1158BK/S-M,1
E8064BC/4,1
E8064BC/5,1
E8064BC/6,1
E8064BK/9,1
E8067BK/5,1
E4031BK/4,1
E7124TL/3,1
E7112BK/K9,1
E9077GV/3,1
E9077GV/4,1
E1131BK/S-M,1
E1131BK/L-XL,1
E5028BK/4,1
E4014RD/7,1
E4013BK/5,1
E3081WH/5,1
