E8064BK/6,1
E1160BK/5,1
E8064BK/7,1
E8064BK/3,1
E1599BK,1
E6106BK/4,1
E1504GV/L-XL,1
E3138PT/3,1
E3142RD/7,1
E9107WH/4,1
E1506WH/M-L,1
E9098CM/6,1
E9098NA/5,1
E1158BK/S-M,1
E8065BK/4,1
E7122TL/K7,1
E4032BK/6,1
E7118BK/7,1
E0003/M-L,1
E8067BK/4,1
E9063BK/4,1
E6066BK/6,1
E2010BK/6,1
E1189GY/0,1
