E0062/4,6
E0045,5
E7118BK/5,3
E8064BK/9,3
E1023BK/5,3
E8004/1,2
E4031BK/3,1
E0040SM,1
E8070BK/4,1
E8066KH/5,1
E8065CM/4,1
E8064BK/3,1
E6110BK/5,1
E6106BK/5,1
E0132BK/5,1
E9098NA/5,1
E1513GV/L-XL,1
E1168NA/5,1
E8081KH/4,1
E1157BK/L-XL,1
E1166RD/6,1
E6124BK/2,1
E1167BK/6,1
E6132BK/5,1
E9077GV/4,1
E1128WH/S-M,1
E3109RD/2,1
E0061/4,1
E4014RD/5,1
EU8045BK/4,1
E1301BK/4,1
E3084RD/5,1
E3084UM/4,1
E3084YL/5,1
