E0040BL,9
E0062/6,4
E8064BK/4,3
E1024BK/5,3
E8064GY/4,3
E7120BK/4,2
E3061W/7,2
E8064BK/5,2
E1023BK/5,2
E0045,2
E1024BK/4,1
E8064BK/8,1
E0062/4,1
E0046BK,1
E4013BK/3,1
E4013BK/5,1
E4014BK/5,1
E4014RD/6,1
E4014RD/7,1
E1301BK/5,1
E1301BK/7,1
E9073YV/6,1
E1023BK/3,1
E1023BK/4,1
E4028BK/7,1
E4027BK/5,1
E1505MB/M-L,1
E7120BK/7,1
E3125RD/6,1
E8066CM/7,1
E8066KH/5,1
E7117RD/3,1
E4031BK/3,1
E4031BK/6,1
E4030BK/4,1
E7118BK/7,1
E1506BK/M-L,1
E0132BK/5,1
E0132NA/5,1
E3133GY/7,1
E9098NA/5,1
E3144KH/4,1
E1166BK/4,1
E1160KH/7,1
E8089BK/5,1
