E8076BK/4,17
E0035/5,15
E8064BK/4,12
E4013BK/4,9
E8064BC/6,8
E6048/6,8
E9071BK/4,8
E1023BK/3,8
E1023BK/4,8
E7120BK/5,8
E4031BK/4,8
E4031BK/5,6
E1023BK/5,6
E6048/5,6
E8006/3,6
E0042/5,6
E4013BK/5,6
E0062/4,6
E0035/3,5
E8070BK/4,5
E3144KH/4,5
E1157BK/S-M,5
E7120BK/4,4
E8064CM/4,4
E0003/M-L,4
E4031BK/6,4
E4031BK/3,4
E9098NA/5,4
E4013BK/6,4
E4014RD/6,4
E8041/4,4
E1301BK/4,4
E1024BK/4,4
E9084NA/5,4
E4014RD/7,3
E0060/6,3
E6126CE/4,3
E4032BK/6,3
E7118BK/5,3
E8064BK/8,3
E4043BK/3,2
E4043BK/4,2
E1165BK/5,2
E1160BK/7,2
E1167BK/4,2
E3138GY/4,2
E4030BK/5,2
E0003/S-M,2
EM0054NA/3,2
E7120BK/6,2
E8064BK/3,2
E8064BK/7,2
E0075BK/5,2
E5021BK/5,2
E1019BK/6,2
E1023BK/7,2
E4029BK/6,1
E4027BK/5,1
E1023BK/6,1
E9058PU/4,1
E3084RD/6,1
E0132BK/5,1
E0132BK/6,1
E8004/1,1
E6048/3,1
E0062/3,1
E4013BK/7,1
E7118BK/7,1
E4030BK/4,1
E3142RD/6,1
E1165RD/4,1
E1166BK/4,1
E6124BK/4,1
E8078BK/4,1
E8064BK/9,1
