E0076BK/4,2
E8064BC/3,1
E3140BK/6,1
E3069BK/5,1
E0127BK/5,1
E1145GV/5,1
E1120WH/6,1
E1503RD/S-M,1
E0076BK/2,1
EU8045BK/3,1
E0104BK/L-XL,1
E8049BK/4,1
E9063BK/4,1
E1301BK/3,1
E8064GY/9,1
E4043BK/5,1
E3134RD/6,1
E9098CM/4,1
E9098CM/5,1
E8074BK/4,1
E8074BK/5,1
E1165BK/4,1
E7121RD/K11,1
E1167BK/7,1
E1167WH/6,1
E1511BK/M-L,1
E4041BK/4,1
