E8064BK/5,12
E8074BK/4,4
E4013BK/4,4
E1125BK/4,4
E0075BK/4,3
E0075BK/5,3
E1166BK/4,3
E9106WH/4,2
E1160BK/4,2
E1511BK/M-L,2
E9098CM/4,2
E1161RD/5,2
E8064GY/3,2
E8066BK/4,2
E8064BK/2,2
E3025/4,2
E3025/5,2
E1024BK/4,2
E1301BK/3,2
E1023BK/4,1
E4013BK/7,1
E7014BK/7,1
E1019BK/6,1
E9086BK/7,1
E3114BK/7,1
E0007,1
E0042/4,1
E0035/5,1
E0076BK/4,1
E0076BK/5,1
E8069BK/3,1
E7125BK/5,1
E9106GV/5,1
E9106GV/6,1
E1511PT/S-M,1
E3155GY/4,1
E3123BK/4,1
E3136BK/5,1
