E7118BK/5,4
E3136BK/5,4
E0042/6,4
E3091BK/6,4
E3091BK/7,4
E3091BK/4,4
E1131BK/S-M,3
E0091BK,3
E1160BK/4,3
E3123BK/4,3
E3123BK/5,3
E3123BK/7,2
E3125KH/8,2
E8064GY/5,2
E3123NA/4,2
E3123NA/5,2
E0040YL,2
E0042/5,2
E8076BK/4,2
E3136PT/3,2
E3136PT/5,2
E3136PT/6,2
E3136PT/7,2
E3119BK/3,2
E3119NA/3,2
E3119NA/4,2
E3119NA/5,2
E3119NA/6,2
E0076BK/3,2
E3108OC/4,2
E3108OC/5,2
E3108OC/6,2
E3108OC/7,2
E3091BK/5,2
E0128BK/4,2
E1145GV/5,2
E7124TL/4,1
E0128YV/4,1
E3108RD/3,1
E3109BK/4,1
E6040BK/4,1
EM0053OM/4,1
E0076BK/7,1
E0062/7,1
E0060/4,1
E9066CE/4,1
E1301BK/4,1
E6067PV/4,1
E0110BK,1
E0110PK,1
E7112BK/K7,1
E1165BK/4,1
E8076BK/5,1
E3154GY/5,1
E3025/3,1
E1160RD/3,1
E7128GY/0,1
E3123NA/6,1
E3123NA/7,1
E3123KH/7,1
E3123OM/4,1
E3123OM/5,1
E3123OM/6,1
E3123OM/7,1
E0132BK/5,1
E9098CM/4,1
E0150BK/0,1
E3123NA/3,1
