E3025/5,4
E8074BK/4,2
EU3063BK/6,1
EU3063BK/4,4
E0076BK/2,1
E9103BK/3,2
E9106GV/6,2
E8076BK/6,2
E3091BK/5,1
E6067PV/3,2
E3108OC/6,1
E3142GV/7,1
E1165RD/6,1
E9120KH/4,1
E8083BK/3,1
E9126BV/2,1
E1189GY/0,1
E3063W/4,1
E3061W/3,1
E3061W/5,1
E0040SM,1
E8066BK/6,1
E8064CM/6,1
E8064GY/2,1
E6104BK/3,1
E9098CT/6,1
E8073BK/3,1
E9106GV/4,1
E4030BK/6,1
E7124BK/3,1
E3132BK/3,1
E1158BK/L-XL,1
E1168BK/6,1
E1168NA/4,1
E3119NA/6,1
E0128YV/7,1
E6067BK/4,1
EU8045BK/3,1
E1103BK,1
E1119BK/4,1
E1125BK/6,1
E1125CM/5,1
E9081GV/5,1
E9077PV/6,1
