E1145GV/6,3
E0128YV/4,2
E9105BK/5,2
E0128BK/3,3
E1158BK/S-M,3
E0128YV/3,1
E6091BK/4,1
E1120WH/5,1
E3113BK/7,1
E9081GV/5,2
ET7104MV/0,2
E5049BK/6,1
E1161BK/4,1
E3139RD/7,1
E6131BK/3,1
E6131BK/4,1
E1160KH/5,1
E1160RD/3,1
E8077BK/3,1
E8078BK/3,1
E8078OM/3,1
E8081KH/3,1
E8064CM/5,1
E3135NA/6,1
E3134BK/4,1
E9098CT/6,1
E8088BK/4,1
E3153NA/4,1
E3155GY/5,1
E3142GV/4,1
E3136BK/6,1
E5054BK/3,1
E0095/6,1
E3072BK/6,1
E1301BK/7,1
E0128YV/7,1
E9081GV/6,1
E9077GV/5,1
E1120BK/3,1
E7105BK/7,1
EM0053NA/7,1
E3108GV/4,1
