E0095/3,1
E9086BK/3,2
E9086BK/7,2
E3099NA/5,2
E1160KH/3,1
E1166GV/5,1
E1160BK/3,1
E1190KH/0,1
E1157BK/L-XL,1
E0150NA/0,1
E1161BK/5,1
E4035BK/6,1
E6110BK/5,1
E0089W/5,1
E3015/7,1
E0038Y/4,1
E6032BU/3,1
E6020P/3,1
E6020P/5,1
E0110UM,1
E3078BK/5,1
E9058PK/4,1
E3084UM/5,1
E6070TL/5,1
E9062BK/6,1
E2010BK/4,1
E9066CE/4,1
E9063YV/6,1
E6067BK/4,1
E6067PV/5,1
E3108GV/4,1
E3113BK/6,1
E3115BK/3,1
E9092RA/4,1
E9078BK/4,1
E9076YV/5,1
