E0041,6
E9086BK/3,5
E1145BK/5,5
E3015/5,4
E7124BK/3,1
E0039/5,3
E6067BK/4,3
E6065BK/4,3
E0069BK/6,2
E6020P/3,2
E0038BK/5,2
E5019P/7,2
E6047BK/5,2
E3085RD/6,2
EM0049BK/L-XL,2
E6065BK/3,2
E8069BK/3,2
E7121BK/K11,2
ET7104MV/0,2
E3158BK/6,1
E3158BK/7,1
E1181BK/5,2
E8064BK/8,1
E3134RD/5,2
E0003/L-XL,1
E3125KH/5,2
E9076YV/5,2
E0116PK,1
E9063YV/6,2
E1145GV/3,2
E3115BK/3,2
E9092RA/4,1
E0127BK/2,1
E3099NA/5,1
E1031BK/S-M,1
E1031BK/M-L,1
E3106RD/7,1
E1145GV/4,1
E1145BK/6,1
E1019WH/5,1
E1021BK/6,1
E3104RD/4,1
E3104RD/5,1
E4029RD/5,1
E3089RD/4,1
E1125BU/6,1
E9077PV/3,1
E6086BK/4,1
E3091BK/7,1
E1119BK/7,1
E1118BK/6,1
E1118BK/7,1
E9098NA/6,1
E1152BK/5,1
E0136RD/S-M,1
E3143AN/4,1
E6120PU/3,1
E6127WH/4,1
E1161BK/5,1
E3119BV/3,1
E8078BK/3,1
E8078BK/4,1
E9106WH/6,1
E1166BK/6,1
E6125CO/5,1
E4041BK/5,1
E6126CO/6,1
E6130GY/4,1
E5050BK/3,1
E9098CM/4,1
E9098CT/7,1
E9118PW/3,1
E3152AN/4,1
E3152AN/6,1
E3151NA/5,1
E1190KH/0,1
E3155GY/4,1
E1187BK/3,1
E0042/3,1
E0038OC/5,1
E0038OC/7,1
E8011/5,1
E3072BK/6,1
E5022BK/6,1
E5021BK/3,1
E0095/7,1
E0001BK/S-M,1
E6043BK/3,1
E9066UM/3,1
E9066UM/6,1
E5023BK/4,1
E3084UM/4,1
E3084UM/5,1
E9071YV/4,1
E9071RD/5,1
E1110BK,1
E0110UM,1
E3078BK/4,1
E3078BK/5,1
EQ3050LG/7,1
E9075PK/4,1
E6078BK/4,1
E1024BK/4,1
E6065UM/4,1
E6065UM/5,1
EU3049ST/3,1
EU3049ST/6,1
EU3058ST/7,1
EM0046/7,1
E3067BK/6,1
E3067R/3,1
E9067BK/7,1
E5024BK/5,1
E5024BK/6,1
E0073,1
E7012W/4,1
E3032R/4,1
E3032R/7,1
E6032BU/3,1
E5019P/5,1
E6020P/5,1
E6050PU/5,1
E8033ST/3,1
E0078PK,1
E9057UM/5,1
E0069BK/3,1
E0069BK/4,1
E0069BK/5,1
