E5019P/5,2
EM0044BK/7,2
E0091BK,1
E0116PK,1
E0128YV/7,1
E1145BK/5,1
E1131BK/L-XL,1
E3096BK/4,1
E1042BK/S-M,1
E1157BK/L-XL,1
E7121TL/K7,1
E5049BK/4,1
E9098CM/4,1
E3123OM/6,1
E4035BK/6,1
E4035BK/7,1
E1158BK/L-XL,1
E3015/5,1
E0041,1
E0040CL,1
E8085AN/4,1
E9095BK/5,1
E1181BK/4,1
E9081GV/5,1
E9076YV/5,1
E9076YV/6,1
E3104RD/4,1
E1110BK,1
E6074CR/4,1
E9063UM/4,1
E4013BK/3,1
E3067BK/6,1
E9067YV/5,1
E5019P/3,1
E3053G/5,1
E0078PK,1
