E8075BK/4,2
E1120WH/4,1
E3123BK/6,1
E3029UM/6,2
EM0049BK/S-M,1
EM0049BK/L-XL,1
E9085NA/6,1
E6065BK/4,1
E6065BK/5,1
E0107BK/6,1
E1021BK/6,1
E5026BK/4,1
E9076GV/4,1
E1125YL/5,1
E0038BK/5,1
E0077,1
E0043RP,1
E0001BK/S-M,1
E9102GV/4,1
E9106BK/3,1
E6147CE/3,1
E3138GY/4,1
E9086BK/3,1
E3115BK/3,1
