E3029/5,5
E3084YL/4,6
E1187BK/5,1
E8075BK/4,1
E8064BK/9,1
E1186BK/6,1
E4013BK/6,3
EU3063BK/6,3
E1005BK/L-XL,2
E6065BK/4,2
E1021BK/6,2
E6109BK/4,2
E8074BK/7,2
E8083BK/7,1
E3152AN/5,1
E9117BK/7,1
E3069BV/7,1
E6146BK/4,1
E8082BK/3,1
E3153MY/6,1
E3154BU/5,1
E7129GY/K13,1
E8077BK/3,1
E8078BK/7,1
E1166GV/6,1
E1511PT/M-L,1
E6132BK/4,1
E8080BK/3,1
E3119NA/5,1
E7125BK/6,1
E1168BK/3,1
E3125BK/8,1
E8066BK/6,1
E8066KH/3,1
E8064BC/4,1
E8064BC/5,1
ET8139CB/4,1
E6106BK/2,1
E9099CO/3,1
E1158BK/L-XL,1
E9098CT/4,1
E9098CT/5,1
E9098NA/6,1
E6114CO/3,1
E1506NA/M-L,1
E0132NA/4,1
E3013/4,1
E0005/L-XL,1
E0062/6,1
E8023/5,1
E0038R/5,1
E6047BK/5,1
E3064BK/3,1
E6050PU/5,1
E0078PK,1
E3054PU/4,1
E0001BK/L-XL,1
E9062PV/3,1
E5023BK/4,1
E3063W/4,1
E3063W/5,1
E3085RD/8,1
E6078BK/4,1
E9085NA/6,1
E9085NA/7,1
E9076GV/6,1
E9076GV/7,1
E1119BK/7,1
E9058BK/6,1
E9070BK/5,1
E3084UM/6,1
E1021BK/4,1
E1125PT/3,1
E8048BK/6,1
E0107BK/4,1
E6067BK/5,1
E9071YV/5,1
E1024BK/4,1
E6070PK/5,1
E1020BK,1
E3096BK/7,1
E3099NA/5,1
E3105OC/5,1
E1505MB/S-M,1
E1505OR/M-L,1
E3069BK/6,1
E3069OV/6,1
E3108RD/5,1
E3113BK/5,1
