E1160BK/5,4
E8076BK/3,4
E3119NA/7,2
E7117BK/4,2
E0006/5,2
E6146BK/4,2
E0110BK,2
E1131BK/S-M,2
EU3063BK/3,1
E3106RD/4,1
E3113BK/5,1
E3113BK/6,1
E6040YV/5,1
E0128BK/4,1
E3084YL/4,1
E1023BK/5,1
E1021BK/4,1
E9085NA/7,1
E6147CE/3,1
E9129BP/3,1
E3025/6,1
E0005/L-XL,1
E0045,1
E8011/4,1
E0038OC/4,1
E6020P/5,1
E0060/3,1
E0083BK/5,1
E0095GV/4,1
EP0056PK/4,1
E2010BK/3,1
EP0063BK/3,1
E3075WH/6,1
E0004/L-XL,1
E3123OM/5,1
E8064BK/3,1
E8064BK/6,1
E8064BK/8,1
E8064KH/5,1
E3134BK/3,1
E9098CT/4,1
E1168BK/6,1
E3119NA/5,1
E8074BK/3,1
E8074BK/5,1
E1157BK/S-M,1
E8076BK/5,1
E9095BK/3,1
E1160KH/6,1
