E1120BK/5,12
E8076BK/4,11
E8073BK/5,10
E0006/5,10
E0045,9
E1120BK/6,8
E1145BK/6,7
E8073BK/3,7
E1181BK/6,6
E0006/3,5
E8064BK/6,4
E0007,4
E8073BK/4,4
E8073BK/6,4
E1599BK,4
E0060/3,4
EP0063BK/4,3
E6020P/3,3
E0062/5,3
E1023BK/4,3
E0127BK/4,3
E9117BK/5,3
E8064GY/4,3
E8066KH/5,3
E0003/L-XL,2
E8070BK/5,2
E4031BK/5,2
E5049BK/5,2
E3029/4,2
E1154BK/L-XL,2
E1157BK/S-M,2
E9105BK/5,2
E1160BK/6,2
E1038BK/S-M,2
E0040BL,2
E0073,2
E6067PV/2,1
E0053,1
E5019P/6,1
E1120WH/5,1
E1131BK/S-M,1
E1131BK/L-XL,1
E3069BK/7,1
E3108BK/7,1
E3115BK/5,1
E9072UM/4,1
E1111BK/L-XL,1
E1172BK/S-M,1
E1511PT/M-L,1
E8075BK/5,1
E3158OM/5,1
E5049BK/6,1
E9098NA/6,1
E1152BK/4,1
E8064GY/9,1
E1040BK/0,1
E0132BK/6,1
E7118BK/5,1
E3123KH/4,1
