EU8045BK/3,2
EU8045BK/5,2
E3072BK/6,2
E9098NA/6,1
E3133GY/3,2
E3133GY/4,2
E8064BK/9,2
E8070NA/6,1
EM0054NA/6,1
E8066CM/5,1
E3123OM/4,1
E3123OM/5,1
E4031BK/3,1
E3132NA/3,1
E6114CO/2,1
EM0055NA/5,1
E3133GY/5,1
E8081KH/4,1
E1181BK/3,1
E8083BK/5,1
E3152AN/5,1
E3151GY/3,1
E1192BK/0,1
E1192OR/0,1
E9117OM/3,1
E9117OM/5,1
E6146BK/4,1
E6020/3,1
E1109BK/M-L,1
E9069YV/6,1
E0110PK,1
EQ0011BK/3,1
E5023BK/7,1
E3072BK/5,1
E8062BK/3,1
E1125BK/4,1
E1125PT/4,1
E3069BK/3,1
E3069OV/4,1
E0005/L-XL,1
E8075BK/4,1
EU8045BK/6,1
EU8045BK/7,1
E9062PV/4,1
E0083BK/5,1
E0128YV/6,1
E9081GV/5,1
E0120YV/M-L,1
E1118BK/6,1
E1118BK/7,1
