E8076BK/5,19
E0060/5,14
E1120BK/5,12
E8073BK/3,10
E8064BK/4,8
E0062/5,8
E4013BK/4,6
E8064GY/5,6
E8064BK/6,5
E8075BK/4,5
E4013BK/5,5
E0040BL,5
E0035/5,5
E1023BK/4,5
E0060/4,4
E7118BK/4,4
E8066BK/6,4
E0004/L-XL,3
E8066KH/4,3
E8066KH/5,3
E3158OM/5,3
E1599BK,3
E0060/6,3
E7112BK/K11,2
E1118BK/5,2
E8066BK/5,2
E0062/6,2
E4013BK/6,2
E1186GV/6,2
E0005/L-XL,2
E0040ST,2
E9098CM/5,2
E0151KH/0,1
E0151MY/0,1
E1511BK/M-L,1
E1168BK/4,1
E1168NA/3,1
E3153BK/6,1
E3152AN/4,1
E5056BK/8,1
E8088BK/4,1
E1186BK/5,1
E1186BK/7,1
E7118BK/5,1
E8064GY/9,1
E8069BK/4,1
E3134BK/7,1
E3123OM/5,1
E8070BK/5,1
E7120BK/7,1
E8066BK/7,1
E8066CM/6,1
E8066KH/3,1
E5022BK/7,1
E9071YV/7,1
E0062/7,1
E0066KG,1
E0066OR,1
E9037/4,1
E1250CL,1
E1252CL,1
E6155BK/3,1
E3069BK/5,1
E3108BK/6,1
E3108GV/7,1
