E8075BK/5,2
E1160BK/4,2
EU8045BK/5,2
E0096BK/5,1
E1017RD/5,1
E1024BK/2,1
E1599BK,1
E1125PT/5,1
E0128BK/5,1
E8076BK/5,1
E8083BK/5,1
E0005/L-XL,1
E0038OC/6,1
E8092GF/5,1
E6149BK/5,1
E0062/8,1
E0062/5,1
E0062/6,1
E0062/7,1
E0060/5,1
E0076BK/5,1
E7122TL/K7,1
E4030BK/2,1
E3123KH/4,1
E8066BK/5,1
E8066KH/3,1
E8064BK/4,1
E8064BK/6,1
E8064KH/7,1
E6107BK/4,1
E0132MB/7,1
E3134RD/3,1
E9098CM/5,1
E9098NA/3,1
E8073BK/3,1
E9099CO/5,1
E1168BK/5,1
E8078BK/4,1
