E4031BK/4,8
E8064BK/5,8
E0060/5,8
E7118BK/4,7
E7120BK/4,5
E8066BK/5,5
E8075BK/4,5
E8066KH/5,4
E1111BK/L-XL,3
E0060/7,3
E1158BK/L-XL,3
E8066BK/6,3
E6107BK/4,3
E4034BK/5,3
E0003/M-L,2
E6107BK/5,2
E8066KH/3,2
E8064GY/7,2
E1168BK/5,2
E1166BK/5,2
E1160RD/5,2
E1186BK/4,2
E1160BK/4,2
E1131BK/L-XL,2
E4027BK/5,1
E1128BK/S-M,1
E1160KH/5,1
E1019WH/6,1
E4013BK/7,1
E5023BK/7,1
E1023BK/3,1
E6147CE/4,1
E1250CL,1
E0063/5,1
E1166GV/4,1
E8064KH/6,1
E1506BK/M-L,1
E0132MB/6,1
E9098NA/3,1
E8070BK/6,1
E7120BK/5,1
E7118BK/6,1
E0006/3,1
