E0060/4,7
E8091GF/3,2
E8096AN/5,2
E1160RD/4,2
E0038OC/4,2
E0038Y/4,2
E1111BK/L-XL,2
E1599BK,2
E1125MY/5,2
E6091BK/4,2
E6091BK/5,1
E1038BK/L-XL,1
E1138RD/0,1
E1250CL,1
E4054RD/3,1
E5069GK/2,1
E5069GK/3,1
E5069GK/4,1
E5069GK/6,1
E5069GK/7,1
E6153BK/4,1
E6153BK/5,1
E6153BK/6,1
E6154RD/5,1
E6154RD/6,1
E6154WH/2,1
E6154WH/3,1
E6154WH/5,1
E6154WH/6,1
E8091BK/7,1
E0038OC/6,1
E1186BK/7,1
E0005/S-M,1
E4030BK/2,1
E3123BK/5,1
E0003/M-L,1
E3125BK/7,1
E8081BK/3,1
E1160BK/4,1
E1160KH/5,1
E8096AN/6,1
E3165GF/4,1
E6150GK/5,1
E6150RR/2,1
E6150RR/5,1
E4014BK/7,1
E9066UM/4,1
E3061W/6,1
E1301BK/5,1
