E0038OC/6,6
E6091BK/3,6
E4014BK/7,4
E1019BK/6,4
E0038Y/4,3
E0038OC/4,3
E1165RD/5,3
E6091BK/6,3
E1129BK/0,3
E6107BK/6,2
E3123KH/4,2
E1511PT/L-XL,2
E1511KH/M-L,2
E1160KH/4,2
E0005/L-XL,2
E0042/5,2
E0038OC/5,2
E0038OC/7,2
E4055BK/3,2
E8094AN/3,2
E3159RR/5,2
E3171BK/4,2
E0075BK/3,2
E0103BK/S-M,2
E9066UM/6,1
E1112BK/S-M,1
E3104RD/5,1
E0095/6,1
E4054RD/4,1
E3172NA/3,1
E0066MB,1
E0062/6,1
E1511PT/M-L,1
E9095BK/7,1
E9095YV/3,1
E8066BK/3,1
E8064GY/3,1
E7117WH/4,1
E7118BK/6,1
E3140RD/6,1
E1165BK/4,1
E1166NA/5,1
E6091BK/7,1
