E6091BK/3,8
E0062/5,4
ET6096MV/0,3
E8066BK/4,3
E1160BK/5,3
E1511PT/M-L,3
E0040SM,3
E4055BK/4,2
E1511KH/M-L,2
E1165RD/5,2
E1125RD/5,2
E0060/7,2
E4014BK/7,2
E0087GV/5,2
E3084BK/4,1
E1019BK/7,1
E1019WH/6,1
E3104RD/7,1
E4014BK/8,1
E8046BK/3,1
E0095/5,1
E0087UM/5,1
E3123KH/4,1
E3125BK/7,1
E1511KH/L-XL,1
E3157BK/5,1
E9134BK/6,1
E9120BK/5,1
E5039BK/2,1
E6131BK/4,1
E1165BK/5,1
E1165GV/5,1
E1165GV/6,1
E1165OC/4,1
E6153BK/5,1
E8091BK/3,1
E3172NA/5,1
E3176NA/6,1
E0062/2,1
E1250CL,1
E1251CL,1
E1196BK/M-L,1
E1204GC/5,1
E3168BK/3,1
E4054RD/5,1
