E0035/5,2
E3125KH/5,3
E1166BK/5,1
E1196BK/M-L,1
E1518BK/M-L,1
E4035BK/6,1
E0078CL,1
E3104RD/5,1
E8062BK/5,1
E6091BK/2,1
E1166GV/5,1
E1166RD/7,1
E1167BK/5,1
E1167WH/5,1
E4041BK/6,1
E3156BU/4,1
E0007,1
E3125NA/4,1
E0132BK/5,1
E1168NA/5,1
E1166BK/4,1
E0062/2,1
