E7118BK/4,1
E0076BK/5,2
E8046BK/3,1
EU3058ST/3,1
E1110BK,1
E0076BK/6,1
E0006/3,1
E0114GV/L-XL,1
E1166GV/6,1
E0042/6,1
E0114GV/S-M,1
E0113PV,1
E0038OC/3,1
EU3058ST/4,1
E0062/7,1
E6114CR/4,1
E1165OC/5,1
