E0060/4,8
E0060/5,16
E8064BK/5,5
E0040ST,3
E8064BK/3,3
E1301BK/4,3
E1166RD/5,2
E1019WH/6,2
E0062/3,2
E0076BK/5,2
E0095/4,2
E1165BK/7,2
E8064BK/6,2
E0060/7,2
E1204GC/5,2
E1166GV/5,2
E1157BK/S-M,2
E8064GY/4,2
E1123BK/2,1
E1113BK/0,1
E3125NA/6,1
E1165BK/4,1
E0076BK/4,1
E6051BK/5,1
E3170BK/5,1
E1166GV/6,1
E1128WH/S-M,1
E4055BK/6,1
E1165OC/3,1
E6153BK/4,1
E0132MB/6,1
E1166BK/6,1
E6154WH/6,1
E3125BK/7,1
E4055BK/5,1
E9098BK/6,1
E6051BK/2,1
E0095GV/7,1
EM0048WH/4,1
E0150NA/0,1
E1135BK/0,1
E1170BK/0,1
E1165RD/7,1
E6127WH/4,1
