ET6074MV/5,2
E3061W/4,2
E0006/5,2
E6070WH/3,2
E1166RD/6,1
E4054RD/5,1
E3063W/4,1
E9130AN/4,1
E0095GV/4,1
E8062BK/6,1
E6126CE/6,1
E1182BK/L-XL,1
E5070WH/5,1
E3125NA/8,1
E0086W,1
E5039BK/4,1
E1511WH/M-L,1
E1125RD/6,1
E1125CM/5,1
E8088BK/5,1
E1204BK/5,1
E5066BK/3,1
E1166NA/4,1
E1166BK/3,1
E9066UM/4,1
E1005BK/L-XL,1
E8069BK/4,1
E8073BK/4,1
E6125BK/4,1
E1166NA/6,1
E1166BK/6,1
E8066KH/7,1
E1160RD/6,1
