E0076BK/5,3
E1165BK/5,3
E1166RD/5,2
E1166BK/5,2
E1250CL,2
E1167WH/4,1
E8046BK/4,1
E9095BK/5,1
E1005BK/L-XL,1
E8070BK/4,1
E6107BK/5,1
E1165RD/5,1
E6070WH/3,1
E0063/4,1
E1165BK/4,1
E6125WH/4,1
E3142NA/5,1
E0038OC/3,1
E3084RD/4,1
E3125NA/3,1
E7117RD/4,1
E1005BK/S-M,1
E9130AN/4,1
E6131BK/4,1
E0095/5,1
