E0042/5,6
E0076BK/5,4
E1301BK/4,3
E7118BK/4,3
E1165BK/5,3
E1166RD/5,2
E0062/5,2
E1165OC/4,2
E1166GV/5,2
E1165BK/6,4
E1157BK/S-M,2
E4054RD/6,1
E1165OC/6,1
E1165BK/7,1
E1165OC/7,1
E1168BK/4,1
E1165OC/5,1
E8091BK/7,1
E6125CO/4,1
E6153BK/5,1
E6125CO/5,1
E0062/4,1
E3125BK/5,1
E3125NA/6,1
