E1102,3
E1160BK/6,2
E1019WH/6,2
E1252CL,2
E0132MB/6,2
E4027BK/4,2
E1160KH/6,2
E0076BK/5,2
E0095/5,2
E1301BK/5,2
E1166BK/5,2
E3142NA/5,1
E0007,1
E8075BK/4,1
E9095YV/7,1
E1157BK/L-XL,1
E1109BK/L-XL,1
E0087BY/5,1
E6131BK/2,1
E7117RD/5,1
E9117BK/7,1
E1166GV/4,1
E5049BK/4,1
E1188BK/6,1
E8091BK/5,1
E3165GF/6,1
