E0035/5,15
E8073BK/4,4
E1160RD/5,2
E2009/3,2
E0095/5,2
E1160RD/4,2
E0095/4,2
E1184BK/5,1
E0132MB/6,1
E3123GF/5,1
E4034BK/4,1
E1165GV/5,1
E8083BK/4,1
E9098BK/7,1
E0128YV/5,1
E0132MB/7,1
E1186GV/7,1
E6126CE/5,1
E4028BK/4,1
E1165BK/7,1
E0001W/L-XL,1
E9134YV/4,1
E1157BK/L-XL,1
E5038BK/3,1
E0095/3,1
E8064BK/2,1
E7117WH/5,1
E0132BK/3,1
E0120YV/S-M,1
E7117RD/5,1
E0069BK/5,1
E1108BK/S-M,1
E8088BK/6,1
E0038Y/3,1
E0095GV/3,1
E1181BK/5,1
E3119NA/7,1
E1004BK/S-M,1
E1234GF/S-M,1
