E9066UM/6,2
E9098BK/7,2
E1181BK/4,1
E8077BK/4,1
E9066CE/4,2
E0076BK/7,2
E1173MY/0,1
E5057BK/5,1
E8064GY/7,1
E3104RD/4,1
E1117BK/7,1
E4041BK/6,1
EU3058ST/6,1
E8087BK/6,1
E1186GV/5,1
E1196BK/S-M,2
E0068BK/4,1
E6020P/5,1
E8074BK/3,1
E0099YV,1
E1188BK/4,1
E1186GV/3,1
E9066CE/3,1
E1183BK/5,1
E8069NA/5,1
E6131CO/4,1
E1183BK/6,1
E1186GV/7,1
E9117OM/4,3
E9072PV/3,1
E4034BK/4,1
E1186BK/2,1
E8088BK/6,1
E6094BK/5,1
E9117CC/5,1
E0128BK/7,1
E7140BA/K9,1
E0128BK/3,1
E0110PK,1
E1188BK/5,1
E3142RR/5,1
