E1250CL,7
E0128BK/5,5
E1005BK/S-M,4
E7112BK/K7,4
E5049BK/4,3
E5049BK/5,3
E1511KH/M-L,2
E1181BK/4,2
E9098BK/6,2
E6147CE/4,2
E3105OC/5,2
E3157BK/5,2
E8074BK/4,2
E8088BK/4,1
E7117RD/4,1
E9117BK/4,1
E7124TL/5,1
E9071YV/7,1
E0063/4,1
E5049BK/6,1
E1182BK/L-XL,1
E3061W/4,1
E9148BK/7,1
