E0035/3,8
E1145BK/5,5
E1186BK/5,3
E1181BK/5,2
E6040YV/4,2
E1227GK/S-M,2
E1120WH/7,2
E1120WH/5,2
E1227GK/L-XL,2
E1118BK/7,1
E4041BK/4,1
E8064GY/4,1
E9126BV/4,1
E9144BK/2,1
E1117BK/7,1
E6040BK/3,1
E9134BK/5,1
E6125WH/4,1
E1166NA/7,1
E1170CL/0,1
