E1184NA/6,2
E0151RR/0,1
E9146MY/2,1
E6065BK/2,1
E0132MB/3,1
E1506BK/L-XL,1
E6067PV/3,1
E8066BK/3,1
E6040BK/5,1
E7137BK/K9,1
E9075PK/3,1
E3134BK/7,1
E8069NA/4,1
E7121RD/K9,1
E1179BK/0,1
E1145BK/2,1
E8085AN/3,1
E9027W/4,1
E8066BK/4,1
E8093BK/5,1
E9106BV/7,1
E5019/7,1
E1186GV/7,1
E6040BK/3,1
E9100MY/4,1
