E0150NA/0,5
E8073BK/5,2
E0128YV/5,2
E1301BK/3,2
E1227GK/S-M,1
E1145BK/6,2
E0062/4,1
E6040BK/3,5
E5049BK/6,1
E9126BV/5,1
E8073BK/6,1
E3029/3,1
E1042BK/L-XL,3
E3072BK/7,1
E7131BK/K11,2
E6120BK/4,2
E3161BK/5,2
E8076BK/6,2
E1160BK/3,1
E9106BV/4,1
E9092NA/3,1
E9062W/3,1
E6102TU/2,1
E9100PU/4,1
E9120KH/6,1
E1186BK/3,1
E3134BK/3,1
E1166GV/3,1
E1188GV/6,1
E3073BK/5,1
E6020/5,1
E1184NA/7,1
E0120YV/S-M,1
E3053G/4,1
E9138GC/4,1
E6130CR/4,1
E9100MY/3,1
E9117CC/7,1
E6067PV/3,1
E5055BK/6,1
E0132BK/6,1
E9100PU/3,2
E1019BK/6,1
E9134BK/6,1
E1202BK/L-XL,1
E9106BV/6,1
E7117BK/6,1
E1170BK/0,1
E1223BK/L-XL,1
