E0035/5,25
E0128BK/5,15
E1145BK/5,15
E0110BK,15
E7112BK/K11,12
E8076BK/5,12
E1160RD/5,12
E0060/5,20
E0060/4,10
E0128BK/4,20
E0128BK/6,8
E5049BK/5,8
E8073BK/5,7
E1181BK/5,7
E0132BK/5,6
E1042BK/L-XL,6
E0128YV/5,6
E6040BK/3,5
E6040BK/4,5
E1145BK/6,5
E1038BK/S-M,4
E1160BK/3,4
E0062/4,4
E1227GK/S-M,4
E0128YV/6,4
E9066UM/4,4
E8073BK/6,3
E1227BK/L-XL,3
E1234BK/L-XL,3
E1187BK/6,3
E0128YV/4,3
E1224BK/4,3
E8064GY/4,3
E0116PK,3
E1186BK/4,3
E1160RD/6,3
E6147CE/3,3
E1181BK/6,3
E0132MB/6,3
E8076BK/6,3
E7131BK/K11,2
E0062/5,2
E6147BK/4,2
E9066UM/5,2
E7137BK/K11,2
E1190KH/0,2
E0060/6,2
E5055BK/4,2
E1301BK/5,4
E6067PV/3,2
E9126BV/5,2
E1184BK/3,2
E3029/3,2
E1223BK/L-XL,2
E0132BK/6,2
E1184BK/5,2
E9120BK/5,2
E1301BK/6,2
E8088BK/4,2
E0132MB/4,2
E1188BK/6,2
E1186GV/5,2
E0152BK/L-XL,2
E0128BK/7,2
E9134BK/5,2
E1189GY/0,2
E9066UM/6,2
E9100PU/3,2
E7131BK/K9,2
E8070BK/5,1
E8075BK/4,1
E9126YV/4,1
E9138GC/4,1
E8100BK/5,1
E3158BK/4,1
E1188BK/5,1
E6020/5,1
E1043BK/L-XL,1
E4055BK/6,1
E8073BK/7,1
E5049BK/6,1
E6131CO/3,1
E6040BK/5,1
E6040YV/3,1
E1166BK/5,1
E1202BK/L-XL,1
E0110PK,1
E1160KH/3,1
E8087BK/4,1
E9120KH/4,1
E1506NA/M-L,1
E1183BK/6,1
E6067BK/3,1
E8077BK/5,1
E0043RP,1
E1160RD/3,1
E1234RD/S-M,1
E8077BK/3,1
E2009/3,1
E9138GC/5,1
E6120BK/4,1
