E1120BK/5,6
E0060/4,6
E1184BK/5,3
E1225BK/XL-XXL,2
E1160RD/6,2
E5066BK/5,2
E8074BK/5,2
E1224BK/4,2
E9095YV/6,1
E0062/8,1
E1160BK/4,1
E0087BY/5,1
E7118BK/5,1
E1160BK/6,1
E6040BK/3,1
E8066BK/5,1
E1120BK/6,1
E1181BK/6,1
E4055BK/3,1
E9138GC/6,1
E1167RD/4,1
E3073BK/6,1
