E0004/L-XL,6
E0006/5,19
E0060/5,3
E0075BK/4,2
E0075BK/5,1
E0076BK/4,10
E0076BK/5,18
E0091BK,3
E0095/4,2
E0116PK,1
E1004BK/S-M,1
E1024BK/3,3
E1024BK/4,1
E1131BK/L-XL,8
E1146BK/S-M,4
E1149BK/0,1
E3029UM/3,1
E3053G/4,2
E4013BK/3,2
E4013BK/4,3
E5019/4,1
E7112BK/K11,4
E7112BK/K9,1
E7124BK/5,1
E8011/5,2
E8020/6,2
E8064GY/4,2
E8075BK/4,1
E8076BK/4,1
E9058PK/3,1
E9063UM/5,1
E9063YV/4,2
EM0046/7,1
ET6081MV/K9,3
ET6101MV/L-XL,2
