E0076BK/5,4
E0076BK/4,1
E0076BK/6,4
E0110BK,3
E4013BK/3,1
E0128BK/6,1
E6040BK/3,1
E9106GV/6,2
E7112BK/K11,1
E1125CM/5,1
E1125PT/5,1
E8046BK/3,1
E2010BK/3,1
E6132BK/2,1
E3153NA/5,1
E0062/2,1
E7121TL/K7,1
E9098CT/5,1
E9098NA/7,1
E9101CO/3,1
E1161RD/4,1
E8074BK/7,1
