E1102,5
E6048/5,3
EP0029BK/4,2
E0076BK/5,2
EU8050AN/4,2
E0040BL,2
E0038R/5,1
E6035BU/5,1
E0062/6,1
E0060/5,1
E4034BK/6,1
E8064BK/4,1
E8064GY/6,1
EU8050AN/3,1
EU8050BU/4,1
E6114CR/3,1
E1161BK/4,1
E1161BK/6,1
E5043BK/3,1
E1166WH/5,1
E1160BK/5,1
E1160RD/4,1
E1167BK/6,1
E0041,1
EU3058BK/4,1
E3064BK/3,1
E3050Y/5,1
E7014BK/7,1
E8033ST/4,1
E8033ST/7,1
E8036GY/3,1
E0105BK/L-XL,1
E6051W/4,1
E1108BK/L-XL,1
E3077GN/5,1
E6070WH/4,1
E1022WH/M-L,1
E1123BK/7,1
ET6081MV/K11,1
E1128BK/S-M,1
E1128WH/L-XL,1
E1505MB/M-L,1
E1505OR/L-XL,1
E5028BK/3,1
E6097BK/4,1
