E3084YL/5,1
E7010/5,1
E7010/6,1
E0105BK/L-XL,1
E0039/5,1
E1023BK/5,2
EQ9050W/6,1
E8021/4,2
E8021/6,1
E1012W,1
E8024/7,1
E8025C/4,1
E8025/6,4
E3040W/4,1
E3040W/6,1
E9052/4,1
E0060/3,1
E9058W/3,1
E6002CR/2,1
E8040/5,1
E6091BK/3,1
E6069PU/5,1
