E0040CL,4
E0060/3,2
E0060/5,2
E0083BK/5,1
E1021BK/5,1
E1112BK/S-M,1
E1125BK/4,1
E1131BK/L-XL,8
E1132BK/L-XL,1
E1149BK/0,2
E1160RD/5,1
E1505MB/L-XL,3
E1505WH/M-L,2
E3013UM/5,3
E3084UM/6,5
E3129BU/5,1
E3137BK/5,2
E3140BK/6,1
E4013BK/5,1
E4034BK/5,2
E6097BK/2,1
E6109PU/4,1
E7117RD/6,2
E7128BK/0,1
E8064BK/4,1
E8064BK/8,1
E8064GY/5,2
E8080BK/5,1
E8902BK/L-XL,2
E9063UM/6,2
EP0003/3,2
