E3032R/5,1
E0105W/L-XL,1
E6081BK/3,2
E3065BK/4,1
E0011/7,1
E0088BK/S-M,1
E0103BK/S-M,1
E3085KG/4,1
E8004/3,1
E4016BK/4,1
ET6075MV/0,1
ET6095MV/5,1
E3095YL/6,1
E8034BK/4,1
E6050PU/3,1
E6105CE/5,1
E3132NA/3,1
E3099KH/7,1
E6063BK/3,1
E6097BK/5,1
E0061/4,1
E0038Y/5,1
E6091BK/4,1
