E0038OC/4,5
E0038R/3,1
E0060/6,3
E0132BK/4,1
E0132BK/5,2
E1040BK/0,4
E1110BK,1
E1165RD/3,1
E1165RD/6,2
E1166NA/6,1
E1192OR/0,1
E1301BK/7,1
E1518GF/L-XL,1
E3063W/7,1
E3123BK/5,1
E3125BK/6,2
E3125BK/7,1
E3125KH/5,2
E3125NA/8,1
E3142NA/6,1
E4032BK/5,1
E4041BK/4,1
E4054RD/8,1
E6070WH/4,1
E6107BK/4,1
E6125CO/4,1
E6153BK/4,1
E7125BK/3,1
E8046BK/5,1
E8064BK/2,1
E8070BK/3,1
E8070BK/7,1
E8091BK/4,1
E9095YV/4,1
E9098BK/6,1
