E3029OR/5,1
E6032/3,1
E0116PK,1
E0002/5,1
EQ0017/5,1
EQ0017/4,1
E8020/3,1
E9027BK/5,1
E3065R/7,1
E1301BK/3,1
E8035BK/3,1
E1124BK/5,1
E8005/4,1
E0060/7,1
E0045,2
E8046BK/4,1
E6036/4,1
E0003/L-XL,1
E3078BK/5,1
E9065R/5,1
E4013BK/5,1
E8047/5,1
E8061BK/3,1
