E0006/5,15
E0015/4,14
ET6075MV/0,11
E6036/5,6
E0006/3,6
E0076BK/4,5
E8011/5,3
E7112BK/K11,3
E1120WH/5,3
E0116PK,2
E5019/5,2
E0091BK,2
E0095/4,2
E7124BK/5,2
E8064GY/4,2
E8073BK/3,2
E8076BK/4,1
E8076BK/5,1
E6109BK/4,1
E9098NA/4,1
E7124TL/4,1
E0004/S-M,1
E0107BK/5,1
E1024BK/2,1
E1024BK/4,1
E8020/6,1
E3015/4,1
E0060/5,1
E1124RD/3,1
E1124RD/6,1
