E0003/L-XL,1
E0062/4,1
E0087BY/5,1
E1134BU/0,1
E1145BK/6,3
E1160BK/4,2
E1160RD/5,3
E1181BK/7,1
E1214NA/0,1
E1226GK/0,1
E1227RR/L-XL,4
E1301BK/3,2
E1301BK/5,2
E1506BK/L-XL,3
E1511BK/M-L,1
E3084RD/6,2
E3158BK/5,1
E5055BK/4,1
E6040BK/3,2
E6106PU/3,2
E6131BK/3,2
E8064BK/4,2
E8065BK/3,1
E8081KH/5,2
E9128GY/5,1
E9138GC/4,1
EU8052BK/7,1
