E0028/3,1
E0038BK/3,1
E0038BK/6,1
E0038R/4,1
E0040OR,1
E0040SM,1
E0041,1
E0042/4,2
E0042/6,2
E0052,1
E0060/4,3
E0060/5,2
E0062/5,1
E0063/4,1
E0069BK/5,1
E0069BK/6,1
E0072BK/5,1
E0074BK/4,1
E0075BK/4,1
E0075BK/7,1
E0075R/4,1
E0075R/6,1
E0076BK/3,1
E0076BK/5,3
E0076BK/6,2
E0105BK/L-XL,1
E0110BK,1
E0115BK/S-M,1
E0116PK,1
E0132MB/5,1
E1005BK/L-XL,1
E1018WH/4,1
E1018WH/6,1
E1018WH/7,1
E1019BK/5,1
E1019BK/6,1
E1019RD/5,1
E1021BK/4,2
E1021BK/6,1
E1023BK/3,1
E1023BK/5,2
E1024BK/3,4
E1024BK/4,5
E1040BK/0,1
E1120WH/6,1
E1123BK/4,1
E1125BK/4,1
E1125BK/5,1
E1125BK/6,1
E1125CM/5,2
E1125MB/5,1
E1129WH/0,1
E1131BK/L-XL,3
E1158BK/L-XL,1
E1160BK/5,1
E1160KH/6,1
E1160RD/4,1
E1160RD/5,1
E1162BK/5,1
E1168NA/5,1
E1173MY/0,1
E1301BK/3,2
E1505MB/S-M,2
E1505OR/M-L,2
E1505WH/M-L,1
E3015/5,1
E3015/6,2
E3015/7,1
E3015WH/4,1
E3050BU/5,1
E3050W/7,1
E3054BK/4,1
E3054PU/5,1
E3064BU/5,1
E3066W/4,4
E3066W/5,3
E3077UM/4,1
E3077UM/6,1
E3084RD/6,2
E3084YL/4,1
E3089RD/6,2
E3090BK/6,1
E3096BK/3,1
E3097BK/6,1
E3109RD/6,1
E3132BK/4,1
E3132RD/2,1
E3143AN/4,2
E3143AN/5,1
E4013BK/4,1
E4013BK/5,2
E4013BK/6,2
E4014BK/5,1
E4014BK/6,1
E4014RD/5,1
E4035BK/3,1
E5019P/5,1
E5024BK/5,3
E5029BK/2,1
E6020/4,1
E6032/4,1
E6036/3,1
E6036/5,1
E6039PU/5,1
E6045/2,1
E6047BK/3,1
E6047BK/4,1
E6048/5,1
E6050PU/3,2
E6050UM/3,1
E6050UM/4,1
E6051BK/3,1
E6051BK/4,2
E6051R/4,2
E6063BK/4,1
E6066BK/4,1
E6068WH/4,1
E6114CO/2,1
E6114CO/3,2
E6114CO/4,1
E6131CO/4,1
E7014BK/7,1
E7112BK/K9,1
E7117RD/3,1
E7117RD/4,1
E7118BK/6,1
E7124TL/3,1
E8033ST/3,1
E8033ST/4,2
E8033ST/6,1
E8036GY/5,1
E8049BK/4,1
E8051GY/4,7
E8051GY/5,1
E8054BK/5,1
E8057BK/4,1
E8064BC/4,2
E8064BK/2,1
E8064BK/3,1
E8064BK/4,7
E8064BK/5,2
E8064GY/2,1
E8064GY/8,1
E8064GY/9,3
E8064KH/4,1
E8064KH/5,1
E8073BK/4,4
E8073BK/6,1
E8073BK/7,1
E8075BK/5,2
E8903PK/S-M,1
E9023R/4,1
E9026BK/7,1
E9058BK/4,2
E9058PK/6,1
E9063YV/4,1
E9078BK/4,1
E9078OB/5,1
E9085NA/4,1
E9088YV/5,1
E9098CM/7,1
E9098NA/4,1
E9098NA/5,2
E9099CO/2,1
E9102RD/6,1
E9107BK/2,1
EM0046/3,3
EQ9050/5,1
EQ9050W/5,1
EQ9050W/6,1
ET6096MV/0,1
ET8139CB/3,2
EU8045BK/6,1
EU8047BU/4,1
EU8047BU/6,1
