E0045,2
E0095/3,1
E0127BK/3,1
E0151KH/0,1
E1158BK/L-XL,1
E1161BK/5,1
E1166GV/5,1
E1166WH/5,1
E1511WH/M-L,1
E3067BK/5,1
E3141MY/3,1
E4029RD/5,1
E5022BK/5,1
E5049BK/4,1
E6065BK/3,1
E6067PV/2,1
E6078BK/4,1
E6078BK/5,1
E6102BK/2,1
E6126BK/2,1
E7112BK/K11,1
E7117BK/5,1
E7121BK/K9,2
E7121TL/K11,1
E8064GY/9,1
E8066KH/6,1
E8069BK/3,1
E8074OM/4,2
E9076GV/7,1
E9076YV/5,1
E9092NA/5,1
E9095BK/4,1
E9095YV/4,1
E9098CT/4,1
E9098NA/7,1
