E3029OR/4,1
E3029OR/4,1
E3029OR/3,1
E3029OR/6,1
E7010/4,1
E7010/4,1
E3106RD/4,1
E3025/4,1
E3025/6,1
E4019BK/2,1
E9073BK/7,1
E7111BK/4,1
E0099YV,1
ET6080MV/L-XL,1
E0031BK/6,1
E0074BK/4,1
EM0045NA/5,1
E0060/3,1
E3059BK/5,1
E6074CR/4,1
E1120WH/6,1
E0015/3,1
E8039/4,1
E3099BK/4,1
E1112BK/S-M,1
E0040BL,1
E6036/4,1
E3105OC/4,1
E8011/4,1
E8011/4,1
E5018/5,1
E5018/4,1
E5017/5,1
E3091BK/4,1
E6064BK/2,1
E6069PU/4,1
E8031C/5,1
E8031C/4,1
