E0003/M-L,1
E0040YL,1
E0072BK/6,1
E0076BK/3,1
E1003BK/S-M,2
E1154BK/L-XL,1
E3105OC/4,1
E5019P/5,1
E5021BK/6,2
E8064CM/8,1
E8900BK/S-M,2
E9058PK/4,1
E9063YV/4,1
E9063YV/5,1
E9078BK/6,1
E9084NA/3,1
ET6080MV/L-XL,5
