E6048/6,2
E2004/3,2
E1505MB/L-XL,2
E6105CE/4,1
E1158BK/S-M,1
E1157BK/S-M,1
E5005/7,1
E5019P/6,1
E0069BK/5,1
E6048/5,1
E8033ST/6,1
E8036BK/3,1
E0078CL,1
E6047BK/3,1
E9064R/5,1
E6051BK/4,1
E0107BK/5,1
E3084RD/5,1
E7104BK/3,1
E8054BK/3,1
E3085KG/4,1
E3085RD/5,1
E3085WH/5,1
E3086RD/4,1
E1004BK/L-XL,1
E8062BK/4,1
E1123BK/4,1
EU3063BK/7,1
