E1505MB/M-L,1
E0089BK/6,1
E1023BK/6,2
E8021/5,1
E8020/4,1
E3025/7,1
E1301BK/5,1
E8004/6,1
E9013/6,1
E1504BK/L-XL,1
E8042BK/4,1
ET6080MV/L-XL,1
E5005/5,1
E0062/3,1
E6034/2,1
E1120WH/7,1
E1108BK/S-M,1
E0128YV/4,1
E0004/L-XL,2
E0076BK/4,3
E3061W/4,1
E1505WH/L-XL,1
