E0004/L-XL,1
E0005/L-XL,1
E0028/6,1
E0091BK,1
E0110PK,1
E0111WH,1
E1039BK/L-XL,1
E1129WH/0,1
E1505WH/S-M,1
E3057RD/3,1
E3086BK/4,1
E3099BK/2,1
E3099NA/4,1
E5018/6,2
E6048/6,1
E7010/5,1
E8004/6,1
E8011/3,1
E8020/6,1
E9067BK/7,1
EM0045NA/5,1
ET6081MV/K9,1
EU3063BK/6,1
