E7112BK/K9,4
E7112BK/K11,2
E1123BK/6,3
E6036/2,1
E8004GY/3,1
E5019P/5,3
E5019P/4,2
E0099BK,2
E1120WH/4,2
E8051GY/3,2
E6065BK/3,1
E8051GY/4,1
E8051GY/5,1
E9078KH/4,1
E8060BK/4,1
E6073BK/3,1
E1028UM/0,1
EU3061BK/4,1
E4028BK/2,1
E3099KG/6,1
E8061NA/4,1
E1124RD/4,1
E3069BK/4,1
E1037BK/L-XL,1
E7124TL/5,1
E7124BK/3,1
E7121TL/K11,1
EM0055NA/5,1
E8073BK/4,1
E8075BK/7,1
E0096BK/5,1
E0084BK/L-XL,1
E5024BK/7,1
E0069BK/7,1
E6050PU/2,1
