E0077C,1
E8021/4,1
E9026LG/3,1
E3101OC/3,1
E0011/7,1
E0088BK/L-XL,1
E8025GY/7,1
E8036GY/5,1
E8042BK/5,1
ET6075MV/0,1
ET6076MV/0,1
E2009/4,1
E3059YV/4,1
E6036/4,1
E5018/5,1
E5019P/4,1
E5019P/4,1
E3091BK/4,1
EU8045BK/7,1
E9065BK/6,1
E0038BK/5,1
