E0070/5,1
E1102,4
E7010/5,1
E8021/6,1
E8020/3,1
E1007MS,1
E1007MS,1
E0037BK/5,1
E1019WH/5,1
E7012BK/5,5
E7012BK/4,1
E1301BK/5,1
E1599BK,1
E8025/6,4
E1504GV/M-L,1
E3082AN/5,1
E3082GN/5,1
E0031OR/4,1
E0043BC,1
E0062/3,2
E0060/3,1
E3099KG/5,1
E8011/3,1
E5019P/5,1
E3061W/3,1
E9062BK/3,1
E0038R/5,1
E9071BK/5,1
E5003SP/4,1
