E0110BK,7
E0035/5,5
E0076BK/4,5
E0091BK,3
E3015/5,3
E1146BK/L-XL,3
E0078PK,2
E0040ST,2
E8064BK/4,2
E6035BU/4,2
E0062/3,2
E0060/5,1
E9063UM/5,1
E7124TL/4,1
E0004/S-M,1
E8075BK/4,1
E8004GY/3,1
E5005/4,1
E8011/4,1
E0042/6,1
