E0035/3,8
E0060/6,4
E0060/7,2
E0068BK/4,1
E0110BK,15
E0110PK,1
E0128BK/3,4
E0128BK/4,7
E0128YV/3,1
E0132BK/5,4
E0132MB/5,3
E0132MB/6,3
E0151GC/0,2
E1020BK,1
E1038BK/L-XL,2
E1038BK/S-M,2
E1118BK/5,2
E1120WH/4,2
E1120WH/6,1
E1145BK/4,20
E1145BK/5,5
E1145BK/6,3
E1157BK/S-M,2
E1160BK/3,2
E1160BK/4,7
E1160BK/5,30
E1160BK/6,6
E1181BK/5,2
E1183BK/5,2
E1187BK/3,1
E1187BK/5,6
E1188GV/5,1
E1227GK/L-XL,2
E1234BK/L-XL,3
E1234RD/L-XL,2
E1250CL,3
E1301BK/3,2
E1506BK/M-L,2
E1506NA/L-XL,1
E3029/3,2
E3029/4,4
E3157BK/5,2
E5022BK/4,2
E6020P/3,2
E6040YV/4,1
E6065BK/3,1
E6120PU/3,2
E6149BK/5,1
E8070BK/6,2
E8073BK/6,1
E8074BK/5,2
E8076BK/5,8
E8077BK/2,1
E8085AN/5,1
E8088BK/5,1
E8093BK/4,1
E9066CE/4,1
E9066UM/4,2
E9120BK/5,1
E9120KH/4,1
E9134BK/7,1
E9138GC/6,1
