E3029OR/5,1
E0110UM,1
E3084UM/7,3
E3013/4,1
EP0002/3,1
E1041WH/0,1
E1024BK/3,1
E1007MS,1
E1019WH/5,1
E1019RD/6,1
E0115BK/L-XL,1
E3101RD/7,1
E0091BK,1
E8024/7,1
E8064BK/9,1
E1124BK/6,1
E9067YV/5,1
E9078BK/4,1
E0062/6,1
E0078PK,1
E7120BK/5,2
E7120BK/6,1
EU3058ST/6,1
E0061/3,1
E4013BK/7,1
E0038R/5,1
E0038BK/6,1
E3066W/7,1
