E1505MB/M-L,1
E3029UM/3,1
E0110BK,1
E1146BK/S-M,1
E1107BK,1
E7010/5,1
E7010/4,1
E0105W/L-XL,1
E0042/3,1
E0042/3,1
E8021/5,1
E8021/3,1
E1117BK/4,1
E1117BK/6,1
E9063BK/5,1
E9037R/2,1
E8024/5,1
E8025C/4,1
E8025GY/8,1
E8025GY/8,1
E8025GY/8,1
E8005/7,1
E4016BK/5,1
E1504BK/M-L,1
E9067YV/5,1
E9067BK/6,1
E1110BK,1
E0068Y/5,1
E3082OR/4,1
E3083UM/4,1
E0028/6,1
E9078BK/5,1
E2013BK/3,1
E0031OR/4,1
E1118BK/7,1
E8014YL/4,1
E1120WH/6,1
E0015/5,1
E0015/5,1
E0015/5,1
E0015/5,1
E0015/5,1
E0015/5,2
E0015/5,1
E0015/5,1
E0015/3,1
E8039/4,1
E8039/4,1
E8038/6,1
E8046TL/3,1
E1026KG/5,1
E0014/5,1
E8023/3,1
E1111BK/L-XL,1
E5018/5,1
E5018/5,1
E6020/4,1
E6020/3,1
E3091BK/7,1
E7104BK/5,1
E5021BK/6,1
E9065BK/6,1
E9065GV/6,1
E0075R/5,1
E0075BU/4,1
E0075R/4,1
E4014BK/5,1
