E1505MB/L-XL,1
E0087GV/3,1
E0053BC,1
E0110BK,1
E6032/4,1
E8021/3,1
E3025/7,1
E0095GV/4,1
E0095GV/4,1
E1031BK/L-XL,1
E6066BK/3,1
E0088BK/S-M,1
EP0063BK/4,1
E8024C/5,1
E1124BK/4,1
E3089RD/7,1
E0107BK/4,1
E7102PV/K11,1
E5020BK/4,1
E8048BK/6,1
E0028C/5,1
E0031BK/6,1
E0111WH,1
E0111WH,1
E7112BK/K11,1
E0127BK/5,1
E0015/5,1
E0015/5,1
E0015/5,1
E0045,1
E3099BK/4,1
E9083BK/6,1
E8011/6,1
E1111BK/L-XL,1
E5018/5,1
E3063W/4,2
E5022BK/5,2
ET8134CB/3,1
ET8132CB/3,1
ET8133CB/S-M,1
E0120GV/L-XL,1
E4013BK/3,1
E4013BK/3,1
E0038R/4,1
E0038OC/2,1
E8031/5,1
