E0015/6,1
E0043BP,1
E0075BK/4,2
E0076BK/3,1
E0076BK/5,2
E0084BK/S-M,1
E0088BK/S-M,1
E0100BK/4,1
E1022WH/S-M,1
E1301BK/3,1
E1505MB/L-XL,1
E3015/5,1
E3115BK/5,1
E5050BK/7,1
E6040YV/4,1
E6073BK/2,1
E6073BK/4,1
E7124BK/3,1
E7124TL/4,2
E8053BK/6,1
E8073BK/4,2
E8073BK/5,1
E9058PU/4,1
E9062BK/4,1
E9062BK/5,1
E9068BK/3,1
ET6074MV/4,1
EU8045BK/3,1
