E1102,1
E1023BK/7,1
E8021/3,1
E8021/3,1
E8021/3,1
E8021/3,1
E6047BK/5,1
E3108GV/4,1
E0011/7,1
E0011/7,1
E0011/7,1
E0011/7,1
E9073BK/5,1
E9063UM/6,1
E8049BK/3,1
E6107BK/5,1
E3085BK/4,1
E3085BK/3,1
E3085BK/6,1
E3085BK/6,1
E3085BK/6,2
E3085BK/6,1
E3085BK/6,1
E1505MB/L-XL,1
E1505MB/L-XL,1
E3089BK/7,1
E3036/5,1
E3036/5,1
E3036UM/4,1
E3125RD/8,1
E1017RD/5,1
ET6095MV/5,1
ET6100MV/L-XL,1
ET6091MV/4,1
E0074BK/4,1
E8014/3,1
E2009/5,1
E0062/8,1
E5038BK/2,1
E1020BK,1
E8051BK/4,1
E8023/7,1
E3078BK/4,1
E3079WH/5,1
E6097BK/4,1
E4013BK/5,1
E4013BK/3,1
E0038BK/5,1
E0038Y/7,1
