E0003/M-L,1
E0060/4,3
E0060/5,2
E0060/6,1
E0061/3,1
E0062/5,1
E0062/6,1
E1123BK/6,1
E1123RD/6,1
E1125BK/6,1
E1166GV/4,1
E1505MB/M-L,1
E3029OR/7,1
E3065R/5,2
E3066R/7,1
E3089RD/4,1
E3101OC/4,1
E3102GV/4,1
E3104YV/4,1
E3106RD/5,1
E4013BK/4,1
E4013BK/5,1
E4014BK/5,2
E5017P/5,1
E5022BK/5,1
E6035BU/5,1
E6047BK/5,4
E6048/6,2
E6050PU/4,1
E6061MG/4,1
E6062TL/4,1
E6074CR/4,2
E6091BK/4,1
E8004GY/3,3
E8036GY/5,2
E8054PU/5,1
E8064BC/5,1
E8064BK/4,2
E8064BK/6,1
E8064BK/7,1
E8064BK/8,1
E8064GY/4,1
E8064GY/6,1
E8066BK/4,1
E8076BK/3,1
E9062BK/3,1
E9074YV/5,1
E9085NA/5,1
E9086GV/4,1
E9103GV/6,1
ET6073MV/2,3
ET6091MV/3,1
ET6092MV/2,1
ET6098MV/S-M,1
ET8136CB/2,1
ET8139CB/4,1
EU8048AN/4,1
EU8050AN/5,2
EU8050AN/6,4
EU8050AN/7,2
