E0115WH/S-M,3
E3032/4,1
E5017P/6,1
E6020P/4,1
E9067YV/6,1
E5024BK/6,1
E0095GV/7,1
E6066BK/3,1
EM0049BK/L-XL,1
E7104BK/3,1
E1019RD/7,1
E5050BK/3,1
E6129CO/3,1
E8081BK/4,1
E4035BK/7,1
E3123OM/4,1
E1145GV/3,1
E3138GY/6,1
E4041BK/3,1
E3115BK/3,1
E1189GY/0,1
E3151GY/5,1
