E0116PK,1
E7010/3,1
E1145BK/6,2
E0095/3,2
E9085RD/4,1
E1599BK,3
E8025/4,2
E8025GY/4,3
E8025/3,1
E6106PU/3,1
E8029GY/5,1
E1124KG/5,1
E3125BK/8,1
E8005/7,1
E8042BK/5,1
ET6096MV/0,1
E0031G/4,1
E8014/4,1
E0043BS,1
E0043BP,1
E0043BC,1
E0060/6,1
E0015/5,10
E0015/4,5
E3099BK/3,1
E0005/S-M,1
E0006/5,10
E3071BK/4,1
E9024R/6,1
