E0060/5,8
E0060/6,3
E0132BK/5,3
E1019BK/6,4
E1128WH/L-XL,2
E1165BK/7,1
E1301BK/6,1
E3084UM/6,1
E3115BK/3,1
E3157BK/3,1
E3159RR/4,1
E4054RD/5,1
E5042BK/4,1
E6080RD/3,1
E6146BK/4,1
E6146BK/5,1
E6150RR/3,1
E6162MY/3,1
E8066BK/3,1
E8070BK/4,2
E8074OM/3,1
E8082KH/5,1
E9098BK/7,1
