E0073MS,2
E3050BK/5,2
E3015/5,2
E5017P/5,1
E6048/5,1
E9026BK/6,1
E8064BK/5,1
EU8050AN/4,1
E6109PU/3,1
E6114CR/4,1
E1042BK/L-XL,1
E7128BK/0,1
E8006/4,1
E0015/4,1
E0015/6,1
E8024C/4,1
E5005/6,1
E3015WH/4,1
E0075BU/4,1
E0076BK/6,1
E0099BK,1
E0091BK,1
E5023BK/5,1
E8051UM/3,1
E3076RD/6,1
EU8047BU/5,1
E1025UM/4,1
E1019WH/6,1
E3085RD/6,1
E3086BK/7,1
E9086NA/7,1
E3097OC/5,1
E1038BK/L-XL,1
