E0038OC/4,1
E0069BK/5,1
E0078SM,1
E0095NA/7,1
E0099BK,1
E0120YV/M-L,1
E0130BK/4,1
E1028UM/0,2
E1135BK/0,2
E1138RD/0,1
E1301BK/4,1
E1502MK/S-M,1
E2009/3,1
E2012BK/7,1
E3022/5,1
E3054PU/5,1
E3069OV/7,1
E3099KH/4,1
E3123NA/4,1
E5024BK/5,1
E6040BK/4,1
E6073BK/4,1
E6079PU/3,1
E6107BK/3,1
E7112BK/K11,1
E7122BK/K11,2
E7124BK/3,1
E7124TL/3,1
E8004GY/4,1
E8049BK/5,1
E8054BK/3,1
E8066BK/4,1
ET6092MV/2,1
EU3049BK/5,1
