E3070WH/L-XL,1
E0084BK/S-M,1
E7012W/5,1
E1150BK,1
E8024/6,1
E8024C/6,1
E7108BK/K9,1
E3076GN/5,1
E8005/5,1
E8005/4,1
E1105BK,1
ET6092MV/4,1
E3092BK/5,1
E8014/4,1
EM0046/5,1
E0043RP,1
E1025UM/6,1
E1026KG/4,1
E9084RD/4,1
EU8045BK/5,1
E4013BK/4,2
E0038BK/4,1
E9071BK/5,1
E9086BK/6,1
E5005/4,1
