E0041,1
E0042/3,1
E0062/2,1
E0072GV/5,1
E0073,1
E0095/3,3
E0107BK/4,2
E0107BK/6,1
E0116PK,4
E0150NA/0,1
E0151KH/0,3
E0151PT/0,5
E1004BK/L-XL,1
E1019WH/5,2
E1019WH/6,2
E1024BK/2,1
E1026RD/4,1
E1035BK/L-XL,1
E1112BK/S-M,1
E1119BK/5,1
E1125MB/5,1
E1125PT/6,1
E1134BK/0,1
E1145BK/5,6
E1145BK/6,2
E1154BK/L-XL,3
E1154BK/XL-XXL,1
E1160BK/4,2
E1160RD/3,1
E1160RD/6,1
E1165BK/7,1
E1166BK/6,1
E1170YV/0,1
E1181BK/4,1
E1181BK/5,3
E1182BK/L-XL,1
E1187BK/5,1
E1187BK/6,1
E1301BK/6,1
E1511PT/S-M,1
E3015/3,2
E3053G/5,2
E3053G/6,1
E3061W/5,1
E3061W/6,2
E3064WH/4,1
E3064WH/5,1
E3084UM/4,1
E3091BK/4,1
E3104RD/6,1
E3115BK/5,1
E3119NA/5,1
E3123OM/6,1
E3125BK/6,1
E3158BK/3,1
E3158OM/6,1
E4013BK/3,4
E5019P/6,1
E6020P/3,1
E6020P/5,1
E6036/5,1
E6040BK/5,1
E6043BK/3,1
E6050UM/3,1
E6065BK/3,2
E6067BK/4,1
E6067BK/5,1
E6067PV/4,1
E6070PK/4,1
E6102TU/2,1
E6120PU/3,1
E6125BK/5,1
E7110BK/K11,1
E7120BK/5,1
E7121RD/K7,1
E7121RD/K9,2
E7124BK/5,1
E7129GY/K13,1
E7129GY/K7,1
E8066KH/4,1
E8066KH/5,1
E8077BK/3,1
E8077BK/4,1
E8078OM/4,1
E8083BK/5,1
E8088BK/3,1
E8088BK/4,1
E8088BK/5,1
E9058PU/5,1
E9062BK/6,1
E9063UM/4,1
E9063UM/6,1
E9063YV/6,3
E9066UM/5,1
E9067YV/5,1
E9067YV/6,1
E9068PV/5,1
E9068PV/6,1
E9076GV/4,1
E9076GV/5,1
E9076GV/6,2
E9081GV/5,2
E9085NA/6,1
E9086BK/3,2
E9095BK/4,1
E9098NA/3,3
EU3062TU/5,2
EU3063BK/6,2
