E3032G/7,3
E3078BK/7,3
E9078BK/6,2
E6035BU/4,2
E0091BK,2
E9063YV/7,1
E3125KH/6,1
E0038OC/4,1
E3053G/5,1
E8042BK/3,1
E0084BK/S-M,1
E7112BK/K7,1
E3113BK/5,1
E7104BK/4,1
E6073WH/3,1
EQ4012BK/3,1
EQ4012BK/6,1
