E6048/4,2
EM0044BK/6,2
EM0044BK/7,2
E9062BK/2,2
E0150BK/0,2
E8051UM/4,2
E8051GY/4,2
EM0049BK/L-XL,2
E6068WH/3,2
E9058PU/3,1
E1024BK/6,1
E1004BK/L-XL,1
E1028UM/0,1
E3100WH/3,1
EU3063BK/4,1
E6040BK/3,1
E9063YV/7,1
E8048BK/4,1
E0107BK/5,1
EQ0059W/3,1
E9051R/3,1
E7124TL/3,1
E8064BK/2,1
E8064BK/3,1
E8064BK/8,1
E8064GY/4,1
E8074BK/7,1
E9106GV/5,1
E1160KH/5,1
E3022/4,1
E2004/3,1
E9062BK/3,1
E6051W/3,1
E6043BK/4,1
E3043BK/6,1
E0096BK/5,1
E8036BK/3,1
E8036BK/5,1
E0073MS,1
E9037W/5,1
E8046BK/5,1
