E0007,1
E0100BK/3,1
E1128BK/L-XL,5
E1154BK/L-XL,1
E1186BK/3,1
E1599BK,1
E3084YL/4,1
E7121BK/K7,1
E8060BK/7,1
E8066KH/4,1
E8073BK/5,1
E8073BK/7,1
E8075BK/4,1
E8075BK/5,1
E9057BK/2,1
E9068PV/4,1
E9085RD/4,1
EM0054BK/4,1
