E0069BK/5,2
E0069BK/6,1
E0073MS,1
E0151MY/0,1
E1018RD/5,1
E1025UM/4,2
E1125BU/4,1
E1125BU/5,2
E1160BK/6,1
E1160RD/5,1
E1171BK/0,1
E3076RD/4,1
E3083UM/4,1
E3085RD/6,1
E3085WH/6,1
E3137BK/6,1
E4028BK/6,1
E5019P/4,1
E5023BK/5,1
E5024BK/7,1
E6043BK/6,1
E6048/4,1
E6051R/6,1
E6069BK/3,1
E6085BK/5,1
E6109PU/4,1
E7121RD/K9,1
E7123PU/K7,1
E8062BK/6,1
E8064BK/5,1
E8064GY/4,1
E9057BK/4,1
E9058W/4,1
E9078OB/5,1
EM0046/4,1
EU8047BU/5,1
