E7117BK/4,1
E6051R/3,1
E1168NA/6,1
E8064CM/5,1
E0048,2
E3105OC/5,1
E3077UM/6,1
E9073BK/7,1
E1018WH/4,1
E9066UM/6,1
E3070WH/L-XL,1
E6074CE/5,1
E6074CE/6,1
E6069PV/4,1
E6069PU/3,1
E6071WH/2,1
E0061/3,1
E3119NA/5,1
E8080BK/5,1
E3153MY/4,1
E3153NA/5,1
E3154BU/4,1
E7117RD/4,1
