E3029OR/7,1
E3053BK/7,1
EP0028R/3,1
EP0002/3,1
E0002D/5,1
E1129WH/0,1
E1024BK/3,1
E1117BK/7,1
E9026LG/4,1
E7012R/5,1
E4023BK/5,1
E3085BK/7,1
E3082OR/3,1
E0028/4,1
E9078BK/4,1
E6112PU/3,1
E8070BK/4,1
E8070NA/4,1
E8070NA/7,1
E1028PU/0,1
E5005/5,1
E5005/5,1
E5005/5,1
E5005/4,1
E0062/3,1
E9061R/5,1
E6088RA/4,1
E9083BK/5,1
E0014/5,1
E0014/5,1
E9024/4,1
E6097BK/3,1
E6061LL/6,1
E4015BK/5,1
