E3013/4,1
E3013UM/6,1
E3053R/5,1
EP0028R/5,1
EP0028R/4,1
EP0028R/7,2
EP0002/3,1
E1128WH/L-XL,2
E1041WH/0,1
E1024BK/3,1
EU3063BK/6,1
E1019BK/4,1
E1021BK/6,1
E0095GV/4,1
E6060BK/4,1
E3065BK/4,1
E3100WH/4,1
E9086GV/6,1
E6051BK/5,1
E6051BK/3,2
E1150BK/0,1
E1301BK/5,1
E0091BK,3
E9037W/3,1
E9037R/2,1
E8024/5,3
E8024/4,3
E8024G/3,1
E8006/4,2
E8006/3,1
E8072BK/6,1
E8033BK/4,4
E8033BK/3,1
E8036GY/4,2
E8036GY/4,2
E1505GV/M-L,1
E1505OR/M-L,1
E1124RD/5,1
E1123RD/5,1
E3089RD/5,1
E3089RD/6,2
E3076GN/4,1
E3076GN/6,1
E3076GN/6,2
E4017BK/7,1
E4028BK/3,1
E1105BK,1
E1504BK/M-L,1
E0114GV/L-XL,1
E9067GV/6,1
ET6075MV/0,1
ET6080MV/L-XL,1
E0028/4,1
E3092YL/4,3
E9078BK/5,2
E0132MB/5,1
E1028UM/0,1
EM0046/4,1
EM0044BK/6,2
E0060/4,1
E0060/6,1
E9058PK/4,1
E9058PK/3,1
E9058PU/3,1
E9058BU/2,1
E0051,1
E6074CR/4,1
E6035BU/5,1
E6035/4,1
E6035BU/4,1
E1025UM/5,1
E6079PU/4,2
E6079PU/3,1
E6036/2,1
E5003SP/4,1
E5017/5,3
EU3061BK/3,1
EU8046GY/5,1
EU8046GY/4,1
E6042W/5,4
E6042W/3,1
E6042W/2,4
E5021BK/6,1
E9062BK/5,1
E6061BK/5,1
E4013BK/4,1
E4013BK/3,3
E3104BK/4,1
E3104RD/7,1
E0038OC/6,1
E3066W/5,1
E3066R/4,2
E8062BK/4,1
