E0006/3,5
E0111WH,5
E1146BK/S-M,4
E0076BK/5,4
E0060/4,3
ET6074MV/5,3
E1146BK/L-XL,2
E4013BK/3,2
E4013BK/4,2
E0076BK/3,2
E0091BK,2
E9062PV/4,2
E1023BK/4,1
E0116PK,1
E1112BK/S-M,1
E0006/5,1
E8064BK/4,1
E8073BK/3,1
E8004GY/3,1
E0015/6,1
E5005/4,1
E0042/6,1
E6035BU/3,1
E0043BC,1
