E1505OR/L-XL,1
E8900BK/L-XL,2
E8900BK/L-XL,1
E8900BK/L-XL,1
E8900BK/L-XL,1
E1146BK/S-M,1
E6032BU/3,1
E1131BK/L-XL,4
E0042/3,1
E1024BK/3,1
E8021/4,1
E1117BK/5,1
E1019RD/4,1
E7012BU/5,1
E0072GV/5,1
E6066BK/3,1
E9074YV/5,1
EP0063BK/4,1
E8025/3,1
E8025/2,1
E3085BK/4,1
E1124BK/5,1
E1124RD/7,1
E8005/5,1
ET6080MV/L-XL,1
EM0049BK/L-XL,1
E0043BP,1
E0015/5,1
E0015/5,1
E0015/5,1
E1109BK/L-XL,1
E1112BK/S-M,1
E0128BK/4,1
E0128BK/3,1
E0005/L-XL,1
E0076BK/6,1
E0076BK/6,1
E0120GV/S-M,1
E3059BK/5,1
