E3015WH/5,1
E3054PU/3,1
E0096BK/5,1
E7013BK/3,1
E1018WH/5,1
E8024C/6,1
E7108PK/K9,1
E8004GY/4,1
E3082OR/3,1
E0031OR/6,1
E0074BK/5,1
EM0049BK/S-M,1
E5005/3,1
E0060/6,1
E0127BK/4,1
E1038BK/L-XL,1
E5018/5,1
E5018/5,1
EU8047BU/3,1
E3067BK/5,1
E1038BK/L-XL,1
