E0015/4,4
E0037BK/2,1
E0043BP,1
E0062/5,2
E0076BK/4,1
E0095/4,1
E0098YV/L-XL,1
E0102BK/S-M,1
E1124BK/6,2
E1124RD/5,1
E1125BK/5,1
E3089RD/5,1
E3105OC/4,1
E3109YV/5,1
E5026BK/4,1
E6051R/5,1
E6051W/3,1
E6064WH/3,1
E6066BK/5,1
E6079UM/2,1
E6081BK/2,1
E7112BK/K7,1
E8024/4,1
E8024/6,2
E8033ST/5,1
E8033ST/6,1
E8049BK/4,1
E8074BK/4,1
E8900BK/S-M,1
E9023BK/5,1
E9065BU/5,2
E9078BK/2,1
EM0046/4,2
EP0028R/5,1
ET6092MV/5,1
