E0013TH/5,1
E0015/3,1
E0015/4,1
E0031G/5,1
E0039/5,1
E3029OR/4,1
E3029OR/4,1
E3085RD/6,1
E3086BK/6,1
E3099KG/5,1
E4013BK/3,1
E4020BK/4,1
E6020/3,1
E7010/4,1
E7102GV/K9,1
E7104BK/6,1
E8021/4,1
E8024C/5,1
E8029BK/6,1
E8029BK/6,1
E8042BK/3,1
E9064R/6,1
EQ0017/5,1
