E0053,2
E0063/4,1
E0076BK/7,1
E0089W/5,1
E0132NA/6,1
E1004BK/S-M,4
E1041WH/0,1
E1129WH/0,1
E1135BK/0,1
E1158BK/S-M,1
E1166BK/4,1
E1166NA/4,1
E1166RD/4,1
E1184NA/4,1
E1192NA/0,1
E1196BK/M-L,1
E1227BK/S-M,2
E1252CL,1
E1506WH/L-XL,1
E1511KH/M-L,1
E3063W/2,1
E3119NA/4,1
E3123KH/3,1
E3125NA/7,1
E3134BK/7,1
E3154BU/4,1
E5019P/3,1
E6091BK/2,1
E6125BK/2,1
E6131CO/4,1
E7113PV/K7,1
E7124BK/4,1
E7137BK/K9,1
E8077BK/5,2
E8091BK/4,7
E8093BK/5,1
E9071BK/6,1
E9095RD/6,1
E9095YV/6,1
ET8140CB/0,1
EU8045BK/4,1
