E0035/5,5
E3084YL/4,1
E7010/5,1
E7010/4,1
E0105BK/L-XL,1
E0105BK/S-M,1
E0105W/S-M,1
E1131BK/S-M,6
E1023BK/4,1
E1024BK/6,1
E8021/5,1
E8021/4,2
E1019BK/5,1
E7012BK/6,3
E4020BK/5,1
E1012BK,1
E1599BK,1
E8024C/5,1
E8006/4,1
E8025G/4,1
E8025G/6,1
E3085BK/5,1
E3085KG/4,1
E8004/6,1
E8042BK/3,1
EM0049BK/S-M,1
EM0041OR/4,1
E0043BC,1
E0062/5,1
E0060/4,4
E0060/3,1
E9061W/4,1
E0015/5,4
E8046TL/4,1
E3077BK/5,1
E1026BK/4,1
E0040ST,1
E0041,3
E8023/4,1
E8011/4,1
E8011/2,1
E3080BK/5,1
E3063W/4,1
EU8045BK/5,1
E9065OC/6,1
E4014BK/5,1
E4013BK/5,7
E8031C/4,1
