E0043BP,1
E0076BK/3,2
E0076BK/5,1
E0076BK/6,1
E0088BK/L-XL,1
E0095GV/7,1
E1004BK/S-M,1
E3068BK/5,1
E3083UM/4,1
E4027BK/4,1
E7117RD/3,1
E8011/4,1
E8033BK/4,1
E8076BK/3,1
E9057UM/4,1
E9059R/4,1
EU3063BK/6,1
