E8033ST/4,3
E9058PU/4,3
E0062/4,2
E0060/5,2
E3066W/7,2
E0105BK/L-XL,2
E9058BU/4,2
E1123BK/4,2
E1123BK/7,1
E9058PU/3,1
E3076GN/5,1
E9058BK/6,1
E9058BU/3,1
E6048/5,1
E8033ST/3,1
EQ9050W/5,1
E1023BK/3,1
E1023BK/4,1
E1023BK/5,1
E6074CR/3,1
E6074CR/4,1
E1024BK/3,1
E3094BK/7,1
E8036GY/2,1
E4013BK/4,1
E4013BK/6,1
E0076BK/4,1
E6047BK/3,1
E6047BK/4,1
E9064BK/4,1
E3064BK/3,1
E3066W/5,1
ET6096MV/0,1
E8064BK/4,1
E8064GY/6,1
E8064BC/4,1
E7121BK/K9,1
E6108BK/6,1
E8072BK/6,1
E1161BK/5,1
E1167BK/5,1
E0038R/6,1
E6035/5,1
