E0006/3,1
E0038R/3,1
E0040CL,1
E0042/6,3
E0087GV/5,1
E0128BK/5,4
E0128YV/4,2
E0132MB/6,4
E0132MB/7,1
E0150BK/0,3
E1005BK/S-M,4
E1028PU/0,1
E1160RD/6,2
E1165BK/4,2
E1168BK/4,2
E1181BK/7,1
E1183BK/5,1
E1187BK/4,2
E1187BK/5,1
E1301BK/4,6
E1301BK/5,2
E1506NA/M-L,1
E1511BK/M-L,2
E3029/3,1
E3029/5,5
E3063W/3,1
E4027BK/6,1
E5019P/3,1
E5049BK/4,3
E6040BK/3,2
E6040YV/4,1
E6066BK/4,1
E6120PU/3,1
E7125BK/4,1
E7140GY/K11,2
E8064BC/5,1
E8074BK/3,1
E8077BK/4,1
E8097NA/4,1
E9066UM/6,1
E9147RR/5,2
E9148BK/7,1
EM0055NA/4,2
