E0060/7,1
E0061/3,1
E0062/5,1
E0072BK/5,1
E0134BU/L-XL,1
E1016BU,1
E1019RD/5,1
E1019RD/6,2
E1113BK/0,2
E1301BK/4,1
E1513WH/S-M,1
E3013/5,1
E3029UM/6,1
E3066R/5,2
E3066R/7,2
E3084YL/5,1
E3101OC/4,1
E3105OC/5,1
E3105OC/7,1
E3109YV/5,1
E3141BK/3,1
E4014BK/6,1
E5005/7,1
E5013/5,1
E5023BK/4,1
E6040BK/2,1
E6051R/5,1
E6051W/4,1
E6060BK/4,1
E6070PK/4,1
E6073WH/3,1
E6095BK/3,1
E6098BK/4,1
E6105CE/5,1
E6105WH/4,1
E6105WH/5,1
E7128BK/0,1
E7128GY/0,1
E8036ST/4,1
E8064BK/5,1
E8064CM/3,1
E8064KH/3,1
E8081KH/3,1
E9058BK/3,1
E9062PV/6,1
E9062W/4,1
E9063UM/3,1
E9070BK/7,1
E9071YV/6,1
E9085NA/5,1
E9086BK/7,1
EM0046/7,1
EQ0085W/5,1
ET6064MV/6,1
ET6073MV/2,1
ET6095MV/7,1
EU3058ST/4,1
EU3058ST/7,1
EU8050AN/6,2
EU8050AN/7,2
EU8050BU/7,1
