SKU,Maximum allowed,Barcode/EAN,Days left
E0066MB,2,5055939901312       ,28
E1108BK/L-XL,8,5055205387987       ,28
E1108BK/S-M,8,5055205387970       ,28
E1109BK/L-XL,4,5055205388014       ,28
E1109BK/S-M,4,5055205387994       ,28
E1134BK/0,2,5055939902470       ,28
E1157BK/L-XL,5,5055939928418       ,28
E1157BK/S-M,5,5055939928425       ,28
E1158BK/L-XL,3,5055939928432       ,28
E1158BK/S-M,3,5055939928449       ,28
E1160BK/2,2,5055939928487       ,28
E1160BK/3,1,5055939928494       ,28
E1160BK/4,2,5055939928500       ,28
E1160BK/5,2,5055939928517       ,28
E1160BK/6,1,5055939928524       ,28
E1160BK/7,1,5055939928531       ,28
E1166BK/2,1,5055939929057       ,28
E1166BK/3,2,5055939929064       ,28
E1166BK/4,3,5055939929071       ,28
E1166BK/5,3,5055939929088       ,28
E1166BK/6,2,5055939929095       ,28
E1166BK/7,1,5055939929101       ,28
E1168BK/3,1,5055939929477       ,28
E1168BK/4,2,5055939929484       ,28
E1168BK/5,3,5055939929491       ,28
E1168BK/6,2,5055939929507       ,28
E1168BK/7,1,5055939929514       ,28
E1170GY/0,2,5055939929835       ,28
E1174BK/0,1,5055939929972       ,28
E1174GY/0,1,5055939929989       ,28
E1174PT/0,1,5055939929996       ,28
E1199RR/4,2,5055939949703       ,28
E1199RR/5,2,5055939949710       ,28
E1199RR/6,1,5055939949727       ,28
E1202BK/L-XL,5,5055939949918       ,28
E1202BK/S-M,5,5055939949901       ,28
E3167BK/L-XL,4,5055939954127       ,28
E3167BK/S-M,4,5055939954110       ,28
E3173BK/3,1,5055939949598       ,28
E3173BK/4,1,5055939949604       ,28
E3173BK/5,1,5055939949611       ,28
E3173GF/4,1,5055939949659       ,28
E3173GF/5,1,5055939949666       ,28
E3173GF/6,1,5055939949673       ,28
E6106BK/4,1,5055939919508       ,28
E6106BK/5,1,5055939919515       ,28
E6108TL/4,1,5055939915838       ,28
E6108TL/5,1,5055939915845       ,28
E6151BK/3,1,5055939950334       ,28
E6151BK/4,1,5055939950341       ,28
E6151GK/4,1,5055939950303       ,28
E6151GK/5,1,5055939950310       ,28
E7117BK/3,1,5055939917016       ,28
E7117BK/4,1,5055939917023       ,28
E7117BK/5,1,5055939917030       ,28
E7117BK/6,1,5055939917047       ,28
E7128GY/0,2,5055939934426       ,28
E7128KH/0,2,5055939951324       ,28
E7131BK/K11,1,5055939949970       ,28
E7131BK/K9,1,5055939949963       ,28
E7132BK/K11,1,5055939949994       ,28
E7132BK/K9,1,5055939949987       ,28
E8065BK/4,1,5055939919157       ,28
E8065BK/5,2,5055939919164       ,28
E8065BK/6,1,5055939919171       ,28
E8065BK/7,1,5055939919188       ,28
E8065CM/4,2,5055939919201       ,28
E8065CM/5,1,5055939919218       ,28
E8065CM/6,1,5055939919225       ,28
E8091BK/4,2,5055939948256       ,28
E8091BK/5,2,5055939948263       ,28
E9100CR/4,1,5055939925363       ,28
E9100CR/5,1,5055939925370       ,28
E9117BK/4,1,5055939942179       ,28
E9117BK/5,1,5055939942186       ,28
E9138GC/4,1,5055939949055       ,28
E9138GC/5,2,5055939949062       ,28
E9138GC/6,1,5055939949079       ,28
E8093BK/3,1,5055939948775       ,30
E8093BK/4,2,5055939948782       ,30
E8093BK/5,2,5055939948799       ,30
E8093BK/6,2,5055939948805       ,30
E8093BK/7,1,5055939948812       ,30
E0060/3,1,5055205323671       ,84
E0060/4,2,5055205323688       ,84
E0060/5,2,5055205323695       ,84
E0060/6,1,5055205323701       ,84
E0130BK/4,1,5055939918006       ,84
E1250CL,2,5055939955797       ,84
E1512WH/M-L,1,5055939930251       ,84
E3109BK/3,2,5055939908953       ,84
E3109BK/4,2,5055939908960       ,84
E3109BK/5,1,5055939908977       ,84
E7131BK/K9,1,5055939949963       ,84
E9095BK/2,1,5055939918044       ,84
E9095BK/3,1,5055939918051       ,84
E9095BK/4,2,5055939918068       ,84
E9095BK/5,1,5055939918075       ,84
E7128BK/0,4,5055939934419       ,88
E1195BK/L-XL,1,5055939948836       ,108
E1195BK/M-L,1,5055939956503       ,108
E1506NA/M-L,1,5055939922843       ,108
E7117BK/3,1,5055939917016       ,108
E7117BK/5,2,5055939917030       ,108
E9106BK/4,1,5055939935263       ,108
E9106BK/5,2,5055939935270       ,108
E1517BK/M-L,1,5055939953397       ,141
E1517WH/M-L,1,5055939953458       ,141
E3170BK/3,1,5055939954264       ,141
E3170BK/4,3,5055939954271       ,141
E3170BK/5,3,5055939954288       ,141
E3170BK/6,1,5055939954295       ,141
E0128BK/3,1,5055939904924       ,181
E0128BK/4,2,5055939904931       ,181
E0128BK/5,2,5055939904948       ,181
E0128BK/6,1,5055939904955       ,181
E0128BK/7,1,5055939904962       ,181
E0152BK/L-XL,2,5055939958125       ,181
E0152BK/S-M,1,5055939958118       ,181
E1039BK/L-XL,2,5055939906720       ,181
E1039BK/S-M,2,5055939906713       ,181
E1117BK/4,1,5055205390123       ,181
E1118BK/5,2,5055205389981       ,181
E1118BK/6,2,5055205389998       ,181
E1118BK/7,1,5055205390000       ,181
E1186BK/3,1,5055939944623       ,181
E1186BK/4,2,5055939944630       ,181
E1186BK/5,2,5055939944647       ,181
E1187BK/4,1,5055939944777       ,181
E1187BK/5,1,5055939944784       ,181
E1187BK/6,1,5055939944791       ,181
E1196BK/M-L,2,5055939956510       ,181
E1202BK/L-XL,2,5055939949918       ,181
E1202BK/S-M,2,5055939949901       ,181
E1227BK/L-XL,1,5055939966311       ,181
E1227BK/S-M,1,5055939959405       ,181
E1227GK/L-XL,1,5055939966328       ,181
E1227GK/S-M,1,5055939960616       ,181
E1227RR/L-XL,1,5055939966335       ,181
E1227RR/S-M,1,5055939960609       ,181
E3135BK/4,1,5055939924182       ,181
E3135BK/5,1,5055939924199       ,181
E3158BK/3,1,5055939942414       ,181
E3158BK/4,2,5055939942421       ,181
E3158BK/5,2,5055939942438       ,181
E3158BK/6,1,5055939942445       ,181
E3170BK/3,1,5055939954264       ,181
E3170BK/4,1,5055939954271       ,181
E3170BK/5,1,5055939954288       ,181
E3170BK/6,1,5055939954295       ,181
E3177BK/3,1,5055939957708       ,181
E3177BK/4,1,5055939957715       ,181
E3177BK/5,1,5055939957722       ,181
E3177BK/6,1,5055939957739       ,181
E3177GK/3,1,5055939957753       ,181
E3177GK/4,1,5055939957760       ,181
E3177GK/5,1,5055939957777       ,181
E3177GK/6,1,5055939957784       ,181
E3181BK/4,1,5055939958194       ,181
E3182AN/3,1,5055939959023       ,181
E3182AN/4,1,5055939959030       ,181
E3182AN/5,1,5055939959047       ,181
E5049BK/3,1,5055939924526       ,181
E5049BK/4,1,5055939924533       ,181
E5049BK/5,1,5055939924540       ,181
E5049BK/6,1,5055939924557       ,181
E5066BK/4,1,5055939949253       ,181
E5066BK/5,1,5055939949260       ,181
E8064GY/6,1,5055939916248       ,181
E8070BK/5,1,5055939916736       ,181
E8070GF/4,1,5055939948454       ,181
E8070GF/5,1,5055939948461       ,181
E8074BK/3,1,5055939924717       ,181
E8074BK/4,2,5055939924724       ,181
E8093BK/6,1,5055939948805       ,181
E8100BK/4,1,5055939959146       ,181
E8100BK/5,1,5055939959153       ,181
E9117BK/3,1,5055939942162       ,181
E9117BK/4,1,5055939942179       ,181
E9117BK/5,1,5055939942186       ,181
E9117BK/6,1,5055939942193       ,181
E9118PW/3,1,5055939942636       ,181
E9118PW/4,1,5055939942643       ,181
E9118PW/5,1,5055939942650       ,181
E9118PW/6,1,5055939942667       ,181
E9134BK/3,1,5055939943404       ,181
E9134BK/4,1,5055939943411       ,181
E9134BK/5,1,5055939943428       ,181
E9134BK/6,1,5055939943435       ,181
E9138GC/3,1,5055939949048       ,181
E9138GC/4,1,5055939949055       ,181
E9138GC/5,1,5055939949062       ,181
E9138GC/6,1,5055939949079       ,181
E9143BK/3,1,5055939957456       ,181
E9143BK/4,1,5055939957463       ,181
E9143BK/5,1,5055939957470       ,181
E9143BK/6,1,5055939957487       ,181
E9144BK/3,1,5055939957555       ,181
E9144BK/4,1,5055939957562       ,181
E9144BK/5,1,5055939957579       ,181
E9144BK/6,1,5055939957586       ,181
E9145BK/4,1,5055939959092       ,181
E9145BK/5,1,5055939959108       ,181
E1117BK/5,2,5055205390130       ,182
E1117BK/6,2,5055205390147       ,182
E1117BK/7,1,5055205390154       ,182
E1118BK/4,1,5055205389974       ,182
E1186BK/6,1,5055939944654       ,182
E3123BK/4,1,5055939915333       ,182
E3123BK/5,1,5055939915340       ,182
E3123BK/6,1,5055939915357       ,182
E8064BC/3,1,5055939936772       ,182
E8064BC/4,1,5055939936789       ,182
E8064BC/5,1,5055939936796       ,182
E8064BC/6,1,5055939936802       ,182
E8064GC/2,1,5055939950952       ,182
E8064GC/3,1,5055939950969       ,182
E8064GC/4,1,5055939950976       ,182
E8064GY/4,1,5055939916224       ,182
E8064GY/5,1,5055939916231       ,182
E8070BK/3,1,5055939916712       ,182
E8070BK/4,1,5055939916729       ,182
E8070BK/6,1,5055939916743       ,182
E8074BK/5,2,5055939924731       ,182
E8074BK/6,1,5055939924748       ,182
E8093BK/3,1,5055939948775       ,182
E3181BK/5,1,5055939958200       ,196
E3181BK/6,1,5055939958217       ,196
E3181RR/3,1,5055939958286       ,196
E3181RR/4,1,5055939958293       ,196
E9117YM/4,1,5055939960999       ,196
E9117YM/5,1,5055939961002       ,196
E9145BK/3,1,5055939959085       ,196
E9147GF/3,1,5055939959412       ,196
E9147GF/4,1,5055939959429       ,196
E9147GF/5,1,5055939959436       ,196
E9147GF/6,1,5055939959443       ,196
E1196BK/S-M,1,5055939948867       ,204
E3182AN/6,1,5055939959054       ,204
E7120BK/3,1,5055939915494       ,204
E7120BK/4,2,5055939915500       ,204
E7120BK/5,2,5055939915517       ,204
E7120BK/6,1,5055939915524       ,204
E8093BK/4,1,5055939948782       ,204
E8093BK/5,1,5055939948799       ,204
E3135BK/3,1,5055939924175       ,209
E1196BK/L-XL,2,5055939948874       ,212
