SKU,Maximum allowed,Barcode/EAN,Days left
E1118BK/5,1,5055205389981       ,80
E1118BK/6,1,5055205389998       ,80
E1118BK/7,1,5055205390000       ,80
E1120BK/5,1,5055205390239       ,80
E1120BK/6,1,5055205390246       ,80
E1120BK/7,1,5055205390253       ,80
E1216BK/3,2,5055939958347       ,78
E1216BK/4,1,5055939958354       ,86
E1216BK/5,1,5055939958361       ,80
E1216BK/6,2,5055939958378       ,78
E1216BK/7,1,5055939958385       ,80
E1223BK/L-XL,1,5055939958613       ,80
E1223BK/S-M,1,5055939958606       ,80
E1505GY/M-L,1,5055939930107       ,80
E1505MB/L-XL,1,5055939904474       ,80
E1505MB/M-L,1,5055939904481       ,80
E1505RD/M-L,1,5055939951270       ,80
E1505WH/L-XL,1,5055939904542       ,80
E5056BK/4,1,5055939941837       ,80
E5056BK/6,1,5055939941851       ,80
E6146BK/3,1,5055939942087       ,114
E6163BK/4,1,5055939958835       ,81
E8064GY/4,1,5055939916224       ,78
E9102BK/3,1,5055939925516       ,80
E9102BK/6,1,5055939925547       ,80
