INVOICE,SIN621987
YOUR REF,SOR381977
DATE,05/08/2019
VALUE,1808.05


SKU,Qty,Value,Name,Colour,Size
E8075BK/5       ,1,169.00,Hummvee Zip-Off Trouser II,Black,L
EM0053GF/5      ,1,349.00,MTR Shell Jacket,Forest Green,L
E1138BK/0       ,1,139.00,Char Glasses,Black,One size
E6039/4         ,1,69.30,Wms Hummvee Jersey,Black/None,M
E6110CR/4       ,1,169.00,Wms SingleTrack Lite Short II,Coral,M
E9100PU/3       ,1,170.40,Women's SingleTrack Jacket II,Purple,S
E3105OC/6       ,1,37.05,Stripe Tee,Ocean,XL
E1125RD/5       ,1,34.30,Hummvee Lite Glove,Red,L
E0043GK/0       ,1,24.00,Endura Multitube,Kingfisher,One size
E1192NA/0       ,1,35.00,One Clan Webbing Belt,Navy,One size
E9119GF/6       ,1,234.00,SingleTrack Softshell II,Forest Green,XL
E1161BK/5       ,1,59.00,Hummvee Plus Mitt II,Black,L
E1182BK/L-XL    ,2,94.00,MTR Winter Sock ,Black,L-XL
E0089BK/5       ,1,49.00,Compression Sock (Twin Pack),Black,L
E6106CO/3       ,1,134.00,Women's Hummvee Short II,Cobalt Blue,S
E0035/5         ,1,42.00,BaaBaa Merino Sock (Twin Pack),Black/None,L
