SKU,Maximum allowed,Barcode/EAN,Days left
E0151GC/0,6,5055939960715       ,50
E0151RR/0,6,5055939960685       ,50
E0153BK/S-M,1,5055939958132       ,140
E1039BK/L-XL,6,5055939906720       ,114
E1039BK/S-M,6,5055939906713       ,114
E1048BK/L-XL,12,5055939928197       ,58
E1048BK/S-M,11,5055939928203       ,50
E1102,4,5055205353814       ,183
E1186BK/3,3,5055939944623       ,50
E1186BK/4,4,5055939944630       ,58
E1186BK/5,5,5055939944647       ,50
E1186BK/6,3,5055939944654       ,50
E1186BK/7,2,5055939944661       ,50
E1188BK/3,1,5055939944814       ,58
E1188BK/4,2,5055939944821       ,58
E1188BK/5,3,5055939944838       ,50
E1188BK/6,2,5055939944845       ,50
E1188RD/3,1,5055939958743       ,50
E1188RD/4,1,5055939958750       ,50
E1188RD/5,1,5055939958767       ,50
E1188RD/6,1,5055939958774       ,50
E1199NA/3,3,5055939949741       ,140
E1199NA/4,4,5055939949758       ,140
E1199NA/5,4,5055939949765       ,140
E1199NA/6,3,5055939949772       ,140
E1216BV/3,1,5055939958408       ,50
E1216BV/5,1,5055939958422       ,50
E1217BK/3,1,5055939958453       ,50
E1217BK/4,2,5055939958460       ,50
E1217BK/5,2,5055939958477       ,50
E1217BK/6,1,5055939958484       ,50
E1218BK/L-XL,2,5055939958521       ,50
E1218BK/M-L,2,5055939958514       ,50
E1218BK/S-M,2,5055939958507       ,50
E1220BK/L-XL,3,5055939958569       ,50
E1220BK/S-M,3,5055939958552       ,50
E1222BK/0,6,5055939958590       ,50
E1223BK/L-XL,4,5055939958613       ,50
E1223BK/S-M,4,5055939958606       ,50
E1224BK/2,2,5055939958798       ,50
E1224BK/3,4,5055939958804       ,50
E1224BK/4,11,5055939966274       ,58
E1224BK/5,10,5055939966281       ,58
E1224BK/6,4,5055939966298       ,50
E1224BK/7,1,5055939966304       ,50
E1225BK/XL-XXL,3,5055939966564       ,140
E1256BK/L-XL,2,5055939971858       ,183
E1256BK/M-L,2,5055939971841       ,183
E1256BK/S-M,2,5055939971834       ,183
E1257BK/L-XL,2,5055939971940       ,183
E1257BK/M-L,2,5055939971933       ,183
E1257BK/S-M,2,5055939971926       ,183
E1258BK/3,4,5055939972602       ,183
E1258BK/4,6,5055939972619       ,183
E1258BK/5,6,5055939972626       ,183
E1258BK/6,3,5055939972633       ,183
E1258BK/7,3,5055939972640       ,183
E1259BK/2,2,5055939975580       ,183
E1259BK/3,4,5055939975597       ,183
E1259BK/4,6,5055939975603       ,183
E1259BK/5,6,5055939975610       ,183
E1259BK/6,4,5055939975627       ,183
E1259BK/7,2,5055939975634       ,183
E1259PS/2,2,5055939975702       ,183
E1259PS/3,4,5055939975719       ,183
E1259PS/4,6,5055939975726       ,183
E1259PS/5,6,5055939975733       ,183
E1259PS/6,4,5055939975740       ,183
E1259PS/7,2,5055939975757       ,183
E1266BP/0,9,5055939977676       ,183
E3109BK/3,2,5055939908953       ,58
E3109BK/4,4,5055939908960       ,58
E3109BK/5,4,5055939908977       ,58
E3109BK/6,2,5055939908984       ,58
E3109YV/3,4,5055939909004       ,50
E3109YV/4,2,5055939909011       ,109
E3109YV/5,2,5055939909028       ,50
E3109YV/6,2,5055939909035       ,114
E3133AN/3,1,5055939957067       ,58
E3133AN/5,1,5055939957081       ,58
E3133GY/4,1,5055939924281       ,65
E3141BV/2,2,5055939951744       ,35
E3141BV/3,2,5055939951751       ,35
E3141BV/4,2,5055939951768       ,35
E3141BV/5,2,5055939951775       ,35
E3141BV/6,2,5055939951782       ,35
E3142BK/3,2,5055939931357       ,35
E3142BK/4,2,5055939931364       ,35
E3142BK/5,2,5055939931371       ,35
E3142BK/6,2,5055939931388       ,35
E3142RR/3,2,5055939952611       ,35
E3142RR/4,2,5055939952628       ,35
E3142RR/5,2,5055939952635       ,35
E3142RR/6,2,5055939952642       ,35
E3161BK/3,6,5055939944951       ,50
E3161BK/4,5,5055939944968       ,50
E3161BK/5,6,5055939944975       ,50
E3161BK/6,4,5055939944982       ,50
E3161BK/7,3,5055939944999       ,50
E3167BK/L-XL,8,5055939954127       ,183
E3167BK/S-M,8,5055939954110       ,183
E3167WH/L-XL,8,5055939954073       ,183
E3167WH/S-M,8,5055939954066       ,183
E3177GK/3,1,5055939957753       ,50
E3177GK/4,1,5055939957760       ,50
E3177GK/5,1,5055939957777       ,50
E3178BK/4,1,5055939957876       ,140
E3178BK/5,1,5055939957883       ,140
E3181BK/3,3,5055939958187       ,57
E3181BK/4,4,5055939958194       ,58
E3181BK/5,4,5055939958200       ,58
E3181BK/6,3,5055939958217       ,57
E3181RR/3,4,5055939958286       ,57
E3181RR/4,4,5055939958293       ,58
E3181RR/5,5,5055939958309       ,57
E3181RR/6,3,5055939958316       ,57
E3183BK/3,1,5055939959290       ,58
E3183BK/4,2,5055939959306       ,58
E3183BK/5,2,5055939959313       ,58
E3183BK/6,1,5055939959320       ,58
E3191PS/2,2,5055939974460       ,183
E3191PS/3,4,5055939974477       ,183
E3191PS/4,4,5055939974484       ,183
E3191PS/5,4,5055939974491       ,183
E3191PS/6,3,5055939974507       ,183
E3191PS/7,1,5055939974514       ,183
E3193YV/2,3,5055939975825       ,183
E3193YV/3,6,5055939975832       ,183
E3193YV/4,6,5055939975849       ,183
E3193YV/5,6,5055939975856       ,183
E3193YV/6,3,5055939975863       ,183
E3193YV/7,3,5055939975870       ,183
E4029BK/3,2,5055939900964       ,29
E4029BK/4,4,5055939900971       ,29
E4029BK/5,4,5055939900988       ,29
E4029BK/6,2,5055939900995       ,29
E4029BK/7,2,5055939901008       ,29
E4054BK/3,2,5055939953168       ,183
E4054BK/4,3,5055939953175       ,183
E4054BK/5,3,5055939953182       ,183
E4054BK/6,3,5055939953199       ,183
E4054BK/7,2,5055939953205       ,183
E4055BK/3,2,5055939953069       ,183
E4055BK/4,4,5055939953076       ,183
E4055BK/5,4,5055939953083       ,183
E4055BK/6,4,5055939953090       ,183
E4055BK/7,2,5055939953106       ,183
E4068GY/3,3,5055939975412       ,183
E4068GY/4,3,5055939975429       ,183
E4068GY/5,3,5055939975436       ,183
E4068GY/6,3,5055939975443       ,183
E4068GY/7,3,5055939975450       ,183
E4070BK/M4,4,5055939979205       ,184
E4070BK/M5,2,5055939979212       ,184
E4070BK/M6,2,5055939979229       ,184
E4070BK/M7,1,5055939979236       ,183
E5044BK/4,1,5055939917269       ,29
E5056BK/3,2,5055939941820       ,58
E5056BK/4,4,5055939941837       ,58
E5056BK/5,3,5055939941844       ,58
E5056BK/6,1,5055939941851       ,58
E5056BK/7,2,5055939941868       ,50
E6105CE/4,3,5055939918419       ,50
E6124BK/4,1,5055939933016       ,114
E6153BK/1,1,5055939953267       ,183
E6153BK/2,2,5055939953274       ,183
E6153BK/3,2,5055939953281       ,183
E6153BK/4,2,5055939953298       ,183
E6153BK/5,2,5055939953304       ,183
E6153BK/6,1,5055939953311       ,183
E6163BK/3,1,5055939958828       ,140
E6164GK/2,2,5055939958866       ,57
E6164GK/4,2,5055939958880       ,57
E6164RR/2,1,5055939958910       ,58
E6185CV/2,2,5055939977010       ,183
E6185CV/3,2,5055939977027       ,183
E6185CV/4,2,5055939977034       ,183
E6185CV/5,2,5055939977041       ,183
E6186GY/2,2,5055939976488       ,183
E6186GY/3,2,5055939976495       ,183
E6186GY/4,2,5055939976501       ,183
E6186GY/5,2,5055939976518       ,183
E7117BK/3,3,5055939917016       ,183
E7117BK/4,6,5055939917023       ,183
E7117BK/5,6,5055939917030       ,183
E7117BK/6,3,5055939917047       ,183
E7117BK/7,3,5055939917054       ,183
E9095YV/3,2,5055939918112       ,50
E9095YV/4,4,5055939918129       ,50
E9095YV/5,4,5055939918136       ,50
E9095YV/6,2,5055939918143       ,50
E9095YV/7,2,5055939918150       ,50
E9106BK/2,2,5055939936239       ,50
E9106BK/3,4,5055939935256       ,50
E9106BK/4,6,5055939935263       ,58
E9106BK/5,3,5055939935270       ,58
E9106BK/6,2,5055939935287       ,58
E9106CG/2,3,5055939974958       ,183
E9106CG/3,3,5055939974965       ,183
E9106CG/4,6,5055939974972       ,183
E9106CG/5,6,5055939974989       ,183
E9106CG/6,3,5055939974996       ,183
E9106CG/7,2,5055939975009       ,183
E9106GV/7,1,5055939935348       ,50
E9106RD/3,2,5055939958637       ,58
E9106RD/4,2,5055939958644       ,58
E9106RD/5,2,5055939958651       ,58
E9106RD/6,2,5055939958668       ,58
E9107BK/2,2,5055939936277       ,183
E9107BK/3,5,5055939935409       ,60
E9107BK/4,5,5055939935416       ,58
E9107BK/5,6,5055939935423       ,58
E9107BK/6,2,5055939935430       ,183
E9108BK/4,2,5055939935522       ,58
E9108WH/1,2,5055939945729       ,183
E9108WH/2,2,5055939941950       ,183
E9108WH/3,2,5055939941967       ,183
E9108WH/4,2,5055939941974       ,183
E9140BV/3,1,5055939953526       ,58
E9140BV/4,1,5055939953533       ,58
E9140BV/5,1,5055939953540       ,58
E9144BK/2,2,5055939966250       ,50
E9144BK/3,3,5055939957555       ,50
E9144BK/4,4,5055939957562       ,50
E9144BK/5,4,5055939957579       ,50
E9144BK/6,2,5055939957586       ,50
E9144BK/7,1,5055939957593       ,50
E9144BV/2,2,5055939966267       ,11
E9144BV/3,2,5055939957609       ,11
E9144BV/4,2,5055939957616       ,11
E9149CV/2,2,5055939960098       ,50
E9149CV/3,2,5055939960104       ,50
E9149CV/4,2,5055939960111       ,50
E9151BK/2,3,5055939975887       ,183
E9151BK/3,3,5055939975894       ,183
E9151BK/4,3,5055939975900       ,183
E9151BK/5,3,5055939975917       ,183
E9151BK/6,3,5055939975924       ,183
E9151BK/7,3,5055939975931       ,183
E9151YV/2,3,5055939975948       ,183
E9151YV/3,3,5055939975955       ,183
E9151YV/4,3,5055939975962       ,183
E9151YV/5,3,5055939975979       ,183
E9151YV/6,3,5055939975986       ,183
E9151YV/7,3,5055939975993       ,183
