SKU,Maximum allowed,Barcode/EAN,Days left
E1023BK/3,1,5055205372396       ,26
E1023BK/4,2,5055205372402       ,26
E1023BK/5,3,5055205372419       ,26
E1023BK/6,1,5055205372426       ,26
E1165BK/3,2,5055939928845       ,26
E1165BK/4,1,5055939928852       ,26
E1165BK/5,2,5055939928869       ,26
E1165BK/6,1,5055939928876       ,26
E1165BK/7,1,5055939928883       ,26
E1165RD/4,1,5055939929019       ,26
E1165RD/5,1,5055939929026       ,26
E1165RD/6,1,5055939929033       ,26
E1165RD/7,1,5055939929040       ,26
E8067BK/4,2,5055939916453       ,26
E8067BK/5,2,5055939916460       ,26
E8067OC/4,1,5055939916514       ,26
E8067OC/5,1,5055939916521       ,26
E8067OC/6,1,5055939916538       ,26
E8070BK/4,2,5055939916729       ,26
E8070BK/6,2,5055939916743       ,26
E9073BK/4,1,5055205371061       ,26
E9073BK/5,1,5055205371078       ,26
E9073YV/3,2,5055205370507       ,26
E9073YV/4,2,5055205370514       ,26
E0096BK/5,3,5055205352954       ,69
E1157BK/L-XL,2,5055939928418       ,69
E1157BK/S-M,2,5055939928425       ,69
E3109OC/6,1,5055939909134       ,69
E3138PT/6,1,5055939930961       ,69
E3140OC/5,1,5055939931159       ,69
E3140OC/6,1,5055939931166       ,69
E4013BK/4,1,5055205333878       ,69
E4013BK/5,1,5055205333885       ,69
E4013BK/6,1,5055205333892       ,69
E4013BK/7,1,5055205333908       ,69
E7117BK/4,2,5055939917023       ,69
E7117BK/5,2,5055939917030       ,69
E7117BK/6,2,5055939917047       ,69
E7118BK/3,1,5055939914879       ,69
E7118BK/5,1,5055939914893       ,69
E7118BK/6,1,5055939914909       ,69
E1157BK/L-XL,1,5055939928418       ,70
E1157BK/S-M,1,5055939928425       ,70
E1109BK/S-M,1,5055205387994       ,132
E1026BK/3,1,5055205380995       ,138
E1026BK/4,2,5055205381008       ,138
E1026BK/5,2,5055205381015       ,138
E1026BK/6,2,5055205381022       ,138
E1128BK/L-XL,2,5055205398617       ,138
E1131BK/L-XL,1,5055205398662       ,138
E1160BK/3,1,5055939928494       ,138
E1160BK/4,2,5055939928500       ,138
E1160BK/5,2,5055939928517       ,138
E1160BK/6,2,5055939928524       ,138
E1160BK/7,1,5055939928531       ,138
E1160RD/4,1,5055939928623       ,138
E1160RD/5,1,5055939928630       ,138
E1165BK/4,1,5055939928852       ,138
E1168BK/3,1,5055939929477       ,138
E1168BK/4,2,5055939929484       ,138
E1168BK/5,2,5055939929491       ,138
E1168BK/6,2,5055939929507       ,138
E1168BK/7,1,5055939929514       ,138
E1168NA/4,1,5055939929583       ,138
E1168NA/5,1,5055939929590       ,138
E1168NA/6,1,5055939929606       ,138
E8070BK/4,3,5055939916729       ,138
E8070BK/5,3,5055939916736       ,138
E8070BK/6,3,5055939916743       ,138
E8076BK/6,1,5055939924847       ,138
EM0055BK/3,1,5055939918778       ,138
EM0055BK/4,1,5055939918785       ,138
EM0055BK/5,2,5055939918792       ,138
EM0055BK/6,1,5055939918808       ,138
