INVOICE,SIN577605
YOUR REF,SOR350865
DATE,13/12/2018
VALUE,726.59


SKU,Qty,Value,Name,Colour,Size
E0003/S-M       ,2,24.40,Thermo Arm Warmer,Black/None,S-M
E0003/M-L       ,2,24.40,Thermo Arm Warmer,Black/None,M-L
E0003/L-XL      ,2,24.40,Thermo Arm Warmer,Black/None,L-XL
E0004/S-M       ,2,29.20,Thermo Leg Warmer,Black/None,S-M
E0004/L-XL      ,2,29.20,Thermo Leg Warmer,Black/None,L-XL
E1146BK/S-M     ,2,18.60,Baabaa Merino Winter Sock II,Black,S-M
E1146BK/L-XL    ,2,18.60,Baabaa Merino Winter Sock II,Black,L-XL
E0042/4         ,1,19.50,Dexter Glove,Black/None,M
E0075BK/6       ,1,15.60,Windchill Glove,Black,XL
E3071BK/6       ,1,11.10,Transrib S/S Baselayer,Black,XL
E6065BK/3       ,1,13.65,Wms Windchill Glove,Black,S
E6109PU/3       ,1,12.88,Wms Hummvee Plus Glove,Purple,S
E1176BK/S-M     ,2,7.54,Geologic Sock,Black,S-M
E1177WH/L-XL    ,2,7.54,Pinstripe Sock,White,L-XL
E0001W/L-XL     ,2,15.68,FS260-Pro Knitted Oversock,White,L-XL
E1179BK/0       ,2,8.70,Wms Geologic Sock,Black,One size
E1028AN/0       ,2,11.60,MTB Multitube,Anthracite,One size
E1028BK/0       ,2,11.60,MTB Multitube,Black,One size
E0088BK/S-M     ,2,27.40,Gripper Fleece Glove,Black,S-M
E0088BK/L-XL    ,2,27.40,Gripper Fleece Glove,Black,L-XL
E0076BK/4       ,1,13.70,Thermo Roubaix Glove,Black,M
E0076BK/5       ,1,13.70,Thermo Roubaix Glove,Black,L
E0076BK/6       ,1,13.70,Thermo Roubaix Glove,Black,XL
E3025/4         ,1,18.50,Frontline Baselayer,Black/None,M
E3025/5         ,1,18.50,Frontline Baselayer,Black/None,L
E3025/6         ,1,18.50,Frontline Baselayer,Black/None,XL
E3072BK/4       ,1,20.90,Transrib L/S Baselayer,Black,M
E3072BK/5       ,1,20.90,Transrib L/S Baselayer,Black,L
E9102BK/4       ,1,56.10,Windchill Jacket,Black,M
E9102BK/6       ,1,56.10,Windchill Jacket,Black,XL
E5056BK/4       ,1,39.00,Xtract Bibtight,Black,M
E5056BK/5       ,1,39.00,Xtract Bibtight,Black,L
E5056BK/6       ,1,39.00,Xtract Bibtight,Black,XL
