SKU,Maximum allowed,Barcode/EAN,Days left
E0128BK/4,1,5055939904931       ,74
E0128BK/5,1,5055939904948       ,74
E0128BK/6,1,5055939904955       ,74
E6067BK/4,1,5055205367668       ,74
E0128BK/3,1,5055939904924       ,126
E0128BK/4,1,5055939904931       ,126
E0128BK/6,1,5055939904955       ,126
E9134YV/4,1,5055939943367       ,126
