SKU,Maximum allowed,Barcode/EAN,Days left
E0035/5,3,5055205301457       ,161
E0098YV/L-XL,1,5055205363349       ,161
E0130BK/7,1,5055939918037       ,161
E1032BK/L-XL,1,5055205398006       ,161
E1042BK/L-XL,1,5055939923857       ,161
E1102,1,5055205353814       ,161
E1138BK/0,1,5055939901367       ,161
E1158BK/L-XL,1,5055939928432       ,161
E1166GV/7,2,5055939929163       ,161
E1183BK/7,1,5055939944265       ,161
E1188BK/5,2,5055939944838       ,161
E1199NA/5,1,5055939949765       ,161
E1504GV/M-L,1,5055205389691       ,161
E1506GF/M-L,1,5055939948966       ,17
E3157BK/4,1,5055939941431       ,161
E3157BK/5,1,5055939941448       ,161
E3168BK/5,1,5055939954189       ,161
E5073GF/6,1,5055939949178       ,161
E5073GF/7,1,5055939949185       ,161
E5073RR/6,1,5055939949222       ,161
E8064BK/6,1,5055939916002       ,161
E8083BK/7,1,5055939942353       ,161
E8085AN/6,1,5055939956213       ,161
E8085AN/7,1,5055939956220       ,161
E9117GF/5,1,5055939948164       ,161
E9137AN/7,1,5055939946306       ,161
EM0054BK/5,1,5055939918747       ,161
EM0054BK/6,1,5055939918754       ,161
EM0057BK/6,1,5055939925974       ,161
