SKU,Maximum allowed,Barcode/EAN,Days left
E1135BK/0,1,5055205399249       ,68
E1168BK/6,1,5055939929507       ,68
E3063W/5,1,5055205343648       ,68
E3078BK/5,1,5055205369754       ,68
E5049BK/6,1,5055939924557       ,68
E9137RD/4,1,5055939946320       ,68
E9137RD/5,1,5055939946337       ,68
E3133GF/4,1,5055939957135       ,155
E3133GF/5,1,5055939957142       ,155
E3176NA/4,1,5055939957012       ,155
E3176NA/5,1,5055939957029       ,155
